%!PS-Adobe-3.0 EPSF-3.0
%%Title: /Users/iuliasimion/bullock_johnston/denis_erkal/vasily/Figures/166507_1489549.0_rvr.eps
%%Creator: matplotlib version 1.4.3, http://matplotlib.org/
%%CreationDate: Thu Aug 17 17:05:05 2017
%%Orientation: portrait
%%BoundingBox: 216 334 396 457
%%EndComments
%%BeginProlog
/mpldict 10 dict def
mpldict begin
/m { moveto } bind def
/l { lineto } bind def
/r { rlineto } bind def
/c { curveto } bind def
/cl { closepath } bind def
/box {
m
1 index 0 r
0 exch r
neg 0 r
cl
} bind def
/clipbox {
box
clip
newpath
} bind def
%!PS-Adobe-3.0 Resource-Font
%%Title: Bitstream Vera Sans
%%Copyright: Copyright (c) 2003 by Bitstream, Inc. All Rights Reserved.
%%Creator: Converted from TrueType to type 3 by PPR
25 dict begin
/_d{bind def}bind def
/_m{moveto}_d
/_l{lineto}_d
/_cl{closepath eofill}_d
/_c{curveto}_d
/_sc{7 -1 roll{setcachedevice}{pop pop pop pop pop pop}ifelse}_d
/_e{exec}_d
/FontName /BitstreamVeraSans-Roman def
/PaintType 0 def
/FontMatrix[.001 0 0 .001 0 0]def
/FontBBox[-183 -236 1287 928]def
/FontType 3 def
/Encoding [ /space /parenleft /parenright /slash /zero /one /two /three /four /five /six /k /m /s /minus ] def
/FontInfo 10 dict dup begin
/FamilyName (Bitstream Vera Sans) def
/FullName (Bitstream Vera Sans) def
/Notice (Copyright (c) 2003 by Bitstream, Inc. All Rights Reserved. Bitstream Vera is a trademark of Bitstream, Inc.) def
/Weight (Roman) def
/Version (Release 1.10) def
/ItalicAngle 0.0 def
/isFixedPitch false def
/UnderlinePosition -213 def
/UnderlineThickness 143 def
end readonly def
/CharStrings 15 dict dup begin
/space{318 0 0 0 0 0 _sc
}_d
/parenleft{390 0 86 -131 310 759 _sc
310 759 _m
266 683 234 609 213 536 _c
191 463 181 389 181 314 _c
181 238 191 164 213 91 _c
234 17 266 -56 310 -131 _c
232 -131 _l
183 -54 146 20 122 94 _c
98 168 86 241 86 314 _c
86 386 98 459 122 533 _c
146 607 182 682 232 759 _c
310 759 _l
_cl}_d
/parenright{390 0 80 -131 304 759 _sc
80 759 _m
158 759 _l
206 682 243 607 267 533 _c
291 459 304 386 304 314 _c
304 241 291 168 267 94 _c
243 20 206 -54 158 -131 _c
80 -131 _l
123 -56 155 17 177 91 _c
198 164 209 238 209 314 _c
209 389 198 463 177 536 _c
155 609 123 683 80 759 _c
_cl}_d
/slash{337 0 0 -92 337 729 _sc
254 729 _m
337 729 _l
83 -92 _l
0 -92 _l
254 729 _l
_cl}_d
/zero{636 0 66 -13 570 742 _sc
318 664 _m
267 664 229 639 203 589 _c
177 539 165 464 165 364 _c
165 264 177 189 203 139 _c
229 89 267 64 318 64 _c
369 64 407 89 433 139 _c
458 189 471 264 471 364 _c
471 464 458 539 433 589 _c
407 639 369 664 318 664 _c
318 742 _m
399 742 461 709 505 645 _c
548 580 570 486 570 364 _c
570 241 548 147 505 83 _c
461 19 399 -13 318 -13 _c
236 -13 173 19 130 83 _c
87 147 66 241 66 364 _c
66 486 87 580 130 645 _c
173 709 236 742 318 742 _c
_cl}_d
/one{636 0 110 0 544 729 _sc
124 83 _m
285 83 _l
285 639 _l
110 604 _l
110 694 _l
284 729 _l
383 729 _l
383 83 _l
544 83 _l
544 0 _l
124 0 _l
124 83 _l
_cl}_d
/two{{636 0 73 0 536 742 _sc
192 83 _m
536 83 _l
536 0 _l
73 0 _l
73 83 _l
110 121 161 173 226 239 _c
290 304 331 346 348 365 _c
380 400 402 430 414 455 _c
426 479 433 504 433 528 _c
433 566 419 598 392 622 _c
365 646 330 659 286 659 _c
255 659 222 653 188 643 _c
154 632 117 616 78 594 _c
78 694 _l
118 710 155 722 189 730 _c
223 738 255 742 284 742 _c
}_e{359 742 419 723 464 685 _c
509 647 532 597 532 534 _c
532 504 526 475 515 449 _c
504 422 484 390 454 354 _c
446 344 420 317 376 272 _c
332 227 271 164 192 83 _c
_cl}_e}_d
/three{{636 0 76 -13 556 742 _sc
406 393 _m
453 383 490 362 516 330 _c
542 298 556 258 556 212 _c
556 140 531 84 482 45 _c
432 6 362 -13 271 -13 _c
240 -13 208 -10 176 -4 _c
144 1 110 10 76 22 _c
76 117 _l
103 101 133 89 166 81 _c
198 73 232 69 268 69 _c
330 69 377 81 409 105 _c
441 129 458 165 458 212 _c
458 254 443 288 413 312 _c
383 336 341 349 287 349 _c
}_e{202 349 _l
202 430 _l
291 430 _l
339 430 376 439 402 459 _c
428 478 441 506 441 543 _c
441 580 427 609 401 629 _c
374 649 336 659 287 659 _c
260 659 231 656 200 650 _c
169 644 135 635 98 623 _c
98 711 _l
135 721 170 729 203 734 _c
235 739 266 742 296 742 _c
370 742 429 725 473 691 _c
517 657 539 611 539 553 _c
539 513 527 479 504 451 _c
481 423 448 403 406 393 _c
_cl}_e}_d
/four{636 0 49 0 580 729 _sc
378 643 _m
129 254 _l
378 254 _l
378 643 _l
352 729 _m
476 729 _l
476 254 _l
580 254 _l
580 172 _l
476 172 _l
476 0 _l
378 0 _l
378 172 _l
49 172 _l
49 267 _l
352 729 _l
_cl}_d
/five{{636 0 77 -13 549 729 _sc
108 729 _m
495 729 _l
495 646 _l
198 646 _l
198 467 _l
212 472 227 476 241 478 _c
255 480 270 482 284 482 _c
365 482 429 459 477 415 _c
525 370 549 310 549 234 _c
549 155 524 94 475 51 _c
426 8 357 -13 269 -13 _c
238 -13 207 -10 175 -6 _c
143 -1 111 6 77 17 _c
77 116 _l
106 100 136 88 168 80 _c
199 72 232 69 267 69 _c
}_e{323 69 368 83 401 113 _c
433 143 450 183 450 234 _c
450 284 433 324 401 354 _c
368 384 323 399 267 399 _c
241 399 214 396 188 390 _c
162 384 135 375 108 363 _c
108 729 _l
_cl}_e}_d
/six{{636 0 70 -13 573 742 _sc
330 404 _m
286 404 251 388 225 358 _c
199 328 186 286 186 234 _c
186 181 199 139 225 109 _c
251 79 286 64 330 64 _c
374 64 409 79 435 109 _c
461 139 474 181 474 234 _c
474 286 461 328 435 358 _c
409 388 374 404 330 404 _c
526 713 _m
526 623 _l
501 635 476 644 451 650 _c
425 656 400 659 376 659 _c
310 659 260 637 226 593 _c
}_e{192 549 172 482 168 394 _c
187 422 211 444 240 459 _c
269 474 301 482 336 482 _c
409 482 467 459 509 415 _c
551 371 573 310 573 234 _c
573 159 550 99 506 54 _c
462 9 403 -13 330 -13 _c
246 -13 181 19 137 83 _c
92 147 70 241 70 364 _c
70 479 97 571 152 639 _c
206 707 280 742 372 742 _c
396 742 421 739 447 735 _c
472 730 498 723 526 713 _c
_cl}_e}_d
/k{579 0 91 0 576 760 _sc
91 760 _m
181 760 _l
181 311 _l
449 547 _l
564 547 _l
274 291 _l
576 0 _l
459 0 _l
181 267 _l
181 0 _l
91 0 _l
91 760 _l
_cl}_d
/m{{974 0 91 0 889 560 _sc
520 442 _m
542 482 569 511 600 531 _c
631 550 668 560 711 560 _c
767 560 811 540 842 500 _c
873 460 889 403 889 330 _c
889 0 _l
799 0 _l
799 327 _l
799 379 789 418 771 444 _c
752 469 724 482 686 482 _c
639 482 602 466 575 435 _c
548 404 535 362 535 309 _c
535 0 _l
445 0 _l
445 327 _l
445 379 435 418 417 444 _c
398 469 369 482 331 482 _c
}_e{285 482 248 466 221 435 _c
194 404 181 362 181 309 _c
181 0 _l
91 0 _l
91 547 _l
181 547 _l
181 462 _l
201 495 226 520 255 536 _c
283 552 317 560 357 560 _c
397 560 430 550 458 530 _c
486 510 506 480 520 442 _c
_cl}_e}_d
/s{{521 0 54 -13 472 560 _sc
443 531 _m
443 446 _l
417 458 391 468 364 475 _c
336 481 308 485 279 485 _c
234 485 200 478 178 464 _c
156 450 145 430 145 403 _c
145 382 153 366 169 354 _c
185 342 217 330 265 320 _c
296 313 _l
360 299 405 279 432 255 _c
458 230 472 195 472 151 _c
472 100 452 60 412 31 _c
372 1 316 -13 246 -13 _c
216 -13 186 -10 154 -5 _c
}_e{122 0 89 8 54 20 _c
54 113 _l
87 95 120 82 152 74 _c
184 65 216 61 248 61 _c
290 61 323 68 346 82 _c
368 96 380 117 380 144 _c
380 168 371 187 355 200 _c
339 213 303 226 247 238 _c
216 245 _l
160 257 119 275 95 299 _c
70 323 58 356 58 399 _c
58 450 76 490 112 518 _c
148 546 200 560 268 560 _c
301 560 332 557 362 552 _c
391 547 418 540 443 531 _c
}_e{_cl}_e}_d
/minus{838 0 106 272 732 355 _sc
106 355 _m
732 355 _l
732 272 _l
106 272 _l
106 355 _l
_cl}_d
end readonly def

/BuildGlyph
 {exch begin
 CharStrings exch
 2 copy known not{pop /.notdef}if
 true 3 1 roll get exec
 end}_d

/BuildChar {
 1 index /Encoding get exch get
 1 index /BuildGlyph get exec
}_d

FontName currentdict end definefont pop
%!PS-Adobe-3.0 Resource-Font
%%Title: cmr10
%%Copyright: Copyright (C) 1994, Basil K. Malyshev. All Rights Reserved.012BaKoMa Fonts Collection, Level-B.
%%Creator: Converted from TrueType to type 3 by PPR
25 dict begin
/_d{bind def}bind def
/_m{moveto}_d
/_l{lineto}_d
/_cl{closepath eofill}_d
/_c{curveto}_d
/_sc{7 -1 roll{setcachedevice}{pop pop pop pop pop pop}ifelse}_d
/_e{exec}_d
/FontName /Cmr10 def
/PaintType 0 def
/FontMatrix[.001 0 0 .001 0 0]def
/FontBBox[-44 -250 1009 750]def
/FontType 3 def
/Encoding [ /k /S /parenright /R /G /parenleft /c /p /r ] def
/FontInfo 10 dict dup begin
/FamilyName (cmr10) def
/FullName (cmr10) def
/Notice (Copyright (C) 1994, Basil K. Malyshev. All Rights Reserved.012BaKoMa Fonts Collection, Level-B. ) def
/Weight (Regular) def
/Version (1.1/12-Nov-94) def
/ItalicAngle 0.0 def
/isFixedPitch false def
/UnderlinePosition -133 def
/UnderlineThickness 20 def
end readonly def
/CharStrings 9 dict dup begin
/k{{527 0 26 0 511 694 _sc
26 0 _m
26 35 _l
48 35 67 36 82 40 _c
96 44 104 53 104 67 _c
104 592 _l
104 610 101 623 96 631 _c
90 639 83 643 73 645 _c
63 647 47 648 26 648 _c
26 683 _l
174 694 _l
174 219 _l
308 337 _l
321 349 328 361 328 372 _c
328 380 325 386 320 390 _c
314 394 308 396 300 396 _c
300 431 _l
488 431 _l
488 396 _l
}_e{442 396 397 376 352 337 _c
281 275 _l
408 94 _l
426 69 440 53 452 46 _c
464 38 483 35 511 35 _c
511 0 _l
312 0 _l
312 35 _l
334 35 346 42 346 56 _c
346 66 340 78 328 94 _c
232 231 _l
171 178 _l
171 67 _l
171 53 178 44 193 40 _c
207 36 226 35 249 35 _c
249 0 _l
26 0 _l
_cl}_e}_d
/S{{555 0 56 -21 499 705 _sc
56 -13 _m
56 219 _l
56 224 59 227 65 227 _c
77 227 _l
79 227 80 226 82 224 _c
84 222 85 221 85 219 _c
85 153 105 103 146 67 _c
186 31 239 13 305 13 _c
328 13 349 19 369 33 _c
388 46 403 63 414 85 _c
425 107 431 129 431 153 _c
431 173 427 192 419 211 _c
411 230 399 247 384 261 _c
368 275 351 284 332 289 _c
202 321 _l
}_e{159 332 124 355 97 391 _c
69 426 56 466 56 510 _c
56 544 64 577 82 607 _c
100 637 123 660 153 678 _c
183 696 215 705 250 705 _c
316 705 369 682 409 637 _c
450 702 _l
452 704 454 705 457 705 _c
464 705 _l
466 705 467 704 469 703 _c
471 701 472 699 472 697 _c
472 465 _l
472 459 469 456 464 456 _c
452 456 _l
446 456 443 459 443 465 _c
443 481 440 500 434 520 _c
}_e{428 540 421 560 411 578 _c
401 596 390 612 378 624 _c
346 656 303 673 250 673 _c
227 673 206 667 187 655 _c
167 643 152 628 141 608 _c
129 588 124 568 124 546 _c
124 517 132 491 150 468 _c
168 444 191 429 220 422 _c
350 390 _l
371 384 391 375 410 362 _c
429 348 445 333 458 315 _c
471 297 481 277 488 255 _c
495 233 499 210 499 187 _c
499 151 490 117 474 85 _c
}_e{457 53 434 27 404 8 _c
374 -11 341 -21 305 -21 _c
283 -21 260 -18 237 -13 _c
214 -8 193 -1 173 8 _c
153 18 136 31 120 47 _c
78 -18 _l
76 -20 73 -21 71 -21 _c
65 -21 _l
59 -21 56 -18 56 -13 _c
_cl}_e}_d
/parenright{{388 0 56 -249 291 750 _sc
65 -249 _m
59 -249 56 -246 56 -240 _c
56 -237 56 -235 58 -234 _c
172 -122 229 38 229 250 _c
229 462 172 623 60 733 _c
57 734 56 737 56 741 _c
56 743 57 745 59 747 _c
61 749 63 750 65 750 _c
74 750 _l
76 750 77 749 79 748 _c
127 710 167 664 199 610 _c
231 556 254 498 269 437 _c
283 376 291 314 291 250 _c
291 202 287 156 279 110 _c
}_e{271 64 258 20 241 -24 _c
223 -68 201 -108 175 -146 _c
148 -184 116 -217 79 -247 _c
77 -248 76 -249 74 -249 _c
65 -249 _l
_cl}_e}_d
/R{{736 0 33 -21 732 683 _sc
33 0 _m
33 35 _l
101 35 136 45 136 67 _c
136 616 _l
136 637 101 648 33 648 _c
33 683 _l
347 683 _l
384 683 423 676 465 663 _c
506 649 540 629 568 601 _c
596 573 610 540 610 502 _c
610 474 601 449 585 427 _c
568 405 546 386 520 372 _c
494 357 467 346 440 340 _c
470 329 496 312 518 290 _c
540 267 554 241 559 212 _c
573 123 _l
}_e{579 83 586 53 593 33 _c
600 13 616 4 641 4 _c
661 4 677 13 687 33 _c
697 52 703 73 703 96 _c
703 98 704 100 706 102 _c
708 104 710 105 713 105 _c
722 105 _l
728 105 732 100 732 92 _c
732 73 728 55 721 38 _c
713 20 703 6 690 -4 _c
676 -15 660 -21 642 -21 _c
594 -21 552 -9 518 14 _c
483 38 466 73 466 119 _c
466 208 _l
466 241 454 269 431 293 _c
}_e{407 317 379 329 346 329 _c
226 329 _l
226 67 _l
226 45 260 35 329 35 _c
329 0 _l
33 0 _l
226 355 _m
333 355 _l
388 355 430 366 459 388 _c
488 410 503 448 503 502 _c
503 555 488 593 460 615 _c
431 637 389 648 333 648 _c
277 648 _l
265 648 255 647 249 646 _c
242 645 236 642 232 638 _c
228 633 226 626 226 616 _c
226 355 _l
_cl}_e}_d
/G{{784 0 56 -21 735 705 _sc
230 107 _m
254 77 283 54 318 38 _c
352 21 389 13 427 13 _c
463 13 497 22 527 41 _c
557 60 573 87 573 122 _c
573 206 _l
573 227 531 238 448 238 _c
448 273 _l
735 273 _l
735 238 _l
713 238 696 236 684 232 _c
672 228 666 220 666 206 _c
666 9 _l
666 6 665 4 663 2 _c
661 0 659 0 657 0 _c
651 0 640 7 626 22 _c
}_e{611 36 600 49 592 61 _c
575 33 549 12 515 -1 _c
480 -14 444 -21 406 -21 _c
341 -21 282 -4 229 28 _c
175 61 133 106 102 162 _c
71 218 56 278 56 342 _c
56 389 65 435 83 479 _c
101 523 126 563 158 597 _c
190 631 227 657 270 676 _c
312 695 358 705 406 705 _c
440 705 473 697 504 683 _c
534 668 562 647 586 620 _c
644 702 _l
648 704 650 705 651 705 _c
658 705 _l
}_e{660 705 661 704 663 702 _c
665 700 666 699 666 697 _c
666 427 _l
666 421 663 418 658 418 _c
640 418 _l
634 418 631 421 631 427 _c
631 446 627 467 619 491 _c
611 515 602 537 590 559 _c
578 580 564 599 549 615 _c
511 651 468 670 420 670 _c
382 670 347 661 313 645 _c
279 628 251 605 228 576 _c
203 544 186 509 177 469 _c
167 429 163 387 163 342 _c
163 239 185 161 230 107 _c
}_e{_cl}_e}_d
/parenleft{{388 0 97 -249 332 750 _sc
310 -247 _m
272 -217 240 -184 214 -146 _c
187 -108 165 -67 148 -25 _c
131 17 118 62 110 109 _c
101 155 97 202 97 250 _c
97 298 101 345 110 392 _c
118 438 131 483 149 527 _c
166 570 188 611 215 649 _c
242 687 274 720 310 748 _c
310 749 311 750 315 750 _c
324 750 _l
326 750 327 749 329 747 _c
331 745 332 743 332 741 _c
332 738 331 736 330 735 _c
}_e{297 703 270 668 248 632 _c
226 596 209 557 196 516 _c
183 474 174 432 168 388 _c
162 344 159 298 159 250 _c
159 38 215 -122 329 -232 _c
331 -234 332 -236 332 -240 _c
332 -242 331 -244 329 -246 _c
327 -248 326 -249 324 -249 _c
315 -249 _l
311 -249 310 -248 310 -247 _c
_cl}_e}_d
/c{{444 0 33 -10 415 448 _sc
249 -10 _m
208 -10 171 0 139 21 _c
106 41 80 69 61 104 _c
42 139 33 176 33 216 _c
33 255 42 293 61 329 _c
79 365 105 393 138 415 _c
171 437 208 448 249 448 _c
288 448 324 440 356 425 _c
388 409 404 384 404 350 _c
404 337 399 326 390 316 _c
380 306 369 302 356 302 _c
342 302 331 306 322 316 _c
312 326 308 337 308 350 _c
}_e{308 362 311 372 319 381 _c
327 389 336 395 347 397 _c
324 411 292 419 250 419 _c
218 419 192 408 173 387 _c
153 365 140 339 132 308 _c
124 277 120 246 120 216 _c
120 183 124 152 134 122 _c
144 92 159 67 181 47 _c
202 27 229 18 261 18 _c
293 18 320 27 342 47 _c
364 66 379 91 387 123 _c
387 127 389 129 395 129 _c
407 129 _l
409 129 410 128 412 126 _c
}_e{414 124 415 122 415 120 _c
415 117 _l
405 77 385 46 355 24 _c
325 1 289 -10 249 -10 _c
_cl}_e}_d
/p{{555 0 26 -193 522 442 _sc
26 -193 _m
26 -158 _l
48 -158 67 -156 82 -152 _c
96 -148 104 -139 104 -126 _c
104 355 _l
104 373 97 384 84 389 _c
71 393 52 396 26 396 _c
26 431 _l
174 442 _l
174 380 _l
192 400 213 415 237 426 _c
261 436 287 442 315 442 _c
354 442 389 431 421 410 _c
453 388 477 360 495 326 _c
513 291 522 254 522 216 _c
522 175 512 137 492 103 _c
}_e{472 68 446 40 412 20 _c
378 0 340 -10 300 -10 _c
251 -10 210 9 177 48 _c
177 -126 _l
177 -139 184 -148 199 -152 _c
213 -156 232 -158 255 -158 _c
255 -193 _l
26 -193 _l
177 97 _m
188 73 204 54 225 38 _c
246 22 269 15 294 15 _c
317 15 337 21 355 33 _c
373 45 388 62 400 83 _c
412 104 420 126 426 149 _c
432 172 435 194 435 216 _c
435 242 430 271 420 302 _c
}_e{410 333 396 359 376 381 _c
356 402 333 413 305 413 _c
278 413 253 406 231 392 _c
208 378 190 360 177 336 _c
177 97 _l
_cl}_e}_d
/r{{391 0 26 0 364 442 _sc
26 0 _m
26 35 _l
48 35 67 36 82 40 _c
96 44 104 53 104 67 _c
104 340 _l
104 358 101 371 96 379 _c
90 387 83 391 73 393 _c
63 395 47 396 26 396 _c
26 431 _l
169 442 _l
169 344 _l
179 373 195 397 215 415 _c
235 433 259 442 287 442 _c
307 442 324 436 340 424 _c
356 412 364 397 364 378 _c
364 366 359 355 351 346 _c
}_e{342 337 331 333 319 333 _c
306 333 295 337 287 346 _c
278 354 274 365 274 378 _c
274 396 280 408 293 416 _c
287 416 _l
260 416 238 406 221 386 _c
203 366 191 342 184 314 _c
177 285 174 257 174 231 _c
174 67 _l
174 45 206 35 271 35 _c
271 0 _l
26 0 _l
_cl}_e}_d
end readonly def

/BuildGlyph
 {exch begin
 CharStrings exch
 2 copy known not{pop /.notdef}if
 true 3 1 roll get exec
 end}_d

/BuildChar {
 1 index /Encoding get exch get
 1 index /BuildGlyph get exec
}_d

FontName currentdict end definefont pop
%!PS-Adobe-3.0 Resource-Font
%%Title: cmmi10
%%Copyright: Copyright (C) 1994, Basil K. Malyshev. All Rights Reserved.012BaKoMa Fonts Collection, Level-B.
%%Creator: Converted from TrueType to type 3 by PPR
25 dict begin
/_d{bind def}bind def
/_m{moveto}_d
/_l{lineto}_d
/_cl{closepath eofill}_d
/_c{curveto}_d
/_sc{7 -1 roll{setcachedevice}{pop pop pop pop pop pop}ifelse}_d
/_e{exec}_d
/FontName /Cmmi10 def
/PaintType 0 def
/FontMatrix[.001 0 0 .001 0 0]def
/FontBBox[-34 -250 1048 750]def
/FontType 3 def
/Encoding [ /v ] def
/FontInfo 10 dict dup begin
/FamilyName (cmmi10) def
/FullName (cmmi10) def
/Notice (Copyright (C) 1994, Basil K. Malyshev. All Rights Reserved.012BaKoMa Fonts Collection, Level-B. ) def
/Weight (Regular) def
/Version (1.1/12-Nov-94) def
/ItalicAngle 0.0 def
/isFixedPitch false def
/UnderlinePosition -133 def
/UnderlineThickness 20 def
end readonly def
/CharStrings 1 dict dup begin
/v{{484 0 27 -10 467 443 _sc
107 113 _m
107 127 108 144 112 162 _c
116 180 119 194 123 206 _c
126 218 134 240 147 274 _c
160 307 167 324 167 326 _c
175 350 180 370 180 386 _c
180 406 172 416 158 416 _c
132 416 110 402 93 375 _c
75 347 63 317 55 284 _c
53 280 51 278 47 278 _c
35 278 _l
29 278 27 281 27 287 _c
27 290 _l
37 330 54 365 76 396 _c
}_e{98 426 126 442 160 442 _c
184 442 204 434 220 418 _c
236 402 245 383 245 359 _c
245 346 242 333 237 320 _c
223 286 213 258 206 238 _c
198 218 191 195 185 170 _c
179 144 176 121 176 100 _c
176 75 181 55 193 39 _c
204 23 222 15 247 15 _c
293 15 334 50 372 122 _c
384 145 395 172 405 203 _c
415 234 421 260 421 280 _c
421 300 417 315 411 327 _c
}_e{404 338 395 350 385 362 _c
375 374 370 383 370 391 _c
370 404 375 416 386 427 _c
396 437 408 443 422 443 _c
438 443 449 435 456 421 _c
463 406 467 389 467 371 _c
467 349 463 322 457 292 _c
451 261 442 229 431 196 _c
419 163 409 137 400 119 _c
356 33 304 -10 246 -10 _c
204 -10 170 0 145 21 _c
119 41 107 72 107 113 _c
_cl}_e}_d
end readonly def

/BuildGlyph
 {exch begin
 CharStrings exch
 2 copy known not{pop /.notdef}if
 true 3 1 roll get exec
 end}_d

/BuildChar {
 1 index /Encoding get exch get
 1 index /BuildGlyph get exec
}_d

FontName currentdict end definefont pop
end
%%EndProlog
mpldict begin
216 334.8 translate
180 122.4 0 0 clipbox
gsave
0 0 m
180 0 l
180 122.4 l
0 122.4 l
cl
1.000 setgray
fill
grestore
gsave
34.2 25.704 m
174.6 25.704 l
174.6 110.16 l
34.2 110.16 l
cl
1.000 setgray
fill
grestore
0.500 setlinewidth
1 setlinejoin
0 setlinecap
[] 0 setdash
0.000 setgray
gsave
140.4 84.46 34.2 25.7 clipbox
/o {
gsave
newpath
translate
0.5 setlinewidth
1 setlinejoin
0 setlinecap
0 -0.25 m
0.0663008 -0.25 0.129895 -0.223658 0.176777 -0.176777 c
0.223658 -0.129895 0.25 -0.0663008 0.25 0 c
0.25 0.0663008 0.223658 0.129895 0.176777 0.176777 c
0.129895 0.223658 0.0663008 0.25 0 0.25 c
-0.0663008 0.25 -0.129895 0.223658 -0.176777 0.176777 c
-0.223658 0.129895 -0.25 0.0663008 -0.25 0 c
-0.25 -0.0663008 -0.223658 -0.129895 -0.176777 -0.176777 c
-0.129895 -0.223658 -0.0663008 -0.25 0 -0.25 c
cl
gsave
0.000 setgray
fill
grestore
stroke
grestore
} bind def
55.9109 69.2906 o
82.7039 70.9653 o
47.6355 84.9863 o
102.312 73.1604 o
54.9372 65.9202 o
72.6012 77.0113 o
53.2585 59.8587 o
97.0144 67.3766 o
77.5486 75.4212 o
68.1379 70.5793 o
90.2385 65.5475 o
72.2115 71.3118 o
52.6984 79.2669 o
88.9013 70.6781 o
51.8643 89.4262 o
41.5443 88.5694 o
78.8307 69.3347 o
102.949 69.6475 o
58.4525 72.3233 o
89.4689 60.9002 o
52.558 90.454 o
68.7498 66.4902 o
63.9571 73.9912 o
74.5793 75.0633 o
40.3692 73.7071 o
43.951 66.6187 o
75.5822 54.2974 o
46.2531 68.9009 o
47.3581 68.949 o
89.6695 66.4921 o
67.9814 76.7981 o
103.427 61.5788 o
57.4701 77.3158 o
72.3085 67.681 o
86.2321 67.0236 o
90.5394 65.6483 o
51.868 63.8143 o
55.0136 78.6935 o
56.6415 64.981 o
45.3834 70.8751 o
62.3741 63.8035 o
55.8925 61.5072 o
56.6141 67.3897 o
52.0162 86.493 o
54.224 60.199 o
78.0674 57.1299 o
42.9293 84.1759 o
83.1033 69.694 o
93.7085 74.1068 o
51.8973 59.9014 o
51.2086 61.3335 o
71.2512 66.6851 o
57.3319 79.7518 o
54.6393 61.145 o
70.4964 77.254 o
52.7011 72.7277 o
79.9881 67.7904 o
47.3341 50.7158 o
58.6343 72.2214 o
50.9238 73.5451 o
99.9699 72.162 o
61.4218 80.1427 o
81.3876 75.3442 o
65.3321 76.4951 o
93.5434 66.4029 o
66.5328 82.1217 o
49.0098 72.9389 o
42.9737 58.4398 o
49.2861 74.6849 o
90.1861 66.4296 o
103.55 68.0282 o
64.8855 64.5572 o
55.4994 53.7823 o
46.2255 74.0628 o
71.3186 78.3018 o
68.4285 67.3233 o
138.576 66.3247 o
42.213 88.5242 o
78.1283 62.8462 o
99.9924 69.7162 o
63.8779 70.8701 o
129.416 69.6339 o
95.1489 62.4598 o
69.1649 70.2337 o
59.0046 69.945 o
75.1632 69.2703 o
60.2871 55.5696 o
51.0137 45.4758 o
94.3635 77.0024 o
80.5711 73.1046 o
48.5576 65.1205 o
44.354 68.2716 o
43.5329 45.428 o
62.6997 55.1824 o
44.6003 56.1831 o
94.8683 72.5847 o
49.598 60.7161 o
60.6384 55.7586 o
51.762 60.6306 o
54.0259 77.7931 o
53.0973 63.0489 o
67.0789 55.2863 o
45.4025 59.5243 o
49.2468 71.1006 o
129.167 66.6701 o
48.4916 52.3457 o
83.6178 66.3246 o
64.0465 63.8894 o
58.2085 74.4671 o
108.863 60.507 o
115.441 73.2279 o
117.915 75.9408 o
50.5355 89.559 o
104.223 73.4739 o
50.9857 86.5665 o
54.0017 69.187 o
137.195 65.3559 o
55.707 77.6663 o
72.2787 76.3076 o
115.012 72.0345 o
59.3899 62.6044 o
106.07 76.2148 o
43.6683 65.4844 o
94.351 67.6018 o
85.3781 70.7192 o
48.5272 70.1309 o
87.4476 53.6704 o
71.3367 75.5189 o
104.795 73.2876 o
101.088 66.7687 o
50.865 51.2075 o
46.3462 51.3886 o
119.408 72.4262 o
81.2139 68.8329 o
62.3897 63.2583 o
63.268 73.8293 o
74.152 89.9912 o
50.0067 83.6009 o
118.591 72.6202 o
92.0369 63.4896 o
83.8029 71.9818 o
115.831 70.406 o
107.225 70.0833 o
83.9396 68.8784 o
104.16 68.0897 o
70.926 62.6434 o
56.4881 65.9462 o
49.471 88.3028 o
53.732 60.2707 o
41.9951 61.4867 o
51.0478 61.319 o
60.7306 46.4255 o
81.1451 79.3835 o
55.0358 84.12 o
44.4769 67.4007 o
53.4712 80.5213 o
66.9396 66.5552 o
47.8954 83.7973 o
57.4747 75.3518 o
57.4624 65.9469 o
69.6591 67.4138 o
101.659 72.5485 o
57.1162 80.7049 o
102.869 65.7746 o
120.52 59.8166 o
59.9091 60.2233 o
93.6972 67.3981 o
36.9432 57.2922 o
133.669 62.5925 o
75.6959 77.1677 o
107.156 66.3558 o
67.0212 84.2294 o
72.9844 60.3333 o
61.9717 64.6719 o
44.3298 52.9567 o
68.3657 75.9984 o
54.2743 68.643 o
118.664 74.5768 o
64.9717 70.6311 o
55.8672 68.6684 o
47.8913 52.7936 o
61.3977 62.3612 o
96.0718 73.8415 o
81.5307 55.898 o
73.1326 70.5053 o
80.2917 68.0808 o
103.87 71.5151 o
43.58 49.5483 o
58.4818 73.6466 o
68.0054 62.3336 o
90.8139 65.0666 o
98.7008 59.8983 o
65.9684 65.7931 o
57.8593 67.7573 o
73.4672 70.3903 o
48.8773 64.4902 o
39.4742 75.0205 o
57.0768 71.5546 o
67.704 77.8656 o
79.1487 76.7676 o
41.1941 97.8407 o
59.8354 51.6987 o
67.7832 65.4036 o
113.489 72.4256 o
85.9785 62.9257 o
51.9402 55.0579 o
51.3493 73.8393 o
56.5477 60.5764 o
81.0245 67.4233 o
84.4218 66.9689 o
100.609 64.6016 o
37.2634 61.5225 o
38.7566 99.6888 o
63.6785 71.8179 o
126.165 64.5755 o
75.6231 73.5095 o
65.0006 55.5314 o
64.46 61.7726 o
38.1807 47.7095 o
58.433 63.938 o
73.4326 61.9757 o
42.5905 80.3548 o
46.8521 61.6222 o
84.7721 49.8328 o
58.1538 85.5263 o
59.6633 63.0545 o
125.963 71.6919 o
48.8596 81.454 o
49.6961 62.7024 o
46.4761 61.6854 o
50.1235 65.3482 o
112.181 61.4219 o
84.2508 58.497 o
75.4357 71.6921 o
36.6858 70.097 o
108.533 64.0108 o
69.395 68.654 o
87.0964 65.0781 o
49.8004 55.3605 o
77.0571 74.3864 o
45.6306 65.9618 o
64.053 67.7875 o
56.0473 61.4959 o
45.1712 58.8601 o
98.8971 65.2124 o
61.4099 67.6602 o
56.3148 77.96 o
60.3045 71.6532 o
61.9938 71.4615 o
91.699 63.6057 o
60.11 56.0421 o
91.8266 68.1278 o
79.9377 67.9774 o
98.5239 71.9786 o
39.6758 68.0278 o
63.8688 67.2415 o
52.2392 73.253 o
48.4714 84.8989 o
46.6162 54.6668 o
65.15 65.8761 o
107.74 66.9737 o
56.3295 63.362 o
47.6683 44.0908 o
77.8782 71.0733 o
73.6946 60.7099 o
66.5432 68.9753 o
92.2024 58.2666 o
43.937 74.3207 o
91.484 69.7223 o
44.7333 78.2922 o
74.6057 63.2963 o
71.3608 77.7379 o
81.2277 68.0298 o
55.2636 64.2071 o
68.2374 69.8006 o
105.394 65.3312 o
116.881 66.9003 o
99.8062 64.156 o
63.9804 62.9371 o
68.1 58.5665 o
70.8234 68.0578 o
54.7381 44.15 o
51.1014 59.9274 o
65.8319 64.317 o
105.739 63.1592 o
63.4692 56.9813 o
106.896 58.0513 o
58.6896 66.2797 o
63.2792 77.7242 o
51.2036 70.0787 o
41.6523 44.6731 o
49.6532 91.8228 o
63.5605 66.3808 o
53.8463 72.8955 o
61.675 65.1982 o
55.0255 53.4593 o
60.555 63.4233 o
85.7914 59.8536 o
134.464 71.8133 o
64.3363 61.9208 o
36.1313 83.902 o
49.7122 71.9599 o
50.1865 71.9151 o
66.5334 70.5018 o
66.1677 51.6045 o
71.1428 61.6979 o
58.0371 68.3051 o
60.8047 66.9757 o
45.0963 56.6873 o
80.226 60.4968 o
56.5188 74.3997 o
70.0469 68.1057 o
59.8879 58.7841 o
66.1143 77.6121 o
66.0313 66.5537 o
104.19 71.5915 o
61.0711 64.2877 o
56.9906 59.6931 o
59.4922 65.4232 o
138.819 68.955 o
67.286 72.5012 o
75.5156 64.9101 o
48.1709 66.2332 o
76.0795 65.6717 o
55.2374 60.535 o
77.5148 83.3943 o
53.581 59.745 o
43.6186 81.1446 o
82.2206 83.0933 o
73.9022 60.8931 o
103.605 59.9025 o
43.082 88.8971 o
88.9258 80.2081 o
67.8992 68.8202 o
64.2167 62.5023 o
72.3381 73.5163 o
123.01 67.8226 o
76.141 66.4963 o
56.6506 61.7959 o
68.0051 62.2726 o
79.6657 67.6276 o
63.1604 69.7231 o
61.7592 54.3393 o
62.9394 65.5186 o
57.1891 78.4613 o
36.832 53.5384 o
71.7961 73.4107 o
38.2796 60.2761 o
59.8926 79.2644 o
61.2152 78.179 o
53.5876 72.3814 o
74.2802 69.589 o
57.5884 74.8421 o
47.3072 60.8563 o
86.149 68.3241 o
86.7738 68.5179 o
51.9365 80.9743 o
75.0693 68.0102 o
69.6266 71.6679 o
62.6854 63.1652 o
101.629 74.6397 o
43.8715 55.1425 o
51.8546 64.3584 o
60.3876 86.84 o
65.2317 66.4097 o
60.0564 52.0694 o
61.4373 61.9886 o
62.583 56.9468 o
57.4809 59.7295 o
87.3231 83.3463 o
44.4387 74.1055 o
64.0556 76.4479 o
83.5956 63.1635 o
61.2704 75.4678 o
76.1588 61.3848 o
77.8555 64.8717 o
95.4945 71.4817 o
43.3276 47.5469 o
51.9515 86.9399 o
75.3694 65.97 o
80.8489 71.3317 o
57.8127 84.7852 o
49.761 67.4873 o
57.8997 70.5671 o
90.481 68.0314 o
65.6264 72.3573 o
66.4852 50.9978 o
61.9216 78.0322 o
70.4114 71.4399 o
85.6869 60.9695 o
56.3572 58.2243 o
85.3547 68.9541 o
61.9746 77.2079 o
77.3503 57.2056 o
99.0862 67.85 o
100.766 67.9872 o
71.4532 66.6722 o
65.9679 77.9428 o
52.5691 63.3853 o
71.9855 61.968 o
55.5399 63.622 o
120.963 65.7043 o
98.1558 70.7519 o
70.819 76.1038 o
73.9568 72.5681 o
75.5441 65.4602 o
60.5375 74.5055 o
82.7371 81.8349 o
41.4949 53.0278 o
57.1948 63.3206 o
78.7653 69.0962 o
59.4809 52.8687 o
46.4032 78.4542 o
72.2986 66.7673 o
54.3798 74.8379 o
44.5277 55.6204 o
53.441 65.0702 o
57.7145 64.3214 o
90.5816 66.6283 o
88.3211 68.5418 o
52.4715 44.8825 o
77.9714 59.0291 o
60.2285 73.001 o
83.9654 72.2639 o
66.6238 68.721 o
54.8676 76.3573 o
50.4297 79.7557 o
66.3905 51.2434 o
65.8856 76.9349 o
49.5449 82.1032 o
69.6056 67.3941 o
56.0665 64.7695 o
72.7901 62.718 o
87.4106 66.6652 o
47.1044 56.362 o
81.1807 65.084 o
60.4473 59.8132 o
107.455 71.4248 o
50.9477 57.0143 o
96.1347 62.9171 o
92.3803 65.7556 o
55.9108 82.5407 o
102.691 70.537 o
72.9104 62.8141 o
85.9065 74.7435 o
68.3049 76.0422 o
77.3189 62.9636 o
77.7641 62.2783 o
56.2853 65.4693 o
63.9872 83.4437 o
54.0168 62.2885 o
65.2995 73.3965 o
75.9711 75.4488 o
50.0978 82.2348 o
38.9418 67.9226 o
100.78 69.2385 o
52.9509 68.7463 o
63.4179 63.0423 o
59.0266 53.4409 o
60.2307 61.4386 o
46.4346 65.8408 o
48.9348 91.3868 o
60.4685 77.6744 o
74.8882 74.0202 o
74.4677 72.4039 o
66.9356 55.3459 o
63.8564 67.5008 o
84.5688 72.7732 o
63.8817 59.7433 o
44.7396 75.8331 o
50.6638 59.7906 o
76.4848 68.2731 o
43.1379 83.9136 o
52.4883 67.388 o
54.5054 64.7408 o
44.1763 81.9161 o
139.114 68.6362 o
62.8621 68.7734 o
51.9988 62.5213 o
58.2816 64.5387 o
68.6121 63.104 o
120.96 73.399 o
52.8766 64.8477 o
61.1759 74.0486 o
65.8468 61.6232 o
59.3339 66.6025 o
42.2901 77.8517 o
87.9593 65.945 o
76.4229 66.3475 o
65.9416 58.0779 o
70.6144 59.9013 o
68.8053 55.4802 o
61.9977 76.5859 o
55.7669 56.6483 o
49.6684 75.4226 o
53.5331 75.0982 o
53.6034 64.4181 o
47.2666 81.5772 o
42.3119 52.3776 o
118.027 69.7479 o
64.694 76.6738 o
71.1809 57.0327 o
62.8349 71.9625 o
42.8968 54.239 o
122.211 69.6445 o
50.2438 85.1664 o
62.8574 78.3638 o
44.0288 74.2651 o
43.9087 82.503 o
42.531 85.7252 o
40.2246 92.6318 o
51.7305 71.6927 o
51.3928 65.9202 o
69.3483 69.3049 o
63.926 76.7412 o
53.1653 64.2395 o
48.265 82.1098 o
57.936 78.6756 o
60.2767 77.9544 o
69.8437 70.9653 o
86.2772 65.2232 o
62.882 77.0645 o
67.9445 69.6656 o
39.2386 37.2113 o
53.8503 72.0203 o
66.512 55.9594 o
58.3795 81.73 o
73.0792 60.913 o
60.8703 55.9277 o
36.4459 96.1516 o
79.3785 77.1282 o
52.3446 52.686 o
76.883 65.0989 o
93.2174 66.3117 o
55.4856 64.9291 o
59.2387 54.886 o
69.8992 69.1632 o
60.5704 59.6871 o
66.4097 68.6492 o
72.2229 73.6708 o
111.404 73.4396 o
63.807 60.9883 o
38.1935 37.5493 o
51.9137 64.6524 o
91.6976 80.5308 o
84.6613 62.011 o
57.0904 73.8442 o
57.9673 71.1653 o
64.0943 65.2915 o
48.7275 72.5707 o
77.8087 67.7595 o
87.237 65.9987 o
71.9644 68.0965 o
85.9041 53.9635 o
42.8516 79.1013 o
48.7895 71.3519 o
48.9252 68.8237 o
53.0184 64.6701 o
68.4855 60.8218 o
49.418 67.4301 o
48.5548 75.7432 o
57.7348 80.7295 o
54.9604 63.6992 o
43.4357 78.7302 o
59.1089 64.238 o
59.7457 61.5937 o
56.9788 57.8891 o
57.4474 78.2481 o
49.679 90.7294 o
80.5986 58.8147 o
128.736 65.0526 o
72.9761 75.4726 o
81.2174 77.5252 o
63.8186 71.0385 o
43.3191 52.0666 o
58.9985 70.1722 o
60.372 67.5039 o
61.0387 66.8164 o
72.9349 61.2011 o
51.1129 78.7852 o
60.276 67.956 o
63.3899 65.9312 o
49.843 47.8889 o
85.7628 55.705 o
56.0703 69.6965 o
46.2342 69.5655 o
56.7239 62.0077 o
42.6474 53.4981 o
45.7817 86.8583 o
77.5544 70.7513 o
60.5825 66.2972 o
119.901 67.9485 o
44.9856 71.1438 o
64.9249 74.5293 o
114.556 60.6388 o
63.4169 64.8313 o
84.7037 79.6921 o
43.1224 64.4824 o
65.0684 83.3191 o
66.5024 70.5832 o
78.3331 69.2339 o
38.8152 90.6684 o
44.4031 57.5169 o
72.0758 75.241 o
40.6818 59.556 o
53.7708 57.1763 o
67.6059 67.3362 o
59.8795 76.7916 o
80.336 74.0354 o
64.9904 73.5232 o
71.1913 66.8501 o
96.8126 63.785 o
48.5924 77.6178 o
60.5006 67.7754 o
89.4829 62.1882 o
72.9712 63.7349 o
63.6662 66.8501 o
54.6867 55.0797 o
39.7146 62.2719 o
61.9171 66.7031 o
41.3998 57.5792 o
83.7988 62.8994 o
50.9724 61.1607 o
71.2998 71.9727 o
129.642 74.3344 o
77.1812 66.1621 o
42.1052 63.7279 o
61.9093 66.4109 o
50.0405 60.9016 o
42.7854 79.2997 o
52.7018 65.9076 o
64.4405 64.9226 o
54.8627 59.2084 o
49.869 71.3539 o
69.7681 65.0807 o
56.7507 74.451 o
49.409 79.0655 o
62.2806 68.3153 o
42.398 82.5005 o
121.206 65.1865 o
77.5027 59.1434 o
60.5947 62.8539 o
53.4316 84.9247 o
77.6801 66.3086 o
59.2584 66.0467 o
64.2336 66.3075 o
68.6854 65.1764 o
44.8168 69.7585 o
47.379 55.3665 o
106.824 56.5675 o
71.287 63.7465 o
57.3915 70.15 o
58.2129 63.0817 o
61.7883 63.8357 o
64.9549 71.0549 o
65.2761 60.8882 o
65.6316 64.0141 o
52.5648 65.5234 o
103.21 68.8245 o
45.2096 79.9196 o
46.3017 74.8039 o
72.8532 70.8133 o
121.846 62.6741 o
59.1925 64.5604 o
70.2133 59.9541 o
72.6988 68.297 o
66.8679 79.6572 o
46.6529 79.8812 o
56.9669 74.734 o
45.6283 55.7567 o
53.2466 71.5455 o
58.3672 57.6541 o
118.673 68.2662 o
57.5116 58.8215 o
54.3286 69.8376 o
62.8115 73.72 o
71.6956 70.3464 o
58.4668 81.5323 o
139.726 61.6736 o
51.428 69.1207 o
44.2745 61.3347 o
80.4939 66.3398 o
55.5221 58.772 o
47.185 80.6379 o
52.2644 73.3968 o
61.1643 63.7547 o
43.2024 50.5164 o
55.387 71.1098 o
42.4981 77.8805 o
76.836 72.5352 o
38.4767 75.2296 o
67.9092 72.337 o
47.7735 56.7298 o
125.79 60.4134 o
93.8476 59.6715 o
49.7967 55.6035 o
62.4309 66.8815 o
81.7986 56.4775 o
58.5434 66.9124 o
54.4812 65.8667 o
41.1646 91.8118 o
36.1911 83.6209 o
58.1048 68.5894 o
82.7227 71.1007 o
89.6936 73.2527 o
40.3172 76.7805 o
47.1945 66.1221 o
80.6206 66.8074 o
76.5314 56.6124 o
97.4013 68.1192 o
43.7961 46.9081 o
58.78 67.5304 o
73.0843 75.4605 o
48.985 67.9369 o
53.6546 60.2747 o
69.0847 60.882 o
69.7728 63.645 o
45.8678 59.1142 o
81.8154 65.6729 o
70.9082 67.03 o
42.5588 62.2487 o
52.516 69.2226 o
67.0496 67.3521 o
43.5278 54.7711 o
61.9062 64.0408 o
74.0595 64.7744 o
100.124 63.4869 o
67.7698 75.3665 o
60.241 67.2888 o
63.8223 67.8804 o
40.4204 41.5059 o
69.7315 70.8898 o
51.8756 58.161 o
54.153 65.4364 o
49.5467 78.6889 o
75.4321 63.1453 o
70.3263 72.6734 o
81.8819 76.6329 o
55.8704 75.6887 o
69.1716 64.5095 o
73.3048 71.4434 o
59.4842 76.8653 o
46.4906 65.0544 o
83.2537 69.9824 o
58.9825 62.6268 o
48.6506 71.5334 o
67.628 66.032 o
43.9047 76.1929 o
49.6463 70.393 o
64.8126 61.6822 o
78.4715 65.1443 o
45.355 80.1246 o
68.9841 63.9004 o
73.6253 59.7683 o
89.3234 67.2675 o
57.9815 80.8487 o
78.724 82.361 o
44.2685 45.7768 o
64.7389 76.1983 o
47.1252 62.815 o
67.826 74.6504 o
54.7304 71.451 o
47.4576 52.1031 o
131.07 67.9786 o
44.6266 63.3821 o
42.3417 86.9168 o
58.4784 73.4504 o
45.2785 63.7826 o
67.159 77.8233 o
56.1578 66.8868 o
62.0777 75.0989 o
56.4314 71.7644 o
50.2875 54.9713 o
111.333 69.2752 o
81.7653 64.6509 o
114.298 63.5329 o
54.3217 73.0892 o
37.2354 83.2387 o
43.7299 90.8999 o
51.5589 59.2196 o
63.5165 66.7442 o
59.6767 83.6762 o
71.7617 56.191 o
78.263 62.7777 o
47.6082 69.4098 o
92.4139 69.3098 o
96.2215 71.6491 o
95.7233 66.0475 o
57.5852 76.0409 o
40.8145 74.9429 o
51.0225 77.4919 o
50.4492 78.4993 o
65.3029 60.0334 o
46.9181 71.3615 o
59.6974 64.5008 o
49.8925 82.623 o
52.6124 86.7129 o
52.4648 65.6258 o
57.0931 76.0252 o
70.1614 71.7955 o
62.4412 67.3426 o
79.3393 65.211 o
62.2232 52.8998 o
46.4888 79.4186 o
44.0603 58.0034 o
48.3433 55.8123 o
69.4174 54.2962 o
58.3738 78.157 o
45.9369 75.3469 o
48.0827 49.9816 o
52.9676 79.8449 o
40.5586 85.9942 o
83.8428 66.2548 o
55.6931 75.2705 o
77.1532 69.301 o
69.9068 69.3458 o
51.7291 70.4291 o
52.7387 61.7572 o
45.4904 60.8605 o
72.8959 62.9834 o
38.8812 56.4287 o
59.0997 61.0281 o
50.4256 78.7973 o
55.1341 71.9659 o
39.9408 84.9145 o
75.5679 65.211 o
48.8678 68.5979 o
49.0978 57.1021 o
61.7113 78.9127 o
125.606 68.742 o
54.955 75.6358 o
73.102 68.649 o
49.81 72.9098 o
59.5836 69.4029 o
57.4893 71.814 o
83.4183 70.2588 o
45.6592 79.6266 o
49.0682 72.34 o
57.1001 78.2809 o
86.6829 65.062 o
47.543 73.2883 o
58.5016 61.6669 o
40.3122 80.4792 o
41.542 59.316 o
75.4603 68.0049 o
68.952 58.1785 o
66.2904 76.2315 o
48.0899 75.693 o
65.3022 67.8967 o
43.2249 71.5325 o
88.44 62.6144 o
74.89 63.2963 o
48.8216 70.0017 o
59.986 56.1766 o
71.9398 61.0457 o
106.911 66.2994 o
64.5323 74.5325 o
52.8188 68.1982 o
54.4639 65.1324 o
76.1958 69.6878 o
55.6844 84.186 o
69.2177 67.625 o
49.8388 56.1437 o
64.8546 74.6137 o
82.7969 59.288 o
71.4335 56.2879 o
46.0308 86.0231 o
53.6673 88.7845 o
60.6781 65.9223 o
53.8793 58.5766 o
60.7592 61.9547 o
43.8438 47.0216 o
62.322 58.9458 o
55.9219 81.33 o
56.0684 70.6199 o
43.6667 81.1348 o
43.1525 82.5204 o
64.3472 66.3039 o
53.3529 56.1396 o
63.147 73.4416 o
69.0665 65.9552 o
117.998 61.8326 o
74.9371 66.7633 o
94.771 63.6676 o
41.6057 67.6093 o
66.3129 71.9044 o
68.3919 71.7596 o
54.3952 64.128 o
58.3537 81.232 o
61.8901 75.2771 o
70.9654 67.1952 o
78.8678 67.3819 o
70.0984 71.2561 o
97.2554 56.3297 o
89.4304 59.6083 o
82.4629 61.281 o
70.4895 66.3743 o
53.6065 67.23 o
55.7134 63.2238 o
57.35 72.1116 o
93.6795 71.8903 o
43.9976 80.4907 o
40.4678 69.4322 o
38.1822 60.3367 o
67.7973 69.8838 o
109.671 66.1857 o
66.2856 59.6805 o
72.9763 63.4696 o
67.1566 70.9182 o
57.6572 74.6008 o
58.2002 68.7822 o
86.8166 73.4268 o
44.9264 48.3946 o
48.6923 83.0943 o
74.9641 61.8474 o
63.3984 48.2966 o
45.263 57.9619 o
55.3489 70.6874 o
65.5092 72.3336 o
79.8803 67.0308 o
68.0346 78.0736 o
61.749 60.0466 o
70.3507 67.1797 o
54.977 71.9508 o
85.5399 66.2951 o
41.1135 80.4047 o
46.5746 60.885 o
62.069 70.6011 o
49.2576 68.0846 o
60.425 68.2974 o
54.185 61.2205 o
88.2129 68.2603 o
79.9579 75.7637 o
56.7516 68.7259 o
68.7717 63.394 o
85.0184 75.7463 o
75.5348 76.3844 o
63.0509 75.4214 o
56.5524 43.3162 o
42.7019 49.6103 o
72.5714 61.5885 o
73.5525 66.8104 o
68.3265 69.6313 o
76.0235 73.3171 o
51.3535 83.8184 o
84.0047 65.7684 o
64.3843 69.6339 o
50.9707 49.9777 o
43.8708 49.6858 o
61.3955 72.6361 o
56.0908 64.1459 o
80.1061 69.5583 o
66.8441 55.0165 o
49.8978 67.9547 o
63.4026 77.7979 o
56.8999 85.7221 o
74.622 68.1932 o
75.7993 76.8961 o
50.5863 68.2709 o
82.7381 69.0771 o
86.7836 69.4433 o
61.1536 78.9792 o
47.0213 52.4001 o
43.9548 62.0884 o
44.4985 77.7988 o
76.6714 63.3453 o
67.1147 70.4351 o
55.6408 75.7438 o
88.4402 69.813 o
75.4151 75.6102 o
65.5378 76.6456 o
92.328 62.0922 o
78.2238 62.638 o
54.85 76.5896 o
71.1501 70.845 o
92.3636 63.6281 o
51.5415 85.7635 o
46.6629 55.4041 o
72.6064 67.4649 o
58.8162 65.6185 o
54.7782 83.7983 o
57.5952 62.1491 o
45.0928 73.7067 o
55.0169 58.1007 o
67.9941 77.4676 o
55.9787 61.0468 o
91.2517 62.8175 o
49.7735 67.2648 o
39.0101 61.2329 o
97.157 67.0628 o
48.763 63.0336 o
57.544 61.3531 o
61.3349 70.2143 o
59.773 74.4455 o
71.334 60.3797 o
55.5584 69.0339 o
54.9441 73.9041 o
59.3369 58.381 o
72.3725 58.2496 o
54.1013 65.8807 o
67.3638 70.9243 o
52.4959 67.0618 o
58.0963 59.8548 o
62.5008 68.1372 o
82.9076 70.0293 o
55.9993 78.8007 o
41.1343 58.1093 o
41.0697 64.8424 o
100.022 67.0225 o
82.0652 64.2356 o
70.0388 57.6502 o
87.6221 65.7797 o
55.2068 80.8603 o
40.2132 79.0136 o
60.2961 64.7793 o
62.658 84.3308 o
64.7845 73.297 o
54.0547 59.2763 o
42.9698 89.9386 o
75.7574 68.9761 o
53.3667 84.6048 o
58.1039 58.8425 o
63.0235 70.046 o
89.3142 71.3914 o
35.5553 44.5556 o
62.9835 75.1386 o
64.2722 62.7703 o
49.7394 75.6491 o
57.0887 44.5911 o
42.1575 79.8555 o
57.1421 74.7599 o
78.5254 68.8389 o
69.099 76.2545 o
65.5607 79.7603 o
67.1898 67.1285 o
61.7612 69.9757 o
61.6094 61.0876 o
46.6965 81.3277 o
64.0544 67.9069 o
43.798 64.1344 o
44.7292 59.9387 o
41.3504 78.9023 o
43.2923 86.3627 o
40.6749 48.6883 o
41.2434 91.3693 o
49.2402 66.8699 o
39.4635 91.1252 o
94.0069 69.8681 o
51.4836 77.711 o
55.9623 66.1637 o
59.6093 65.4865 o
55.0407 78.0169 o
44.0813 84.2843 o
117.206 66.0153 o
50.4233 48.738 o
64.8402 68.4285 o
69.0148 70.8771 o
70.2974 70.2899 o
55.4311 61.9167 o
53.046 66.6311 o
56.2793 76.2772 o
85.7339 67.6379 o
62.5061 70.0058 o
38.4873 68.3426 o
60.4169 76.4946 o
38.9512 43.6498 o
58.6129 66.6568 o
56.6801 74.0029 o
72.9152 66.2193 o
88.6888 68.2607 o
94.4915 55.2858 o
46.7284 68.6226 o
63.9742 63.0395 o
38.8643 90.5618 o
67.9347 77.1717 o
42.4858 76.1436 o
77.1798 64.6749 o
38.5581 54.5552 o
66.7774 63.8572 o
60.0404 70.55 o
45.2992 70.8771 o
62.102 65.0035 o
61.575 62.7608 o
40.597 49.4086 o
45.0742 55.1884 o
71.7536 72.3012 o
56.6827 69.8026 o
77.6345 81.6404 o
78.1598 77.5331 o
50.073 79.4372 o
41.2236 97.8083 o
58.1593 72.2057 o
60.0153 76.6753 o
48.1929 63.8743 o
61.4981 55.8431 o
57.3474 63.9295 o
62.4077 59.2234 o
66.1137 58.8281 o
59.6191 68.8663 o
83.9321 59.3712 o
68.2252 67.4953 o
72.0675 69.3567 o
62.0935 54.0803 o
60.8647 61.058 o
90.8472 56.9154 o
44.9381 53.4939 o
64.4893 61.297 o
65.8154 70.4791 o
51.3343 72.1341 o
58.0833 57.999 o
51.675 62.7006 o
45.5523 87.9839 o
48.9055 77.4285 o
55.294 68.396 o
77.2309 64.7266 o
63.2623 64.3335 o
66.4167 73.8668 o
56.6029 77.6085 o
39.339 50.9767 o
61.908 65.9538 o
78.3606 63.5338 o
49.2807 74.2691 o
59.0707 65.6834 o
45.5389 77.2154 o
44.7813 80.2912 o
55.5727 60.6035 o
52.2692 73.8584 o
43.3679 78.6751 o
47.5665 77.8872 o
48.348 63.4797 o
58.9771 63.6679 o
76.6906 66.8755 o
61.4413 69.6359 o
86.1124 61.6521 o
69.2048 69.2703 o
72.909 66.9485 o
43.163 49.6918 o
42.4756 74.7208 o
81.9623 72.2894 o
47.2257 61.6039 o
64.6073 65.6136 o
64.9243 58.634 o
70.9352 76.4262 o
77.8842 65.7249 o
74.7648 69.3671 o
51.6865 54.462 o
37.2688 89.5309 o
56.9817 76.7128 o
65.6727 61.4528 o
50.4449 63.9863 o
56.2425 68.588 o
78.4024 60.9502 o
40.8663 73.7633 o
48.8059 85.8361 o
51.2315 85.0719 o
87.4765 70.705 o
64.2206 68.9082 o
64.1086 64.3148 o
58.4802 65.8856 o
49.539 78.393 o
73.141 71.4572 o
91.803 69.339 o
76.0103 65.7606 o
59.6313 80.864 o
56.9635 78.3186 o
75.5245 60.0103 o
98.7519 68.5675 o
59.5458 77.3551 o
68.4483 67.3371 o
48.0763 48.0291 o
62.804 63.5805 o
58.9268 62.6739 o
65.6604 63.0654 o
48.0724 82.1605 o
37.5998 51.9297 o
51.0021 73.2809 o
49.5096 63.8044 o
65.4659 66.5105 o
63.8358 65.6961 o
62.2159 63.6381 o
46.4837 62.3677 o
59.6456 65.8086 o
63.1471 71.8244 o
42.7627 85.7225 o
50.7036 51.2499 o
44.9553 49.9776 o
57.8912 57.7441 o
54.0133 65.0301 o
63.7412 73.0161 o
78.7822 71.2114 o
38.8313 64.688 o
56.4945 73.4843 o
72.5349 76.9622 o
58.021 75.4907 o
53.1386 74.1047 o
55.1788 51.4287 o
80.4717 67.2997 o
69.6634 61.5646 o
54.7088 63.0564 o
87.1759 66.4012 o
39.4625 47.2657 o
49.8403 60.4849 o
41.7945 49.4948 o
47.4017 78.9187 o
74.5469 67.7798 o
59.1944 71.0208 o
49.0033 78.014 o
78.1106 70.0094 o
68.2196 72.9918 o
61.8306 78.9951 o
49.395 62.606 o
60.7674 64.7072 o
50.7404 74.7137 o
41.3962 68.5192 o
66.5413 73.8771 o
42.4754 50.1336 o
52.1207 62.653 o
66.4159 65.5119 o
48.6216 61.1675 o
90.0344 67.3161 o
60.1068 59.1504 o
72.6844 62.1862 o
95.8248 61.8961 o
76.7785 61.616 o
48.4999 56.8364 o
68.7829 65.2839 o
40.0586 53.1184 o
60.3719 66.0588 o
47.8499 60.0514 o
36.6207 55.1297 o
44.1448 43.0957 o
38.8813 72.1057 o
58.0259 65.4041 o
52.0754 62.8654 o
51.88 64.7059 o
49.5991 49.8903 o
55.9735 54.9954 o
54.1442 59.9124 o
79.3967 65.2649 o
50.5657 72.2818 o
69.7726 64.6199 o
54.9786 86.9409 o
58.5662 76.3622 o
59.9871 59.8621 o
42.6488 83.6992 o
68.8807 67.3681 o
52.2554 66.5458 o
71.8252 65.5358 o
71.647 72.9787 o
48.6332 72.3144 o
86.0559 67.3302 o
67.2592 58.1716 o
48.3697 74.658 o
53.6742 67.7541 o
66.8159 67.6365 o
118.434 68.1197 o
39.8743 91.9718 o
52.6118 55.2332 o
59.0332 63.7187 o
50.5453 73.3454 o
52.4052 73.1639 o
59.6768 79.5396 o
49.6317 48.0561 o
73.0459 72.8865 o
54.0735 61.374 o
57.1685 82.2845 o
55.547 93.5399 o
39.5005 49.2288 o
43.5454 94.8201 o
42.3272 71.0469 o
63.9449 62.215 o
69.7908 73.694 o
39.697 63.1806 o
43.7616 74.7535 o
64.6318 58.18 o
39.3594 45.0028 o
47.1366 61.5986 o
45.3642 79.1833 o
48.5586 65.7616 o
50.5214 76.0149 o
107.751 77.4656 o
45.2078 57.4187 o
74.6555 61.1947 o
46.001 70.8488 o
83.6528 78.0501 o
54.4505 70.1759 o
41.1792 92.3345 o
50.0052 80.7854 o
45.5458 91.8332 o
77.5602 66.0439 o
68.7632 67.4752 o
55.0729 73.7938 o
73.7043 70.7979 o
65.7542 67.729 o
96.5966 67.412 o
49.123 56.0063 o
45.4343 90.2624 o
43.1223 87.6513 o
62.9424 64.4498 o
55.8317 61.6162 o
48.6929 68.2037 o
52.8855 57.1539 o
116.293 63.4782 o
39.9458 73.5397 o
46.4733 70.6902 o
49.6031 66.507 o
39.0818 64.2935 o
63.3656 61.3011 o
40.2741 90.0756 o
54.8771 58.7803 o
68.9481 57.522 o
42.5205 98.9536 o
59.7979 79.8951 o
65.4717 71.7491 o
132.867 71.0554 o
52.858 66.7256 o
45.7713 76.3917 o
70.3591 63.1633 o
55.3869 65.0681 o
45.3783 86.6125 o
52.6844 82.8184 o
50.5603 50.1889 o
70.0779 72.557 o
60.978 59.5007 o
42.9836 79.8724 o
38.9157 52.9831 o
41.1653 83.7345 o
66.5394 76.3663 o
43.9899 77.5832 o
50.1536 50.9496 o
49.4907 61.3143 o
77.6267 78.2634 o
131.338 67.0314 o
59.794 66.3872 o
43.8779 67.7559 o
97.8858 61.926 o
49.2845 66.9337 o
52.7539 74.0734 o
54.0309 61.4478 o
92.0249 61.578 o
77.1098 75.4975 o
55.7035 77.2755 o
92.3498 69.6612 o
69.1288 69.3501 o
44.9622 82.9589 o
77.4155 62.752 o
84.6271 68.1951 o
52.1655 66.5066 o
57.9739 64.5206 o
38.483 46.4998 o
64.4563 69.1646 o
53.4447 65.3416 o
79.8074 66.5759 o
46.1876 91.1013 o
59.2374 74.3338 o
47.8155 71.8256 o
42.7097 58.321 o
46.5601 79.7799 o
120.974 71.6945 o
56.8528 57.2742 o
53.2765 78.0943 o
56.3819 68.7068 o
49.0499 68.9897 o
45.6783 53.8418 o
67.9656 67.6622 o
50.9966 63.4222 o
47.2624 94.4093 o
49.955 75.8032 o
75.2754 60.3771 o
67.5414 69.5708 o
50.6733 80.8683 o
50.4296 66.6976 o
48.6537 58.002 o
56.0645 54.56 o
49.9012 75.6631 o
80.7413 62.5219 o
69.5496 60.7714 o
51.0261 76.6171 o
44.5295 84.9405 o
73.5612 65.3569 o
60.7904 58.0503 o
105.202 75.1516 o
69.6601 69.0355 o
76.1256 67.3063 o
63.1954 65.8665 o
61.5662 59.9714 o
49.906 53.4367 o
53.0885 56.999 o
61.6646 63.9292 o
40.1667 70.8081 o
52.6187 65.0071 o
62.3668 74.0816 o
68.3933 65.363 o
57.8565 71.0314 o
37.2929 59.46 o
50.0562 77.4428 o
69.5423 70.6431 o
53.4657 62.1348 o
60.2949 68.0812 o
45.5536 52.1623 o
54.2626 63.6381 o
65.3695 66.5919 o
49.8142 67.2695 o
47.348 69.5919 o
49.055 58.564 o
49.2636 81.0648 o
54.4307 65.9479 o
91.0403 60.0435 o
63.5208 62.7809 o
61.7931 58.6062 o
77.9302 73.261 o
47.5469 67.1861 o
65.1841 62.6836 o
66.2463 70.6986 o
45.4351 90.48 o
60.3701 75.109 o
40.7014 61.3433 o
63.1482 65.5731 o
53.9766 72.2506 o
60.1003 68.4853 o
112.938 63.0095 o
130.605 66.2136 o
46.8122 41.4236 o
42.6975 86.8227 o
71.77 69.7088 o
44.4381 70.6591 o
44.0302 89.8158 o
68.6139 61.3176 o
54.4756 71.1983 o
50.802 61.6034 o
75.7152 62.3386 o
60.6985 69.2018 o
86.5695 63.8502 o
73.522 76.0673 o
53.056 71.2781 o
42.7373 48.6746 o
100.697 66.3384 o
73.8128 61.708 o
52.4101 59.4746 o
57.9176 73.575 o
56.3421 61.6403 o
55.3127 58.4518 o
60.7396 74.8513 o
94.4379 70.1113 o
51.6139 77.329 o
67.3603 70.9765 o
57.436 80.0437 o
49.3617 69.2102 o
67.0581 65.4227 o
65.4635 73.0392 o
44.5989 62.8652 o
39.0644 64.5148 o
67.431 66.0685 o
70.2694 77.2066 o
72.3966 66.9986 o
41.4969 69.098 o
80.4807 68.1315 o
83.9903 69.1589 o
55.2054 77.4331 o
47.4933 84.5385 o
53.0119 54.8537 o
38.709 62.5718 o
62.7543 59.7437 o
56.9656 73.091 o
59.5186 62.8197 o
51.7613 71.8959 o
65.2518 66.9489 o
61.9525 72.874 o
40.9041 78.0791 o
52.8009 59.783 o
58.2838 66.9544 o
52.2647 63.449 o
47.2806 51.3273 o
63.1532 74.4083 o
75.4513 69.4859 o
48.2471 73.7816 o
66.1203 60.8225 o
52.6185 70.3461 o
68.4638 69.7126 o
55.923 82.6149 o
44.5319 82.7868 o
47.2075 52.6813 o
45.9961 52.4145 o
50.1393 77.0957 o
68.7814 58.0455 o
38.352 59.5512 o
65.7064 78.9865 o
64.9738 66.7607 o
44.2461 71.0081 o
63.1698 68.1737 o
51.1985 62.8664 o
53.3673 56.3878 o
65.0618 70.0763 o
57.7689 67.2131 o
87.7908 65.0479 o
94.7822 76.7514 o
59.3512 58.7008 o
62.2196 64.544 o
92.1701 70.6786 o
67.8341 58.9007 o
54.4789 65.4258 o
41.4613 68.4673 o
59.5932 71.3773 o
122.677 76.0388 o
55.7645 73.6387 o
59.3777 74.9013 o
50.009 53.0404 o
71.4368 69.2494 o
53.329 73.3841 o
47.952 60.8837 o
59.9025 72.8901 o
125.81 68.1235 o
40.8399 77.6935 o
69.7142 67.2712 o
93.141 66.729 o
67.8301 74.3718 o
63.4761 62.8164 o
74.4261 71.4463 o
46.2499 51.7484 o
46.0225 59.6775 o
49.9301 53.7559 o
92.7176 81.0773 o
62.821 68.8446 o
63.3155 65.3414 o
67.9168 64.8943 o
60.8836 72.5998 o
61.5035 69.8325 o
53.6816 72.6227 o
44.0883 79.5011 o
91.0878 65.7308 o
45.6737 63.1511 o
63.4897 78.7362 o
66.4224 72.6914 o
68.2502 67.4957 o
45.555 48.3869 o
60.5439 67.2486 o
51.9623 70.801 o
74.0971 71.0001 o
57.9904 77.5902 o
64.394 70.6874 o
40.2484 63.2868 o
41.1627 52.4245 o
53.3819 64.7199 o
57.6323 65.8472 o
67.0877 73.6194 o
56.5486 76.3777 o
59.7117 79.4278 o
38.8258 56.2747 o
99.0738 72.0294 o
51.1032 84.2363 o
40.0125 47.5265 o
108.844 65.615 o
82.1342 70.6271 o
57.4235 64.3946 o
65.4138 70.6235 o
68.8993 60.2056 o
55.038 57.6806 o
42.2283 75.3867 o
55.2683 76.381 o
74.8223 60.6933 o
58.3406 66.5384 o
61.5929 56.4824 o
47.6481 49.8445 o
53.9297 84.4394 o
36.3698 98.8063 o
84.0515 63.1053 o
61.4229 54.2006 o
40.4379 38.6109 o
69.1865 70.0616 o
68.9036 74.7037 o
47.6734 57.6286 o
58.7603 67.5709 o
68.865 66.0235 o
46.3788 62.4361 o
48.3606 52.182 o
58.1066 63.7133 o
68.888 76.4987 o
69.1463 67.1821 o
43.5027 70.3922 o
61.0345 65.1327 o
57.185 60.5788 o
62.8182 72.961 o
61.7928 68.4383 o
43.9004 89.6018 o
58.3188 60.1761 o
63.0555 62.7479 o
46.6313 53.3767 o
134.823 73.803 o
61.3098 77.6672 o
49.4546 72.0852 o
72.5662 72.3756 o
97.5498 69.974 o
87.0394 78.0593 o
59.547 75.6059 o
49.2804 60.0898 o
70.2067 77.5847 o
40.8139 83.8302 o
55.0397 75.5399 o
52.2988 73.3737 o
61.9296 65.3221 o
60.3326 60.3464 o
51.4997 72.5801 o
116.225 75.107 o
46.8445 59.2827 o
61.0549 48.3844 o
71.2281 66.3905 o
64.0329 63.0181 o
41.7248 75.8476 o
77.1408 68.5067 o
50.0724 66.1663 o
47.9957 64.1791 o
40.0549 70.6516 o
57.2897 55.9201 o
102.736 74.5163 o
44.4211 51.9965 o
67.4588 68.3118 o
50.3445 71.4214 o
69.6258 66.8425 o
42.3482 42.6621 o
71.8471 67.4506 o
56.2331 67.3533 o
51.4486 61.9811 o
62.78 71.5709 o
58.595 71.6612 o
46.7899 65.3141 o
86.5752 61.4603 o
78.3272 77.5311 o
60.6083 76.1129 o
53.6567 64.7219 o
44.9039 52.0325 o
117.554 70.2696 o
51.3798 65.8075 o
42.1576 43.0956 o
59.231 65.2587 o
64.8068 65.0452 o
42.6306 68.1905 o
47.0251 83.3212 o
72.6304 60.6561 o
52.5914 79.7447 o
68.2062 71.3186 o
60.3835 59.2881 o
85.3065 68.9558 o
51.3636 63.1422 o
55.6867 69.8146 o
62.0498 66.227 o
42.9391 90.6218 o
74.6501 65.3946 o
43.679 55.1033 o
53.1948 68.3684 o
61.2655 57.9169 o
54.246 77.7196 o
43.7048 78.7808 o
45.9043 79.6176 o
52.4759 80.3188 o
48.4152 82.3275 o
58.358 83.0929 o
60.0502 66.1375 o
44.1247 53.8207 o
44.9338 80.2153 o
36.3632 63.7848 o
70.9135 79.8752 o
52.5669 73.652 o
57.7318 75.8439 o
43.8189 56.9079 o
69.7359 54.8158 o
50.9711 77.2159 o
51.1281 67.3556 o
39.9111 49.5473 o
59.8742 65.6263 o
57.6433 77.518 o
42.8908 45.1376 o
53.706 85.5245 o
84.0944 71.4142 o
49.168 57.8804 o
50.4793 64.6755 o
52.1095 88.4639 o
105.854 60.7016 o
51.229 66.8085 o
54.6565 72.5053 o
52.9437 70.2235 o
82.1271 71.9822 o
79.1921 79.7144 o
55.249 52.1451 o
51.9581 69.804 o
61.4574 66.4493 o
52.5917 66.3989 o
59.1366 69.3 o
59.6697 68.0534 o
62.6232 74.7614 o
49.133 68.5923 o
45.7632 72.9539 o
67.8551 71.7642 o
40.0578 83.7135 o
42.9642 69.2872 o
59.6987 72.9054 o
62.7709 69.1275 o
42.4506 49.4023 o
58.2496 71.7792 o
41.9181 54.2699 o
53.9616 62.7549 o
47.1503 78.2957 o
46.7135 62.0881 o
39.8671 50.8406 o
51.0495 62.4011 o
76.1651 78.6175 o
64.5787 55.7653 o
70.4047 62.8982 o
46.1019 59.4517 o
60.1133 69.4551 o
55.5987 77.4538 o
65.4264 76.2188 o
69.9483 72.2843 o
59.1576 76.6953 o
54.3841 65.4128 o
65.7077 81.2952 o
62.8481 81.5077 o
75.5449 70.5879 o
47.3606 69.7922 o
70.4389 69.9488 o
64.1373 59.9604 o
67.2785 65.8603 o
111.98 72.0863 o
48.4128 45.0077 o
52.2072 73.3867 o
55.0385 80.1487 o
75.8501 70.9888 o
53.7313 74.3537 o
51.4863 53.646 o
44.3771 51.4695 o
73.1218 83.872 o
63.1942 77.3813 o
40.0127 67.6464 o
66.0796 66.4559 o
49.4826 68.4602 o
42.5369 85.3973 o
53.2584 61.3475 o
92.2282 70.9315 o
49.7122 66.2431 o
39.1827 57.987 o
59.1835 79.1252 o
43.5973 63.7041 o
70.5102 58.8774 o
61.2423 65.4403 o
44.0686 83.8651 o
63.1227 70.7536 o
47.3692 60.5471 o
47.8443 55.9059 o
73.3951 71.7607 o
62.4316 68.767 o
45.594 77.2061 o
40.9014 88.5525 o
40.4752 94.8992 o
59.341 69.5439 o
59.8556 60.7474 o
50.1661 75.1981 o
63.3651 69.2035 o
66.2541 53.5045 o
45.6886 70.8243 o
62.7437 75.9093 o
38.9511 78.2384 o
57.0593 73.1826 o
67.4654 61.7698 o
50.781 67.5927 o
45.0951 76.3112 o
58.3112 57.2413 o
45.9579 58.5346 o
56.7507 63.1222 o
40.6875 76.6532 o
46.1633 84.1809 o
60.0209 59.9424 o
125.488 66.0793 o
52.7347 49.0879 o
49.7461 69.1544 o
60.3831 68.3465 o
57.4547 81.7858 o
47.0879 68.4693 o
85.2119 61.8094 o
50.6287 59.5423 o
64.6311 61.0025 o
58.1551 59.6493 o
69.3088 68.4638 o
55.5161 62.3377 o
75.3882 67.0636 o
55.3461 58.3887 o
70.7216 75.0017 o
61.4137 69.0764 o
45.5015 81.5189 o
118.743 64.717 o
62.0858 72.3258 o
39.7561 74.0204 o
51.1806 85.228 o
57.4997 63.1549 o
73.4856 66.3054 o
75.2935 51.3117 o
85.141 66.9836 o
61.3482 57.5582 o
43.4203 90.533 o
52.6327 60.1791 o
70.6527 78.6583 o
50.7393 84.4417 o
63.8525 71.4423 o
46.4106 61.7886 o
75.8009 66.0666 o
43.1561 51.4352 o
53.6935 60.2933 o
61.532 71.0586 o
47.2632 74.5199 o
55.1086 61.086 o
49.4971 65.038 o
65.4853 75.8268 o
58.052 59.37 o
52.88 59.248 o
51.874 54.4094 o
52.7036 63.0065 o
65.0096 69.7089 o
41.3747 46.5862 o
62.9032 61.4924 o
136.232 67.6704 o
36.6369 94.9269 o
68.3269 78.6514 o
41.4902 70.9589 o
43.9089 75.465 o
109.618 71.4637 o
58.3699 69.4788 o
53.8144 81.7184 o
107.693 63.9508 o
66.7374 73.8601 o
47.6376 74.4264 o
82.3101 71.3126 o
73.9189 66.799 o
72.6342 68.8664 o
45.5625 67.866 o
37.8832 71.1954 o
42.512 63.8316 o
62.2661 70.9435 o
55.7174 61.4107 o
61.272 83.12 o
44.7013 62.5412 o
57.4653 76.0417 o
51.9767 69.3854 o
64.8427 77.6975 o
71.3594 68.3025 o
56.0723 77.0246 o
59.511 71.459 o
116.564 73.3457 o
66.5003 68.7512 o
106.264 68.484 o
57.8144 74.4875 o
78.36 65.2147 o
64.7689 65.8979 o
51.265 62.9571 o
48.5555 67.0237 o
54.2242 79.2009 o
51.2337 66.8346 o
63.2797 68.6942 o
55.8195 58.5392 o
66.8917 78.4116 o
46.1136 77.3423 o
46.9023 56.6542 o
68.6632 82.7855 o
60.9263 67.2984 o
73.2781 68.7035 o
73.0447 70.3963 o
49.2751 50.2031 o
51.1519 66.7595 o
37.4743 47.2308 o
62.0962 69.7191 o
50.7554 58.3051 o
82.5463 82.263 o
55.6991 72.0017 o
43.4588 89.6202 o
58.4945 67.874 o
54.7008 73.0361 o
77.4953 68.1542 o
52.8454 60.2936 o
47.3923 64.8128 o
39.7491 73.5941 o
57.8107 63.887 o
76.0658 57.2326 o
121.486 64.4019 o
47.7038 64.8355 o
80.6465 66.7983 o
55.6209 84.3261 o
47.0736 86.9791 o
55.206 51.1368 o
53.274 54.2418 o
58.3213 53.7367 o
54.4108 61.1946 o
65.4538 66.7204 o
61.9082 70.6483 o
80.5155 84.9287 o
46.93 81.8187 o
64.237 67.1256 o
52.2474 62.9407 o
51.9729 65.409 o
52.4765 66.9792 o
50.453 78.4825 o
84.519 68.6484 o
59.8366 79.1742 o
79.2422 67.3183 o
51.0252 47.7618 o
55.3755 65.1094 o
44.7297 56.495 o
46.6289 48.9168 o
44.3267 53.6045 o
59.7525 69.671 o
54.2002 59.2286 o
42.2696 65.3315 o
50.7527 51.5718 o
58.0862 74.6959 o
49.2877 57.6591 o
60.1241 68.2429 o
80.2152 73.5607 o
61.6339 67.9923 o
56.0914 61.6298 o
54.3121 62.6589 o
67.9755 70.5626 o
66.2738 55.335 o
84.2459 72.7931 o
49.1081 76.4217 o
58.5868 84.0654 o
81.2803 65.3752 o
59.5224 74.9517 o
72.383 72.9064 o
44.0025 71.4505 o
40.3839 57.964 o
66.9181 65.6285 o
46.6411 65.1472 o
69.4955 72.0704 o
65.7326 72.1082 o
52.8835 73.9567 o
37.2066 91.0206 o
59.6037 65.7242 o
61.094 60.8033 o
66.2598 72.9483 o
65.3038 78.2833 o
71.7587 74.5084 o
40.6097 91.6714 o
52.4923 64.8491 o
66.5689 67.8331 o
45.6226 45.694 o
43.5334 69.358 o
58.1002 62.5057 o
54.7987 54.2657 o
104.247 64.7661 o
78.4284 71.6246 o
66.3535 78.4319 o
102.844 61.6499 o
55.7963 75.9937 o
57.273 67.9694 o
56.53 68.6689 o
40.3954 55.9779 o
41.4124 68.1715 o
58.6781 70.2146 o
40.7086 83.2123 o
82.7011 67.8967 o
63.557 79.9634 o
62.1512 59.7587 o
43.6377 54.4644 o
77.4553 71.5504 o
44.7043 53.2443 o
53.0267 70.5657 o
48.6706 58.1599 o
53.7776 64.1976 o
64.4263 74.7813 o
74.8099 69.3998 o
53.2137 79.155 o
71.3373 78.5945 o
51.2958 57.5094 o
47.4823 51.9558 o
55.9416 67.918 o
66.3978 72.7403 o
70.8326 57.2451 o
98.0534 68.5127 o
40.9871 67.2577 o
65.3422 63.5064 o
47.9379 66.7093 o
53.569 70.6371 o
136.924 70.996 o
76.491 70.2335 o
75.6615 67.3454 o
62.6328 65.0459 o
66.286 56.6137 o
56.7933 54.5567 o
48.2604 59.0184 o
118.854 68.5657 o
41.9679 62.2258 o
64.3381 74.343 o
59.7452 71.5652 o
39.7283 59.8215 o
77.4033 72.8261 o
65.3072 73.4379 o
68.1005 73.5544 o
59.9578 64.4759 o
44.8026 55.8964 o
52.2387 75.8611 o
47.6712 75.4908 o
47.1941 57.0419 o
100.581 64.1547 o
44.7294 53.305 o
43.0572 59.1954 o
49.4053 82.9953 o
137.097 72.6016 o
73.2426 80.9889 o
57.8089 67.1652 o
49.6987 50.8155 o
66.5946 53.6394 o
59.9363 56.6429 o
70.9238 70.7193 o
42.7686 84.3428 o
51.6053 72.3435 o
58.7292 68.0716 o
66.41 85.8088 o
116.979 71.0121 o
50.6916 65.328 o
55.117 70.2909 o
56.9673 77.0782 o
55.8358 65.6569 o
41.496 78.4546 o
52.5724 77.125 o
56.7955 70.3763 o
75.6345 73.8291 o
43.7729 80.2768 o
43.8215 90.6921 o
46.2302 43.2194 o
65.8251 63.2655 o
50.2909 63.1438 o
65.5065 72.1495 o
156.581 67.4104 o
59.7905 72.8754 o
69.9632 71.9581 o
41.2472 70.2555 o
48.6815 79.7062 o
53.9619 75.0171 o
45.4165 61.3124 o
65.3687 71.384 o
60.4393 88.1768 o
50.4065 84.38 o
52.0973 74.4095 o
63.7776 73.1465 o
51.3952 57.0695 o
45.148 66.6986 o
55.6357 62.7841 o
43.5985 45.7029 o
62.5706 55.9161 o
77.245 69.1698 o
95.8457 67.7551 o
103.967 79.9489 o
57.4255 82.8496 o
62.2474 63.3066 o
58.9324 74.9829 o
40.8131 74.7006 o
51.2701 74.2804 o
39.4039 36.0638 o
53.2341 67.7213 o
89.0068 69.4012 o
39.6211 78.1245 o
48.1593 65.9306 o
41.9732 67.5785 o
93.4245 67.0264 o
49.6424 77.5261 o
66.4234 64.714 o
63.1513 73.9662 o
52.2159 61.8258 o
59.4204 76.6004 o
60.9748 62.585 o
45.4702 72.6218 o
79.2214 60.5396 o
55.9852 64.4086 o
38.9937 91.0118 o
65.0927 61.066 o
63.91 71.7688 o
48.0784 64.005 o
47.0315 57.7136 o
75.6784 71.6913 o
43.7281 60.1082 o
45.3799 66.1084 o
52.8835 55.9178 o
41.9756 79.826 o
81.2877 62.1143 o
58.3141 69.896 o
78.6468 72.5739 o
49.8119 70.2251 o
42.9162 87.4439 o
71.1913 65.7877 o
57.7242 62.4241 o
52.9348 60.5363 o
53.0916 50.4254 o
47.2329 70.7755 o
46.9312 82.0659 o
40.9825 85.811 o
130.312 63.7884 o
37.9293 61.8437 o
47.804 75.0439 o
61.4204 56.1572 o
70.8924 46.3646 o
66.6026 64.83 o
62.8905 66.486 o
52.5696 55.8984 o
58.4682 66.5672 o
53.872 82.5816 o
42.491 54.5194 o
83.7413 70.5893 o
45.2571 65.6162 o
67.4868 70.3457 o
51.5823 64.474 o
86.1785 64.7319 o
54.4577 67.479 o
75.79 49.6773 o
58.6433 61.4071 o
48.7558 73.2483 o
87.6617 71.0563 o
64.9622 69.2081 o
58.1335 75.1868 o
45.7761 62.8536 o
76.967 79.4748 o
38.2167 71.8448 o
75.3265 75.6072 o
60.0059 58.7667 o
42.65 71.7209 o
46.6927 87.4022 o
50.132 62.6307 o
50.6752 83.35 o
65.9894 80.6691 o
61.0628 67.955 o
45.4726 49.9785 o
105.545 66.0571 o
57.7896 68.1692 o
63.5374 71.5763 o
47.5962 63.472 o
50.8299 61.0848 o
79.7528 66.8017 o
42.9881 48.983 o
37.9648 61.397 o
40.4634 57.331 o
45.0924 88.662 o
63.8566 58.7673 o
51.8166 70.9666 o
64.4687 69.8765 o
38.0907 52.552 o
54.9795 58.5185 o
44.7401 71.6559 o
38.9997 76.8414 o
60.9698 69.9334 o
80.8385 72.607 o
43.6278 65.7573 o
61.3973 64.8766 o
76.891 71.7806 o
72.7309 69.5753 o
61.2649 74.1005 o
67.5592 70.9273 o
58.3099 74.5206 o
123.995 66.741 o
72.3628 69.2717 o
43.324 77.9056 o
78.8938 72.1629 o
54.5974 76.9313 o
90.5104 65.6597 o
57.9759 61.2905 o
55.5224 63.8777 o
68.8232 62.8058 o
74.6406 65.39 o
53.5613 64.3794 o
64.0422 70.4455 o
70.0225 71.8322 o
45.1205 72.9419 o
58.534 71.5384 o
49.9068 57.137 o
52.2617 67.3188 o
41.4363 58.9475 o
56.1975 65.2932 o
57.082 73.7138 o
79.8605 59.4206 o
118.129 65.163 o
74.7922 74.5523 o
52.7795 51.5286 o
53.4388 84.7263 o
42.6126 83.6642 o
39.7312 87.5139 o
57.6505 62.5046 o
67.5584 61.1219 o
35.6173 90.035 o
61.0196 64.9169 o
57.7946 66.9107 o
55.3256 71.0662 o
42.4841 70.6462 o
62.1609 59.655 o
56.1489 68.0037 o
55.5113 73.8875 o
48.916 44.4152 o
69.6246 74.9106 o
61.8455 68.894 o
49.7364 74.7973 o
92.1183 72.0723 o
83.6645 53.913 o
56.9673 79.2987 o
74.5252 65.4622 o
65.2358 60.5506 o
64.6695 75.3251 o
57.9376 66.6343 o
70.3211 76.8534 o
55.9614 60.064 o
45.3736 88.8308 o
68.9298 66.4709 o
49.076 55.4277 o
73.1117 71.8362 o
78.6667 66.2314 o
60.9915 62.4243 o
80.6327 70.0997 o
56.4394 54.2349 o
63.9234 57.3457 o
46.9996 75.2191 o
68.0591 78.3143 o
95.0973 68.1765 o
70.6179 77.9178 o
71.5891 65.769 o
39.5925 44.5483 o
51.1425 74.8298 o
41.1479 60.8892 o
116.866 77.0549 o
72.197 64.7633 o
39.1808 64.6648 o
38.6014 81.5994 o
50.3882 46.9463 o
46.2068 60.1444 o
84.069 71.392 o
67.8396 69.0579 o
85.4247 75.0021 o
67.289 60.0678 o
70.205 70.2896 o
48.2443 60.051 o
68.9662 70.1034 o
65.2014 64.179 o
41.1465 43.6067 o
42.8789 46.6506 o
39.5121 48.5209 o
70.7483 61.4634 o
56.7006 61.7768 o
75.0367 62.1842 o
55.3872 62.4995 o
39.0281 86.0683 o
55.3436 70.4583 o
69.0657 64.8427 o
64.581 61.7397 o
43.0956 72.6251 o
40.5653 79.9364 o
84.587 68.2974 o
64.6064 73.4213 o
63.6273 69.5159 o
39.9926 61.9467 o
102.602 71.7817 o
38.3756 62.682 o
72.3998 62.1871 o
69.5461 69.2356 o
63.4126 77.8985 o
57.1872 57.3246 o
55.9304 82.0111 o
61.0523 70.0017 o
54.6519 51.5353 o
79.7678 62.0295 o
42.6204 89.2432 o
57.3591 77.6588 o
59.4041 77.5406 o
43.9063 55.0752 o
39.2844 75.0834 o
42.4217 79.1263 o
43.9287 60.9362 o
76.0123 69.6978 o
67.8286 62.3598 o
78.5238 70.1385 o
53.2156 61.3541 o
56.8327 80.109 o
39.7382 76.2454 o
41.4154 72.936 o
57.4665 69.5717 o
82.5677 68.2791 o
44.9422 62.3128 o
61.3814 74.4597 o
55.4118 67.2209 o
66.8136 63.0082 o
42.9405 47.0258 o
49.1673 65.87 o
60.6518 73.3819 o
53.8898 63.7214 o
67.5811 71.9067 o
75.2378 63.6092 o
46.0098 82.4773 o
58.6223 64.0965 o
49.3606 74.6513 o
52.2237 70.4329 o
44.1028 65.6248 o
51.3027 59.9672 o
79.3514 60.0412 o
60.6671 74.2528 o
41.1698 74.1138 o
64.771 73.5332 o
67.3814 46.6548 o
52.112 69.0964 o
50.0564 45.9295 o
43.2017 61.445 o
66.6906 74.7615 o
62.1453 68.664 o
66.7799 59.2254 o
75.4613 72.8236 o
72.5645 63.0963 o
55.629 71.8243 o
53.2911 71.407 o
41.3142 56.6694 o
45.5885 87.9442 o
67.1085 59.408 o
64.1299 67.4843 o
63.9677 56.7813 o
55.1155 75.3114 o
70.947 76.144 o
52.4319 72.3709 o
100.287 77.4383 o
48.6738 66.658 o
124.682 65.6371 o
60.2054 60.5546 o
47.2615 78.0388 o
71.4129 70.0152 o
62.8558 65.8206 o
48.6398 76.321 o
45.3147 45.1441 o
64.2281 68.2439 o
45.5701 85.0405 o
62.2333 72.4346 o
53.4528 65.9987 o
54.2151 56.6839 o
60.2824 71.825 o
64.4713 72.5587 o
41.6497 84.1118 o
58.1478 69.5739 o
50.8438 65.9777 o
57.33 74.5217 o
54.412 61.3566 o
43.8918 81.1706 o
69.4381 72.7632 o
43.5506 79.6979 o
42.0625 91.1654 o
42.0086 61.6322 o
42.2348 84.151 o
59.3886 72.5706 o
40.8384 87.101 o
70.5396 69.4269 o
49.0051 75.9545 o
66.6595 64.2828 o
42.1104 67.5515 o
57.3006 57.9676 o
71.3673 71.9276 o
58.68 66.6825 o
74.4585 72.9068 o
66.9805 65.4485 o
56.2964 72.0648 o
47.6806 80.6214 o
48.5101 78.528 o
66.8713 65.6617 o
57.0991 66.1381 o
47.5903 58.0138 o
53.9437 60.3698 o
43.4439 80.6267 o
58.1332 72.1935 o
45.1096 68.8394 o
45.8381 83.6621 o
44.3563 83.2876 o
55.1273 68.0246 o
52.0523 70.0635 o
93.2407 78.676 o
108.744 69.2886 o
69.021 65.5612 o
60.8922 62.4947 o
46.2887 57.0771 o
43.4682 57.3768 o
57.443 68.8155 o
66.2085 57.7217 o
56.4667 67.4586 o
44.6653 70.2571 o
54.6793 78.0993 o
39.2437 59.8684 o
57.971 58.1944 o
50.3759 54.4311 o
47.0166 85.6671 o
58.526 69.396 o
54.6503 56.4421 o
65.9288 68.1478 o
51.8173 75.6531 o
45.3014 49.569 o
48.56 59.8383 o
67.8257 69.2171 o
63.9069 63.557 o
44.0385 66.006 o
66.5943 68.6053 o
44.0828 65.354 o
46.3682 73.7515 o
57.9105 51.7369 o
51.2337 50.3305 o
47.2558 40.1589 o
89.6994 60.1915 o
49.1287 68.2516 o
53.0842 54.3923 o
53.0953 56.1474 o
61.2785 58.8961 o
45.7283 68.9045 o
49.152 54.91 o
57.6771 71.8675 o
56.0627 68.4748 o
46.0044 78.2637 o
56.6117 67.9378 o
39.2459 81.4209 o
38.0812 40.1955 o
49.6977 81.5211 o
56.2157 67.9732 o
51.3302 58.3033 o
54.0742 78.1284 o
57.3795 80.3641 o
71.6629 66.713 o
49.4385 73.1274 o
57.211 66.9672 o
60.5372 66.4558 o
80.7976 60.0645 o
50.3155 49.4721 o
54.6936 73.6311 o
42.9264 72.9135 o
60.9884 71.0446 o
43.6693 56.3327 o
44.2686 47.0688 o
47.8595 58.4614 o
52.6104 84.2913 o
64.8042 70.174 o
59.541 64.0673 o
68.1559 65.3724 o
42.811 44.5087 o
54.6256 72.3857 o
70.0852 74.5327 o
70.0439 69.4609 o
44.4959 48.3022 o
46.1649 83.1973 o
62.566 55.8743 o
49.4737 70.9806 o
45.3887 85.7551 o
60.5493 69.0118 o
82.5069 65.9463 o
89.7803 68.3171 o
48.3277 58.3536 o
50.9977 64.1113 o
52.4002 65.6913 o
60.2254 57.8631 o
53.1813 75.5144 o
63.1496 63.468 o
76.6431 65.7691 o
65.0614 69.1499 o
72.0619 70.0701 o
60.9331 77.1416 o
49.5631 76.0597 o
59.1592 67.2316 o
65.6895 62.2198 o
57.5157 74.7533 o
54.5484 55.4658 o
54.3501 56.0781 o
56.8134 72.1299 o
41.68 43.5632 o
76.7415 72.4588 o
54.4791 69.0744 o
47.3854 80.4675 o
57.4177 68.9279 o
59.7565 62.7415 o
68.8073 65.5269 o
51.0494 74.3613 o
59.7426 78.9552 o
45.5576 70.447 o
64.3529 58.577 o
52.275 77.9508 o
58.7588 83.5068 o
41.8715 45.5903 o
75.7781 71.5602 o
56.174 68.5336 o
65.3205 62.477 o
45.3599 47.9098 o
63.2263 70.8383 o
65.474 79.2458 o
48.4543 74.9621 o
43.1774 75.7145 o
53.0815 69.2765 o
59.2932 64.6838 o
63.0713 76.546 o
43.1521 86.4559 o
49.2017 77.9689 o
63.2827 76.5449 o
41.3554 85.0961 o
71.1536 70.8321 o
65.1913 61.5409 o
80.4374 68.3886 o
81.7655 63.6874 o
68.2873 67.374 o
64.7022 72.6583 o
64.1764 62.1952 o
55.4855 55.8661 o
56.4655 89.8981 o
58.8842 69.4289 o
53.5898 62.071 o
71.3165 73.1226 o
59.5848 55.9829 o
43.7345 81.5608 o
96.291 71.7144 o
72.8949 70.2869 o
55.0274 59.5631 o
59.9689 81.7179 o
60.9607 68.7443 o
63.3086 70.2958 o
58.1752 71.3762 o
46.0212 56.1656 o
82.3103 68.78 o
49.2873 59.5799 o
51.2277 62.4254 o
42.3094 91.4357 o
86.033 71.0436 o
48.2771 79.1308 o
51.6199 76.8279 o
49.7993 63.9418 o
55.5219 81.8193 o
56.6733 56.0134 o
52.997 76.1998 o
48.2339 73.3479 o
47.6131 62.6021 o
67.1501 58.9926 o
79.7392 72.8779 o
62.4924 63.6886 o
47.7166 61.2696 o
58.3992 81.5143 o
54.4094 62.2723 o
54.8666 60.9844 o
81.5548 69.4548 o
53.1903 64.9124 o
47.4543 54.7703 o
58.8067 64.1691 o
52.6087 67.6555 o
65.155 53.9078 o
56.4 68.7519 o
58.6737 70.3595 o
52.3424 65.154 o
57.1778 72.0751 o
54.754 71.3477 o
73.836 66.1874 o
97.5197 70.264 o
68.6499 74.0592 o
54.2056 68.0635 o
50.0479 75.6783 o
70.4149 62.031 o
48.137 57.5483 o
66.5474 66.3333 o
66.0384 62.2222 o
73.2329 65.6892 o
41.0083 82.4863 o
51.755 49.571 o
62.6589 68.9445 o
38.3368 82.7612 o
56.0576 52.623 o
61.312 74.0882 o
48.3388 72.9913 o
64.003 77.7677 o
60.8011 60.8666 o
88.214 71.5893 o
72.9081 74.5237 o
65.9198 72.4477 o
64.7829 70.9023 o
66.0142 57.3398 o
68.7059 70.3944 o
47.6602 71.9242 o
64.2798 73.2244 o
56.7235 75.4761 o
57.2285 65.9132 o
59.3804 72.1386 o
53.2372 57.3986 o
50.425 65.4141 o
74.3583 72.4462 o
40.3485 75.989 o
52.5322 65.2149 o
68.838 77.7342 o
67.6287 72.3348 o
54.8071 69.0461 o
52.7068 51.7349 o
67.5481 64.5086 o
91.3763 61.9364 o
46.4503 56.4161 o
37.3714 72.5721 o
38.6934 77.5185 o
47.8115 83.5774 o
49.7939 78.8515 o
54.9259 74.999 o
59.4332 56.1337 o
72.1712 76.2928 o
68.8569 62.8079 o
43.4302 74.3501 o
64.6799 67.2437 o
57.7015 76.9666 o
52.3617 64.7685 o
69.0641 71.545 o
65.2566 60.3747 o
43.2271 91.0612 o
75.743 64.1967 o
64.5151 61.9042 o
59.523 71.9609 o
79.453 70.5581 o
59.896 57.8789 o
52.6616 50.679 o
87.3933 66.5903 o
89.5836 61.5578 o
73.8722 65.3574 o
48.4901 55.5288 o
43.3417 46.3922 o
53.6327 45.866 o
46.1624 50.3634 o
44.0616 60.9092 o
57.7686 75.9019 o
59.4038 59.6356 o
101.256 67.4568 o
132.846 67.4847 o
58.1466 70.8767 o
60.0689 82.652 o
40.413 81.6671 o
55.861 69.7911 o
42.9061 83.8633 o
50.202 53.8595 o
65.1186 68.1028 o
58.8117 80.7766 o
39.4137 88.676 o
49.1111 56.073 o
57.0179 67.3987 o
50.4176 83.3021 o
65.4962 74.2653 o
39.9574 90.6006 o
47.4741 69.7613 o
100.13 71.1307 o
49.2593 75.4161 o
77.7192 65.6952 o
86.8837 74.0208 o
54.0911 75.5908 o
90.318 66.64 o
43.4801 80.3214 o
43.9751 69.8386 o
48.9583 71.9669 o
54.4665 76.5 o
68.5284 67.3599 o
51.2254 50.8628 o
45.75 53.5595 o
37.5704 73.651 o
61.7259 74.9318 o
60.236 63.0053 o
58.7049 75.5054 o
59.0656 65.1628 o
121.017 68.1542 o
49.9399 62.6457 o
59.9298 80.2014 o
56.2439 72.5472 o
49.8 51.3847 o
52.1081 62.2078 o
69.2434 68.578 o
36.7395 61.991 o
106.631 75.8277 o
42.201 54.2473 o
49.7947 69.9681 o
49.1883 70.6417 o
69.4952 69.9609 o
55.0595 67.108 o
48.1699 83.9021 o
81.4278 71.1454 o
44.0467 43.9505 o
66.3908 68.8623 o
66.2547 54.2173 o
53.8256 68.142 o
53.1065 54.4136 o
65.9573 59.2199 o
85.5353 73.3246 o
62.9094 74.3391 o
51.2002 64.5011 o
51.3166 75.4011 o
36.757 89.3979 o
61.7911 72.3849 o
53.0679 54.8798 o
39.1007 57.1181 o
75.73 63.7005 o
56.3413 64.1289 o
60.6678 74.9699 o
54.8103 75.591 o
43.2731 47.786 o
63.9448 75.7308 o
41.438 56.0514 o
67.1667 61.9539 o
67.3064 68.8023 o
58.5639 64.9612 o
116.216 64.4234 o
48.1192 75.7867 o
82.699 71.0913 o
62.1246 67.722 o
55.7384 77.579 o
47.0367 56.2165 o
59.854 64.6381 o
68.7387 77.5185 o
54.8498 64.125 o
77.3497 65.5127 o
68.3483 68.7093 o
49.4147 74.6066 o
55.4175 64.0594 o
64.9821 70.8094 o
55.6008 81.7185 o
67.426 57.8599 o
46.408 80.5358 o
62.736 73.278 o
83.7637 71.0653 o
66.9909 73.1224 o
54.6425 63.141 o
79.963 55.6172 o
42.1841 81.8365 o
44.3331 62.2484 o
63.5928 62.514 o
61.8243 57.3719 o
41.6444 51.411 o
83.364 70.5359 o
66.3024 68.6105 o
49.495 59.3402 o
60.1832 65.5998 o
65.6143 67.5581 o
60.1275 81.4366 o
38.4411 52.5196 o
48.81 52.4586 o
72.074 70.5295 o
82.4057 70.6171 o
65.9024 58.594 o
57.0024 84.3242 o
41.4557 49.541 o
51.9488 55.5764 o
55.6777 63.4293 o
58.4551 77.2495 o
49.6322 53.9623 o
52.8534 69.1153 o
44.1246 57.9502 o
58.1568 64.9085 o
66.5162 67.1181 o
66.0127 64.6366 o
52.4397 57.7333 o
75.9263 71.264 o
56.2432 74.0385 o
72.7185 61.7351 o
61.4727 63.564 o
55.8527 67.4152 o
46.0599 70.6124 o
86.1007 66.6647 o
66.0492 74.0636 o
41.7588 78.8348 o
66.9869 64.9432 o
40.0407 59.3758 o
74.9065 63.4392 o
59.534 62.8712 o
45.6944 62.1737 o
42.8637 79.8882 o
71.9702 83.4112 o
39.8851 69.3401 o
41.6295 69.9389 o
43.023 69.6076 o
51.0358 66.3088 o
52.2594 62.4266 o
55.1734 57.6857 o
66.5356 70.8799 o
44.9133 49.4255 o
67.1624 64.9443 o
93.961 62.4457 o
91.2989 67.8087 o
64.8399 69.1921 o
51.1489 64.6163 o
60.6475 70.3311 o
69.8813 71.9676 o
93.9904 70.4672 o
66.2652 64.5842 o
70.2479 62.2033 o
49.8822 70.6756 o
91.4303 67.0617 o
36.5084 40.4387 o
80.5892 68.208 o
49.5931 72.3665 o
59.3808 69.285 o
73.7899 68.7117 o
67.2966 71.0186 o
74.3775 61.8975 o
71.1828 61.6332 o
51.3817 64.6212 o
73.6678 70.0481 o
54.3374 61.7865 o
58.4606 56.0923 o
63.9381 63.9078 o
49.8654 76.5339 o
43.7397 55.8795 o
51.1221 82.5719 o
53.8806 87.6143 o
59.3324 68.7556 o
63.9821 72.0414 o
56.3979 65.2832 o
40.3306 43.9114 o
63.0544 80.1558 o
49.5162 77.819 o
41.9771 82.174 o
42.6896 74.7196 o
40.901 72.2051 o
68.8573 56.2573 o
66.7509 64.245 o
67.764 58.9971 o
51.8983 71.9744 o
71.7933 72.1018 o
43.4744 46.2413 o
65.9943 63.4438 o
65.9688 68.722 o
48.4174 65.4957 o
53.4148 66.552 o
46.4269 53.9131 o
56.1341 71.3881 o
73.211 75.9349 o
49.4215 74.0397 o
78.1975 67.8514 o
51.7597 61.6572 o
49.9141 73.4045 o
58.6079 83.6134 o
55.6877 70.6321 o
73.4896 61.6432 o
60.5756 64.2052 o
59.4636 50.655 o
71.9375 68.2006 o
60.8294 60.1505 o
68.449 63.874 o
63.2333 65.9403 o
64.1225 67.7754 o
47.2837 80.8291 o
69.3801 73.6754 o
74.6751 61.7497 o
50.5463 64.1548 o
82.3186 63.9089 o
65.6829 71.0555 o
96.7176 78.8504 o
44.0284 81.1304 o
105.821 62.9648 o
46.7563 66.0662 o
53.032 62.5033 o
55.4181 78.9682 o
56.8595 60.0046 o
57.0319 76.9958 o
56.7895 58.9584 o
53.4356 68.2533 o
52.2592 79.6009 o
60.74 53.1666 o
36.4814 89.3481 o
60.6512 64.391 o
62.0234 58.8264 o
61.8906 73.3621 o
46.4196 66.5333 o
75.4181 62.6552 o
60.4441 58.4954 o
58.2082 69.2104 o
44.9481 56.1664 o
62.7168 67.9937 o
55.497 77.517 o
55.6364 47.4196 o
67.9697 62.0389 o
64.0108 64.1133 o
41.4414 74.7855 o
72.5408 64.133 o
60.6992 67.3606 o
64.4208 55.158 o
43.0631 55.1986 o
93.9658 68.4681 o
69.6615 76.531 o
61.8736 69.8564 o
49.9988 70.0321 o
49.2251 52.8861 o
62.6287 65.6267 o
47.6898 61.3035 o
48.5019 73.4387 o
47.2919 70.0411 o
45.6599 67.2078 o
39.2214 47.8773 o
62.6263 62.1098 o
67.8168 63.2531 o
66.9321 72.0698 o
64.1613 64.02 o
62.6127 77.6491 o
76.3745 82.0391 o
50.3252 80.1284 o
61.4453 75.8256 o
65.3199 59.1652 o
67.6463 71.8956 o
72.1118 67.0707 o
57.7364 53.2688 o
68.8666 68.6066 o
47.8975 61.7787 o
49.1195 77.2823 o
71.5669 70.2424 o
62.3378 60.0104 o
56.5526 77.2242 o
65.7742 73.0847 o
75.3831 60.6765 o
71.9583 67.9537 o
43.4571 67.4385 o
61.0361 76.2121 o
64.8202 64.9535 o
53.844 64.739 o
41.4154 87.1731 o
43.7166 88.2173 o
42.773 64.489 o
55.1871 72.9563 o
59.4811 74.9287 o
60.0795 58.7265 o
57.4919 67.4595 o
58.948 68.1801 o
63.2494 74.4028 o
49.3654 65.9778 o
48.3232 76.6322 o
58.1219 68.4245 o
53.8849 63.2961 o
73.3149 63.155 o
58.4296 64.7274 o
46.9795 59.9919 o
48.8064 80.1756 o
81.187 66.672 o
45.007 72.9554 o
53.5793 64.4536 o
62.181 67.5872 o
50.5531 56.8817 o
76.7667 72.1111 o
41.9984 62.6621 o
38.9971 48.1693 o
61.629 80.8209 o
97.696 73.0577 o
56.0879 61.0909 o
83.7484 77.0254 o
72.1868 75.4173 o
62.0551 58.6158 o
35.1052 44.1009 o
59.5345 69.465 o
60.7894 65.0581 o
73.5147 56.2023 o
44.733 64.0063 o
41.8576 53.8364 o
61.6778 69.4709 o
60.1934 67.033 o
72.0345 61.2286 o
66.024 71.6862 o
50.4462 78.9264 o
78.2615 61.2856 o
44.6104 52.5043 o
64.9805 70.3985 o
65.1316 68.9709 o
46.9718 83.5907 o
53.124 69.1718 o
71.0022 71.2858 o
76.4564 69.3254 o
48.9872 70.8706 o
43.4015 77.0295 o
68.7028 78.8072 o
75.7944 59.2265 o
51.7493 76.7468 o
80.165 67.3921 o
51.5425 80.6537 o
58.8044 59.7708 o
77.8886 69.8941 o
42.4609 59.4036 o
63.0369 82.0293 o
81.121 68.6622 o
38.5207 53.3025 o
66.632 75.7692 o
47.3172 53.546 o
61.2477 62.2518 o
70.7267 57.3712 o
69.8145 64.4702 o
117.827 67.0902 o
42.9774 87.7857 o
116.796 65.5833 o
49.253 66.0623 o
43.0626 61.4853 o
51.1264 69.5852 o
36.9037 66.3601 o
61.8342 58.9674 o
64.6199 68.9426 o
92.0996 70.3633 o
54.5314 70.6933 o
71.698 80.631 o
64.9032 74.4077 o
104.951 67.0932 o
71.6341 61.3677 o
47.5083 49.0562 o
66.4707 64.2527 o
71.9936 66.935 o
78.4329 74.5523 o
61.41 58.8256 o
49.0069 60.8163 o
64.0754 64.2209 o
58.2257 84.6288 o
38.8189 86.2455 o
50.9832 53.4048 o
41.3347 51.6925 o
49.4122 71.8632 o
72.304 73.8774 o
52.4662 80.614 o
65.9393 69.2539 o
61.3412 65.0879 o
67.1607 65.3868 o
43.1039 85.7573 o
78.3243 62.6732 o
55.5891 68.3159 o
56.0857 70.0418 o
81.7411 67.4349 o
49.1191 68.0797 o
52.1866 70.8021 o
78.932 59.2782 o
45.6231 56.9013 o
50.4394 47.0784 o
59.8565 59.3005 o
44.6947 63.6414 o
64.5856 72.8118 o
63.2899 69.5521 o
38.4919 86.3128 o
88.2233 66.8177 o
39.6304 79.4813 o
52.9025 70.088 o
88.6564 66.3948 o
49.6818 55.4438 o
102.462 66.2972 o
87.3542 60.2174 o
56.2278 69.5431 o
63.7886 65.6091 o
38.0574 45.453 o
58.3508 72.6235 o
55.9257 66.3605 o
55.9765 77.7101 o
39.4591 64.9704 o
80.7803 72.5382 o
84.7763 68.1615 o
59.1498 72.2598 o
43.6475 72.7933 o
56.1489 72.4991 o
87.1478 76.8295 o
47.31 55.2952 o
62.0397 80.0033 o
50.0651 65.6502 o
55.7707 78.118 o
39.204 38.8826 o
66.2531 58.4589 o
127.397 68.756 o
62.5758 72.1895 o
72.1175 58.4582 o
65.6576 80.1573 o
66.4749 65.2091 o
60.3195 60.7896 o
46.3829 67.8501 o
54.3718 77.1671 o
53.8876 67.183 o
75.5014 73.7564 o
44.8456 64.0198 o
47.5564 53.9368 o
89.6995 70.6224 o
70.6661 71.2514 o
60.1616 62.5627 o
61.7285 78.612 o
45.4603 75.6834 o
65.5238 67.7362 o
50.748 74.3707 o
grestore
0.000 1.000 1.000 setrgbcolor
gsave
140.4 84.46 34.2 25.7 clipbox
/o {
gsave
newpath
translate
0.5 setlinewidth
1 setlinejoin
0 setlinecap
0 -0.25 m
0.0663008 -0.25 0.129895 -0.223658 0.176777 -0.176777 c
0.223658 -0.129895 0.25 -0.0663008 0.25 0 c
0.25 0.0663008 0.223658 0.129895 0.176777 0.176777 c
0.129895 0.223658 0.0663008 0.25 0 0.25 c
-0.0663008 0.25 -0.129895 0.223658 -0.176777 0.176777 c
-0.223658 0.129895 -0.25 0.0663008 -0.25 0 c
-0.25 -0.0663008 -0.223658 -0.129895 -0.176777 -0.176777 c
-0.129895 -0.223658 -0.0663008 -0.25 0 -0.25 c
cl
gsave
0.000 1.000 1.000 setrgbcolor
fill
grestore
stroke
grestore
} bind def
62.6071 54.1792 o
65.8236 66.1722 o
60.6705 49.7366 o
67.6838 63.7531 o
61.804 81.6711 o
61.0476 73.8458 o
67.1138 72.1878 o
62.5692 56.4991 o
60.6819 49.9296 o
68.2833 65.8958 o
60.5357 55.6401 o
66.1321 82.4083 o
60.6005 77.0962 o
65.2149 50.7404 o
63.6606 69.3686 o
63.245 59.5886 o
61.767 82.3359 o
64.2438 75.5554 o
67.4596 53.6582 o
65.0005 63.4071 o
66.4338 50.1692 o
63.8786 79.9546 o
65.6919 76.0562 o
64.5849 56.2487 o
71.5378 66.3896 o
71.0608 48.8668 o
60.9585 69.392 o
66.7712 77.3104 o
66.2055 72.1713 o
64.8875 46.4799 o
62.9807 75.0741 o
66.5087 64.2024 o
70.1542 67.805 o
68.5608 49.5636 o
69.5911 82.0509 o
68.5083 64.9658 o
64.0216 61.1482 o
68.4534 53.8145 o
67.4633 63.65 o
67.104 48.1535 o
65.8021 66.1736 o
67.0973 60.5927 o
70.1542 70.0541 o
67.6141 72.989 o
68.9464 71.8183 o
66.9969 68.305 o
grestore
1.000 0.000 0.000 setrgbcolor
gsave
140.4 84.46 34.2 25.7 clipbox
/o {
gsave
newpath
translate
0.5 setlinewidth
1 setlinejoin
0 setlinecap
0 -0.25 m
0.0663008 -0.25 0.129895 -0.223658 0.176777 -0.176777 c
0.223658 -0.129895 0.25 -0.0663008 0.25 0 c
0.25 0.0663008 0.223658 0.129895 0.176777 0.176777 c
0.129895 0.223658 0.0663008 0.25 0 0.25 c
-0.0663008 0.25 -0.129895 0.223658 -0.176777 0.176777 c
-0.223658 0.129895 -0.25 0.0663008 -0.25 0 c
-0.25 -0.0663008 -0.223658 -0.129895 -0.176777 -0.176777 c
-0.129895 -0.223658 -0.0663008 -0.25 0 -0.25 c
cl
gsave
1.000 0.000 0.000 setrgbcolor
fill
grestore
stroke
grestore
} bind def
77.2182 80.6004 o
84.9515 77.1518 o
81.9653 78.2075 o
77.5647 79.6855 o
77.058 78.4186 o
81.2723 77.926 o
80.6534 75.1811 o
83.8423 76.5887 o
82.2427 74.3366 o
72.5205 78.9113 o
80.2213 74.407 o
76.0116 79.3336 o
84.4961 76.3776 o
81.7754 74.3366 o
79.3645 75.6738 o
78.735 77.9963 o
75.9159 78.7001 o
73.5957 80.1077 o
grestore
1.000 setlinewidth
0 setlinejoin
2 setlinecap
0.000 setgray
gsave
34.2 110.16 m
174.6 110.16 l
stroke
grestore
gsave
174.6 25.704 m
174.6 110.16 l
stroke
grestore
gsave
34.2 25.704 m
174.6 25.704 l
stroke
grestore
gsave
34.2 25.704 m
34.2 110.16 l
stroke
grestore
0.500 setlinewidth
1 setlinejoin
0 setlinecap
gsave
/o {
gsave
newpath
translate
0.5 setlinewidth
1 setlinejoin
0 setlinecap
0 0 m
0 4 l
gsave
0.000 setgray
fill
grestore
stroke
grestore
} bind def
34.2 25.704 o
grestore
gsave
/o {
gsave
newpath
translate
0.5 setlinewidth
1 setlinejoin
0 setlinecap
0 0 m
0 -4 l
gsave
0.000 setgray
fill
grestore
stroke
grestore
} bind def
34.2 110.16 o
grestore
/BitstreamVeraSans-Roman findfont
6.000 scalefont
setfont
gsave
32.684375 17.141500 translate
0.000000 rotate
0.000000 0.000000 m /zero glyphshow
grestore
gsave
/o {
gsave
newpath
translate
0.5 setlinewidth
1 setlinejoin
0 setlinecap
0 0 m
0 4 l
gsave
0.000 setgray
fill
grestore
stroke
grestore
} bind def
57.6 25.704 o
grestore
gsave
/o {
gsave
newpath
translate
0.5 setlinewidth
1 setlinejoin
0 setlinecap
0 0 m
0 -4 l
gsave
0.000 setgray
fill
grestore
stroke
grestore
} bind def
57.6 110.16 o
grestore
gsave
54.310937 17.141500 translate
0.000000 rotate
0.000000 0.000000 m /one glyphshow
3.817383 0.000000 m /zero glyphshow
grestore
gsave
/o {
gsave
newpath
translate
0.5 setlinewidth
1 setlinejoin
0 setlinecap
0 0 m
0 4 l
gsave
0.000 setgray
fill
grestore
stroke
grestore
} bind def
81 25.704 o
grestore
gsave
/o {
gsave
newpath
translate
0.5 setlinewidth
1 setlinejoin
0 setlinecap
0 0 m
0 -4 l
gsave
0.000 setgray
fill
grestore
stroke
grestore
} bind def
81 110.16 o
grestore
gsave
77.601562 17.141500 translate
0.000000 rotate
0.000000 0.000000 m /two glyphshow
3.817383 0.000000 m /zero glyphshow
grestore
gsave
/o {
gsave
newpath
translate
0.5 setlinewidth
1 setlinejoin
0 setlinecap
0 0 m
0 4 l
gsave
0.000 setgray
fill
grestore
stroke
grestore
} bind def
104.4 25.704 o
grestore
gsave
/o {
gsave
newpath
translate
0.5 setlinewidth
1 setlinejoin
0 setlinecap
0 0 m
0 -4 l
gsave
0.000 setgray
fill
grestore
stroke
grestore
} bind def
104.4 110.16 o
grestore
gsave
101.009375 17.141500 translate
0.000000 rotate
0.000000 0.000000 m /three glyphshow
3.817383 0.000000 m /zero glyphshow
grestore
gsave
/o {
gsave
newpath
translate
0.5 setlinewidth
1 setlinejoin
0 setlinecap
0 0 m
0 4 l
gsave
0.000 setgray
fill
grestore
stroke
grestore
} bind def
127.8 25.704 o
grestore
gsave
/o {
gsave
newpath
translate
0.5 setlinewidth
1 setlinejoin
0 setlinecap
0 0 m
0 -4 l
gsave
0.000 setgray
fill
grestore
stroke
grestore
} bind def
127.8 110.16 o
grestore
gsave
124.331250 17.141500 translate
0.000000 rotate
0.000000 0.000000 m /four glyphshow
3.817383 0.000000 m /zero glyphshow
grestore
gsave
/o {
gsave
newpath
translate
0.5 setlinewidth
1 setlinejoin
0 setlinecap
0 0 m
0 4 l
gsave
0.000 setgray
fill
grestore
stroke
grestore
} bind def
151.2 25.704 o
grestore
gsave
/o {
gsave
newpath
translate
0.5 setlinewidth
1 setlinejoin
0 setlinecap
0 0 m
0 -4 l
gsave
0.000 setgray
fill
grestore
stroke
grestore
} bind def
151.2 110.16 o
grestore
gsave
147.817187 17.141500 translate
0.000000 rotate
0.000000 0.000000 m /five glyphshow
3.817383 0.000000 m /zero glyphshow
grestore
gsave
/o {
gsave
newpath
translate
0.5 setlinewidth
1 setlinejoin
0 setlinecap
0 0 m
0 4 l
gsave
0.000 setgray
fill
grestore
stroke
grestore
} bind def
174.6 25.704 o
grestore
gsave
/o {
gsave
newpath
translate
0.5 setlinewidth
1 setlinejoin
0 setlinecap
0 0 m
0 -4 l
gsave
0.000 setgray
fill
grestore
stroke
grestore
} bind def
174.6 110.16 o
grestore
gsave
171.193750 17.141500 translate
0.000000 rotate
0.000000 0.000000 m /six glyphshow
3.817383 0.000000 m /zero glyphshow
grestore
gsave
91.900000 4.891500 translate
0.000000 rotate
/Cmr10 findfont
8.0 scalefont
setfont
0.000000 0.000000 moveto
/r glyphshow

/BitstreamVeraSans-Roman findfont
8.0 scalefont
setfont
3.128906 0.000000 moveto
/space glyphshow

/Cmr10 findfont
8.0 scalefont
setfont
5.671875 0.000000 moveto
/parenleft glyphshow

8.777344 0.000000 moveto
/k glyphshow

12.992188 0.000000 moveto
/p glyphshow

17.433594 0.000000 moveto
/c glyphshow

20.984375 0.000000 moveto
/parenright glyphshow


grestore
gsave
/o {
gsave
newpath
translate
0.5 setlinewidth
1 setlinejoin
0 setlinecap
0 0 m
4 0 l
gsave
0.000 setgray
fill
grestore
stroke
grestore
} bind def
34.2 25.704 o
grestore
gsave
/o {
gsave
newpath
translate
0.5 setlinewidth
1 setlinejoin
0 setlinecap
0 0 m
-4 0 l
gsave
0.000 setgray
fill
grestore
stroke
grestore
} bind def
174.6 25.704 o
grestore
gsave
14.762500 24.047750 translate
0.000000 rotate
0.000000 0.000000 m /minus glyphshow
5.027344 0.000000 m /six glyphshow
8.844727 0.000000 m /zero glyphshow
12.662109 0.000000 m /zero glyphshow
grestore
gsave
/o {
gsave
newpath
translate
0.5 setlinewidth
1 setlinejoin
0 setlinecap
0 0 m
4 0 l
gsave
0.000 setgray
fill
grestore
stroke
grestore
} bind def
34.2 39.78 o
grestore
gsave
/o {
gsave
newpath
translate
0.5 setlinewidth
1 setlinejoin
0 setlinecap
0 0 m
-4 0 l
gsave
0.000 setgray
fill
grestore
stroke
grestore
} bind def
174.6 39.78 o
grestore
gsave
14.762500 38.123750 translate
0.000000 rotate
0.000000 0.000000 m /minus glyphshow
5.027344 0.000000 m /four glyphshow
8.844727 0.000000 m /zero glyphshow
12.662109 0.000000 m /zero glyphshow
grestore
gsave
/o {
gsave
newpath
translate
0.5 setlinewidth
1 setlinejoin
0 setlinecap
0 0 m
4 0 l
gsave
0.000 setgray
fill
grestore
stroke
grestore
} bind def
34.2 53.856 o
grestore
gsave
/o {
gsave
newpath
translate
0.5 setlinewidth
1 setlinejoin
0 setlinecap
0 0 m
-4 0 l
gsave
0.000 setgray
fill
grestore
stroke
grestore
} bind def
174.6 53.856 o
grestore
gsave
14.762500 52.199750 translate
0.000000 rotate
0.000000 0.000000 m /minus glyphshow
5.027344 0.000000 m /two glyphshow
8.844727 0.000000 m /zero glyphshow
12.662109 0.000000 m /zero glyphshow
grestore
gsave
/o {
gsave
newpath
translate
0.5 setlinewidth
1 setlinejoin
0 setlinecap
0 0 m
4 0 l
gsave
0.000 setgray
fill
grestore
stroke
grestore
} bind def
34.2 67.932 o
grestore
gsave
/o {
gsave
newpath
translate
0.5 setlinewidth
1 setlinejoin
0 setlinecap
0 0 m
-4 0 l
gsave
0.000 setgray
fill
grestore
stroke
grestore
} bind def
174.6 67.932 o
grestore
gsave
27.168750 66.275750 translate
0.000000 rotate
0.000000 0.000000 m /zero glyphshow
grestore
gsave
/o {
gsave
newpath
translate
0.5 setlinewidth
1 setlinejoin
0 setlinecap
0 0 m
4 0 l
gsave
0.000 setgray
fill
grestore
stroke
grestore
} bind def
34.2 82.008 o
grestore
gsave
/o {
gsave
newpath
translate
0.5 setlinewidth
1 setlinejoin
0 setlinecap
0 0 m
-4 0 l
gsave
0.000 setgray
fill
grestore
stroke
grestore
} bind def
174.6 82.008 o
grestore
gsave
19.590625 80.351750 translate
0.000000 rotate
0.000000 0.000000 m /two glyphshow
3.817383 0.000000 m /zero glyphshow
7.634766 0.000000 m /zero glyphshow
grestore
gsave
/o {
gsave
newpath
translate
0.5 setlinewidth
1 setlinejoin
0 setlinecap
0 0 m
4 0 l
gsave
0.000 setgray
fill
grestore
stroke
grestore
} bind def
34.2 96.084 o
grestore
gsave
/o {
gsave
newpath
translate
0.5 setlinewidth
1 setlinejoin
0 setlinecap
0 0 m
-4 0 l
gsave
0.000 setgray
fill
grestore
stroke
grestore
} bind def
174.6 96.084 o
grestore
gsave
19.450000 94.427750 translate
0.000000 rotate
0.000000 0.000000 m /four glyphshow
3.817383 0.000000 m /zero glyphshow
7.634766 0.000000 m /zero glyphshow
grestore
gsave
/o {
gsave
newpath
translate
0.5 setlinewidth
1 setlinejoin
0 setlinecap
0 0 m
4 0 l
gsave
0.000 setgray
fill
grestore
stroke
grestore
} bind def
34.2 110.16 o
grestore
gsave
/o {
gsave
newpath
translate
0.5 setlinewidth
1 setlinejoin
0 setlinecap
0 0 m
-4 0 l
gsave
0.000 setgray
fill
grestore
stroke
grestore
} bind def
174.6 110.16 o
grestore
gsave
19.575000 108.503750 translate
0.000000 rotate
0.000000 0.000000 m /six glyphshow
3.817383 0.000000 m /zero glyphshow
7.634766 0.000000 m /zero glyphshow
grestore
gsave
6.762500 44.932000 translate
90.000000 rotate
/Cmmi10 findfont
8.0 scalefont
setfont
0.000000 0.921875 moveto
/v glyphshow

/BitstreamVeraSans-Roman findfont
8.0 scalefont
setfont
3.871094 0.921875 moveto
/space glyphshow

/Cmr10 findfont
5.6 scalefont
setfont
6.414062 -1.166125 moveto
/G glyphshow

10.805469 -1.166125 moveto
/S glyphshow

13.914453 -1.166125 moveto
/R glyphshow

/BitstreamVeraSans-Roman findfont
8.0 scalefont
setfont
18.035156 0.921875 moveto
/space glyphshow

20.578125 0.921875 moveto
/parenleft glyphshow

23.699219 0.921875 moveto
/k glyphshow

28.332031 0.921875 moveto
/m glyphshow

36.125000 0.921875 moveto
/slash glyphshow

38.695312 0.921875 moveto
/s glyphshow

42.863281 0.921875 moveto
/parenright glyphshow


grestore

end
showpage
