%!PS-Adobe-3.0 EPSF-3.0
%%Title: /Users/iuliasimion/bullock_johnston/denis_erkal/vasily/Figures/166507_1489549.0_xz.eps
%%Creator: matplotlib version 1.4.3, http://matplotlib.org/
%%CreationDate: Thu Aug 17 17:05:04 2017
%%Orientation: portrait
%%BoundingBox: 216 306 396 486
%%EndComments
%%BeginProlog
/mpldict 9 dict def
mpldict begin
/m { moveto } bind def
/l { lineto } bind def
/r { rlineto } bind def
/c { curveto } bind def
/cl { closepath } bind def
/box {
m
1 index 0 r
0 exch r
neg 0 r
cl
} bind def
/clipbox {
box
clip
newpath
} bind def
%!PS-Adobe-3.0 Resource-Font
%%Title: Bitstream Vera Sans
%%Copyright: Copyright (c) 2003 by Bitstream, Inc. All Rights Reserved.
%%Creator: Converted from TrueType to type 3 by PPR
25 dict begin
/_d{bind def}bind def
/_m{moveto}_d
/_l{lineto}_d
/_cl{closepath eofill}_d
/_c{curveto}_d
/_sc{7 -1 roll{setcachedevice}{pop pop pop pop pop pop}ifelse}_d
/_e{exec}_d
/FontName /BitstreamVeraSans-Roman def
/PaintType 0 def
/FontMatrix[.001 0 0 .001 0 0]def
/FontBBox[-183 -236 1287 928]def
/FontType 3 def
/Encoding [ /space /zero /one /two /three /four /five /minus ] def
/FontInfo 10 dict dup begin
/FamilyName (Bitstream Vera Sans) def
/FullName (Bitstream Vera Sans) def
/Notice (Copyright (c) 2003 by Bitstream, Inc. All Rights Reserved. Bitstream Vera is a trademark of Bitstream, Inc.) def
/Weight (Roman) def
/Version (Release 1.10) def
/ItalicAngle 0.0 def
/isFixedPitch false def
/UnderlinePosition -213 def
/UnderlineThickness 143 def
end readonly def
/CharStrings 8 dict dup begin
/space{318 0 0 0 0 0 _sc
}_d
/zero{636 0 66 -13 570 742 _sc
318 664 _m
267 664 229 639 203 589 _c
177 539 165 464 165 364 _c
165 264 177 189 203 139 _c
229 89 267 64 318 64 _c
369 64 407 89 433 139 _c
458 189 471 264 471 364 _c
471 464 458 539 433 589 _c
407 639 369 664 318 664 _c
318 742 _m
399 742 461 709 505 645 _c
548 580 570 486 570 364 _c
570 241 548 147 505 83 _c
461 19 399 -13 318 -13 _c
236 -13 173 19 130 83 _c
87 147 66 241 66 364 _c
66 486 87 580 130 645 _c
173 709 236 742 318 742 _c
_cl}_d
/one{636 0 110 0 544 729 _sc
124 83 _m
285 83 _l
285 639 _l
110 604 _l
110 694 _l
284 729 _l
383 729 _l
383 83 _l
544 83 _l
544 0 _l
124 0 _l
124 83 _l
_cl}_d
/two{{636 0 73 0 536 742 _sc
192 83 _m
536 83 _l
536 0 _l
73 0 _l
73 83 _l
110 121 161 173 226 239 _c
290 304 331 346 348 365 _c
380 400 402 430 414 455 _c
426 479 433 504 433 528 _c
433 566 419 598 392 622 _c
365 646 330 659 286 659 _c
255 659 222 653 188 643 _c
154 632 117 616 78 594 _c
78 694 _l
118 710 155 722 189 730 _c
223 738 255 742 284 742 _c
}_e{359 742 419 723 464 685 _c
509 647 532 597 532 534 _c
532 504 526 475 515 449 _c
504 422 484 390 454 354 _c
446 344 420 317 376 272 _c
332 227 271 164 192 83 _c
_cl}_e}_d
/three{{636 0 76 -13 556 742 _sc
406 393 _m
453 383 490 362 516 330 _c
542 298 556 258 556 212 _c
556 140 531 84 482 45 _c
432 6 362 -13 271 -13 _c
240 -13 208 -10 176 -4 _c
144 1 110 10 76 22 _c
76 117 _l
103 101 133 89 166 81 _c
198 73 232 69 268 69 _c
330 69 377 81 409 105 _c
441 129 458 165 458 212 _c
458 254 443 288 413 312 _c
383 336 341 349 287 349 _c
}_e{202 349 _l
202 430 _l
291 430 _l
339 430 376 439 402 459 _c
428 478 441 506 441 543 _c
441 580 427 609 401 629 _c
374 649 336 659 287 659 _c
260 659 231 656 200 650 _c
169 644 135 635 98 623 _c
98 711 _l
135 721 170 729 203 734 _c
235 739 266 742 296 742 _c
370 742 429 725 473 691 _c
517 657 539 611 539 553 _c
539 513 527 479 504 451 _c
481 423 448 403 406 393 _c
_cl}_e}_d
/four{636 0 49 0 580 729 _sc
378 643 _m
129 254 _l
378 254 _l
378 643 _l
352 729 _m
476 729 _l
476 254 _l
580 254 _l
580 172 _l
476 172 _l
476 0 _l
378 0 _l
378 172 _l
49 172 _l
49 267 _l
352 729 _l
_cl}_d
/five{{636 0 77 -13 549 729 _sc
108 729 _m
495 729 _l
495 646 _l
198 646 _l
198 467 _l
212 472 227 476 241 478 _c
255 480 270 482 284 482 _c
365 482 429 459 477 415 _c
525 370 549 310 549 234 _c
549 155 524 94 475 51 _c
426 8 357 -13 269 -13 _c
238 -13 207 -10 175 -6 _c
143 -1 111 6 77 17 _c
77 116 _l
106 100 136 88 168 80 _c
199 72 232 69 267 69 _c
}_e{323 69 368 83 401 113 _c
433 143 450 183 450 234 _c
450 284 433 324 401 354 _c
368 384 323 399 267 399 _c
241 399 214 396 188 390 _c
162 384 135 375 108 363 _c
108 729 _l
_cl}_e}_d
/minus{838 0 106 272 732 355 _sc
106 355 _m
732 355 _l
732 272 _l
106 272 _l
106 355 _l
_cl}_d
end readonly def

/BuildGlyph
 {exch begin
 CharStrings exch
 2 copy known not{pop /.notdef}if
 true 3 1 roll get exec
 end}_d

/BuildChar {
 1 index /Encoding get exch get
 1 index /BuildGlyph get exec
}_d

FontName currentdict end definefont pop
%!PS-Adobe-3.0 Resource-Font
%%Title: cmr10
%%Copyright: Copyright (C) 1994, Basil K. Malyshev. All Rights Reserved.012BaKoMa Fonts Collection, Level-B.
%%Creator: Converted from TrueType to type 3 by PPR
25 dict begin
/_d{bind def}bind def
/_m{moveto}_d
/_l{lineto}_d
/_cl{closepath eofill}_d
/_c{curveto}_d
/_sc{7 -1 roll{setcachedevice}{pop pop pop pop pop pop}ifelse}_d
/_e{exec}_d
/FontName /Cmr10 def
/PaintType 0 def
/FontMatrix[.001 0 0 .001 0 0]def
/FontBBox[-44 -250 1009 750]def
/FontType 3 def
/Encoding [ /Z /k /parenright /parenleft /c /p /X ] def
/FontInfo 10 dict dup begin
/FamilyName (cmr10) def
/FullName (cmr10) def
/Notice (Copyright (C) 1994, Basil K. Malyshev. All Rights Reserved.012BaKoMa Fonts Collection, Level-B. ) def
/Weight (Regular) def
/Version (1.1/12-Nov-94) def
/ItalicAngle 0.0 def
/isFixedPitch false def
/UnderlinePosition -133 def
/UnderlineThickness 20 def
end readonly def
/CharStrings 7 dict dup begin
/Z{{611 0 56 0 560 683 _sc
67 0 _m
59 0 56 3 56 11 _c
56 25 _l
56 27 56 29 58 31 _c
447 648 _l
306 648 _l
259 648 220 641 190 629 _c
160 617 137 596 121 568 _c
105 540 98 502 98 454 _c
69 454 _l
80 683 _l
543 683 _l
550 683 554 679 554 672 _c
554 660 _l
554 657 553 655 553 654 _c
164 38 _l
311 38 _l
346 38 378 41 406 48 _c
}_e{434 54 458 67 478 86 _c
491 99 501 116 509 136 _c
517 156 522 176 524 195 _c
526 213 528 239 531 271 _c
560 271 _l
543 0 _l
67 0 _l
_cl}_e}_d
/k{{527 0 26 0 511 694 _sc
26 0 _m
26 35 _l
48 35 67 36 82 40 _c
96 44 104 53 104 67 _c
104 592 _l
104 610 101 623 96 631 _c
90 639 83 643 73 645 _c
63 647 47 648 26 648 _c
26 683 _l
174 694 _l
174 219 _l
308 337 _l
321 349 328 361 328 372 _c
328 380 325 386 320 390 _c
314 394 308 396 300 396 _c
300 431 _l
488 431 _l
488 396 _l
}_e{442 396 397 376 352 337 _c
281 275 _l
408 94 _l
426 69 440 53 452 46 _c
464 38 483 35 511 35 _c
511 0 _l
312 0 _l
312 35 _l
334 35 346 42 346 56 _c
346 66 340 78 328 94 _c
232 231 _l
171 178 _l
171 67 _l
171 53 178 44 193 40 _c
207 36 226 35 249 35 _c
249 0 _l
26 0 _l
_cl}_e}_d
/parenright{{388 0 56 -249 291 750 _sc
65 -249 _m
59 -249 56 -246 56 -240 _c
56 -237 56 -235 58 -234 _c
172 -122 229 38 229 250 _c
229 462 172 623 60 733 _c
57 734 56 737 56 741 _c
56 743 57 745 59 747 _c
61 749 63 750 65 750 _c
74 750 _l
76 750 77 749 79 748 _c
127 710 167 664 199 610 _c
231 556 254 498 269 437 _c
283 376 291 314 291 250 _c
291 202 287 156 279 110 _c
}_e{271 64 258 20 241 -24 _c
223 -68 201 -108 175 -146 _c
148 -184 116 -217 79 -247 _c
77 -248 76 -249 74 -249 _c
65 -249 _l
_cl}_e}_d
/parenleft{{388 0 97 -249 332 750 _sc
310 -247 _m
272 -217 240 -184 214 -146 _c
187 -108 165 -67 148 -25 _c
131 17 118 62 110 109 _c
101 155 97 202 97 250 _c
97 298 101 345 110 392 _c
118 438 131 483 149 527 _c
166 570 188 611 215 649 _c
242 687 274 720 310 748 _c
310 749 311 750 315 750 _c
324 750 _l
326 750 327 749 329 747 _c
331 745 332 743 332 741 _c
332 738 331 736 330 735 _c
}_e{297 703 270 668 248 632 _c
226 596 209 557 196 516 _c
183 474 174 432 168 388 _c
162 344 159 298 159 250 _c
159 38 215 -122 329 -232 _c
331 -234 332 -236 332 -240 _c
332 -242 331 -244 329 -246 _c
327 -248 326 -249 324 -249 _c
315 -249 _l
311 -249 310 -248 310 -247 _c
_cl}_e}_d
/c{{444 0 33 -10 415 448 _sc
249 -10 _m
208 -10 171 0 139 21 _c
106 41 80 69 61 104 _c
42 139 33 176 33 216 _c
33 255 42 293 61 329 _c
79 365 105 393 138 415 _c
171 437 208 448 249 448 _c
288 448 324 440 356 425 _c
388 409 404 384 404 350 _c
404 337 399 326 390 316 _c
380 306 369 302 356 302 _c
342 302 331 306 322 316 _c
312 326 308 337 308 350 _c
}_e{308 362 311 372 319 381 _c
327 389 336 395 347 397 _c
324 411 292 419 250 419 _c
218 419 192 408 173 387 _c
153 365 140 339 132 308 _c
124 277 120 246 120 216 _c
120 183 124 152 134 122 _c
144 92 159 67 181 47 _c
202 27 229 18 261 18 _c
293 18 320 27 342 47 _c
364 66 379 91 387 123 _c
387 127 389 129 395 129 _c
407 129 _l
409 129 410 128 412 126 _c
}_e{414 124 415 122 415 120 _c
415 117 _l
405 77 385 46 355 24 _c
325 1 289 -10 249 -10 _c
_cl}_e}_d
/p{{555 0 26 -193 522 442 _sc
26 -193 _m
26 -158 _l
48 -158 67 -156 82 -152 _c
96 -148 104 -139 104 -126 _c
104 355 _l
104 373 97 384 84 389 _c
71 393 52 396 26 396 _c
26 431 _l
174 442 _l
174 380 _l
192 400 213 415 237 426 _c
261 436 287 442 315 442 _c
354 442 389 431 421 410 _c
453 388 477 360 495 326 _c
513 291 522 254 522 216 _c
522 175 512 137 492 103 _c
}_e{472 68 446 40 412 20 _c
378 0 340 -10 300 -10 _c
251 -10 210 9 177 48 _c
177 -126 _l
177 -139 184 -148 199 -152 _c
213 -156 232 -158 255 -158 _c
255 -193 _l
26 -193 _l
177 97 _m
188 73 204 54 225 38 _c
246 22 269 15 294 15 _c
317 15 337 21 355 33 _c
373 45 388 62 400 83 _c
412 104 420 126 426 149 _c
432 172 435 194 435 216 _c
435 242 430 271 420 302 _c
}_e{410 333 396 359 376 381 _c
356 402 333 413 305 413 _c
278 413 253 406 231 392 _c
208 378 190 360 177 336 _c
177 97 _l
_cl}_e}_d
/X{{750 0 23 0 726 683 _sc
23 0 _m
23 35 _l
91 35 138 54 165 92 _c
331 339 _l
147 619 _l
136 631 122 639 104 643 _c
86 646 64 648 37 648 _c
37 683 _l
317 683 _l
317 648 _l
305 648 291 645 275 641 _c
259 636 252 629 252 621 _c
252 619 252 618 253 617 _c
384 418 _l
499 590 _l
501 596 503 600 503 604 _c
503 618 496 628 482 636 _c
468 644 454 648 440 648 _c
}_e{440 683 _l
684 683 _l
684 648 _l
616 648 569 629 542 591 _c
405 386 _l
616 64 _l
627 51 641 43 659 40 _c
677 36 699 35 726 35 _c
726 0 _l
446 0 _l
446 35 _l
456 35 470 37 486 42 _c
502 46 511 53 511 62 _c
511 64 510 65 510 66 _c
352 307 _l
208 93 _l
206 89 205 84 205 79 _c
205 65 211 55 225 47 _c
238 39 252 35 267 35 _c
267 0 _l
}_e{23 0 _l
_cl}_e}_d
end readonly def

/BuildGlyph
 {exch begin
 CharStrings exch
 2 copy known not{pop /.notdef}if
 true 3 1 roll get exec
 end}_d

/BuildChar {
 1 index /Encoding get exch get
 1 index /BuildGlyph get exec
}_d

FontName currentdict end definefont pop
end
%%EndProlog
mpldict begin
216 306 translate
180 180 0 0 clipbox
gsave
0 0 m
180 0 l
180 180 l
0 180 l
cl
1.000 setgray
fill
grestore
gsave
34.2 36 m
174.6 36 l
174.6 162 l
34.2 162 l
cl
1.000 setgray
fill
grestore
0.500 setlinewidth
1 setlinejoin
0 setlinecap
[] 0 setdash
0.000 setgray
gsave
140.4 126 34.2 36 clipbox
/o {
gsave
newpath
translate
0.5 setlinewidth
1 setlinejoin
0 setlinecap
0 -0.25 m
0.0663008 -0.25 0.129895 -0.223658 0.176777 -0.176777 c
0.223658 -0.129895 0.25 -0.0663008 0.25 0 c
0.25 0.0663008 0.223658 0.129895 0.176777 0.176777 c
0.129895 0.223658 0.0663008 0.25 0 0.25 c
-0.0663008 0.25 -0.129895 0.223658 -0.176777 0.176777 c
-0.223658 0.129895 -0.25 0.0663008 -0.25 0 c
-0.25 -0.0663008 -0.223658 -0.129895 -0.176777 -0.176777 c
-0.129895 -0.223658 -0.0663008 -0.25 0 -0.25 c
cl
gsave
0.000 setgray
fill
grestore
stroke
grestore
} bind def
114.098 90.719 o
143.697 105.004 o
120.842 101.094 o
135.967 85.5437 o
105.263 95.7216 o
105.43 86.8648 o
106.655 107.234 o
131.674 107.708 o
132.683 94.3774 o
97.0725 82.0583 o
130.057 95.3565 o
134.924 87.6762 o
119.044 94.6769 o
83.3459 102.483 o
103.773 90.8475 o
110.254 94.6898 o
101.42 92.603 o
75.9029 107.337 o
115.987 94.0394 o
148.232 93.5161 o
114.88 100.244 o
116.577 81.0393 o
130.453 102.664 o
93.5813 95.6237 o
112.29 100.711 o
118.244 99.3418 o
119.104 102.802 o
111.269 103.061 o
109.828 97.0981 o
139.599 97.3916 o
130.662 110.925 o
139.947 74.7598 o
121.517 111.35 o
113.074 99.3858 o
135.283 112.543 o
122.151 104.256 o
116.248 99.1424 o
108.707 112.537 o
118.413 90.5018 o
114.422 106.024 o
129.498 94.6608 o
120.615 106.335 o
101.111 102.655 o
106.463 99.0861 o
116.452 90.1047 o
105.553 106.485 o
116.025 100.961 o
124.594 74.9109 o
150.656 105.069 o
101.043 95.9311 o
122.224 104.351 o
121.414 102.23 o
127.423 99.9919 o
120.194 95.1216 o
92.1093 106.981 o
102.365 104.923 o
105.24 100.169 o
103.496 99.7413 o
119.856 113.461 o
121.97 97.1928 o
128.371 85.5481 o
121.373 88.1126 o
97.7976 90.5085 o
95.8725 90.7973 o
87.4352 130.13 o
91.8262 100.614 o
103.332 96.0728 o
116.998 101.002 o
115.443 96.1287 o
135.137 110.087 o
82.0345 118.074 o
101.959 82.2626 o
124.57 92.2573 o
119.155 94.9743 o
97.1569 79.798 o
119.065 114.218 o
44.3581 114.541 o
108.671 100.439 o
86.9317 113.671 o
135.368 118.245 o
115.199 96.0173 o
169.781 95.4865 o
90.3352 108.225 o
131.672 91.9901 o
119.898 103.478 o
115.669 111.642 o
107.416 106.192 o
103.733 102.605 o
75.8016 87.1632 o
92.8727 100.209 o
108.492 103.699 o
117.713 101.881 o
109.055 98.1343 o
130.5 96.9958 o
106.378 96.5941 o
113.422 98.6216 o
106.575 92.5517 o
126.536 92.5132 o
108.337 103.103 o
99.7445 96.4998 o
122.706 94.341 o
93.6016 91.6539 o
113.335 100.038 o
119.553 92.1136 o
84.4596 61.1026 o
116.253 91.7156 o
82.273 86.713 o
121.473 116.649 o
113.482 86.7862 o
158.024 116.744 o
70.0592 114.593 o
98.0448 120.59 o
103.957 95.3481 o
104.047 72.2672 o
101.241 97.0786 o
101.144 103.429 o
60.0786 78.5114 o
125.227 103.384 o
113.001 91.3285 o
153.232 66.5975 o
104.59 104.092 o
80.371 88.0013 o
108.881 101.361 o
143.889 98.9519 o
144.994 108.331 o
119.635 104.838 o
76.837 98.4597 o
94.0403 105.997 o
135.811 103.086 o
68.1025 102.261 o
108.224 109.119 o
110.34 106.512 o
122.575 43.1965 o
122.494 113.853 o
95.1191 91.0903 o
118.766 106.848 o
137.561 94.845 o
108.975 105.281 o
131.707 100.851 o
96.7099 69.832 o
124.947 127.085 o
164.551 113.331 o
107.13 114.112 o
94.4085 92.7197 o
130.58 115.783 o
124.476 79.6606 o
102.622 107.007 o
116.152 99.9776 o
123.514 95.7569 o
109.579 96.3715 o
102.57 101.202 o
120.15 108.279 o
143.447 97.8037 o
101.232 107.07 o
107.386 95.442 o
104.053 108.71 o
101.995 100.952 o
104.723 95.3703 o
96.7059 99.3683 o
123.315 98.3982 o
92.6422 97.0433 o
150.302 122.692 o
111.445 91.7164 o
149.829 76.3813 o
56.9617 86.4099 o
104.439 103.594 o
79.6686 90.7889 o
111.921 98.7974 o
62.1644 108.033 o
118.009 94.5928 o
132.776 139.516 o
97.9694 98.2663 o
90.5347 103.847 o
94.9175 101.664 o
116.825 100.164 o
127.067 105.484 o
124.905 102.443 o
167.148 89.3393 o
131.045 91.6267 o
103.717 100.476 o
106.016 92.2217 o
121.963 86.9235 o
75.0758 99.9728 o
125.515 111.481 o
107.424 120.135 o
107.63 78.1326 o
147.072 76.9254 o
109.313 93.9639 o
105.605 92.5043 o
110.089 110.893 o
148.642 89.2093 o
70.1345 93.2417 o
121.909 117.322 o
100.024 90.4867 o
111.053 100.827 o
121.317 101.882 o
112.146 98.575 o
110.452 99.7748 o
127.448 93.3368 o
90.9123 94.0341 o
115.01 95.2555 o
99.9176 87.1007 o
117.38 109.413 o
61.1453 110.096 o
129.514 95.2999 o
104.854 102.636 o
108.567 108.916 o
116.794 112.578 o
139.42 113.163 o
140.358 115.903 o
147.263 93.0177 o
110.602 99.7144 o
110.661 100.797 o
115.667 110.67 o
109.649 65.3414 o
135.672 84.3892 o
124.013 96.7003 o
94.5912 103.707 o
114.461 100.401 o
127.058 103.977 o
111.036 107.959 o
111.928 103.085 o
113.526 107.369 o
96.3365 95.5291 o
123.591 96.366 o
107.138 106.195 o
172.336 87.6808 o
112.364 91.1709 o
112.369 94.4921 o
107.82 96.674 o
101.924 97.0527 o
64.9297 109.339 o
101.841 101.038 o
103.518 85.8897 o
111.6 100.535 o
113.929 59.5864 o
89.472 104.767 o
95.6067 119.324 o
115.455 92.4148 o
119.252 106.339 o
112.629 100.728 o
126.119 108.557 o
124.763 100.626 o
115.039 102.724 o
136.32 117.892 o
98.0842 91.3936 o
124.993 100.436 o
100.676 105.73 o
103.792 99.0631 o
104.686 101.327 o
124.87 105.917 o
150.508 98.5168 o
106.789 87.2045 o
153.539 91.1918 o
114.417 96.1686 o
124.628 104.331 o
123.599 101.14 o
115.478 99.1089 o
105.001 102.367 o
125.187 103.517 o
68.6282 85.4689 o
102.703 88.0607 o
117.148 92.3007 o
141.215 101.483 o
91.2249 111.655 o
101.254 102.583 o
92.6605 96.1894 o
114.64 99.7852 o
142.749 119.963 o
117.993 101.744 o
95.5007 114.149 o
135.974 99.0014 o
83.3655 110.474 o
121.05 91.5612 o
115.166 82.1706 o
146.478 125.696 o
138.153 133.349 o
125.993 78.4309 o
103.121 86.6493 o
98.0908 98.5019 o
111.497 123.02 o
121.836 103.059 o
113.885 90.6749 o
122.687 100.475 o
82.4205 78.7807 o
121.861 95.3589 o
121.343 102.716 o
114.586 114.145 o
127.778 97.9342 o
116.179 90.7202 o
108.505 101.133 o
113.684 90.6867 o
128.538 92.855 o
108.706 94.2414 o
105.371 110.748 o
104.427 99.3901 o
115.008 87.0494 o
87.46 94.1537 o
136.326 137.684 o
111.593 108.814 o
111.029 99.3179 o
122.15 98.0509 o
103.907 104.681 o
93.5932 109.227 o
106.951 97.0343 o
104.99 94.9781 o
100.457 108.641 o
114.395 87.9125 o
114.976 104.958 o
109.103 81.0942 o
100.201 101.364 o
128.78 115.722 o
127.736 94.0814 o
132.236 106.226 o
118.053 109.144 o
107.2 96.5795 o
95.923 98.6529 o
104.865 98.1091 o
99.5316 101.749 o
81.735 82.2536 o
103.682 99.437 o
100.754 100.171 o
111.483 101.472 o
117.586 124.594 o
120.56 88.0333 o
127.426 94.8959 o
105.881 110.345 o
109.01 103.485 o
89.9927 97.7897 o
114.354 95.3518 o
153.083 120.853 o
117.986 99.5926 o
76.0421 103.852 o
113.247 87.8774 o
105.76 102.581 o
100.979 79.7083 o
75.9276 51.8814 o
88.1691 89.3827 o
117.429 97.0248 o
103.334 106.431 o
120.685 127.29 o
126.075 102.53 o
102.315 92.4005 o
116.913 102.737 o
105.618 105.7 o
113.138 99.7588 o
110.291 99.366 o
109.979 100.529 o
127.095 91.591 o
94.7696 95.3543 o
106.973 103.461 o
108.813 122.884 o
105.786 87.6303 o
110.588 106.374 o
105.355 115.767 o
137.563 120.938 o
123.878 97.9773 o
111.852 71.5961 o
93.5449 100.351 o
121.686 86.1333 o
152.356 78.6151 o
115.601 98.104 o
110.819 96.1365 o
103.039 103.632 o
98.5774 83.3759 o
105.716 83.2994 o
107.47 97.9004 o
126.068 89.8956 o
114.123 109.213 o
127.94 103.148 o
108.779 97.9056 o
110.608 98.9536 o
101.434 128.101 o
104.101 114.141 o
119.475 100.968 o
118.497 114.332 o
72.5318 90.957 o
106.535 98.7024 o
101.468 96.7181 o
134.231 101.461 o
137.392 93.1011 o
123.956 106.987 o
111.987 96.1378 o
120.639 110.669 o
79.073 82.4679 o
126.165 98.2325 o
129.574 107.251 o
128.931 91.1298 o
88.6364 94.2126 o
104.946 107.55 o
99.5095 96.1355 o
91.1723 91.7619 o
130.305 102.03 o
88.6252 109.276 o
125.593 135.815 o
84.0075 126.551 o
89.4477 93.0403 o
132.859 99.9481 o
100.896 99.8224 o
102.16 78.8668 o
98.8289 103.73 o
156.973 105.183 o
85.7229 111.745 o
117.563 108.165 o
132.766 101.361 o
115.054 90.8946 o
103.831 88.4087 o
124.571 108.595 o
113.546 94.6454 o
127.445 100.01 o
100.843 114.699 o
97.5313 96.3506 o
104.22 99.1956 o
96.4527 79.754 o
124.883 94.9933 o
118.458 100.906 o
106.851 98.0561 o
107.245 87.6403 o
116.3 91.5352 o
83.3695 119.186 o
111.247 102.32 o
133.547 79.9407 o
98.4244 100.276 o
86.5145 120.175 o
99.4632 92.7241 o
125.881 99.7205 o
103 104.712 o
131.678 107.212 o
103.839 79.936 o
120.847 93.8645 o
106.731 109.904 o
123.983 104.094 o
104.061 98.1017 o
142.776 81.712 o
107.11 104.232 o
138.087 89.6148 o
95.0985 95.7396 o
152.598 102.419 o
110.491 88.2026 o
109.716 80.244 o
129.137 131.808 o
106.851 92.8203 o
136.693 123.996 o
97.4175 116.833 o
97.7316 105.562 o
126.85 99.1742 o
90.6616 103.444 o
88.0282 115.199 o
116.287 104.11 o
98.4275 97.3881 o
112.58 92.6122 o
124.073 116.006 o
104.817 122.047 o
117.726 92.7169 o
112.054 95.9431 o
148.103 92.1646 o
121.857 92.7595 o
124.153 83.4796 o
122.05 97.6687 o
102.723 91.8181 o
108.2 102.599 o
102.766 101.63 o
128.798 93.3642 o
134.108 104.73 o
111.943 87.2129 o
127.574 96.3181 o
130.896 104.581 o
141.484 108.671 o
106.938 92.7951 o
113.818 104.438 o
122.842 97.5003 o
95.7074 76.2328 o
112.995 100.253 o
101.535 94.5911 o
116.586 111.662 o
117.844 101.677 o
141.159 50.999 o
118.417 114.869 o
102.755 92.2764 o
124.101 109.1 o
132.548 93.9458 o
69.8147 113.881 o
111.939 106.071 o
122.733 113.164 o
95.9128 97.2859 o
121.308 85.5829 o
114.685 94.1934 o
90.4871 106.369 o
120.083 102.819 o
131.686 94.5684 o
106.143 102.896 o
134.203 105.98 o
116.801 99.4606 o
110.796 98.5742 o
117.904 101.198 o
119.851 107.604 o
108.759 95.5813 o
106.329 97.8294 o
115.23 101.855 o
141.157 143.786 o
95.0064 103.515 o
136.197 93.2948 o
127.023 92.7015 o
113.731 96.6823 o
96.0652 70.8402 o
105.131 104.04 o
114.203 102.115 o
107.508 103.606 o
115.115 97.0351 o
115.126 94.6214 o
113.692 102.564 o
103.995 103.097 o
122.79 101.284 o
134.044 90.4533 o
120.155 93.1403 o
112.288 94.0359 o
112.362 93.2451 o
123.391 87.7078 o
123.25 106.476 o
129.436 82.8285 o
144.829 100.937 o
119.452 101.98 o
97.0889 94.9172 o
113.139 97.8698 o
106.693 94.5097 o
133.721 98.8168 o
108.882 102.808 o
123.136 102.464 o
102.769 105.113 o
111.336 98.3858 o
103.807 127.847 o
122.251 103.058 o
126.192 90.6134 o
118.507 113.491 o
98.6502 102.47 o
126.379 94.8396 o
119.083 106.847 o
124.906 98.5299 o
116.185 101.819 o
120.013 113.884 o
86.1671 62.7111 o
119.163 92.6856 o
114.722 98.141 o
119.407 94.4147 o
118.62 106.439 o
136.407 122.584 o
112.059 97.9755 o
106.5 110.999 o
104.456 117.146 o
104.219 99.485 o
140.919 100.313 o
138.222 99.0673 o
136.261 102.315 o
78.1592 97.99 o
117.871 99.5201 o
115.726 94.6518 o
110.281 105.733 o
118.194 89.5025 o
92.6332 102.487 o
117.91 96.2036 o
110.032 98.5111 o
120.791 105.858 o
100.85 100.267 o
109.055 96.6426 o
120.699 92.3731 o
115.66 96.9421 o
117.706 102.271 o
98.7642 98.8202 o
122.088 96.0318 o
87.9896 103.876 o
156.647 83.7279 o
87.3173 106.056 o
139.02 95.2351 o
95.4016 109.477 o
116.856 102.76 o
99.7028 103.966 o
117.594 109.291 o
112.44 80.9372 o
91.7632 83.095 o
104.153 105.334 o
108.025 116.021 o
128.967 105.305 o
112.92 97.6006 o
80.8698 109.876 o
100.679 96.6769 o
106.727 102.413 o
125.47 99.0768 o
111.134 104.243 o
117.143 100.429 o
118.226 98.0309 o
124.201 111.614 o
65.8342 71.0074 o
114.61 104.334 o
95.2383 94.5566 o
81.6446 85.3442 o
97.9417 111.762 o
140.534 89.5748 o
108.028 99.4168 o
124.03 99.353 o
117.44 84.9713 o
116.201 126.753 o
109.431 98.7379 o
111.034 99.0619 o
103.467 96.4707 o
113.857 95.4737 o
123.797 99.0562 o
107.813 79.7549 o
128.263 96.6679 o
108.996 89.5626 o
126.348 110.819 o
97.6587 79.4726 o
134.816 82.5526 o
121.709 98.8329 o
116.821 93.2428 o
115.051 93.0941 o
114.616 111.539 o
124.483 86.3871 o
116.125 92.011 o
109.521 98.5062 o
118.045 109.698 o
114.648 101.264 o
99.1902 93.8038 o
116.535 105.992 o
112.893 100.378 o
146.296 76.3 o
131.366 77.5283 o
114.834 97.5635 o
97.0614 109.097 o
102.776 103.616 o
106.781 97.1416 o
123.316 94.2528 o
111.796 102.155 o
105.326 100.198 o
121.94 99.3503 o
109.769 119.41 o
125.775 97.4412 o
102.093 98.9914 o
99.6401 111.203 o
111.349 101.397 o
168.069 114.742 o
101.167 98.2488 o
128.666 98.4909 o
124.635 96.0199 o
98.7871 123.585 o
104.161 93.9018 o
100.272 86.5848 o
118.185 115.614 o
107.568 104.288 o
118.879 103.069 o
85.8552 96.0821 o
122.355 86.7237 o
118.265 111.116 o
102.149 111.556 o
121.52 114.71 o
104.825 116.05 o
95.6386 94.6511 o
95.7852 88.1669 o
101.666 104.367 o
71.726 80.9842 o
114.751 93.8361 o
108.976 102.315 o
88.1314 103.557 o
66.9984 127.961 o
116.932 90.0991 o
117.203 122.621 o
95.1182 116.943 o
92.5844 96.8343 o
110.597 101.687 o
113.311 88.2131 o
119.124 101.823 o
122.468 100.85 o
126.101 106.949 o
59.2125 92.2022 o
124.501 100.413 o
119.673 94.2254 o
124.693 105.377 o
123.863 81.9727 o
128.017 95.9294 o
55.9743 112.422 o
105.954 99.7496 o
111.802 95.4491 o
132.465 76.1639 o
101.307 102.87 o
119.88 102.754 o
102.967 105.611 o
123.349 112.913 o
112.423 93.6823 o
100.583 93.9264 o
108.311 98.715 o
134.205 103.476 o
112.172 99.9139 o
130.474 106.337 o
105.474 105.112 o
153.816 103.118 o
128.773 101.714 o
119.699 92.5366 o
100.261 106.314 o
80.7134 96.5824 o
120.047 86.677 o
116.725 105.245 o
113.246 103.201 o
111.883 100.249 o
121.185 105.164 o
82.3174 86.924 o
143.503 101.982 o
115.082 100.407 o
110.704 101.739 o
139.255 102.561 o
111.091 127.434 o
87.7232 71.3537 o
118.269 97.6307 o
113.134 87.5968 o
97.7755 92.1925 o
112.937 91.7768 o
123.309 100.517 o
103.558 84.351 o
90.354 108.25 o
107.524 95.6871 o
122.846 127.098 o
88.2519 103.673 o
114.912 97.6137 o
102.075 96.5257 o
114.587 98.4462 o
113.95 93.6366 o
115.681 96.9882 o
137.786 106.201 o
91.2361 67.6577 o
98.8932 91.2779 o
105.788 107.631 o
111.13 102.604 o
109.631 102.286 o
91.3409 101.88 o
112.24 97.9758 o
123.221 104.846 o
106.822 95.6766 o
113.248 91.3579 o
123.043 112.079 o
108.434 93.0576 o
107.438 86.3453 o
106.111 89.0875 o
134.553 89.1507 o
123.067 90.8205 o
115.806 93.3242 o
140.62 87.6305 o
100.949 106.975 o
111.273 98.7697 o
113.102 86.2812 o
106.742 102.421 o
112.656 103.775 o
114.746 117.69 o
133.861 78.9617 o
110 106.08 o
99.2631 102.901 o
89.1328 100.847 o
138.001 75.6224 o
127.539 101.159 o
84.3619 108.711 o
113.32 96.9727 o
95.957 104.739 o
110.405 99.5699 o
119.129 94.1898 o
120.177 104.767 o
115.056 96.6254 o
112.371 119.958 o
116.643 93.6166 o
107.79 101.401 o
109.676 98.0212 o
106.775 97.7656 o
131.983 89.4452 o
118.25 99.3719 o
122.679 97.2166 o
122.648 107.351 o
110.878 104.721 o
105.35 65.0891 o
136.169 119.892 o
163.021 84.8315 o
99.5485 98.5776 o
112.18 100.773 o
107.287 98.0798 o
107.735 106.197 o
107.111 87.651 o
116.506 104.725 o
105.103 99.418 o
124.41 72.4047 o
113.673 105.996 o
133.142 103.43 o
76.836 119.837 o
149.518 89.2143 o
123.362 100.19 o
113.134 100.763 o
116.17 96.0463 o
102.133 98.0051 o
128.237 99.157 o
107.566 100.03 o
129.119 98.313 o
103.501 104.529 o
122.221 105.923 o
120.881 93.2782 o
109.037 84.021 o
104.228 97.6891 o
102.292 87.7965 o
102.298 71.4751 o
101.335 90.6767 o
117.909 99.0268 o
108.123 99.2881 o
105.625 104.132 o
129.233 102.288 o
117.66 99.4047 o
104.974 96.0504 o
115.229 103.428 o
111.053 103.148 o
115.061 98.966 o
129.532 103.301 o
106.81 86.4547 o
116.966 125.473 o
105.843 89.7786 o
106.949 91.056 o
107.222 99.3271 o
114.791 95.3942 o
104.807 110.156 o
111.575 100.702 o
128.386 96.636 o
106.667 99.6371 o
101.243 107.614 o
111.246 95.5646 o
138.348 100.741 o
104.754 104.397 o
108.501 106.31 o
94.0064 100.104 o
59.6241 68.3315 o
111.254 98.4338 o
134.792 92.2302 o
104.602 102.709 o
114.863 91.965 o
109.311 114.34 o
87.7112 78.5258 o
116.494 96.9096 o
114.299 99.9573 o
122.948 94.2726 o
123.938 97.5046 o
112.252 94.0733 o
109.336 115.096 o
109.768 100.599 o
112.706 103.806 o
138.763 93.8525 o
114.007 98.8372 o
108.975 103.779 o
104.288 94.4018 o
95.0269 106.705 o
111.305 104.993 o
104.227 106.743 o
118.051 110.276 o
116.625 106.942 o
125.193 105.46 o
111.948 102.472 o
156.909 112.12 o
112.99 88.1895 o
104.486 90.6333 o
107.708 89.711 o
114.704 119.108 o
122.467 95.0136 o
98.1393 99.8211 o
116.673 93.2451 o
102.453 114.8 o
114.338 110.833 o
131.244 102.674 o
113.837 105.896 o
124.924 96.6331 o
110.093 110.156 o
118.053 105.9 o
106.245 93.038 o
114.242 100.617 o
129.697 92.8997 o
103.412 110.62 o
126.689 97.5994 o
107.594 96.3717 o
109.473 93.7007 o
116.804 112.197 o
123.825 93.7522 o
125.088 113 o
127.517 115.292 o
66.0224 84.3256 o
121.553 99.4348 o
144.199 117.345 o
111.963 103.786 o
105.428 107.795 o
109.779 109.666 o
103.764 95.4106 o
115.76 103.849 o
106.168 101.592 o
129.824 114.657 o
125.058 102.351 o
100.458 81.9166 o
119.123 97.4543 o
109.855 95.2977 o
127.866 124.84 o
93.8357 114.874 o
111.251 98.7672 o
117.466 98.6028 o
96.8279 98.0136 o
112.372 106.458 o
112.041 105.543 o
109.869 97.1907 o
114.321 98.5655 o
133.002 106.305 o
127.862 104.218 o
111.91 88.8056 o
106.939 73.7666 o
110.835 79.3677 o
110.464 103.489 o
116.183 99.6519 o
117.736 101.575 o
106.749 94.3634 o
118.781 95.5847 o
87.5861 100.39 o
100.965 93.5196 o
118.168 94.652 o
112.097 112.916 o
102.163 114.471 o
119.603 101.518 o
129.79 87.9741 o
129.806 103.511 o
96.0876 92.3084 o
118.141 108.332 o
139.275 103.811 o
113.014 94.9267 o
115.102 102.448 o
101.912 102.873 o
120.383 93.2038 o
116.58 87.9919 o
109.112 95.0986 o
147.255 96.3287 o
138.226 90.6274 o
125.039 103.649 o
133.647 101.02 o
138.095 102.483 o
120.73 86.5755 o
129.882 99.2419 o
125.518 98.7968 o
106.844 99.9789 o
87.4029 100.901 o
124.422 114.771 o
92.016 88.4074 o
140.06 98.5645 o
123.587 98.9706 o
126.874 70.761 o
104.159 109.323 o
117.821 106.533 o
106.334 100.313 o
123.359 99.0814 o
103.683 100.187 o
102.214 114.813 o
124.943 104.966 o
102.117 101.285 o
123.785 108.209 o
106.813 90.2181 o
133.211 83.8336 o
104.492 110.07 o
116.501 108.8 o
120.634 110.423 o
93.3514 82.2521 o
95.768 102.84 o
113.863 105.498 o
117.959 101.716 o
114.954 93.5101 o
120.967 113.78 o
113.657 92.3875 o
110.858 106.489 o
139.526 120.433 o
135.721 98.7383 o
93.7971 104.209 o
127.244 113.977 o
134.37 116.321 o
118.996 98.4715 o
129.363 81.1823 o
140.45 124.766 o
103.186 92.0039 o
109.308 92.3666 o
114.521 82.4413 o
103.357 99.2761 o
111.489 109.368 o
100.147 95.9484 o
110.455 104.441 o
119.199 105.608 o
119.75 89.5064 o
125.367 105.06 o
91.6459 78.2094 o
110.583 106.451 o
112.029 96.3875 o
114.079 90.1569 o
105.394 95.4672 o
110.804 107.078 o
102.371 87.7261 o
119.897 113.93 o
93.0767 110.503 o
117.12 88.5676 o
107.49 107.764 o
128.061 101.812 o
97.905 102.154 o
111.143 88.7391 o
93.2467 103.685 o
104.151 95.6118 o
109.676 108.351 o
102.669 111.66 o
143.705 93.8951 o
120.271 103.341 o
107.611 99.3289 o
110.598 98.3097 o
107.408 85.188 o
121.146 118.413 o
133.015 105.105 o
83.8677 77.4822 o
119.747 109.356 o
114.161 96.1104 o
102.814 102.151 o
129.864 105.743 o
102.488 83.1651 o
122.111 90.6326 o
117.543 100.531 o
117.815 123.928 o
122.346 105.368 o
125.324 106.704 o
122.964 113.122 o
126.678 125.504 o
111.834 99.4476 o
95.4426 95.8835 o
104.667 86.3068 o
121.805 102.41 o
103.995 99.4286 o
113.239 93.9179 o
126.037 102.136 o
105.226 89.8115 o
101.302 78.4428 o
96.3973 94.361 o
110.761 78.5568 o
114.688 115.392 o
97.6396 94.922 o
111.017 94.871 o
95.1495 99.7751 o
108.024 98.2657 o
112.515 98.6751 o
111.057 102.228 o
110.04 93.3618 o
116.403 99.775 o
114.52 97.6953 o
113.39 90.4229 o
110.07 101.806 o
77.791 118.61 o
119.319 108.09 o
121.495 107.734 o
106.202 110.326 o
125.548 100.411 o
111.477 94.9807 o
129.421 105.698 o
103.386 92.7859 o
114.776 78.6242 o
90.9231 108.145 o
93.9359 106.878 o
103.444 110.19 o
109.522 109.923 o
126.13 94.6822 o
80.5567 93.6883 o
98.4131 109.403 o
110.891 99.0732 o
118.591 112.556 o
110.059 99.8262 o
127.719 102.28 o
105.498 95.2622 o
109.677 103.453 o
137.378 74.0491 o
132.82 87.0907 o
106.706 98.0125 o
114.346 81.6894 o
109.983 101.16 o
106.026 117.7 o
111.807 101.871 o
84.6055 106.376 o
111.396 101.618 o
120.883 97.859 o
123.512 86.7511 o
108.059 98.0377 o
102.473 110.618 o
94.8696 102.921 o
110.97 95.7075 o
114.208 100.386 o
130.58 116.151 o
113.699 103.611 o
138.763 107.373 o
126.607 88.7933 o
122.73 97.9462 o
116.731 97.9775 o
96.5612 95.8485 o
126.053 91.0092 o
121.274 101.168 o
95.1535 103.845 o
126.394 99.1293 o
113.532 90.6272 o
125.068 110.36 o
118.086 109.393 o
107.847 96.081 o
104.049 89.4662 o
132.057 98.6941 o
127.049 95.5513 o
119.827 90.9615 o
106.372 87.702 o
106.591 103.404 o
131.63 96.6909 o
129.973 89.5334 o
109.797 92.8572 o
116.776 93.0074 o
103.978 93.8061 o
108.101 99.7381 o
107.278 99.4228 o
102.682 97.3615 o
126.338 121.782 o
126.401 101.645 o
106.805 112.102 o
102.37 87.648 o
114.833 100.96 o
103.677 96.9879 o
90.9014 83.8044 o
103.615 94.5232 o
112.727 99.8169 o
104.732 98.0742 o
110.537 92.4842 o
119.607 105.624 o
121.256 103.969 o
108.263 100.973 o
115.485 101.181 o
108.234 90.6604 o
101.7 104.755 o
117.074 91.5785 o
115.277 81.0132 o
85.0443 106.005 o
104.63 113.987 o
137.925 99.6487 o
111.886 104.283 o
115.129 98.1348 o
129.393 123.396 o
115.057 93.3887 o
119.453 97.3389 o
122.077 96.4977 o
91.3083 100.568 o
131.875 81.9272 o
121.848 90.8591 o
102.965 105.932 o
110.615 97.9133 o
104.673 107.624 o
130.741 96.4037 o
101.792 99.2822 o
117.94 86.1779 o
136.794 94.3043 o
115.896 100.091 o
105.071 97.3635 o
121.598 104.866 o
80.4784 100.188 o
125.628 84.2042 o
106.5 83.2067 o
110.787 95.5523 o
108.774 97.302 o
90.1889 110.086 o
132.612 125.748 o
126.736 120.499 o
126.064 91.1743 o
126.664 101.773 o
98.5904 92.0628 o
117.163 79.0425 o
125.164 109.209 o
110.376 79.7163 o
103.142 100.074 o
122.635 90.3837 o
110.031 82.6161 o
125.088 109.092 o
116.826 97.9108 o
110.404 98.758 o
103.692 97.2172 o
104.587 99.3472 o
129.536 110.684 o
113.462 108.996 o
126.6 106.707 o
117.73 103.084 o
120.03 112.954 o
125.159 97.0489 o
112.777 93.2957 o
106.486 108.153 o
116.569 95.5183 o
112.454 103.286 o
118.532 90.4928 o
108.735 82.0487 o
95.1797 119.255 o
113.252 96.2346 o
113.846 96.4701 o
127.26 114.089 o
127.64 99.3265 o
106.292 91.5767 o
110.601 102.324 o
132.72 95.5777 o
129.009 89.415 o
110.18 95.3404 o
101.132 78.0722 o
110.647 99.185 o
106.152 93.2665 o
107.955 96.5548 o
111.041 97.605 o
123.669 102.2 o
105.133 84.7098 o
116.956 90.5314 o
116.051 125.291 o
89.856 98.3657 o
113.163 85.8717 o
105.006 105.311 o
121.656 89.4504 o
102.566 100.647 o
108.546 100.59 o
99.5744 102.66 o
107.001 97.1679 o
106.765 89.7352 o
90.7408 98.7162 o
107.612 107.503 o
98.3568 76.7741 o
115.81 98.3725 o
127.881 93.3113 o
113.462 104.105 o
110.106 127.568 o
103.043 96.59 o
110.783 113.072 o
113.725 100.31 o
99.0017 100.869 o
104.965 94.8021 o
113.094 98.9284 o
113.275 99.9278 o
111.469 96.254 o
107.296 83.8068 o
119.93 90.5724 o
103.643 102.228 o
108.822 94.1663 o
117.504 105.079 o
99.4547 101.748 o
119.507 80.7917 o
102.609 96.7756 o
97.0862 94.0082 o
122.76 104.935 o
103.147 97.143 o
95.534 101.255 o
110.339 103.996 o
105.614 116.342 o
115.451 110.159 o
105.851 105.74 o
129.044 97.2161 o
117.538 96.1953 o
87.8258 74.3374 o
122.299 108.184 o
109.713 89.9634 o
99.881 95.969 o
113.387 114.398 o
82.3344 120.222 o
112.722 99.1598 o
119.703 89.8369 o
106.316 96.9022 o
116.36 100.188 o
112.95 102.347 o
95.231 98.4303 o
112.21 94.4606 o
133.695 86.8133 o
118.367 87.8415 o
102.374 106.854 o
104.972 86.9431 o
110.588 100.278 o
106.419 100.339 o
112.313 95.7773 o
128.829 106.804 o
126.803 97.4133 o
114.736 101.471 o
109.044 104.484 o
121.131 98.8655 o
109.711 98.7418 o
111.871 104 o
118.965 95.8737 o
111.737 98.1201 o
101.739 95.993 o
160.061 94.4201 o
114.953 100.412 o
91.259 111.753 o
107.509 101.681 o
79.3905 99.7494 o
117.289 86.8008 o
109.385 95.3289 o
104.472 105.759 o
118.275 95.9274 o
89.1963 82.9343 o
121.573 86.0955 o
121.274 97.2202 o
104.849 99.585 o
122.031 117.674 o
131.848 122.318 o
106.901 92.6275 o
105.277 96.1572 o
112.566 97.075 o
93.9015 103.014 o
118.159 97.9574 o
113.457 91.9812 o
113.012 106.265 o
65.4664 103.388 o
111.389 95.6652 o
109.827 104.321 o
108.002 91.4008 o
112.171 98.4583 o
126.812 100.58 o
111.317 98.0716 o
121.784 105.375 o
95.7447 99.1823 o
111.239 104.485 o
95.7508 103.382 o
117.244 107.188 o
64.4735 69.9925 o
106.486 100.568 o
107.449 99.0794 o
131.449 96.8599 o
124.965 97.8073 o
118.695 101.494 o
120.846 94.4943 o
102.462 101.697 o
127.072 101.468 o
97.0158 90.1152 o
117.586 98.6401 o
112.212 99.4591 o
111.782 97.6587 o
126.993 109.226 o
109.548 93.7584 o
112.209 96.8845 o
115.715 107.855 o
106.584 92.6684 o
79.5665 97.9067 o
124.164 88.5187 o
116.145 102.072 o
89.1315 64.5717 o
102.587 99.013 o
108.502 108.16 o
105.296 95.8727 o
94.578 110.929 o
93.7578 101.7 o
114.29 89.9109 o
143.386 120.665 o
134.284 106.45 o
110.467 91.9719 o
105.44 122.592 o
87.5518 81.4793 o
108.229 109.638 o
109.636 93.4632 o
111.957 99.6774 o
98.5837 88.3873 o
103.469 102.711 o
101.872 87.6722 o
119.879 99.2046 o
117.047 89.3157 o
110.692 101.514 o
116.868 99.7422 o
119.602 101.115 o
127.317 141.62 o
98.0165 96.5638 o
121.197 107.02 o
113.173 92.6473 o
103.38 95.2239 o
105.886 101.742 o
126.956 110.915 o
115.139 102.237 o
105.833 93.2796 o
104.953 97.9202 o
103.393 125.086 o
116.147 119.741 o
105.233 90.468 o
102.41 102.268 o
111.629 98.4124 o
99.7819 91.8149 o
121.846 102.208 o
137.358 98.0303 o
102.719 77.3178 o
108.149 106.377 o
112.064 93.0096 o
116.452 84.4016 o
97.4001 99.4462 o
82.7316 100.207 o
127.123 90.0671 o
99.6827 117.389 o
110.837 117.835 o
116.474 109.002 o
107.71 105.038 o
110.154 104.128 o
109.054 92.1604 o
109.471 101.712 o
103.139 106.537 o
130.807 97.3138 o
119.034 100.299 o
117.019 94.2832 o
110.527 100.116 o
120.916 104.712 o
130.03 97.9716 o
119.352 109.572 o
102.293 112.554 o
111.642 104.442 o
100.884 101.16 o
106.585 108.631 o
102.943 101.464 o
118.074 103.416 o
120.374 94.4557 o
102.839 102.665 o
122.843 90.8673 o
74.478 95.8556 o
122.659 112.03 o
101.191 101.265 o
102.328 112.545 o
106.199 105.615 o
130.787 90.172 o
96.7968 112.748 o
117.557 101.936 o
110.122 115.127 o
115.06 101.78 o
98.2838 110.458 o
105.135 103.298 o
124.816 87.8484 o
68.1507 77.0516 o
90.1283 72.3837 o
116.045 102.834 o
107.477 99.8827 o
130.05 113.719 o
108.292 96.0304 o
118.177 99.0103 o
95.2623 84.2684 o
122.502 105.031 o
103.136 105.398 o
88.6329 84.8948 o
102.581 86.4001 o
93.9379 83.0698 o
94.4895 93.5217 o
108.119 100.634 o
106.651 97.7212 o
88.4684 125.92 o
96.6061 77.4966 o
124.336 99.2184 o
126.02 101.269 o
102.756 94.8335 o
102.632 100.264 o
97.5422 90.1179 o
140.449 91.65 o
100.699 100.101 o
112.463 81.1552 o
97.6386 101.897 o
109.277 92.7168 o
130.361 100.209 o
98.593 114.102 o
109.776 94.3897 o
109.603 97.8606 o
133.193 93.3528 o
136 102.026 o
122.814 120.515 o
112.535 95.1939 o
87.6058 85.7803 o
143.956 90.3975 o
111.702 96.5145 o
116.235 103.419 o
122.503 103.537 o
115.018 99.3455 o
105.218 89.4103 o
115.297 86.0025 o
101.146 99.1809 o
112.399 90.2731 o
106.351 107.069 o
97.249 88.4701 o
114.859 101.607 o
114.428 87.7898 o
127.182 104.827 o
110.566 100.718 o
109.548 91.0254 o
96.4242 109.078 o
133.461 90.6197 o
113.543 108.327 o
128.048 112.592 o
117.498 88.7794 o
117.12 116.069 o
108.971 100.25 o
108.066 104.382 o
105.664 101.774 o
116.403 96.7234 o
122.785 99.9331 o
94.4316 94.6837 o
114.774 98.4114 o
126.068 105.965 o
123.179 87.1899 o
116.464 102.953 o
99.4395 96.9493 o
117.721 105.505 o
116.9 110.997 o
93.1871 91.3457 o
123.123 108.125 o
80.3527 91.0292 o
124.58 120.783 o
99.8717 103.162 o
117.538 99.4298 o
140.539 115.03 o
104.397 119.743 o
120.117 87.9387 o
109.491 100.672 o
105.744 114.092 o
138.771 107.759 o
102.439 91.3161 o
107.731 96.3889 o
110.027 90.5849 o
119.746 114.426 o
101.25 98.4661 o
107.59 104.788 o
124.923 93.4595 o
162.824 122.452 o
114.072 98.1016 o
113.199 94.3194 o
148.518 91.4145 o
134.604 99.6032 o
107.162 113.568 o
104.27 92.6479 o
106.484 94.7775 o
119.099 95.3524 o
119.604 99.152 o
147.733 89.5616 o
114.586 82.7723 o
124.801 106.382 o
94.7167 112.493 o
121.856 101.31 o
126.909 88.6292 o
113.902 95.6803 o
107.62 100.114 o
81.2949 77.9644 o
116.38 94.3506 o
125.718 98.6335 o
97.0934 106.959 o
134.205 98.9963 o
110.371 102.391 o
123.134 87.6573 o
101.588 94.3905 o
135.477 102.681 o
127.872 97.1722 o
114.038 112.903 o
112.439 97.3286 o
113.478 103.477 o
118.51 90.515 o
124.459 101.522 o
98.962 101.86 o
122.607 88.2398 o
112.556 110.59 o
111.902 96.1909 o
143.073 97.9265 o
110.837 102.384 o
113.105 102.546 o
98.9306 128.166 o
94.3664 125.29 o
125.545 102.899 o
115.212 100.114 o
134.58 101.988 o
102.405 91.2632 o
115.328 99.4025 o
126.007 98.0863 o
137.327 91.2599 o
108.336 108.257 o
126.924 90.1775 o
121.061 100.212 o
120.493 98.0451 o
113.165 97.9268 o
79.2776 102.397 o
127.174 88.7663 o
115.466 98.8772 o
121.054 82.7729 o
98.1603 86.3515 o
109.932 95.7713 o
125.621 104.414 o
93.87 113.192 o
109.172 102.025 o
120.128 96.1706 o
100.85 93.6576 o
131 99.4819 o
96.9885 114.017 o
116.07 95.7416 o
101.892 94.4928 o
103.454 87.3738 o
95.566 95.4126 o
115.155 83.7192 o
106.401 101.783 o
96.2553 97.5935 o
129.056 96.465 o
112.045 99.545 o
138.623 160.084 o
126.594 100.401 o
120.592 95.3406 o
113.646 116.122 o
139.797 103.353 o
96.0957 87.7147 o
97.6147 91.783 o
119.436 100.958 o
127.021 96.7695 o
112.747 95.7185 o
99.9941 104.522 o
118.752 89.4056 o
102.324 92.1806 o
110.592 90.2978 o
111.539 88.6549 o
127.279 105.331 o
115.458 101.047 o
124.314 107.905 o
129.569 97.0369 o
109.962 114.647 o
116.25 97.9593 o
136.541 106.54 o
122.605 99.9671 o
118.281 100.383 o
109.895 95.866 o
125.558 91.4245 o
70.71 110.333 o
111.083 92.3902 o
120.092 106.439 o
107.13 107.859 o
134.89 99.732 o
116.167 95.2592 o
105.753 103.069 o
98.7639 100.716 o
102.764 93.6508 o
103.829 88.2715 o
112.35 115.182 o
107.066 100.248 o
78.2174 105.429 o
102.657 106.296 o
106.354 102.263 o
124.05 95.398 o
106.111 98.0292 o
131.572 76.7922 o
112.826 101.111 o
108.866 100.824 o
120.347 113.599 o
103.307 98.0323 o
113.628 95.7109 o
104.323 101.779 o
115.748 81.7203 o
123.865 101.129 o
99.6067 79.9744 o
127.875 101.168 o
145.66 92.5628 o
104.755 107.031 o
107.703 94.981 o
120.44 112.327 o
107.412 97.0459 o
121.515 92.7956 o
108.339 97.6788 o
102.791 107.245 o
129.272 101.958 o
106.201 111.049 o
106.249 99.1547 o
118.393 96.9547 o
114.663 89.1315 o
120.437 102.273 o
105.092 96.2015 o
120.176 112.664 o
105.957 100.153 o
118.645 99.7766 o
112.568 100.261 o
135.871 98.6297 o
117.693 96.6329 o
105.97 87.9085 o
116.372 103.506 o
98.1896 99.422 o
119.974 95.9677 o
113.72 92.2119 o
114.819 101.784 o
105.195 111.505 o
101.289 109.028 o
115.062 94.1191 o
110.862 97.8842 o
116.177 88.3935 o
118.768 99.2654 o
110.772 106.919 o
111.274 91.6612 o
104.774 106.07 o
116.525 96.999 o
109.825 109.323 o
116.965 99.9723 o
130.693 122.73 o
136.753 81.6099 o
120.476 95.4552 o
100.581 101.033 o
98.0347 94.0594 o
118.565 102.954 o
110.906 115.447 o
97.6533 94.4328 o
125.437 89.527 o
113.675 108.939 o
107.616 98.8231 o
127.235 115.505 o
110.978 101.342 o
110.815 101.41 o
117.901 99.0659 o
108.947 86.9747 o
116.089 102.488 o
113.309 88.1686 o
108.626 98.415 o
100.521 94.5625 o
104.755 103.413 o
114.357 94.946 o
113.459 99.3745 o
117.252 101.143 o
127.347 81.0279 o
110.224 95.6186 o
95.3032 101.722 o
108.252 97.7274 o
118.69 102.062 o
122.997 99.2224 o
112.484 115.854 o
133.92 92.9718 o
97.0465 105.159 o
100.2 101.861 o
123.809 102.8 o
128.146 96.5229 o
89.3682 83.4586 o
113.255 99.1954 o
97.3782 106.348 o
95.571 109.643 o
133.471 94.4717 o
154.432 114.12 o
119.566 105.006 o
123.567 102.842 o
117.622 103.679 o
89.2444 84.4476 o
124.003 104.205 o
103.891 91.053 o
106.243 100.259 o
130.18 100.624 o
109.701 92.9376 o
113.167 96.1858 o
108.577 94.144 o
114.339 88.9459 o
117.495 97.3048 o
101.047 104.96 o
105.741 121.957 o
102.332 98.1718 o
110.986 96.4356 o
99.7448 90.7145 o
111.817 99.1337 o
88.7819 93.0428 o
126.319 105.6 o
113.317 103.273 o
100.925 88.5301 o
120.294 100.279 o
112.101 104.916 o
100.575 103.145 o
96.2721 103.719 o
107.991 98.0907 o
113.186 103.398 o
113.241 97.2826 o
97.6333 93.4172 o
122.988 107.009 o
119.041 94.3481 o
100.386 86.9156 o
115.042 94.7045 o
111.339 106.15 o
118.536 104.589 o
111.307 96.485 o
100.284 89.4088 o
133.505 97.8177 o
110.309 101.215 o
109.006 103.383 o
125.722 96.2046 o
114.725 106.492 o
115.71 104.074 o
109.373 98.3492 o
116.816 103.469 o
126.014 102.968 o
70.8313 112.975 o
124.415 97.5816 o
119.526 92.2468 o
94.835 100.387 o
118.529 107.894 o
116.158 92.6781 o
78.3694 102.434 o
101.823 96.8972 o
129.92 89.0767 o
118.631 105.796 o
121.328 77.4181 o
116.245 94.7099 o
84.8346 101.25 o
110.797 110.707 o
98.6867 101.105 o
97.4133 105.034 o
117.493 98.4674 o
119.798 131.28 o
114.365 97.4655 o
110.333 98.6787 o
111.449 98.7893 o
109.65 95.0411 o
87.8015 108.409 o
90.9696 95.2482 o
130.138 70.078 o
106.498 92.4651 o
114.849 94.4207 o
117.249 105.391 o
134.465 99.3961 o
121.644 99.5362 o
101.004 93.846 o
109.516 102.028 o
87.5944 111.652 o
117.624 97.4581 o
122.633 105.633 o
107.502 107.145 o
117.436 101.314 o
123.828 96.106 o
121.867 98.4194 o
131.951 92.56 o
122.348 101.886 o
114.106 96.8741 o
119.557 97.7877 o
107.337 105.011 o
123.312 105.591 o
116.975 98.9773 o
130.714 103.857 o
86.4557 56.0516 o
110.605 98.6889 o
129.816 105.52 o
114.01 103.55 o
107.669 103.549 o
154.379 104.708 o
108.2 86.8158 o
120.508 96.2252 o
106.629 121.333 o
123.824 116.355 o
111.888 93.1055 o
87.8297 120.048 o
88.8697 104.207 o
121.615 94.9707 o
114.095 105.481 o
109.813 99.35 o
114.769 95.3859 o
94.9232 93.4649 o
100.007 101.376 o
129.458 101.985 o
107.846 94.017 o
96.8465 101.214 o
106.136 93.0598 o
95.7883 107.719 o
114.672 120.11 o
104.271 107.071 o
126.453 89.9529 o
88.8571 87.6138 o
93.4734 109.216 o
154.339 80.4072 o
127.88 97.6004 o
108.256 88.6042 o
111.37 101.151 o
123.516 98.0896 o
108.573 106.558 o
117.611 88.253 o
121.337 101.263 o
103.728 108.389 o
119.912 104.7 o
100.911 84.7163 o
115.068 92.2665 o
111.474 107.511 o
120.742 104.095 o
118.577 86.4856 o
115.897 124.979 o
106.995 117.55 o
119.159 97.541 o
109.552 95.4944 o
114.263 98.2939 o
106.842 92.0784 o
107.524 103.992 o
118.88 108.738 o
117.51 94.5985 o
113.18 103.173 o
113.63 104.799 o
117.609 105.803 o
84.6504 90.3897 o
104.34 100.589 o
116.201 104.841 o
115.788 98.1035 o
100.765 89.1755 o
89.1053 93.7014 o
60.3118 99.9253 o
106.892 103.85 o
97.7455 126.225 o
115.82 98.2366 o
106.402 100.895 o
114.9 104.328 o
101.48 98.5309 o
100.799 87.5569 o
105.12 95.5228 o
131.419 106.834 o
126.676 90.2512 o
140.846 104.052 o
104.421 98.5975 o
105.315 93.3402 o
123.336 95.7095 o
109.421 101.968 o
122.114 101.164 o
104.95 100.108 o
137.706 87.9593 o
111.623 108.088 o
114.024 82.8168 o
114.995 104.756 o
107.645 100.349 o
109.801 104.541 o
117.606 96.4833 o
117.857 100.536 o
109.695 115.995 o
121.608 100.772 o
110.123 101.762 o
122.838 100.398 o
102.718 102.377 o
118.867 94.9313 o
126.414 98.2683 o
86.8836 107.409 o
97.0652 106.335 o
103.407 108.106 o
120.847 98.8484 o
90.2269 94.7744 o
133.241 96.6171 o
140.919 102.918 o
106.651 94.4466 o
118.384 98.0003 o
134.721 112.408 o
128.456 100.693 o
96.6639 89.1766 o
114.886 96.1471 o
113.343 98.9991 o
120.105 92.1922 o
106.801 104.11 o
106.032 101.986 o
92.479 106.333 o
116.082 100.365 o
113.376 100.098 o
101.336 90.2146 o
121.074 97.1368 o
101.395 95.9788 o
111.594 97.3491 o
121.707 116.37 o
108.956 101.697 o
105.876 98.3319 o
99.1412 110.81 o
112.683 100.44 o
113.99 93.1475 o
119.045 98.8702 o
99.5215 98.1951 o
138.362 102.449 o
94.8352 80.7152 o
128.573 101.348 o
155.588 113.222 o
121.162 91.742 o
121.807 92.473 o
121.159 109.071 o
112.017 98.4044 o
115.991 100.539 o
98.7148 97.4885 o
109.404 102.35 o
92.0443 95.6164 o
108.304 81.9393 o
94.5452 98.2669 o
113.775 94.6209 o
89.5472 100.22 o
115.361 93.9231 o
113.041 106.83 o
120.976 101.576 o
102.964 96.3016 o
103.351 102.673 o
94.7324 114.234 o
118.137 95.8099 o
131.381 89.7755 o
115.845 99.6244 o
108.955 90.8726 o
102.834 107.918 o
93.2344 95.8722 o
134.712 107.245 o
93.1717 95.1439 o
112.345 100.62 o
130.819 103.551 o
108.725 91.3311 o
114.393 103.745 o
134.266 72.5072 o
88.6095 96.7686 o
116.159 96.3272 o
111.32 112.44 o
131.131 108.147 o
105.434 91.6809 o
113.06 105.712 o
119.786 120.092 o
110.382 96.7891 o
124.895 92.4618 o
120.964 94.1398 o
109.799 100.673 o
137.197 90.1382 o
121.564 96.0185 o
133.533 99.7204 o
113.926 108.955 o
115.034 99.0343 o
120.372 102.6 o
103.49 100.577 o
110.234 92.7713 o
147.833 89.5844 o
119.057 99.9897 o
110.838 99.1121 o
120.088 92.5863 o
130.651 157.559 o
98.6819 103.645 o
118.535 84.5523 o
116.883 107.286 o
117.572 96.4357 o
126.166 90.5982 o
90.6131 109.134 o
112.066 94.2253 o
113.337 109.792 o
96.6331 103.946 o
99.882 106.068 o
106.562 90.0642 o
104.305 104.336 o
120.443 107.063 o
125.528 103.951 o
124.137 91.0635 o
108.955 95.3435 o
108.463 98.0213 o
124.732 105.369 o
131.938 104.455 o
108.885 93.4946 o
107.041 102.199 o
104.753 97.6087 o
131.922 101.566 o
120.222 97.7321 o
102.811 114.85 o
117.462 64.1802 o
121.933 95.3104 o
90.8259 94.4285 o
116.398 101.116 o
110.434 89.4826 o
118.787 108.053 o
118.189 101.054 o
94.6373 91.8837 o
124.16 97.1764 o
122.09 94.6176 o
102.649 104.394 o
117.666 93.6471 o
108.705 91.9265 o
116.963 98.0998 o
126.131 101.581 o
106.296 100.214 o
101.965 96.914 o
98.1801 108.564 o
104.04 63.3585 o
76.6618 102.578 o
103.231 99.3549 o
127.244 95.9929 o
122.186 86.8768 o
114.427 95.1813 o
101.751 102.072 o
111.038 100.15 o
122.456 98.8331 o
134.194 111.216 o
111.812 101.106 o
105.478 100.814 o
112.223 104.075 o
122.697 110.022 o
101.99 100.331 o
104.91 117.262 o
97.8928 90.553 o
112.9 100.198 o
128.19 98.4715 o
118.751 91.5296 o
115.976 102.034 o
96.937 73.0627 o
98.4766 98.5447 o
112.027 101.93 o
100.673 115.38 o
122.982 115.736 o
111.806 108.014 o
114.451 106.799 o
121.883 90.8347 o
113.761 97.8847 o
111.189 97.6907 o
117.398 93.6352 o
112.067 96.9834 o
81.0822 103.14 o
106.257 104.025 o
103.922 92.9886 o
115.126 101.119 o
115.593 103.287 o
102.021 87.6833 o
123.902 90.5201 o
110.492 98.543 o
108.958 96.254 o
114.377 100.272 o
115.352 98.701 o
114.407 99.7336 o
74.6516 116.907 o
114.477 99.3659 o
106.901 102.332 o
106.761 108.362 o
114.349 98.2901 o
130.559 110.488 o
100.159 95.3494 o
117.651 97.1784 o
100.314 92.1907 o
125.187 100.28 o
113.798 103.497 o
82.0202 98.7613 o
107.047 96.8762 o
100.85 104.308 o
102.169 99.7009 o
107.044 124.102 o
119.864 89.016 o
110.092 98.5026 o
101.854 91.3721 o
108.466 102.543 o
80.7413 114.876 o
117.423 97.1853 o
113.287 82.9907 o
107.201 94.8525 o
91.0986 105.872 o
112.567 99.22 o
103.302 106.145 o
108.659 95.8105 o
109.343 97.9384 o
118.521 93.5862 o
114.578 89.3886 o
113.367 106.455 o
91.7448 94.6552 o
98.4683 92.284 o
112.882 91.8839 o
106.91 68.8816 o
107.785 95.2265 o
114.133 89.2952 o
109.482 91.2222 o
101.782 97.7672 o
128.189 74.3077 o
115.328 102.351 o
113.382 100.838 o
112.573 102.991 o
107.852 93.5955 o
112.462 100.262 o
114.276 92.0975 o
98.9093 114.142 o
112.253 99.3709 o
121.19 92.7246 o
118.417 101.791 o
109.473 98.0535 o
126.831 109.093 o
89.8647 116.864 o
106.483 96.6738 o
121.62 111.653 o
103.729 86.0328 o
136.903 105.483 o
120.934 96.1758 o
128.563 106.171 o
96.5558 100.058 o
149.914 129.657 o
118.126 112.794 o
115.207 101.958 o
135.255 98.7845 o
124.204 95.3186 o
147.102 106.632 o
102.82 86.2353 o
108.9 103.344 o
107.736 82.607 o
92.4417 102.428 o
110.192 86.1678 o
111.795 113.706 o
92.3274 86.2905 o
117.191 94.8678 o
108.627 106.187 o
114.612 105.66 o
116.758 108.113 o
109.403 101.492 o
121.308 87.6643 o
120.164 87.4795 o
114.698 87.7507 o
109.19 69.786 o
136.659 110.126 o
100.551 94.8995 o
104.143 104.557 o
108.609 101.478 o
114.157 95.8862 o
120.613 105.733 o
132.248 103.969 o
112.827 98.7589 o
107.504 107.056 o
124.999 91.0748 o
102.456 106.912 o
117.144 98.6362 o
107.956 104.211 o
98.8153 99.1764 o
124.062 95.0194 o
111.425 100.161 o
108.544 93.3238 o
104.084 87.8972 o
102.571 96.7999 o
130.475 90.1939 o
115.442 100.069 o
105.818 94.9665 o
116.996 99.6319 o
92.6805 98.262 o
118.846 92.3855 o
113.726 105.881 o
101.996 96.1844 o
110.638 85.0754 o
111.817 96.8875 o
96.9742 115.455 o
121.635 102.021 o
118.931 106.987 o
131.62 117.735 o
97.516 89.5418 o
142.963 100.743 o
97.4589 98.7151 o
125.435 99.5477 o
107.175 95.7399 o
91.7731 101.52 o
96.1006 104.736 o
99.6639 86.4894 o
88.9992 91.15 o
108.655 98.5814 o
107.71 88.6863 o
109.513 101.972 o
126.16 89.766 o
94.2207 90.6184 o
115.142 100.272 o
113.427 98.8392 o
119.754 103.198 o
106.98 104.155 o
83.3982 110.226 o
100.119 111.147 o
140.99 104.728 o
127.569 100.624 o
96.4938 82.0992 o
109.579 91.3544 o
99.862 87.9444 o
109.831 110.515 o
109.291 95.445 o
113.319 102.825 o
114.376 101.025 o
132.17 85.1878 o
101.914 101.199 o
135.485 87.558 o
102.086 108.928 o
109.459 97.5335 o
119.06 105.811 o
92.7956 86.8572 o
98.2568 96.3684 o
112.219 104.151 o
113.079 101.219 o
84.9008 115.717 o
93.0179 99.0073 o
116.771 87.8375 o
112.621 99.2188 o
155.821 92.3716 o
111.437 101.412 o
96.6648 108.114 o
107.659 100.101 o
114.467 105.164 o
116.755 107.563 o
126.045 96.7691 o
98.8976 94.5299 o
101.848 107.641 o
102.906 69.8004 o
114.53 100.103 o
117.004 84.2043 o
115.827 95.9555 o
118.266 99.2616 o
115.082 97.1991 o
112.138 101.682 o
107.793 97.3602 o
139.114 94.2608 o
132.141 102.784 o
91.584 82.8734 o
114.93 96.0379 o
108.601 104.119 o
111.441 98.4134 o
109.498 101.636 o
104.936 106.378 o
126.621 85.4793 o
111.013 92.3174 o
128.879 105.759 o
103.913 101.947 o
128.386 105.147 o
117.777 99.6722 o
103.16 98.3669 o
106.472 104.519 o
99.7386 94.9833 o
119.472 112.087 o
88.4043 111.332 o
116.305 98.2018 o
122.775 103.718 o
118.742 103.045 o
120.44 95.3485 o
110.216 92.881 o
104.962 94.5484 o
121.249 96.3065 o
101.915 100.57 o
108.743 102.078 o
115.484 94.8217 o
102.688 94.4923 o
117.876 89.7552 o
120.029 101.657 o
111.486 93.605 o
133.184 98.9698 o
129.432 105.239 o
99.9354 100.528 o
92.5082 113.134 o
100.04 84.5336 o
101.51 99.0631 o
119.025 104.005 o
110.59 99.4343 o
107.141 99.4783 o
132.016 104.026 o
110.516 114.56 o
130.1 98.5861 o
117.723 96.7115 o
111.609 109.377 o
108.612 87.3251 o
154.67 87.1824 o
105.114 100.586 o
105.604 61.586 o
104.936 83.7084 o
105.896 93.2585 o
99.3917 108.613 o
99.771 89.8324 o
103.048 96.684 o
118.534 95.5574 o
112.994 84.518 o
109.817 96.3263 o
119.421 102.118 o
119.535 109.05 o
112.005 111.923 o
96.5631 102.546 o
105.032 101.284 o
116.252 101.892 o
98.5129 102.928 o
116.436 94.3306 o
104.139 91.6416 o
100.338 94.7168 o
115.001 104.759 o
91.7113 99.5794 o
112.969 99.4935 o
112.593 97.2518 o
107.771 101.486 o
112.69 99.6009 o
116.985 104.278 o
111.113 101.694 o
109.58 101.98 o
105.155 104.736 o
124.681 115.218 o
115.836 102.714 o
119.314 90.193 o
122.03 113.752 o
109.641 113.689 o
104.373 123.827 o
106.905 115.811 o
116.926 105.425 o
115.024 106.06 o
115.016 92.8349 o
99.4807 81.7365 o
111.4 111.539 o
120.66 99.6357 o
104.515 89.5266 o
117.6 99.1682 o
116.492 111.45 o
116.85 95.3768 o
116.405 101.192 o
117.863 98.7051 o
107.562 109.913 o
107.135 92.959 o
94.9039 94.5137 o
93.1938 71.3154 o
129.303 114.841 o
112.25 110.927 o
118.38 96.333 o
116.061 98.4118 o
106.577 98.5836 o
132.768 102.956 o
117.906 110.521 o
111.02 92.0616 o
121.994 92.4637 o
114.871 99.3848 o
122.655 87.8845 o
121.202 97.9648 o
105.693 101.656 o
122.736 101.514 o
114.473 90.9961 o
126.517 84.3626 o
119.957 107.904 o
117.67 94.4971 o
117.058 100.839 o
128.777 109.828 o
103.755 115.051 o
116.95 103.333 o
120.655 114.664 o
115.667 93.5686 o
116.044 105.11 o
102.392 110.691 o
107.844 104.62 o
104.665 100.702 o
129.725 112.83 o
106.468 93.0293 o
102.358 91.0979 o
109.124 106.419 o
115.546 90.644 o
115.771 103.722 o
104.109 104.787 o
111.708 84.2206 o
101.183 90.7013 o
112.353 99.3214 o
118.605 85.7696 o
115.26 99.4444 o
112.246 100.481 o
106.271 106.419 o
115.385 87.6122 o
115.852 97.4905 o
116.825 101.792 o
121.981 100.514 o
98.6899 79.8712 o
102.541 97.3827 o
116.632 101.43 o
98.717 110.328 o
92.9756 105.587 o
119.137 99.289 o
118.128 105.049 o
108.479 95.0122 o
100.331 97.946 o
118.206 100.18 o
116.429 96.2481 o
106.1 104.831 o
110.919 91.0754 o
124.13 85.7444 o
114.232 84.7406 o
109.09 101.915 o
107.329 99.5559 o
103.086 105.786 o
90.4145 96.7531 o
131.845 103.205 o
113.245 93.8502 o
106.351 104.364 o
129.494 96.7735 o
111.371 92.5766 o
117.416 100.409 o
101.808 110.736 o
95.1784 124.274 o
131.365 73.1852 o
108.078 98.3281 o
106.791 89.2359 o
102.869 91.1697 o
125.285 95.9396 o
115.579 87.007 o
107.491 103.929 o
137.048 111.882 o
102.525 100.929 o
114.611 85.5095 o
121.17 100.983 o
118.669 96.8044 o
99.9371 89.2085 o
127.076 109.629 o
100.479 105.403 o
124.389 101.982 o
108.503 110.162 o
112.646 97.5386 o
115.785 100.022 o
84.5386 100.103 o
99.1938 95.5751 o
103.463 99.4273 o
117.132 110.786 o
119.584 85.5341 o
130.716 99.3955 o
119.351 93.2343 o
118.225 98.848 o
105.652 102.838 o
123.155 96.3058 o
118.099 88.4749 o
127.925 96.1378 o
110.4 95.1687 o
121.183 73.3608 o
104.328 98.4241 o
111.119 94.172 o
105.048 100.977 o
102.945 83.4282 o
101.821 80.899 o
118.88 97.4977 o
112.84 101.031 o
122.826 105.518 o
119.632 113.324 o
122.183 101.551 o
111.558 98.507 o
105.245 105.266 o
126.55 88.3735 o
110.358 102.948 o
129.81 104.908 o
93.4836 107.036 o
105.635 107.064 o
137.094 118.797 o
110.651 99.3037 o
128.357 88.5001 o
118.203 84.4709 o
119.493 91.7848 o
101.506 101.259 o
96.9968 98.5607 o
112.346 111.629 o
97.0887 84.6172 o
128.699 95.5443 o
114.846 104.474 o
132.645 116.717 o
89.7023 102.674 o
125.166 94.1972 o
101.687 112.425 o
128.077 107.198 o
101.667 114.605 o
116.893 93.9477 o
108.546 97.7376 o
93.1324 104.459 o
114.962 100.075 o
119.785 106.081 o
116.205 97.0196 o
79.4763 107.73 o
111.103 94.9236 o
111.749 102.538 o
114.527 88.9929 o
112.444 95.5795 o
113.826 92.0596 o
114.173 94.9121 o
112.237 105.59 o
112.641 100.303 o
130.325 98.6865 o
105.038 69.2395 o
128.919 90.2707 o
105.063 101.951 o
108.253 99.641 o
102.057 96.0219 o
101.474 106.755 o
141.246 88.0723 o
107.313 91.4239 o
114.311 96.3559 o
124.129 103.018 o
100.936 94.0883 o
99.8059 100.734 o
123.229 95.1588 o
125.378 89.2905 o
115.648 103.67 o
118.638 95.0861 o
99.6761 97.5689 o
121.04 77.2716 o
85.0783 116.261 o
112.551 76.0415 o
112.884 86.5622 o
116.919 89.4889 o
90.7922 90.1105 o
115.506 97.8459 o
129.382 107.84 o
114.448 78.1909 o
95.2581 87.7387 o
114.253 101.708 o
118.774 98.4067 o
129.758 105.291 o
114.92 98.6044 o
121.339 96.5577 o
98.986 91.0255 o
107.877 101.41 o
131.683 98.3303 o
107.292 107.456 o
116.059 117.422 o
111.712 114.772 o
125.952 90.5878 o
104.476 88.0172 o
128.136 109.841 o
111.979 83.6474 o
114.441 99.3735 o
128.247 111.016 o
117.525 90.1469 o
116.874 84.7807 o
116.428 102.712 o
112.6 86.9362 o
104.735 98.6378 o
134.939 113.199 o
115.294 101.195 o
116.486 105.784 o
97.1005 107.825 o
132.287 100.348 o
98.9596 101.871 o
121.592 105.669 o
91.183 103.968 o
146.545 115.39 o
106.035 94.0287 o
110.203 99.6597 o
114.116 96.7118 o
117.75 91.7955 o
103.042 102.198 o
101.675 102.504 o
97.1917 91.7624 o
108.014 92.0894 o
122.527 98.2119 o
113.971 102.999 o
128.225 89.0788 o
122.42 100.172 o
120.262 93.63 o
127.737 101.015 o
114.604 93.6434 o
117.875 100.433 o
129.869 77.472 o
126.762 97.0878 o
99.7101 91.4761 o
102.316 109.048 o
126.504 103.223 o
102.647 91.2617 o
83.9768 119.641 o
135.004 101.346 o
108.7 79.8889 o
117.168 103.531 o
109.139 93.697 o
124.946 98.2935 o
115.861 92.232 o
114.463 95.3663 o
96.8637 100.861 o
113.175 108.233 o
154.592 102.479 o
118.257 137.801 o
117.249 108.967 o
124.794 102.724 o
109.212 100.33 o
121.406 109.341 o
111.062 93.7795 o
115.694 89.7493 o
103.629 81.77 o
123.141 91.529 o
112.683 95.5765 o
106.887 90.5325 o
100.996 90.2572 o
107.521 89.1698 o
102.064 82.1801 o
109.688 96.0857 o
108.583 95.1267 o
75.9987 84.0158 o
115.15 93.2201 o
84.1275 105.718 o
123.997 80.2354 o
108.278 95.2967 o
107.94 72.8772 o
110.184 95.6213 o
115.323 102.54 o
106.58 107.151 o
113.927 112.048 o
128.539 83.3266 o
120.171 96.4289 o
114.383 91.5583 o
110.86 100.821 o
98.7849 86.3596 o
118.944 107.537 o
124.799 102.165 o
110.469 89.1009 o
129.362 144.858 o
117.67 100.351 o
119.017 108.684 o
110.938 106.753 o
118.174 102.796 o
103.061 101.046 o
101.918 93.8611 o
111.073 98.7647 o
66.2463 113.355 o
116.668 97.3293 o
102.207 96.705 o
103.674 97.3945 o
125.21 117.244 o
120.562 102.48 o
118.039 104.612 o
124.955 101.988 o
113.3 94.7654 o
131.95 98.744 o
96.914 102.108 o
107.455 110.12 o
106.29 109.743 o
119.675 79.4901 o
87.533 75.063 o
123.948 84.097 o
103.722 103.535 o
108.345 102.627 o
111.974 99.0331 o
108.65 92.875 o
119.696 90.808 o
115.083 100.46 o
122.702 124.61 o
97.8576 97.7285 o
105.467 85.1497 o
105.036 93.6753 o
117.835 100.204 o
124.532 102.034 o
114.051 99.3432 o
108.311 90.3877 o
130.635 93.7163 o
101.296 95.4278 o
161.837 116.553 o
115.043 101.116 o
107.634 74.2716 o
113.064 85.7048 o
107.187 86.3674 o
118.948 99.0986 o
97.905 89.7138 o
90.9553 98.1492 o
125.471 100.832 o
136.422 87.5086 o
132.75 90.817 o
121.009 103.967 o
98.3702 98.0501 o
122.651 83.972 o
103.194 92.8795 o
122.976 92.8369 o
115.949 101.575 o
98.74 85.6509 o
80.2902 90.9357 o
128.925 91.959 o
125.556 101.017 o
127.682 101.124 o
107.586 97.8719 o
114.701 94.4964 o
129.439 95.5084 o
129.533 94.4335 o
107.89 96.9489 o
105.488 95.4568 o
122.421 117.676 o
107.576 90.4596 o
117.413 98.5412 o
99.9327 89.6384 o
110.557 110.879 o
109.681 100.291 o
120.054 103.514 o
125.711 120.39 o
115.579 97.5202 o
111.497 109.699 o
121.886 104.83 o
107.629 97.4807 o
103.314 91.2109 o
114.547 101.413 o
114.323 102.849 o
114.055 101.52 o
103.49 92.4857 o
116.53 96.2446 o
99.9199 109.294 o
129.458 111.625 o
101.265 103.89 o
102.848 105.659 o
137.864 108.908 o
112.22 89.4197 o
109.552 124.771 o
112.725 96.6641 o
113.509 89.7424 o
113.632 106.739 o
90.7018 73.844 o
129.653 96.0945 o
113.775 101.143 o
117.868 87.16 o
115.541 99.0812 o
123.319 116.406 o
123.304 111.807 o
105.404 96.0186 o
112.287 96.3909 o
134.207 99.9347 o
109.983 97.2458 o
108.453 99.5314 o
109.101 93.9662 o
115.001 90.9082 o
120.777 91.4303 o
104.108 100.356 o
94.148 87.9406 o
113.699 95.9387 o
106.09 107.192 o
104.763 98.2021 o
97.0581 79.5132 o
113.26 83.5806 o
106.676 89.5473 o
128.331 105.359 o
132.338 100.955 o
136.559 68.7274 o
95.3661 108.346 o
88.554 95.2383 o
108.49 98.5086 o
79.7788 86.6756 o
113.539 99.0323 o
116.201 127.091 o
114.826 107.45 o
122.495 89.1891 o
105.928 75.7665 o
132.433 102.955 o
87.9236 105.044 o
132.367 112.324 o
115.037 104.504 o
115.419 83.1264 o
124.492 103.811 o
96.2123 100.846 o
112.778 82.6332 o
122.044 96.3671 o
113.191 105.307 o
115.321 95.9301 o
124.736 96.1872 o
110.022 87.5919 o
103.182 81.1592 o
107.655 99.8188 o
110.308 100.832 o
125.401 102.326 o
102.232 99.924 o
110.553 97.7747 o
117.579 100.766 o
113.128 100.504 o
134.027 93.9428 o
96.6049 83.9105 o
90.0371 102.108 o
100.735 101.431 o
89.3847 89.3211 o
112.578 94.0912 o
92.9472 102.186 o
108.224 117.998 o
115.467 99.6231 o
112.724 86.0928 o
106.419 98.2016 o
99.7301 101.851 o
131.274 90.2534 o
116.298 108.151 o
140.323 99.595 o
120.526 92.6848 o
122.247 101.829 o
107.759 85.2495 o
109.193 99.1146 o
97.1631 92.6321 o
104.398 84.3083 o
95.6276 100.223 o
91.8875 104.962 o
113.173 90.7115 o
107.211 94.7868 o
103.187 89.3061 o
118.814 81.5826 o
112.689 106.298 o
98.5495 97.425 o
113.373 118.367 o
103.033 104.065 o
124.9 91.7576 o
109.695 78.646 o
91.5717 64.0818 o
115.044 94.5081 o
144.419 97.438 o
104.659 99.5078 o
117.706 89.3724 o
107.027 96.5156 o
114.908 101.938 o
123.954 90.9733 o
98.2999 103.452 o
115.941 105.692 o
118.974 98.598 o
121.569 101.301 o
111.646 97.8577 o
125.295 100.553 o
103.977 108.809 o
113.998 104.597 o
113.407 96.8434 o
89.1635 92.3576 o
109.149 103.334 o
123.742 98.825 o
113.568 103.564 o
106.207 81.529 o
123.701 93.6569 o
101.573 91.7449 o
116.593 87.3071 o
115.831 108.609 o
108.911 97.8117 o
120.169 74.6196 o
105.615 111.944 o
131.883 102.027 o
117.88 97.7119 o
81.7641 101.841 o
132.536 105.233 o
116.956 116.335 o
122.704 98.2213 o
115.184 97.943 o
113.119 111.122 o
103.966 102.006 o
103.92 99.9661 o
117.5 100.689 o
114.813 96.6196 o
114.147 98.7711 o
99.4742 107.132 o
92.2128 89.2915 o
103.049 87.2868 o
115.632 112.905 o
104.542 84.0151 o
85.1777 91.3497 o
117.533 101.115 o
103.516 114.788 o
98.2703 83.8839 o
112.296 118.584 o
99.6144 87.0502 o
96.8466 100.457 o
90.4643 106.317 o
115.419 98.4035 o
105.361 101.597 o
137.095 99.0876 o
94.5418 96.4138 o
120.498 107.472 o
111.984 84.5406 o
124.971 96.5426 o
100.103 100.531 o
112.961 97.1849 o
105.911 113.764 o
118.758 112.765 o
103.606 99.1518 o
107.693 100.341 o
105.944 97.9668 o
115.938 100.589 o
111.463 91.7317 o
118.494 93.0819 o
96.2566 99.6152 o
102.381 105.597 o
103.735 113.296 o
124.97 89.0172 o
105.904 104.146 o
109.399 90.2011 o
109.73 107.988 o
105.424 103.262 o
111.394 100.51 o
97.566 103.949 o
103.817 97.9094 o
116.566 96.7334 o
82.2362 97.7317 o
107.189 100.319 o
115.271 109.434 o
130.446 95.2512 o
118.545 107.354 o
120.543 125.37 o
110.235 102.597 o
109.951 97.8586 o
97.8161 98.4358 o
72.4907 110.624 o
99.5983 92.2138 o
86.5859 90.7339 o
130.669 95.3795 o
103.385 115.233 o
112.219 98.6666 o
117.311 82.8091 o
123.868 105.88 o
135.502 98.0533 o
109.84 105.376 o
113.117 103.686 o
127.372 96.1376 o
115.965 82.2837 o
119.846 114.668 o
115.816 117.908 o
121.47 93.55 o
130.085 101.955 o
108.119 93.3326 o
130.431 105.082 o
114.5 118.163 o
107.714 96.1482 o
123.587 101.893 o
106.929 107.386 o
102.718 94.2831 o
103.134 96.3722 o
110.236 99.2701 o
133.977 92.8524 o
87.1022 95.6726 o
109.005 107.391 o
127.23 121.293 o
103.188 92.2979 o
122.973 107.771 o
92.6634 116.054 o
114.272 101.077 o
104.209 116.642 o
98.6541 82.9241 o
110.345 99.8725 o
95.1773 85.6837 o
114.33 106.473 o
120.128 115.351 o
88.0847 100.73 o
107.012 113.143 o
63.4158 72.7296 o
116.735 98.5437 o
149.828 127.012 o
107.606 90.2761 o
116.362 96.0526 o
107.964 88.4406 o
111.409 100.394 o
114.816 100.705 o
95.9101 97.265 o
93.0768 113.051 o
121.027 98.449 o
137.171 98.1785 o
111.955 86.9243 o
155.125 89.9746 o
130.722 105.374 o
117.712 96.1067 o
94.8768 98.8641 o
113.377 120.274 o
137.954 92.4175 o
111.977 93.8741 o
102.918 101.3 o
98.6499 99.2991 o
126.456 104.004 o
115.141 99.2925 o
117.886 98.1154 o
110.462 101.6 o
108.336 101.501 o
98.7508 104.572 o
106.37 88.5865 o
94.78 100.248 o
128.127 107.587 o
116.927 110.655 o
111.442 93.8496 o
96.3554 108.389 o
100.918 92.7031 o
117.874 94.0727 o
124.95 126.974 o
102.985 96.0856 o
115.962 110.471 o
100.248 98.8526 o
106.036 100.534 o
101.576 101.073 o
129.226 99.0099 o
112.098 98.9995 o
117.257 108.129 o
122.519 86.5453 o
112.095 96.1244 o
98.156 92.2018 o
109.192 99.295 o
101.82 93.5355 o
136.275 113.584 o
120.036 94.9809 o
146.287 102.305 o
81.4359 96.2248 o
114.724 98.8469 o
128.17 98.7033 o
113.03 97.0258 o
112.851 109.262 o
117.732 89.5115 o
119.416 100.851 o
110.787 102.093 o
140.291 94.6917 o
93.2824 121.738 o
121.99 100.843 o
109.343 101.054 o
115.614 97.932 o
142.795 103.506 o
111.63 104.089 o
129.418 98.4726 o
108.617 98.4923 o
125.064 102.788 o
114.14 101.639 o
114.088 105.764 o
85.5396 100.848 o
118.313 114.893 o
120.13 108.087 o
92.855 96.8778 o
109.003 99.144 o
114.27 100.372 o
110.13 104.203 o
113.442 112.494 o
109.659 111.926 o
99.5335 121.463 o
114.696 92.733 o
118.182 99.5163 o
112.072 81.5609 o
123.706 120.138 o
103.123 106.159 o
108.854 99.8329 o
114.215 93.2271 o
101.22 111.474 o
113.589 95.9723 o
grestore
0.000 1.000 1.000 setrgbcolor
gsave
140.4 126 34.2 36 clipbox
/o {
gsave
newpath
translate
0.5 setlinewidth
1 setlinejoin
0 setlinecap
0 -0.25 m
0.0663008 -0.25 0.129895 -0.223658 0.176777 -0.176777 c
0.223658 -0.129895 0.25 -0.0663008 0.25 0 c
0.25 0.0663008 0.223658 0.129895 0.176777 0.176777 c
0.129895 0.223658 0.0663008 0.25 0 0.25 c
-0.0663008 0.25 -0.129895 0.223658 -0.176777 0.176777 c
-0.223658 0.129895 -0.25 0.0663008 -0.25 0 c
-0.25 -0.0663008 -0.223658 -0.129895 -0.176777 -0.176777 c
-0.129895 -0.223658 -0.0663008 -0.25 0 -0.25 c
cl
gsave
0.000 1.000 1.000 setrgbcolor
fill
grestore
stroke
grestore
} bind def
115.319 86.287 o
110.502 82.9229 o
116.337 86.7008 o
111.933 84.8069 o
116.394 87.7884 o
118.054 85.7961 o
112.543 81.7616 o
116.093 84.6361 o
116.506 87.2678 o
113.818 84.6343 o
117.521 87.9403 o
111.41 84.0887 o
116.493 88.9496 o
111.775 81.9256 o
113.121 86.9692 o
113.792 86.0326 o
115.282 84.6852 o
113.463 83.9521 o
114.044 88.4722 o
114.561 88.3101 o
115.969 86.6536 o
115.99 87.1218 o
113.92 82.7654 o
113.584 86.5742 o
112.867 80.2165 o
112.105 80.7112 o
116.004 88.0449 o
119.082 84.7579 o
114.522 81.8235 o
115.192 81.787 o
115.767 83.32 o
113.885 85.0529 o
113.281 82.4129 o
117.304 86.7174 o
114.688 88.2054 o
113.245 85.949 o
115.744 86.5295 o
114.148 82.3377 o
116.46 83.085 o
116.201 85.5578 o
118.036 85.1543 o
114.834 83.8773 o
113.281 82.4129 o
114.323 86.9205 o
113.273 83.9904 o
112.363 82.0641 o
grestore
1.000 0.000 0.000 setrgbcolor
gsave
140.4 126 34.2 36 clipbox
/o {
gsave
newpath
translate
0.5 setlinewidth
1 setlinejoin
0 setlinecap
0 -0.25 m
0.0663008 -0.25 0.129895 -0.223658 0.176777 -0.176777 c
0.223658 -0.129895 0.25 -0.0663008 0.25 0 c
0.25 0.0663008 0.223658 0.129895 0.176777 0.176777 c
0.129895 0.223658 0.0663008 0.25 0 0.25 c
-0.0663008 0.25 -0.129895 0.223658 -0.176777 0.176777 c
-0.223658 0.129895 -0.25 0.0663008 -0.25 0 c
-0.25 -0.0663008 -0.223658 -0.129895 -0.176777 -0.176777 c
-0.129895 -0.223658 -0.0663008 -0.25 0 -0.25 c
cl
gsave
1.000 0.000 0.000 setrgbcolor
fill
grestore
stroke
grestore
} bind def
100.855 121.86 o
102.685 126.62 o
102.03 125.548 o
103.367 122.862 o
102.098 123.597 o
104.729 126.094 o
104.231 125.948 o
105.487 127.726 o
105.04 127.053 o
103.845 120.694 o
105.703 125.594 o
105.377 123.052 o
105.15 129.28 o
108.246 125.748 o
104.099 126.604 o
105.841 125.584 o
106.213 124.321 o
106.834 122.912 o
grestore
1.000 setlinewidth
0 setlinejoin
2 setlinecap
0.000 setgray
gsave
34.2 162 m
174.6 162 l
stroke
grestore
gsave
174.6 36 m
174.6 162 l
stroke
grestore
gsave
34.2 36 m
174.6 36 l
stroke
grestore
gsave
34.2 36 m
34.2 162 l
stroke
grestore
0.500 setlinewidth
1 setlinejoin
0 setlinecap
gsave
/o {
gsave
newpath
translate
0.5 setlinewidth
1 setlinejoin
0 setlinecap
0 0 m
0 4 l
gsave
0.000 setgray
fill
grestore
stroke
grestore
} bind def
34.2 36 o
grestore
gsave
/o {
gsave
newpath
translate
0.5 setlinewidth
1 setlinejoin
0 setlinecap
0 0 m
0 -4 l
gsave
0.000 setgray
fill
grestore
stroke
grestore
} bind def
34.2 162 o
grestore
/BitstreamVeraSans-Roman findfont
6.000 scalefont
setfont
gsave
28.387500 27.437500 translate
0.000000 rotate
0.000000 0.000000 m /minus glyphshow
5.027344 0.000000 m /five glyphshow
8.844727 0.000000 m /zero glyphshow
grestore
gsave
/o {
gsave
newpath
translate
0.5 setlinewidth
1 setlinejoin
0 setlinecap
0 0 m
0 4 l
gsave
0.000 setgray
fill
grestore
stroke
grestore
} bind def
49.8 36 o
grestore
gsave
/o {
gsave
newpath
translate
0.5 setlinewidth
1 setlinejoin
0 setlinecap
0 0 m
0 -4 l
gsave
0.000 setgray
fill
grestore
stroke
grestore
} bind def
49.8 162 o
grestore
gsave
43.987500 27.437500 translate
0.000000 rotate
0.000000 0.000000 m /minus glyphshow
5.027344 0.000000 m /four glyphshow
8.844727 0.000000 m /zero glyphshow
grestore
gsave
/o {
gsave
newpath
translate
0.5 setlinewidth
1 setlinejoin
0 setlinecap
0 0 m
0 4 l
gsave
0.000 setgray
fill
grestore
stroke
grestore
} bind def
65.4 36 o
grestore
gsave
/o {
gsave
newpath
translate
0.5 setlinewidth
1 setlinejoin
0 setlinecap
0 0 m
0 -4 l
gsave
0.000 setgray
fill
grestore
stroke
grestore
} bind def
65.4 162 o
grestore
gsave
59.587500 27.437500 translate
0.000000 rotate
0.000000 0.000000 m /minus glyphshow
5.027344 0.000000 m /three glyphshow
8.844727 0.000000 m /zero glyphshow
grestore
gsave
/o {
gsave
newpath
translate
0.5 setlinewidth
1 setlinejoin
0 setlinecap
0 0 m
0 4 l
gsave
0.000 setgray
fill
grestore
stroke
grestore
} bind def
81 36 o
grestore
gsave
/o {
gsave
newpath
translate
0.5 setlinewidth
1 setlinejoin
0 setlinecap
0 0 m
0 -4 l
gsave
0.000 setgray
fill
grestore
stroke
grestore
} bind def
81 162 o
grestore
gsave
75.187500 27.437500 translate
0.000000 rotate
0.000000 0.000000 m /minus glyphshow
5.027344 0.000000 m /two glyphshow
8.844727 0.000000 m /zero glyphshow
grestore
gsave
/o {
gsave
newpath
translate
0.5 setlinewidth
1 setlinejoin
0 setlinecap
0 0 m
0 4 l
gsave
0.000 setgray
fill
grestore
stroke
grestore
} bind def
96.6 36 o
grestore
gsave
/o {
gsave
newpath
translate
0.5 setlinewidth
1 setlinejoin
0 setlinecap
0 0 m
0 -4 l
gsave
0.000 setgray
fill
grestore
stroke
grestore
} bind def
96.6 162 o
grestore
gsave
90.787500 27.437500 translate
0.000000 rotate
0.000000 0.000000 m /minus glyphshow
5.027344 0.000000 m /one glyphshow
8.844727 0.000000 m /zero glyphshow
grestore
gsave
/o {
gsave
newpath
translate
0.5 setlinewidth
1 setlinejoin
0 setlinecap
0 0 m
0 4 l
gsave
0.000 setgray
fill
grestore
stroke
grestore
} bind def
112.2 36 o
grestore
gsave
/o {
gsave
newpath
translate
0.5 setlinewidth
1 setlinejoin
0 setlinecap
0 0 m
0 -4 l
gsave
0.000 setgray
fill
grestore
stroke
grestore
} bind def
112.2 162 o
grestore
gsave
110.684375 27.437500 translate
0.000000 rotate
0.000000 0.000000 m /zero glyphshow
grestore
gsave
/o {
gsave
newpath
translate
0.5 setlinewidth
1 setlinejoin
0 setlinecap
0 0 m
0 4 l
gsave
0.000 setgray
fill
grestore
stroke
grestore
} bind def
127.8 36 o
grestore
gsave
/o {
gsave
newpath
translate
0.5 setlinewidth
1 setlinejoin
0 setlinecap
0 0 m
0 -4 l
gsave
0.000 setgray
fill
grestore
stroke
grestore
} bind def
127.8 162 o
grestore
gsave
124.510937 27.437500 translate
0.000000 rotate
0.000000 0.000000 m /one glyphshow
3.817383 0.000000 m /zero glyphshow
grestore
gsave
/o {
gsave
newpath
translate
0.5 setlinewidth
1 setlinejoin
0 setlinecap
0 0 m
0 4 l
gsave
0.000 setgray
fill
grestore
stroke
grestore
} bind def
143.4 36 o
grestore
gsave
/o {
gsave
newpath
translate
0.5 setlinewidth
1 setlinejoin
0 setlinecap
0 0 m
0 -4 l
gsave
0.000 setgray
fill
grestore
stroke
grestore
} bind def
143.4 162 o
grestore
gsave
140.001562 27.437500 translate
0.000000 rotate
0.000000 0.000000 m /two glyphshow
3.817383 0.000000 m /zero glyphshow
grestore
gsave
/o {
gsave
newpath
translate
0.5 setlinewidth
1 setlinejoin
0 setlinecap
0 0 m
0 4 l
gsave
0.000 setgray
fill
grestore
stroke
grestore
} bind def
159 36 o
grestore
gsave
/o {
gsave
newpath
translate
0.5 setlinewidth
1 setlinejoin
0 setlinecap
0 0 m
0 -4 l
gsave
0.000 setgray
fill
grestore
stroke
grestore
} bind def
159 162 o
grestore
gsave
155.609375 27.437500 translate
0.000000 rotate
0.000000 0.000000 m /three glyphshow
3.817383 0.000000 m /zero glyphshow
grestore
gsave
/o {
gsave
newpath
translate
0.5 setlinewidth
1 setlinejoin
0 setlinecap
0 0 m
0 4 l
gsave
0.000 setgray
fill
grestore
stroke
grestore
} bind def
174.6 36 o
grestore
gsave
/o {
gsave
newpath
translate
0.5 setlinewidth
1 setlinejoin
0 setlinecap
0 0 m
0 -4 l
gsave
0.000 setgray
fill
grestore
stroke
grestore
} bind def
174.6 162 o
grestore
gsave
171.131250 27.437500 translate
0.000000 rotate
0.000000 0.000000 m /four glyphshow
3.817383 0.000000 m /zero glyphshow
grestore
gsave
90.900000 15.187500 translate
0.000000 rotate
/Cmr10 findfont
8.0 scalefont
setfont
0.000000 0.000000 moveto
/X glyphshow

/BitstreamVeraSans-Roman findfont
8.0 scalefont
setfont
6.000000 0.000000 moveto
/space glyphshow

/Cmr10 findfont
8.0 scalefont
setfont
8.542969 0.000000 moveto
/parenleft glyphshow

11.648438 0.000000 moveto
/k glyphshow

15.863281 0.000000 moveto
/p glyphshow

20.304688 0.000000 moveto
/c glyphshow

23.855469 0.000000 moveto
/parenright glyphshow


grestore
gsave
/o {
gsave
newpath
translate
0.5 setlinewidth
1 setlinejoin
0 setlinecap
0 0 m
4 0 l
gsave
0.000 setgray
fill
grestore
stroke
grestore
} bind def
34.2 36 o
grestore
gsave
/o {
gsave
newpath
translate
0.5 setlinewidth
1 setlinejoin
0 setlinecap
0 0 m
-4 0 l
gsave
0.000 setgray
fill
grestore
stroke
grestore
} bind def
174.6 36 o
grestore
gsave
18.575000 34.343750 translate
0.000000 rotate
0.000000 0.000000 m /minus glyphshow
5.027344 0.000000 m /four glyphshow
8.844727 0.000000 m /zero glyphshow
grestore
gsave
/o {
gsave
newpath
translate
0.5 setlinewidth
1 setlinejoin
0 setlinecap
0 0 m
4 0 l
gsave
0.000 setgray
fill
grestore
stroke
grestore
} bind def
34.2 51.75 o
grestore
gsave
/o {
gsave
newpath
translate
0.5 setlinewidth
1 setlinejoin
0 setlinecap
0 0 m
-4 0 l
gsave
0.000 setgray
fill
grestore
stroke
grestore
} bind def
174.6 51.75 o
grestore
gsave
18.575000 50.093750 translate
0.000000 rotate
0.000000 0.000000 m /minus glyphshow
5.027344 0.000000 m /three glyphshow
8.844727 0.000000 m /zero glyphshow
grestore
gsave
/o {
gsave
newpath
translate
0.5 setlinewidth
1 setlinejoin
0 setlinecap
0 0 m
4 0 l
gsave
0.000 setgray
fill
grestore
stroke
grestore
} bind def
34.2 67.5 o
grestore
gsave
/o {
gsave
newpath
translate
0.5 setlinewidth
1 setlinejoin
0 setlinecap
0 0 m
-4 0 l
gsave
0.000 setgray
fill
grestore
stroke
grestore
} bind def
174.6 67.5 o
grestore
gsave
18.575000 65.843750 translate
0.000000 rotate
0.000000 0.000000 m /minus glyphshow
5.027344 0.000000 m /two glyphshow
8.844727 0.000000 m /zero glyphshow
grestore
gsave
/o {
gsave
newpath
translate
0.5 setlinewidth
1 setlinejoin
0 setlinecap
0 0 m
4 0 l
gsave
0.000 setgray
fill
grestore
stroke
grestore
} bind def
34.2 83.25 o
grestore
gsave
/o {
gsave
newpath
translate
0.5 setlinewidth
1 setlinejoin
0 setlinecap
0 0 m
-4 0 l
gsave
0.000 setgray
fill
grestore
stroke
grestore
} bind def
174.6 83.25 o
grestore
gsave
18.575000 81.593750 translate
0.000000 rotate
0.000000 0.000000 m /minus glyphshow
5.027344 0.000000 m /one glyphshow
8.844727 0.000000 m /zero glyphshow
grestore
gsave
/o {
gsave
newpath
translate
0.5 setlinewidth
1 setlinejoin
0 setlinecap
0 0 m
4 0 l
gsave
0.000 setgray
fill
grestore
stroke
grestore
} bind def
34.2 99 o
grestore
gsave
/o {
gsave
newpath
translate
0.5 setlinewidth
1 setlinejoin
0 setlinecap
0 0 m
-4 0 l
gsave
0.000 setgray
fill
grestore
stroke
grestore
} bind def
174.6 99 o
grestore
gsave
27.168750 97.343750 translate
0.000000 rotate
0.000000 0.000000 m /zero glyphshow
grestore
gsave
/o {
gsave
newpath
translate
0.5 setlinewidth
1 setlinejoin
0 setlinecap
0 0 m
4 0 l
gsave
0.000 setgray
fill
grestore
stroke
grestore
} bind def
34.2 114.75 o
grestore
gsave
/o {
gsave
newpath
translate
0.5 setlinewidth
1 setlinejoin
0 setlinecap
0 0 m
-4 0 l
gsave
0.000 setgray
fill
grestore
stroke
grestore
} bind def
174.6 114.75 o
grestore
gsave
23.621875 113.093750 translate
0.000000 rotate
0.000000 0.000000 m /one glyphshow
3.817383 0.000000 m /zero glyphshow
grestore
gsave
/o {
gsave
newpath
translate
0.5 setlinewidth
1 setlinejoin
0 setlinecap
0 0 m
4 0 l
gsave
0.000 setgray
fill
grestore
stroke
grestore
} bind def
34.2 130.5 o
grestore
gsave
/o {
gsave
newpath
translate
0.5 setlinewidth
1 setlinejoin
0 setlinecap
0 0 m
-4 0 l
gsave
0.000 setgray
fill
grestore
stroke
grestore
} bind def
174.6 130.5 o
grestore
gsave
23.403125 128.843750 translate
0.000000 rotate
0.000000 0.000000 m /two glyphshow
3.817383 0.000000 m /zero glyphshow
grestore
gsave
/o {
gsave
newpath
translate
0.5 setlinewidth
1 setlinejoin
0 setlinecap
0 0 m
4 0 l
gsave
0.000 setgray
fill
grestore
stroke
grestore
} bind def
34.2 146.25 o
grestore
gsave
/o {
gsave
newpath
translate
0.5 setlinewidth
1 setlinejoin
0 setlinecap
0 0 m
-4 0 l
gsave
0.000 setgray
fill
grestore
stroke
grestore
} bind def
174.6 146.25 o
grestore
gsave
23.418750 144.593750 translate
0.000000 rotate
0.000000 0.000000 m /three glyphshow
3.817383 0.000000 m /zero glyphshow
grestore
gsave
/o {
gsave
newpath
translate
0.5 setlinewidth
1 setlinejoin
0 setlinecap
0 0 m
4 0 l
gsave
0.000 setgray
fill
grestore
stroke
grestore
} bind def
34.2 162 o
grestore
gsave
/o {
gsave
newpath
translate
0.5 setlinewidth
1 setlinejoin
0 setlinecap
0 0 m
-4 0 l
gsave
0.000 setgray
fill
grestore
stroke
grestore
} bind def
174.6 162 o
grestore
gsave
23.262500 160.343750 translate
0.000000 rotate
0.000000 0.000000 m /four glyphshow
3.817383 0.000000 m /zero glyphshow
grestore
gsave
11.575000 86.000000 translate
90.000000 rotate
/Cmr10 findfont
8.0 scalefont
setfont
0.000000 0.000000 moveto
/Z glyphshow

/BitstreamVeraSans-Roman findfont
8.0 scalefont
setfont
4.886719 0.000000 moveto
/space glyphshow

/Cmr10 findfont
8.0 scalefont
setfont
7.429688 0.000000 moveto
/parenleft glyphshow

10.535156 0.000000 moveto
/k glyphshow

14.750000 0.000000 moveto
/p glyphshow

19.191406 0.000000 moveto
/c glyphshow

22.742188 0.000000 moveto
/parenright glyphshow


grestore

end
showpage
