%!PS-Adobe-3.0 EPSF-3.0
%%Title: /Users/iuliasimion/bullock_johnston/denis_erkal/vasily/Figures/166507_1489549.0_lb.eps
%%Creator: matplotlib version 1.4.3, http://matplotlib.org/
%%CreationDate: Thu Aug 17 17:05:03 2017
%%Orientation: portrait
%%BoundingBox: 216 306 396 486
%%EndComments
%%BeginProlog
/mpldict 10 dict def
mpldict begin
/m { moveto } bind def
/l { lineto } bind def
/r { rlineto } bind def
/c { curveto } bind def
/cl { closepath } bind def
/box {
m
1 index 0 r
0 exch r
neg 0 r
cl
} bind def
/clipbox {
box
clip
newpath
} bind def
%!PS-Adobe-3.0 Resource-Font
%%Title: Bitstream Vera Sans
%%Copyright: Copyright (c) 2003 by Bitstream, Inc. All Rights Reserved.
%%Creator: Converted from TrueType to type 3 by PPR
25 dict begin
/_d{bind def}bind def
/_m{moveto}_d
/_l{lineto}_d
/_cl{closepath eofill}_d
/_c{curveto}_d
/_sc{7 -1 roll{setcachedevice}{pop pop pop pop pop pop}ifelse}_d
/_e{exec}_d
/FontName /BitstreamVeraSans-Roman def
/PaintType 0 def
/FontMatrix[.001 0 0 .001 0 0]def
/FontBBox[-183 -236 1287 928]def
/FontType 3 def
/Encoding [ /space /zero /one /two /three /five /six /equal /N /minus ] def
/FontInfo 10 dict dup begin
/FamilyName (Bitstream Vera Sans) def
/FullName (Bitstream Vera Sans) def
/Notice (Copyright (c) 2003 by Bitstream, Inc. All Rights Reserved. Bitstream Vera is a trademark of Bitstream, Inc.) def
/Weight (Roman) def
/Version (Release 1.10) def
/ItalicAngle 0.0 def
/isFixedPitch false def
/UnderlinePosition -213 def
/UnderlineThickness 143 def
end readonly def
/CharStrings 10 dict dup begin
/space{318 0 0 0 0 0 _sc
}_d
/zero{636 0 66 -13 570 742 _sc
318 664 _m
267 664 229 639 203 589 _c
177 539 165 464 165 364 _c
165 264 177 189 203 139 _c
229 89 267 64 318 64 _c
369 64 407 89 433 139 _c
458 189 471 264 471 364 _c
471 464 458 539 433 589 _c
407 639 369 664 318 664 _c
318 742 _m
399 742 461 709 505 645 _c
548 580 570 486 570 364 _c
570 241 548 147 505 83 _c
461 19 399 -13 318 -13 _c
236 -13 173 19 130 83 _c
87 147 66 241 66 364 _c
66 486 87 580 130 645 _c
173 709 236 742 318 742 _c
_cl}_d
/one{636 0 110 0 544 729 _sc
124 83 _m
285 83 _l
285 639 _l
110 604 _l
110 694 _l
284 729 _l
383 729 _l
383 83 _l
544 83 _l
544 0 _l
124 0 _l
124 83 _l
_cl}_d
/two{{636 0 73 0 536 742 _sc
192 83 _m
536 83 _l
536 0 _l
73 0 _l
73 83 _l
110 121 161 173 226 239 _c
290 304 331 346 348 365 _c
380 400 402 430 414 455 _c
426 479 433 504 433 528 _c
433 566 419 598 392 622 _c
365 646 330 659 286 659 _c
255 659 222 653 188 643 _c
154 632 117 616 78 594 _c
78 694 _l
118 710 155 722 189 730 _c
223 738 255 742 284 742 _c
}_e{359 742 419 723 464 685 _c
509 647 532 597 532 534 _c
532 504 526 475 515 449 _c
504 422 484 390 454 354 _c
446 344 420 317 376 272 _c
332 227 271 164 192 83 _c
_cl}_e}_d
/three{{636 0 76 -13 556 742 _sc
406 393 _m
453 383 490 362 516 330 _c
542 298 556 258 556 212 _c
556 140 531 84 482 45 _c
432 6 362 -13 271 -13 _c
240 -13 208 -10 176 -4 _c
144 1 110 10 76 22 _c
76 117 _l
103 101 133 89 166 81 _c
198 73 232 69 268 69 _c
330 69 377 81 409 105 _c
441 129 458 165 458 212 _c
458 254 443 288 413 312 _c
383 336 341 349 287 349 _c
}_e{202 349 _l
202 430 _l
291 430 _l
339 430 376 439 402 459 _c
428 478 441 506 441 543 _c
441 580 427 609 401 629 _c
374 649 336 659 287 659 _c
260 659 231 656 200 650 _c
169 644 135 635 98 623 _c
98 711 _l
135 721 170 729 203 734 _c
235 739 266 742 296 742 _c
370 742 429 725 473 691 _c
517 657 539 611 539 553 _c
539 513 527 479 504 451 _c
481 423 448 403 406 393 _c
_cl}_e}_d
/five{{636 0 77 -13 549 729 _sc
108 729 _m
495 729 _l
495 646 _l
198 646 _l
198 467 _l
212 472 227 476 241 478 _c
255 480 270 482 284 482 _c
365 482 429 459 477 415 _c
525 370 549 310 549 234 _c
549 155 524 94 475 51 _c
426 8 357 -13 269 -13 _c
238 -13 207 -10 175 -6 _c
143 -1 111 6 77 17 _c
77 116 _l
106 100 136 88 168 80 _c
199 72 232 69 267 69 _c
}_e{323 69 368 83 401 113 _c
433 143 450 183 450 234 _c
450 284 433 324 401 354 _c
368 384 323 399 267 399 _c
241 399 214 396 188 390 _c
162 384 135 375 108 363 _c
108 729 _l
_cl}_e}_d
/six{{636 0 70 -13 573 742 _sc
330 404 _m
286 404 251 388 225 358 _c
199 328 186 286 186 234 _c
186 181 199 139 225 109 _c
251 79 286 64 330 64 _c
374 64 409 79 435 109 _c
461 139 474 181 474 234 _c
474 286 461 328 435 358 _c
409 388 374 404 330 404 _c
526 713 _m
526 623 _l
501 635 476 644 451 650 _c
425 656 400 659 376 659 _c
310 659 260 637 226 593 _c
}_e{192 549 172 482 168 394 _c
187 422 211 444 240 459 _c
269 474 301 482 336 482 _c
409 482 467 459 509 415 _c
551 371 573 310 573 234 _c
573 159 550 99 506 54 _c
462 9 403 -13 330 -13 _c
246 -13 181 19 137 83 _c
92 147 70 241 70 364 _c
70 479 97 571 152 639 _c
206 707 280 742 372 742 _c
396 742 421 739 447 735 _c
472 730 498 723 526 713 _c
_cl}_e}_d
/equal{838 0 106 172 732 454 _sc
106 454 _m
732 454 _l
732 372 _l
106 372 _l
106 454 _l
106 255 _m
732 255 _l
732 172 _l
106 172 _l
106 255 _l
_cl}_d
/N{748 0 98 0 650 729 _sc
98 729 _m
231 729 _l
554 119 _l
554 729 _l
650 729 _l
650 0 _l
517 0 _l
194 610 _l
194 0 _l
98 0 _l
98 729 _l
_cl}_d
/minus{838 0 106 272 732 355 _sc
106 355 _m
732 355 _l
732 272 _l
106 272 _l
106 355 _l
_cl}_d
end readonly def

/BuildGlyph
 {exch begin
 CharStrings exch
 2 copy known not{pop /.notdef}if
 true 3 1 roll get exec
 end}_d

/BuildChar {
 1 index /Encoding get exch get
 1 index /BuildGlyph get exec
}_d

FontName currentdict end definefont pop
%!PS-Adobe-3.0 Resource-Font
%%Title: cmsy10
%%Copyright: Copyright (C) 1994, Basil K. Malyshev. All Rights Reserved.012BaKoMa Fonts Collection, Level-B.
%%Creator: Converted from TrueType to type 3 by PPR
25 dict begin
/_d{bind def}bind def
/_m{moveto}_d
/_l{lineto}_d
/_cl{closepath eofill}_d
/_c{curveto}_d
/_sc{7 -1 roll{setcachedevice}{pop pop pop pop pop pop}ifelse}_d
/_e{exec}_d
/FontName /Cmsy10 def
/PaintType 0 def
/FontMatrix[.001 0 0 .001 0 0]def
/FontBBox[-29 -960 1123 779]def
/FontType 3 def
/Encoding [ /openbullet ] def
/FontInfo 10 dict dup begin
/FamilyName (cmsy10) def
/FullName (cmsy10) def
/Notice (Copyright (C) 1994, Basil K. Malyshev. All Rights Reserved.012BaKoMa Fonts Collection, Level-B. ) def
/Weight (Regular) def
/Version (1.1/12-Nov-94) def
/ItalicAngle 0.0 def
/isFixedPitch false def
/UnderlinePosition -133 def
/UnderlineThickness 20 def
end readonly def
/CharStrings 1 dict dup begin
/openbullet{{500 0 56 56 443 444 _sc
250 56 _m
215 56 183 64 153 82 _c
123 99 100 123 82 153 _c
64 183 56 216 56 250 _c
56 284 64 316 82 346 _c
100 376 123 400 153 418 _c
183 435 215 444 250 444 _c
284 444 316 435 346 417 _c
376 399 399 376 417 346 _c
434 316 443 284 443 250 _c
443 216 434 184 417 154 _c
399 124 376 100 346 82 _c
316 64 284 56 250 56 _c
250 96 _m
}_e{292 96 328 111 358 142 _c
388 172 403 208 403 250 _c
403 276 396 302 382 326 _c
368 350 349 369 326 383 _c
302 397 277 404 250 404 _c
229 404 209 400 191 392 _c
173 384 156 372 142 358 _c
127 343 116 326 108 308 _c
100 290 96 270 96 250 _c
96 208 111 172 141 142 _c
171 111 208 96 250 96 _c
_cl}_e}_d
end readonly def

/BuildGlyph
 {exch begin
 CharStrings exch
 2 copy known not{pop /.notdef}if
 true 3 1 roll get exec
 end}_d

/BuildChar {
 1 index /Encoding get exch get
 1 index /BuildGlyph get exec
}_d

FontName currentdict end definefont pop
%!PS-Adobe-3.0 Resource-Font
%%Title: cmr10
%%Copyright: Copyright (C) 1994, Basil K. Malyshev. All Rights Reserved.012BaKoMa Fonts Collection, Level-B.
%%Creator: Converted from TrueType to type 3 by PPR
25 dict begin
/_d{bind def}bind def
/_m{moveto}_d
/_l{lineto}_d
/_cl{closepath eofill}_d
/_c{curveto}_d
/_sc{7 -1 roll{setcachedevice}{pop pop pop pop pop pop}ifelse}_d
/_e{exec}_d
/FontName /Cmr10 def
/PaintType 0 def
/FontMatrix[.001 0 0 .001 0 0]def
/FontBBox[-44 -250 1009 750]def
/FontType 3 def
/Encoding [ /b /parenright /l /parenleft ] def
/FontInfo 10 dict dup begin
/FamilyName (cmr10) def
/FullName (cmr10) def
/Notice (Copyright (C) 1994, Basil K. Malyshev. All Rights Reserved.012BaKoMa Fonts Collection, Level-B. ) def
/Weight (Regular) def
/Version (1.1/12-Nov-94) def
/ItalicAngle 0.0 def
/isFixedPitch false def
/UnderlinePosition -133 def
/UnderlineThickness 20 def
end readonly def
/CharStrings 4 dict dup begin
/b{{555 0 26 -10 522 694 _sc
104 0 _m
104 592 _l
104 610 101 623 96 631 _c
90 639 83 643 73 645 _c
63 647 47 648 26 648 _c
26 683 _l
174 694 _l
174 381 _l
184 393 197 403 212 413 _c
227 422 243 429 260 434 _c
277 439 294 442 312 442 _c
342 442 369 436 395 424 _c
421 412 443 395 462 374 _c
480 352 495 328 506 301 _c
516 273 522 245 522 216 _c
522 175 512 137 492 103 _c
}_e{472 68 446 40 412 20 _c
378 0 340 -10 300 -10 _c
274 -10 250 -3 226 9 _c
202 21 182 38 167 60 _c
133 0 _l
104 0 _l
177 98 _m
187 74 203 54 224 38 _c
245 22 268 15 294 15 _c
328 15 356 25 378 45 _c
399 65 414 90 422 120 _c
430 150 435 182 435 216 _c
435 272 427 314 413 344 _c
406 357 397 369 386 380 _c
375 391 363 400 349 406 _c
}_e{335 412 320 416 305 416 _c
278 416 253 409 231 395 _c
208 381 190 362 177 338 _c
177 98 _l
_cl}_e}_d
/parenright{{388 0 56 -249 291 750 _sc
65 -249 _m
59 -249 56 -246 56 -240 _c
56 -237 56 -235 58 -234 _c
172 -122 229 38 229 250 _c
229 462 172 623 60 733 _c
57 734 56 737 56 741 _c
56 743 57 745 59 747 _c
61 749 63 750 65 750 _c
74 750 _l
76 750 77 749 79 748 _c
127 710 167 664 199 610 _c
231 556 254 498 269 437 _c
283 376 291 314 291 250 _c
291 202 287 156 279 110 _c
}_e{271 64 258 20 241 -24 _c
223 -68 201 -108 175 -146 _c
148 -184 116 -217 79 -247 _c
77 -248 76 -249 74 -249 _c
65 -249 _l
_cl}_e}_d
/l{277 0 31 0 257 694 _sc
31 0 _m
31 35 _l
53 35 72 36 87 40 _c
101 44 109 53 109 67 _c
109 592 _l
109 610 106 623 101 631 _c
95 639 88 643 78 645 _c
68 647 52 648 31 648 _c
31 683 _l
179 694 _l
179 67 _l
179 53 186 44 201 40 _c
215 36 234 35 257 35 _c
257 0 _l
31 0 _l
_cl}_d
/parenleft{{388 0 97 -249 332 750 _sc
310 -247 _m
272 -217 240 -184 214 -146 _c
187 -108 165 -67 148 -25 _c
131 17 118 62 110 109 _c
101 155 97 202 97 250 _c
97 298 101 345 110 392 _c
118 438 131 483 149 527 _c
166 570 188 611 215 649 _c
242 687 274 720 310 748 _c
310 749 311 750 315 750 _c
324 750 _l
326 750 327 749 329 747 _c
331 745 332 743 332 741 _c
332 738 331 736 330 735 _c
}_e{297 703 270 668 248 632 _c
226 596 209 557 196 516 _c
183 474 174 432 168 388 _c
162 344 159 298 159 250 _c
159 38 215 -122 329 -232 _c
331 -234 332 -236 332 -240 _c
332 -242 331 -244 329 -246 _c
327 -248 326 -249 324 -249 _c
315 -249 _l
311 -249 310 -248 310 -247 _c
_cl}_e}_d
end readonly def

/BuildGlyph
 {exch begin
 CharStrings exch
 2 copy known not{pop /.notdef}if
 true 3 1 roll get exec
 end}_d

/BuildChar {
 1 index /Encoding get exch get
 1 index /BuildGlyph get exec
}_d

FontName currentdict end definefont pop
end
%%EndProlog
mpldict begin
216 306 translate
180 180 0 0 clipbox
gsave
0 0 m
180 0 l
180 180 l
0 180 l
cl
1.000 setgray
fill
grestore
gsave
34.2 37.8 m
174.6 37.8 l
174.6 162 l
34.2 162 l
cl
1.000 setgray
fill
grestore
0.500 setlinewidth
1 setlinejoin
0 setlinecap
[] 0 setdash
0.000 setgray
gsave
140.4 124.2 34.2 37.8 clipbox
/o {
gsave
newpath
translate
0.5 setlinewidth
1 setlinejoin
0 setlinecap
0 -0.25 m
0.0663008 -0.25 0.129895 -0.223658 0.176777 -0.176777 c
0.223658 -0.129895 0.25 -0.0663008 0.25 0 c
0.25 0.0663008 0.223658 0.129895 0.176777 0.176777 c
0.129895 0.223658 0.0663008 0.25 0 0.25 c
-0.0663008 0.25 -0.129895 0.223658 -0.176777 0.176777 c
-0.223658 0.129895 -0.25 0.0663008 -0.25 0 c
-0.25 -0.0663008 -0.223658 -0.129895 -0.176777 -0.176777 c
-0.129895 -0.223658 -0.0663008 -0.25 0 -0.25 c
cl
gsave
0.000 setgray
fill
grestore
stroke
grestore
} bind def
89.0679 83.4675 o
102.24 105.189 o
103.224 103.764 o
121.973 89.8537 o
129.471 90.059 o
133.716 80.3629 o
123.556 125.833 o
123.296 106.904 o
92.2808 95.2188 o
164.966 44.5979 o
122.758 96.704 o
104.446 87.7063 o
94.3558 92.1122 o
55.0185 104.843 o
96.1511 57.3183 o
107.353 84.798 o
138.095 90.8044 o
53.0398 108.86 o
120.993 91.244 o
101.897 95.5194 o
89.5492 102.427 o
119.856 72.9185 o
109.315 104.436 o
62.3691 93.3861 o
97.9275 104.979 o
107.241 100.617 o
125.365 104.421 o
92.3752 111.39 o
89.1272 94.2265 o
116.826 98.5592 o
100.692 114.135 o
117.985 81.8906 o
102.302 120.043 o
80.1204 100.427 o
116.846 112.15 o
81.7954 104.743 o
117.578 100.18 o
102.56 138.593 o
116.012 85.1702 o
102.133 117.295 o
100.012 94.3407 o
95.0882 112.07 o
136.197 114.377 o
82.1543 100.172 o
115.513 82.7648 o
73.9711 110.094 o
99.112 104.459 o
90.1458 73.9442 o
107.741 104.493 o
128.002 66.423 o
104.411 109.044 o
122.453 103.915 o
106.22 101.297 o
114.854 93.3404 o
153.094 121.078 o
127.8 132.99 o
135.393 101.414 o
100.826 107.398 o
103.011 124.307 o
109.401 96.8052 o
125.209 89.1965 o
93.6084 83.4776 o
141.108 87.8536 o
61.0232 74.0977 o
172.624 146.957 o
158.622 105.898 o
88.0934 78.5878 o
100.945 104.364 o
92.6913 93.7582 o
119.082 109.417 o
57.2345 119.755 o
131.787 52.8172 o
106.198 89.5524 o
104.44 91.9001 o
58.5909 49.0411 o
89.1679 121.411 o
34.8328 110.617 o
95.5377 105.664 o
169.738 133.001 o
88.0553 114.873 o
84.3864 95.206 o
112.477 98.0645 o
63.11 110.188 o
111.664 91.8715 o
117.914 106.972 o
82.3977 116.097 o
128.983 115.61 o
127.015 117.323 o
44.666 83.5997 o
145.686 101.788 o
88.5975 115.058 o
101.072 106.05 o
115.938 96.7488 o
107.79 97.383 o
95.1788 87.3743 o
76.6021 99.5528 o
119.977 75.377 o
110.872 90.9769 o
123.91 111.531 o
69.4496 76.4032 o
99.4281 92.2556 o
152.802 76.6482 o
115.41 102.526 o
104.602 86.8053 o
61.6427 72.5942 o
110.616 84.1928 o
42.1169 76.9967 o
102.262 126.573 o
89.938 75.7215 o
107.559 111.365 o
156.806 113.706 o
140.255 115.993 o
82.8154 82.0324 o
71.8621 75.7524 o
89.2553 69.3524 o
134.054 125.171 o
156.998 86.1988 o
100.816 106.482 o
80.5125 89.2838 o
98.783 79.0948 o
132.066 112.792 o
57.7716 89.1891 o
115.248 108.677 o
115.745 99.8628 o
103.517 107.855 o
106.173 111.039 o
37.1619 98.9837 o
61.3737 115.747 o
85.5621 102.844 o
170.56 103.86 o
111.218 133.258 o
99.0364 123.521 o
96.8653 54.1268 o
85.507 115.906 o
35.2655 58.8126 o
88.4525 111.731 o
108.498 95.6886 o
88.6526 118.61 o
81.4828 101.074 o
142.789 62.2183 o
94.0931 130.7 o
105.92 108.402 o
72.8651 112.177 o
65.0034 91.1957 o
124.683 112.557 o
112.229 75.0545 o
131.841 129.272 o
92.8583 101.924 o
99.2461 94.7339 o
112.333 90.3041 o
128.569 113.549 o
116.947 114.284 o
103.732 98.8294 o
128.945 146.421 o
95.1505 84.1494 o
92.7646 143.064 o
136.864 103.841 o
89.8504 79.3722 o
39.6434 104.522 o
94.8095 98.992 o
58.2567 94.7938 o
106.376 117.014 o
85.3252 84.708 o
98.5867 83.777 o
39.4516 88.9741 o
76.291 111.305 o
156.435 89.1506 o
107.666 99.2566 o
155.649 106.079 o
82.7231 94.5985 o
115.655 132.162 o
66.9529 98.1805 o
153.029 111.331 o
54.3862 112.862 o
98.3062 102.464 o
116.239 107.804 o
106.576 105.195 o
101.847 94.3629 o
106.898 90.8994 o
132.085 104.589 o
104.454 67.5823 o
95.375 81.7445 o
160.533 101.149 o
121.951 112.816 o
80.1613 135.62 o
131.875 71.4941 o
94.8679 84.168 o
109.936 81.4404 o
78.6026 83.4436 o
80.4151 119.539 o
103.683 92.1676 o
169.511 92.5609 o
109.348 126.525 o
138.25 60.4259 o
130.343 102.412 o
106.581 105.071 o
98.2809 98.611 o
125.715 101.534 o
115.684 92.9724 o
60.2355 91.3248 o
104.84 90.4936 o
136.611 42.9125 o
85.9258 114.791 o
38.8628 110.647 o
121.891 96.461 o
127.406 113.609 o
93.7102 130.662 o
98.6782 125.642 o
101.014 113.186 o
108.167 115.152 o
93.0828 95.6083 o
102.237 102.455 o
100.515 106.18 o
87.1601 118.845 o
135.235 77.4785 o
103.47 84.7829 o
117.82 96.8479 o
57.3625 117.039 o
104.29 103.61 o
107.641 106.88 o
129.858 112.429 o
97.5684 112.001 o
105.722 121.247 o
66.7526 95.3507 o
94.8408 95.9815 o
128.966 116.165 o
104.574 93.8442 o
114.222 79.8687 o
90.2167 88.9516 o
119.541 91.2793 o
88.8746 76.5005 o
163.4 109.888 o
70.7948 102.413 o
73.017 79.5349 o
103.889 104.932 o
79.049 65.9106 o
36.7126 119.897 o
143.336 127.426 o
114.244 85.7181 o
125.394 108.448 o
92.7517 104.426 o
112.946 112.596 o
110.648 102.341 o
112.285 108.684 o
119.913 114.702 o
143.726 71.6884 o
110.592 102.037 o
71.2015 121.047 o
134.097 100.045 o
72.2407 102.305 o
96.3026 109.761 o
105.661 99.528 o
74.8948 84.534 o
107.851 94.3238 o
105.522 92.4552 o
116.149 107.069 o
107.37 103.369 o
92.8779 100.136 o
95.011 120.577 o
116.551 105.799 o
162.851 85.7916 o
122.631 52.9017 o
108.803 85.773 o
104.351 102.241 o
53.3494 130.268 o
137.624 107.473 o
144.175 96.6696 o
112.898 101.812 o
99.4448 117.293 o
100.891 105.667 o
145.671 130.342 o
100.158 99.9015 o
40.4875 123.171 o
96.3489 87.5398 o
121.703 73.9216 o
113.211 118.923 o
120.825 122.871 o
83.3403 82.9928 o
133.667 70.3188 o
141.557 98.7997 o
94.7309 142.265 o
95.8875 106.51 o
115.271 81.1116 o
119.396 101.868 o
58.0512 79.7647 o
118.753 94.7729 o
129.946 102.686 o
112.956 129.643 o
95.7149 98.524 o
95.7162 82.8188 o
110.742 108.869 o
95.317 80.2757 o
97.7093 92.0276 o
83.9257 87.6805 o
129.936 127.857 o
130.818 101.129 o
119.87 78.6513 o
58.5184 92.7955 o
83.5999 121.985 o
126.222 116.891 o
105.254 101 o
107.036 98.2555 o
120.349 131.261 o
47.0661 137.301 o
131.944 96.3781 o
74.2889 93.3438 o
72.6746 143.266 o
87.5743 80.1418 o
99.7818 114.208 o
131.432 76.6243 o
70.5649 110.536 o
100.832 120.163 o
108.584 93.2101 o
104.515 108.465 o
121.59 114.728 o
72.8768 97.8821 o
150.004 98.2795 o
131.238 97.4532 o
68.9099 109.672 o
62.8441 89.7415 o
135.202 100.726 o
138.577 101.73 o
118.943 106.387 o
116.166 134.961 o
107.564 81.067 o
120.442 95.5488 o
107.509 142.011 o
97.2346 116.741 o
148.431 98.0056 o
80.707 95.1532 o
104.826 115.132 o
103.042 101.167 o
173.876 107.812 o
125.976 82.7453 o
76.312 106.989 o
71.5486 60.746 o
171.408 56.6029 o
50.8512 78.358 o
119.26 96.4718 o
73.4221 114.034 o
96.3962 135.351 o
114.614 104.585 o
135.416 82.9264 o
86.2151 105.702 o
129.398 117.96 o
102.277 102.102 o
78.2426 100.428 o
103.5 105.689 o
107.805 89.6601 o
45.4966 77.4435 o
126.44 112.719 o
83.8327 139.638 o
82.9427 67.6195 o
113.204 121.856 o
73.502 119.809 o
98.2815 119.865 o
105.832 98.2468 o
100.135 54.6887 o
148.54 103.263 o
114.283 80.8079 o
104.075 85.4207 o
111.73 97.8105 o
122.189 92.9072 o
74.4532 111.998 o
56.1399 43.0242 o
92.2064 54.5521 o
130.183 97.6524 o
111.896 87.5426 o
89.2376 119.681 o
123.161 103.731 o
91.6635 95.9307 o
128.285 99.8198 o
136.26 146.569 o
125.284 143.936 o
125.361 102.204 o
124.672 118.172 o
169.964 88.8607 o
111.382 98.2737 o
77.6704 82.4283 o
114.2 102.425 o
94.7929 94.363 o
110.56 111.931 o
119.658 92.8864 o
111.323 119.05 o
41.0168 74.2969 o
92.4912 98.9213 o
111.438 109.967 o
103.694 89.5951 o
38.6731 84.2042 o
135.933 109.865 o
140.171 84.6961 o
62.1702 89.7292 o
102.605 103.755 o
155.314 121.161 o
90.2291 133.452 o
54.8089 131.895 o
49.0099 83.0847 o
101.339 101.01 o
133.953 106.567 o
134.893 59.0971 o
55.7839 149.239 o
116.972 103.467 o
148.992 113.968 o
84.5177 112.155 o
94.0222 102.398 o
81.1273 89.6824 o
77.0824 71.5745 o
85.3828 109.662 o
101.508 88.0392 o
105.417 101.324 o
138.391 123.681 o
145.558 87.6165 o
96.9038 101.507 o
150.948 51.0975 o
106.252 93.7369 o
106.967 103.843 o
127.201 97.1936 o
84.0143 70.6049 o
78.7991 92.7096 o
163.976 132.601 o
122.107 107.716 o
108.503 80.0605 o
66.5505 104.611 o
35.9522 139.73 o
68.9485 85.515 o
103.141 100.976 o
100.062 140.903 o
107.095 109.685 o
86.0002 50.0766 o
106.513 90.5996 o
76.7436 118.347 o
98.1729 107.702 o
73.2356 98.4807 o
107.241 85.0452 o
116.861 121.12 o
96.0813 91.1245 o
166.236 77.103 o
93.773 102.148 o
98.8842 69.5998 o
75.2281 81.9743 o
95.2846 131.225 o
81.3009 83.5407 o
119.459 118.957 o
143.864 138.615 o
140.95 108.156 o
91.6646 100.112 o
149.664 108.215 o
36.7236 136.984 o
89.3597 109.17 o
67.274 95.4968 o
120.792 86.0487 o
106.481 123.741 o
77.0324 138.984 o
112.209 87.487 o
102.778 90.4076 o
115.132 95.0187 o
109.344 89.3857 o
103.962 77.7012 o
92.444 97.8934 o
134.303 80.1433 o
90.3795 112.868 o
98.4145 127.168 o
104.266 92.402 o
113.566 105.838 o
79.7611 83.8113 o
115.599 96.6011 o
102.052 106.8 o
111.314 108.403 o
131.003 87.7991 o
97.9128 113.773 o
102.245 97.3755 o
51.0257 47.2566 o
95.2331 103.281 o
78.8619 68.8758 o
100.993 124.958 o
107.235 105.598 o
86.6088 73.1652 o
94.4617 125.564 o
88.195 59.423 o
100.764 115.11 o
110.593 94.1424 o
53.9595 111.871 o
120.041 116.233 o
100.596 121.289 o
145.729 95.0734 o
109.096 78.4753 o
105.143 87.7295 o
62.0775 109.625 o
124.964 104.328 o
109.208 94.6282 o
133.462 106.186 o
104.049 107.722 o
122.502 100.628 o
124.776 98.9786 o
113.98 104.187 o
98.0178 115.154 o
83.7252 91.1364 o
87.3317 94.9175 o
109.324 106.862 o
95.3349 130.624 o
59.3552 115.229 o
104.304 93.8239 o
112.45 91.5721 o
112.2 93.8604 o
141.162 79.5009 o
123.618 121.317 o
124.802 105.021 o
103.455 120.834 o
96.8081 95.2099 o
107.09 89.1267 o
106.317 109.65 o
81.1832 117.636 o
108.005 103.714 o
104.086 90.3415 o
120.032 91.4407 o
87.6984 88.853 o
92.5097 85.2495 o
104.182 82.4502 o
94.4782 110.847 o
101.915 80.4576 o
110.074 101.526 o
120.577 104.312 o
143.105 90.3312 o
109.354 96.6899 o
81.9032 86.9082 o
103.799 99.689 o
81.3459 108.134 o
121.87 103.996 o
134.642 115.898 o
102.365 97.84 o
85.755 153.704 o
109.655 106.691 o
120.548 90.7618 o
80.0256 113.309 o
148.729 135.922 o
110.75 94.0766 o
123.074 110.296 o
114.438 99.2417 o
124.598 104.032 o
121.264 119.143 o
58.586 64.8905 o
88.1017 90.594 o
104.323 97.6602 o
113.198 91.6016 o
79.8368 106.829 o
104.207 122.314 o
84.5184 97.8549 o
83.9765 132.292 o
119.412 149.16 o
124.111 102.579 o
106.74 101.14 o
116.83 99.9581 o
100.382 103.386 o
169.189 98.1205 o
105.53 101.02 o
114.73 90.5572 o
117.397 119.094 o
111.134 82.0072 o
152.018 109.918 o
95.2293 94.4158 o
87.9919 98.5225 o
93.4548 110.857 o
72.507 106.129 o
114.919 91.2287 o
92.2619 89.554 o
86.4307 96.4023 o
119.006 105.515 o
66.5486 98.9953 o
104.671 94.7339 o
152.053 108.436 o
90.1853 91.5751 o
173.677 120.173 o
95.8642 96.4281 o
35.006 146.4 o
102.85 108.34 o
69.2602 118.552 o
118.527 116.947 o
104.28 62.2341 o
171.803 56.4157 o
85.9657 130.148 o
102.413 143.842 o
110.118 107.953 o
119.218 96.6359 o
44.3139 118.668 o
71.7725 89.6645 o
117.808 114.881 o
98.447 100.013 o
108.085 116.578 o
111.535 102.944 o
82.2581 98.7767 o
101.642 118.435 o
163.385 75.2999 o
98.2 112.901 o
148.434 85.4666 o
148.606 88.5019 o
148.766 148.718 o
112.562 91.5791 o
114.902 101.65 o
117.934 100.367 o
88.2726 78.8667 o
116.284 137.971 o
107.41 98.8529 o
116.349 100.084 o
72.8242 95.7635 o
107.434 90.4089 o
109.839 99.9887 o
124.978 61.9879 o
108.618 96.7641 o
76.1892 88.1678 o
96.9873 115.474 o
60.1613 48.1516 o
88.2068 86.6766 o
103.109 99.6029 o
87.6467 90.4373 o
130.565 94.0705 o
126.45 116.935 o
112.098 82.3735 o
117.692 86.6082 o
109.915 97.9884 o
89.8498 116.943 o
109.499 105.644 o
139.895 93.1753 o
113.923 114.084 o
80.2536 101.827 o
86.3313 87.18 o
105.241 76.5205 o
98.1559 96.3325 o
54.6942 145.707 o
95.1201 137.054 o
104.096 89.8196 o
102.002 92.1675 o
127.319 105.173 o
129.647 103.462 o
100.655 100.509 o
124.062 135.81 o
109.679 97.6249 o
97.0978 99.7654 o
69.0386 141.669 o
95.5728 107.262 o
104.404 108.767 o
70.5114 98.7988 o
109.104 99.2266 o
105.313 95.2419 o
142.028 149.069 o
76.2831 86.6055 o
138.311 65.5122 o
119.57 123.874 o
101.294 122.99 o
99.7544 107.926 o
146.867 97.236 o
119.994 84.4629 o
95.6764 121.219 o
111.273 154.009 o
101.298 124.227 o
80.8405 140.283 o
147.013 86.6532 o
150.441 63.9814 o
81.3036 137.446 o
43.6838 79.0956 o
97.7571 87.4643 o
90.5157 111 o
47.731 112.151 o
48.0776 124.386 o
119.119 84.6854 o
106.954 136.505 o
56.5196 144.36 o
154.222 92.7048 o
90.6368 107.692 o
89.4737 78.0401 o
102.66 105.54 o
97.5131 102.929 o
102.638 111.332 o
43.4714 93.932 o
96.3037 101.985 o
93.9354 91.66 o
115.094 108.631 o
116.347 78.5038 o
105.595 95.6731 o
50.79 108.609 o
82.1592 102.459 o
94.5378 89.7253 o
108.116 76.2584 o
135.273 116.754 o
106.014 107.091 o
84.2336 135.316 o
107.216 120.636 o
109.363 84.7055 o
72.3564 73.3654 o
113.975 98.7188 o
114.861 104.416 o
99.6226 102.704 o
111.995 108.566 o
104.291 131.952 o
119.781 102.199 o
124.341 102.193 o
108.058 87.7947 o
138.542 120.49 o
170.952 95.0105 o
112.073 79.5559 o
91.4417 111.577 o
107.314 111.606 o
103.738 103.907 o
93.2807 109.582 o
38.293 76.4045 o
95.0386 102.333 o
100.758 103.43 o
118.586 107.66 o
112.307 103.201 o
101.605 146.721 o
151.261 66.153 o
106.205 97.0239 o
120.555 77.6355 o
67.1823 87.3652 o
114.937 82.1363 o
110.428 102.325 o
134.236 71.3168 o
171.977 130.378 o
117.691 86.6507 o
114.278 132.611 o
170.766 114.864 o
111.064 96.4932 o
131.587 86.2093 o
126.108 99.0773 o
108.617 86.0048 o
85.4918 96.6359 o
104.867 107.221 o
147.401 64.2144 o
140.633 82.563 o
130.173 120.415 o
81.183 106.12 o
104.205 112.442 o
154.188 108.007 o
121.232 97.566 o
108.796 109.273 o
85.4436 88.1424 o
128.92 90.0244 o
90.2225 116.529 o
75.4211 92.7549 o
118.001 63.2545 o
76.1309 82.7787 o
110.176 89.4463 o
95.3412 87.6963 o
110.812 87.1137 o
98.2157 89.664 o
136.521 127.85 o
119.877 99.2994 o
125.426 79.8852 o
101.975 117.583 o
90.6599 111.374 o
115.569 132.493 o
106.244 79.1404 o
101.95 123.458 o
140.041 107.889 o
53.5663 104.304 o
111.29 79.2299 o
101.689 102.911 o
39.4636 121.525 o
114.102 94.6361 o
61.8588 118.034 o
89.501 101.54 o
86.0881 93.3368 o
114.154 109.698 o
93.6252 94.5609 o
73.8585 112.588 o
103.904 87.8359 o
110.058 110.887 o
127.036 97.8642 o
90.9198 94.2961 o
105.347 88.6294 o
90.4693 100.538 o
117.499 97.3697 o
110.561 113.11 o
119.579 114.775 o
136.241 71.6616 o
103.374 120.295 o
107.371 91.3488 o
68.437 96.188 o
102.6 105.417 o
93.7111 95.6885 o
86.9438 122.171 o
79.4379 76.6551 o
87.7967 109.539 o
74.2279 100.565 o
100.404 67.8881 o
96.0775 117.028 o
121.595 103.617 o
169.099 128.311 o
98.2804 92.5769 o
113.991 101.691 o
98.0165 104.813 o
116.677 93.9492 o
81.7388 91.4994 o
94.7499 100.096 o
88.0798 103.718 o
105.536 98.9863 o
115.003 135.909 o
102.619 111.559 o
110.951 89.9773 o
108.375 60.2517 o
135.095 97.6723 o
74.1997 70.1014 o
76.2517 49.644 o
136.689 77.3756 o
97.4183 99.9549 o
116.684 101.044 o
118.841 123.701 o
93.4007 103.733 o
88.7237 100.575 o
107.333 79.9835 o
114.542 109.739 o
86.4353 109.643 o
99.9064 99.8151 o
121.198 104.012 o
91.3731 61.5027 o
116.597 136.07 o
75.6275 84.2896 o
121.367 73.4801 o
126.41 100.844 o
112.992 91.351 o
74.3535 117.82 o
109.136 105.362 o
106.611 96.6936 o
83.6664 102.051 o
87.9462 152.657 o
107.233 88.637 o
109.292 101.622 o
91.1103 128.422 o
117.273 123.817 o
166.917 106.946 o
171.752 74.4231 o
123.937 98.6674 o
111.092 92.7567 o
84.4015 117.29 o
86.8156 87.4817 o
107.558 139.561 o
47.4667 62.3249 o
96.7606 95.3233 o
91.3447 102.043 o
113.304 92.6378 o
125.33 98.468 o
92.4323 87.1258 o
103.604 140.531 o
110.597 105.847 o
102.651 113.753 o
107.248 94.8076 o
127.122 99.6653 o
130.07 108.065 o
111.71 69.9849 o
150.488 125.786 o
103.622 118.61 o
72.2087 108.494 o
83.8672 113.898 o
99.6073 116.77 o
112.191 109.065 o
79.4927 104.772 o
109.576 108.505 o
84.0245 81.7591 o
86.1198 65.4488 o
123.046 73.8724 o
124.869 126.802 o
95.8351 93.5898 o
67.4074 101.62 o
95.0961 88.1057 o
132.784 140.931 o
129.406 113.21 o
94.1889 103.981 o
109.963 117.234 o
103.496 96.2363 o
83.8574 122.573 o
115.129 112.524 o
78.155 86.613 o
113 103.927 o
106.608 92.0741 o
105.178 149.72 o
103.717 97.8692 o
95.1946 88.2705 o
102.578 80.4365 o
88.6315 120.748 o
103.527 91.5098 o
107.674 119.498 o
99.092 120.209 o
49.6453 87.2157 o
123.675 100.407 o
96.4059 114.348 o
106.871 114.423 o
76.0398 116.728 o
79.6895 117.298 o
130.813 87.1825 o
87.6342 108.424 o
77.2902 105.375 o
109.538 118.28 o
122.515 103.458 o
70.6508 62.5132 o
129.714 98.5776 o
133.458 96.0908 o
113.142 127.535 o
171.157 147.687 o
85.5984 99.3733 o
90.0003 99.1993 o
41.3946 87.6393 o
76.3165 106.954 o
102.954 119.01 o
98.0401 93.2634 o
102.055 98.7416 o
101.679 108.301 o
81.2444 103.588 o
126.675 83.1922 o
93.1125 50.4041 o
120.922 63.8305 o
125.534 109.291 o
121.265 101.029 o
80.0421 102.485 o
102.57 77.0815 o
111.441 93.2913 o
157.711 103.157 o
137.642 86.1663 o
103.824 90.8364 o
99.1419 132.523 o
74.6504 138.605 o
82.5752 102.671 o
97.9352 86.6573 o
106.411 105.705 o
144.299 85.2377 o
113.993 116.821 o
115.035 104.117 o
100.941 88.3829 o
113.854 107.797 o
136.255 109.705 o
103.408 89.1963 o
89.7679 81.1636 o
83.8096 90.26 o
108.031 97.7307 o
111.977 91.9783 o
98.9308 106.805 o
109.698 102.163 o
115.843 102.992 o
123.024 85.0689 o
109.892 100.205 o
98.7376 99.6015 o
109.277 105.122 o
164.478 105.3 o
117.974 118.833 o
35.2762 62.8617 o
104.972 99.4774 o
105.382 99.8519 o
112.456 69.5781 o
133.21 122.4 o
111.712 114.612 o
111.99 107.149 o
116.55 100.015 o
76.5449 103.625 o
137.217 122.424 o
117.42 107.537 o
117.893 126.017 o
93.5404 112.684 o
81.9595 76.8865 o
99.3589 83.6066 o
135.164 116.39 o
101 120.434 o
83.2174 111.985 o
63.6092 76.9413 o
56.6155 118.778 o
112.514 115.801 o
106.082 105.673 o
108.97 86.6078 o
122.637 117.334 o
126.354 89.8147 o
85.8848 116.621 o
110.161 118.723 o
96.0049 99.6352 o
153.177 118.247 o
85.0067 113.153 o
109.891 117.6 o
116.81 98.9878 o
103.739 78.6783 o
100.405 121.744 o
92.2562 58.7069 o
113.593 77.7286 o
83.7944 76.5787 o
75.0496 100.656 o
89.7298 123.81 o
138.488 87.6449 o
95.4526 117.019 o
115.033 111.375 o
87.4215 86.9311 o
105.431 108.98 o
62.1856 73.2639 o
91.4344 120.327 o
107.798 91.8003 o
76.827 92.0352 o
122.526 84.0231 o
84.8458 117.031 o
133.867 67.8753 o
108.312 124.614 o
57.0078 128.796 o
94.276 80.5119 o
124.386 124.026 o
100.776 103.722 o
67.357 105.766 o
118.648 75.3629 o
56.8545 114.219 o
80.008 86.6186 o
124.655 120.487 o
133.318 133.895 o
101.358 95.4167 o
93.1703 107.069 o
103.106 101.529 o
96.1029 97.5871 o
73.4012 87.4859 o
123.142 121.26 o
110.952 106.705 o
169.901 63.5057 o
98.0716 117.969 o
101.312 92.2368 o
74.0576 108.203 o
103.055 108.505 o
76.1941 58.613 o
101.541 85.9903 o
102.117 103.238 o
116.824 133.856 o
108.819 110.449 o
108.582 111.161 o
111.459 120.441 o
119.313 125.714 o
103.115 101.344 o
149.585 87.8446 o
77.0538 71.7222 o
102.47 105.878 o
132.328 101.138 o
102.236 85.8694 o
109.19 104.44 o
135.043 87.3864 o
80.7221 44.0278 o
63.6646 86.764 o
89.786 61.5981 o
115.639 129.944 o
143.964 85.3613 o
91.7758 88.1691 o
59.9176 102.603 o
116.098 96.9068 o
93.2071 99.0279 o
97.987 110.343 o
106.435 80.3586 o
103.576 101.717 o
110.119 96.5684 o
112.51 79.0925 o
103.913 110.27 o
169.267 127.995 o
103.246 116.904 o
97.432 114.191 o
81.0363 128.156 o
101.31 102.016 o
95.0974 88.0277 o
127.935 104.251 o
111.386 59.9107 o
107.09 63.2773 o
169.64 131.037 o
148.492 119.117 o
99.0521 148.837 o
92.4617 129.935 o
106.157 93.5725 o
46.9528 90.924 o
143.24 136.272 o
109.395 100.15 o
94.2797 122.401 o
109.056 102.956 o
101.485 104.429 o
78.721 89.7624 o
131.123 106.257 o
99.3522 77.4043 o
121.719 90.0446 o
120.645 95.7795 o
117.558 69.3534 o
103.491 108.019 o
128.009 138.064 o
112.718 108.428 o
170.961 117.496 o
102.425 108.507 o
121.248 98.3619 o
108.713 81.5553 o
118.438 96.2545 o
74.8244 131.399 o
50.1463 121.42 o
99.5943 88.9894 o
94.557 103.28 o
104.861 119.79 o
86.6774 108.808 o
108.92 108.011 o
120.418 88.9804 o
104.497 98.1079 o
105.193 97.5507 o
40.423 69.8615 o
109.77 88.6711 o
104.695 103.825 o
158.002 125.941 o
99.4137 100.085 o
124.141 85.5096 o
114.755 114.843 o
117.423 117.205 o
74.7369 96.5199 o
134.48 82.0186 o
94.3641 99.5663 o
112.71 95.3171 o
90.8507 87.4632 o
135.372 88.0508 o
107.227 122.118 o
107.872 97.1053 o
109.029 88.2577 o
87.6691 83.4372 o
89.0045 89.5254 o
126.469 76.6904 o
89.9625 102.649 o
85.5821 101.358 o
75.6018 93.9188 o
112.922 126.256 o
94.3248 103.384 o
78.4912 124.89 o
104.351 46.9492 o
105.903 104.941 o
134.168 95.2158 o
152.31 70.3743 o
90.5583 70.3486 o
84.1827 101.419 o
107.626 92.8188 o
109.105 79.0197 o
115.036 111.177 o
98.1021 108.443 o
94.0909 107.886 o
114.89 104.708 o
110.14 70.1062 o
135.659 117.986 o
126.704 90.981 o
106.861 66.2971 o
55.3137 110.582 o
75.8239 128.209 o
105.536 100.564 o
99.2269 115.573 o
97.9226 97.7951 o
112.723 125.554 o
112.77 87.0403 o
87.357 97.5199 o
119.408 96.4778 o
152.585 103.92 o
95.6763 82.0047 o
85.9703 90.3144 o
116.045 142.274 o
102.93 96.0154 o
79.5298 125.65 o
97.7728 96.7724 o
82.8759 102.938 o
98.8062 76.4185 o
95.5246 95.3468 o
107.447 102.512 o
84.8064 92.334 o
101.739 110.092 o
49.6544 101.76 o
102.388 79.6173 o
81.669 65.0595 o
125.819 92.9615 o
86.3285 94.8575 o
50.2098 128.18 o
116.04 124.008 o
96.0518 124.928 o
109.347 88.8489 o
101.367 103.879 o
140.599 88.411 o
78.9379 82.4084 o
101.003 114.698 o
123.615 65.7676 o
113.893 110.811 o
92.5125 87.6218 o
100.282 60.485 o
115.112 113.197 o
114.106 97.6407 o
101.568 99.0203 o
80.7395 91.4228 o
125.602 101.527 o
104.491 114.537 o
124.342 116.687 o
97.0898 110.286 o
98.9459 108.383 o
98.0277 122.77 o
115.755 97.2801 o
103.416 83.7685 o
96.514 135.438 o
98.5436 92.1844 o
123.925 108.235 o
113.346 84.4329 o
122.759 64.1946 o
62.2104 137.189 o
102.816 92.0239 o
86.5139 95.0409 o
93.7327 117.657 o
101.455 100.354 o
84.1442 76.0294 o
124.34 107.319 o
117.902 96.5661 o
114.144 88.6025 o
84.4165 91.4535 o
138.304 73.5873 o
98.1464 100.537 o
121.747 77.674 o
107.955 88.7266 o
89.8654 96.0722 o
122.031 103.575 o
87.2296 57.1264 o
107.111 82.1091 o
119.261 135.397 o
166.311 97.5559 o
87.2143 75.8872 o
91.5305 130.789 o
115.279 85.5053 o
128.146 110.65 o
97.8122 106.585 o
69.1097 108.16 o
105.427 90.2532 o
118.981 68.1711 o
36.2704 98.6681 o
102.502 132.164 o
140.643 72.6173 o
122.485 98.8466 o
117.938 93.4555 o
76.5676 104.527 o
106.224 148.049 o
111.871 76.3298 o
81.4447 122.729 o
109.652 103.451 o
67.8766 106.33 o
90.8711 77.0642 o
106.634 99.6914 o
94.4388 102.315 o
101.854 90.9625 o
108.308 56.4833 o
100.518 84.6256 o
128.668 114.248 o
121.094 85.3387 o
117.747 110.691 o
67.0574 131.494 o
85.1729 78.6998 o
127.208 84.9006 o
142.821 89.1828 o
98.015 109.391 o
74.9102 94.6594 o
50.0034 115.133 o
108.443 116.892 o
130.599 133.367 o
109.274 123.669 o
133.758 110.574 o
91.9108 97.8822 o
95.4886 94.2587 o
170.735 55.9488 o
119.04 112.124 o
108.198 71.3092 o
138.212 67.4352 o
85.4815 125.069 o
60.6521 116.825 o
98.1359 100.362 o
108.234 83.2651 o
78.3767 95.0041 o
92.3057 102.294 o
88.2665 107.249 o
36.4644 94.9817 o
118.648 88.7686 o
99.2751 86.7319 o
99.7717 79.1203 o
75.8471 127.67 o
93.5569 56.0399 o
98.6143 104.332 o
98.2044 107.337 o
111.874 90.6091 o
98.7309 109.846 o
90.9332 98.0115 o
102.911 106.274 o
106.982 120.638 o
120.152 99.7127 o
109.584 98.9154 o
92.6485 113.298 o
104.625 93.5934 o
89.4273 97.6552 o
100.965 61.5729 o
100.858 96.9706 o
113.606 103.217 o
55.0058 128.679 o
90.2268 110.497 o
171.167 101.326 o
108.45 76.386 o
102.759 85.71 o
115.387 135.201 o
100.44 93.5718 o
161.055 64.5885 o
118.997 82.7096 o
94.3529 96.9931 o
135.028 100.788 o
106.34 127.191 o
120.605 119.412 o
119.147 75.9059 o
102.454 81.419 o
95.1815 94.5575 o
47.8271 120.084 o
90.6039 98.096 o
94.4033 82.977 o
118.958 115.971 o
159.23 103.763 o
107.749 89.1108 o
116.027 116.699 o
91.146 74.3695 o
110.038 98.2511 o
94.5832 101.965 o
97.2489 96.93 o
96.9558 110.343 o
144.844 100.325 o
105.513 117.304 o
167.306 131.646 o
86.2255 112.072 o
51.6644 79.1629 o
127.122 104.652 o
119.289 100.216 o
113.894 97.4966 o
99.2449 98.1003 o
101.252 104.968 o
112.082 92.1382 o
126.385 119.46 o
117.729 102.817 o
154.941 55.5613 o
107.225 99.1177 o
98.9465 101.296 o
96.5352 95.827 o
113.645 112.859 o
97.9169 81.3751 o
119.945 94.8363 o
109.646 119.268 o
74.7276 91.3482 o
61.5711 99.1799 o
98.7278 84.4805 o
98.9337 106.93 o
157.279 54.0112 o
86.5169 100.024 o
88.532 126.171 o
128.884 90.0635 o
65.7601 113.649 o
63.3093 104.575 o
89.9903 81.767 o
108.624 117.678 o
104.591 108.215 o
104.653 77.1771 o
77.2298 137.737 o
53.9846 70.8693 o
114.395 133.124 o
126.202 88.0146 o
99.4347 102.013 o
141.901 69.0062 o
130.364 114.597 o
71.1242 84.0082 o
101.964 100.295 o
90.2063 83.327 o
89.5485 106.89 o
100.355 101.566 o
101.104 104.005 o
83.7511 129.34 o
147.44 81.7974 o
108.72 113.666 o
86.9383 87.2262 o
91.0326 72.1747 o
115.56 114.486 o
94.9655 114.782 o
117.579 106.665 o
98.0427 71.1578 o
82.875 95.3083 o
92.4574 155.528 o
94.8146 133.486 o
101.155 60.8431 o
84.6528 125.669 o
119.562 98.3967 o
138.999 52.4256 o
101.853 105.503 o
114.433 98.9913 o
117.886 44.4415 o
88.173 122.634 o
98.2384 82.7732 o
124.712 80.6008 o
144.721 101.643 o
149.113 101.06 o
116.244 89.1593 o
69.2513 132.184 o
113.638 139.193 o
120.502 116.43 o
120.986 119.829 o
122.879 112.486 o
128.121 86.4553 o
106.857 110.466 o
86.2818 138.807 o
103.04 97.782 o
85.5468 101.649 o
88.9861 91.7802 o
103.403 103.924 o
102.361 110.171 o
114.886 98.7154 o
106.716 119.183 o
80.0557 146.481 o
113.723 115.395 o
135.714 111.785 o
131.183 118.396 o
84.2206 117.236 o
98.6663 108.857 o
107.959 91.5213 o
105.943 133.889 o
106.266 86.6902 o
173.002 95.0589 o
94.9674 118.646 o
71.5494 105.91 o
71.726 120.004 o
106.054 131.118 o
105.965 89.0787 o
58.8826 144.385 o
99.0517 106.109 o
91.6106 135.944 o
101.877 106.877 o
64.8215 139.615 o
80.1281 113.78 o
108.037 83.7017 o
46.0481 78.7079 o
143.407 82.2688 o
112.797 108.325 o
96.1448 104.04 o
111.388 116.859 o
93.0722 88.3785 o
101.168 99.9217 o
53.3677 55.0742 o
98.2841 109.676 o
101.614 142.327 o
166.996 65.4639 o
131.814 61.4054 o
64.2656 78.2563 o
63.1588 89.0506 o
83.1416 104.305 o
104.381 92.7542 o
60.2635 129.568 o
169.107 43.7145 o
104.177 100.247 o
98.3129 103.147 o
133.249 85.7051 o
75.4872 104.525 o
149.456 58.4136 o
91.0924 94.0923 o
123.721 124.645 o
86.3927 69.6467 o
59.5004 120.838 o
89.6642 81.1096 o
112.861 101.336 o
144.407 148.835 o
114.021 84.4273 o
107.942 95.4606 o
101.52 93.4075 o
103.366 103.155 o
112.733 127.965 o
109.631 88.8817 o
52.7521 74.99 o
106.694 92.4159 o
123.504 94.6014 o
95.9449 109.447 o
109.75 107.385 o
102.957 100.782 o
131.624 78.6395 o
114.33 74.557 o
137.013 100.452 o
91.9567 79.1587 o
131.684 115.386 o
154.321 52.3224 o
100.747 106.492 o
97.0071 75.3875 o
104.328 108.089 o
122.9 104.079 o
110.123 73.7747 o
152.72 140.867 o
94.8639 91.1903 o
105.593 123.167 o
107.936 117.247 o
109.936 79.9587 o
119.963 125.223 o
82.3018 102.803 o
100.707 122.126 o
120.013 113.346 o
112.412 94.9229 o
104.25 101.483 o
61.2577 88.9342 o
105.635 98.372 o
93.3628 108.857 o
115.552 83.5853 o
108.836 108.81 o
68.8634 94.3438 o
113.234 112.512 o
104.348 123.821 o
41.0993 66.8686 o
98.1044 113.944 o
48.2896 87.3252 o
84.1206 119.301 o
69.6201 114.573 o
121.999 100.566 o
93.8095 113.072 o
121.385 149.968 o
104.681 80.4141 o
96.4026 106.123 o
119.044 143.41 o
83.7056 105.147 o
131.545 69.3424 o
79.689 94.2171 o
116.298 75.8426 o
120.792 120.283 o
74.4545 96.7827 o
117.975 121.211 o
95.8981 92.0137 o
95.9551 112.932 o
98.4548 97.5379 o
127.737 93.1351 o
98.5894 94.0606 o
104.011 100.577 o
127.21 131.215 o
135.45 90.2448 o
115.815 80.3447 o
103.005 92.6272 o
96.4138 100.181 o
98.443 92.5599 o
91.1668 70.9932 o
114.963 109.94 o
50.7612 143.434 o
91.2562 103.291 o
106.918 85.7021 o
120.498 93.0799 o
116.206 104.647 o
42.3196 67.7553 o
110.236 89.5834 o
115.495 99.4147 o
64.872 120.998 o
107.982 99.8958 o
116.694 110.282 o
97.115 83.0337 o
125.578 61.9727 o
111.828 103.699 o
105.691 97.3654 o
86.6574 123.351 o
110.676 94.9815 o
103.591 112.22 o
96.1337 84.2804 o
96.3221 103.623 o
68.3186 106.331 o
104.099 82.6721 o
87.1067 122.396 o
106.769 91.071 o
90.7803 99.1051 o
87.3067 108.368 o
106.67 109.995 o
68.8393 125.452 o
157.786 151.147 o
98.6193 105.576 o
83.7292 101.594 o
101.186 103.214 o
78.445 66.344 o
110.439 100.873 o
102.353 98.5452 o
108.27 92.0654 o
126.138 121.238 o
99.2747 87.9147 o
103.726 102.12 o
94.2311 98.2842 o
104.104 96.781 o
171.288 106.28 o
105.658 85.938 o
100.784 99.5986 o
91.1338 77.8312 o
142.078 70.4001 o
119.359 90.3803 o
97.9472 107.645 o
36.8217 146.313 o
118.509 109.803 o
109.031 94.6189 o
136.95 80.5327 o
113.479 100.454 o
63.0402 138.822 o
99.5367 92.3725 o
136.043 87.7705 o
125.316 57.5835 o
59.2876 85.8702 o
91.5248 72.694 o
101.82 115.274 o
43.5362 85.9767 o
110.999 96.6699 o
117.604 101.337 o
97.7734 138.599 o
112.968 101.791 o
109.101 93.2493 o
125.418 124.51 o
89.4538 103.229 o
66.547 85.5771 o
59.8175 62.3477 o
111.725 103.572 o
90.9505 97.2669 o
99.4584 90.4604 o
137.873 138.153 o
108.479 81.8553 o
73.3829 82.4872 o
125.524 82.7197 o
95.0561 73.4118 o
128.643 104.085 o
94.4562 104.477 o
95.9289 112.614 o
116.212 97.6786 o
84.8497 130.35 o
108.116 97.4719 o
112.03 107.365 o
102.774 101.549 o
112.208 102.637 o
105.573 88.2087 o
103.118 88.7442 o
45.1639 112.903 o
107.38 79.3874 o
121.385 110.035 o
114.564 132.173 o
108.492 100.701 o
104.686 91.1406 o
74.821 106.303 o
65.5781 111.234 o
84.1408 67.463 o
75.9408 74.2775 o
109.193 135.17 o
120.627 104.85 o
39.1871 111.015 o
137.067 110.227 o
77.9425 107.084 o
107.94 94.2148 o
115.848 94.7449 o
126.237 85.3284 o
88.5562 104.664 o
113.011 107.058 o
102.523 124.006 o
73.6161 97.8741 o
97.6237 91.2049 o
95.7963 119.906 o
123.685 75.9088 o
101.516 103.315 o
144.393 38.8941 o
110.125 102.811 o
104.78 94.4488 o
117.965 136.043 o
127.197 89.8119 o
94.2404 120.452 o
96.8659 90.6829 o
123.276 92.5841 o
115.811 94.6933 o
118.599 144.721 o
100.615 103.751 o
105.862 142.296 o
111.571 100.78 o
99.3508 95.7354 o
94.8027 78.6889 o
100.782 105.957 o
77.3903 92.7537 o
96.9474 121.988 o
97.8879 106.763 o
107.928 101.486 o
105.479 103.726 o
100.597 99.5047 o
116.389 95.486 o
82.5151 69.2491 o
107.002 110.185 o
141.287 100.762 o
112.279 94.4334 o
91.7061 84.6932 o
104.66 107.041 o
127.83 133.333 o
75.9056 142.355 o
102.342 87.8796 o
85.2291 97.3388 o
80.114 88.486 o
96.0103 100.407 o
91.2671 120.991 o
89.1084 81.9689 o
137.089 105.754 o
92.1056 95.9387 o
88.5076 125.756 o
117.553 101.735 o
112.182 124.395 o
104.151 82.6896 o
115.1 94.0085 o
84.6937 138.599 o
143.132 82.5332 o
115.041 107.121 o
110.35 137.546 o
145.509 79.0769 o
112.527 86.9081 o
104.138 124.187 o
119.266 99.2097 o
101.829 120.979 o
98.7766 107.685 o
114.111 107.519 o
120.536 100.007 o
126.839 75.9447 o
106.832 108.075 o
120.437 78.6886 o
95.6959 97.5234 o
135.314 68.412 o
104.596 128.164 o
94.4484 90.3055 o
98.7607 100.933 o
115.795 104.062 o
93.052 79.6276 o
128.636 94.053 o
63.6274 105.913 o
119.382 95.3442 o
119.863 104.742 o
112.911 100.247 o
87.1421 129.661 o
109.4 93.2339 o
53.6151 138.425 o
137.515 118.975 o
118.192 104.91 o
96.6875 96.6961 o
171.98 61.3312 o
117.175 100.375 o
66.3501 115.251 o
49.1088 143.637 o
106.843 94.7078 o
114.345 109.476 o
103.987 111.411 o
105.01 106.154 o
91.2721 108.29 o
45.86 65.3825 o
106.155 108.146 o
97.4363 57.8817 o
94.7717 106.697 o
92.129 101.68 o
80.5074 88.7685 o
108.527 91.9535 o
78.4601 91.4737 o
104.777 76.2612 o
104.151 96.1767 o
85.6213 149.152 o
73.638 124.792 o
123.424 91.8316 o
107.869 91.2354 o
69.3747 66.8391 o
115.059 100.284 o
37.5595 80.5293 o
97.0284 108.932 o
96.6539 111.158 o
71.5919 71.3498 o
101 102.303 o
92.9616 115.371 o
70.1289 106.868 o
61.0162 117.949 o
89.925 96.4759 o
104.543 112.27 o
98.4663 95.1242 o
146.78 72.0916 o
94.8158 111.786 o
96.9128 91.1427 o
70.8219 64.8831 o
125.287 93.4368 o
109.66 121.052 o
87.9372 108.382 o
101.068 91.6184 o
106.912 40.1589 o
100.444 98.5516 o
122.033 105.629 o
93.6091 115.421 o
97.5432 95.9005 o
104.337 118.057 o
120.252 109.155 o
111.572 97.3982 o
110.474 109.563 o
112.14 105.422 o
152.856 110.312 o
105.504 97.6561 o
101.042 87.1595 o
169.554 110.479 o
92.5077 115.064 o
110.184 85.9513 o
34.912 106.143 o
125.169 78.7524 o
103.673 87.467 o
90.962 111.186 o
107.227 69.2219 o
89.5532 92.0036 o
34.7946 105.772 o
118.236 127.808 o
140.645 103.971 o
145.325 123.178 o
97.8823 98.7764 o
78.5339 122.393 o
84.3209 97.3486 o
110.911 98.7648 o
87.2727 99.3934 o
82.4968 91.3431 o
170.976 125.882 o
150.17 92.2803 o
101.983 70.1513 o
130.501 85.7419 o
109.047 88.6195 o
115.244 112.124 o
110.502 100.33 o
98.7483 100.827 o
71.1507 87.341 o
118.378 109.517 o
38.8983 131.161 o
101.947 96.5561 o
100.436 110.774 o
79.6122 116.998 o
96.4637 104.671 o
110.827 95.412 o
101.196 98.8841 o
102.98 92.1912 o
115.221 104.302 o
120.049 95.4939 o
114.034 97.7281 o
84.2345 117.732 o
91.0875 108.801 o
104.764 99.8486 o
104.029 105.986 o
63.0802 71.3435 o
104.471 98.781 o
95.3709 107.601 o
104.684 111.977 o
101.515 120.144 o
114.579 103.562 o
123.672 70.3718 o
94.63 95.1874 o
72.8307 118.35 o
110.128 123.773 o
93.0301 84.2125 o
173.837 141.498 o
52.3146 112.412 o
86.0634 95.0122 o
109.807 116.072 o
103.385 101.256 o
99.4912 90.8821 o
51.3831 72.7159 o
70.1931 112.411 o
101.134 103.776 o
110.784 79.041 o
35.5106 125.635 o
83.9915 79.7065 o
59.6858 129.221 o
88.3621 131.978 o
79.5015 125.95 o
105.351 87.1241 o
144.433 91.0626 o
163.856 137.955 o
109.97 87.4146 o
104.212 97.9554 o
76.0726 86.2382 o
127.834 103.495 o
105.105 98.4033 o
93.4309 125.232 o
111.595 79.5862 o
110.793 103.82 o
133.571 121.507 o
115.365 109.458 o
71.4858 65.9323 o
109.022 84.0035 o
103.745 124.489 o
87.0101 106.593 o
116.286 79.5229 o
102.046 139.713 o
78.1071 130.345 o
112.231 97.1441 o
86.1977 90.5014 o
104.186 98.0003 o
130.364 85.4494 o
123.148 115.732 o
81.994 110.357 o
118.153 92.0926 o
97.2228 111.108 o
122.848 110.694 o
116.343 112.293 o
35.9466 79.5921 o
129.385 105.745 o
97.474 112.655 o
104.6 97.7176 o
74.166 56.0442 o
153.426 88.7935 o
47.359 100.664 o
118.937 119.26 o
60.5192 154.531 o
88.5707 98.4905 o
87.9713 108.022 o
119.956 110.206 o
133.86 97.2969 o
111.969 41.7763 o
79.5507 89.0186 o
102.9 109.37 o
110.481 88.0288 o
109.925 104.543 o
118.293 97.1789 o
132.747 88.4439 o
101.407 94.5263 o
85.313 107.666 o
110.942 103.512 o
126.533 104.427 o
94.1089 89.9221 o
84.6463 117.575 o
80.7879 79.9876 o
116.564 112.119 o
127.488 103.304 o
112.184 118.598 o
111.365 94.6862 o
108.489 103.154 o
102.725 140.802 o
95.4367 102.813 o
95.9353 109.372 o
106.889 102.25 o
74.6226 110.074 o
97.2316 92.1063 o
96.5342 98.8926 o
53.6232 115.579 o
147.338 129.735 o
79.6643 132.732 o
114.49 99.6472 o
40.1393 83.9989 o
102.413 97.1319 o
112.927 103.347 o
86.8958 82.8207 o
89.2704 98.2662 o
114.692 112.853 o
107.67 102.179 o
143.329 80.2386 o
96.9601 93.0091 o
110.722 99.8974 o
121.269 90.5537 o
115.271 122.177 o
133.392 104.874 o
173.074 130.963 o
90.4762 102.55 o
102.434 103.031 o
135.792 71.157 o
90.3907 97.1376 o
137.449 93.4829 o
80.9553 97.1917 o
118.128 122.391 o
102.524 110.992 o
127.563 97.7385 o
68.2728 129.489 o
116.075 103.659 o
106.558 84.7094 o
118.701 99.6891 o
140.35 93.9073 o
121.918 102.372 o
62.473 66.6988 o
94.533 102.776 o
102.947 109.645 o
112.993 87.9874 o
94.7953 89.6192 o
97.852 116.466 o
97.2352 98.1013 o
107.853 103.549 o
66.8326 93.4693 o
104.388 112.95 o
146.141 94.8721 o
122.568 62.9634 o
53.2431 96.2585 o
111.001 88.5504 o
151.1 102.227 o
109.603 87.9145 o
90.1917 117.217 o
101.176 104.574 o
77.1703 88.9519 o
134.987 107.741 o
61.7267 131.064 o
116.201 94.0838 o
112.932 89.5555 o
91.2317 101.16 o
108.595 71.9037 o
129.726 134.557 o
55.9839 89.5442 o
101.36 108.883 o
65.4757 95.9856 o
111.621 104.641 o
110.029 105.413 o
95.5697 73.7492 o
119.558 109.563 o
81.0902 85.4592 o
55.2521 95.2961 o
127.363 96.6169 o
123.61 125.314 o
107.325 110.912 o
129.068 79.3895 o
114.602 116.529 o
131.253 114.104 o
113.014 92.4648 o
92.9492 91.1809 o
91.5376 92.4737 o
109.313 106.189 o
110.943 91.1793 o
88.8376 95.8146 o
109.232 100.715 o
87.0511 118.079 o
95.4608 99.9808 o
112.724 106.203 o
113.041 114.385 o
115.591 81.1071 o
93.8644 93.1397 o
105.715 101.899 o
115.057 100.251 o
103.927 87.9499 o
122.203 136.237 o
140.565 108.127 o
106.389 74.2689 o
109.739 117.094 o
85.1685 96.2434 o
108.969 88.0839 o
46.7217 129.593 o
98.7307 85.8619 o
111.337 125.277 o
167.317 138.795 o
69.5244 116.083 o
72.1068 93.5479 o
124.036 124.974 o
112.557 113.562 o
108.973 107.173 o
102.626 87.6225 o
104.115 85.1261 o
83.71 97.2692 o
99.5771 109.449 o
116.076 105.605 o
104.184 78.683 o
110.697 115.474 o
115.196 90.4971 o
109.186 102.943 o
97.0382 97.6112 o
75.9677 138.672 o
134.225 83.0303 o
92.1775 94.3809 o
52.5373 86.6928 o
104.087 104.842 o
106.697 71.4762 o
96.4818 116.323 o
109.153 104.141 o
151.449 75.5783 o
93.7367 97.3084 o
104.109 92.3235 o
81.6388 130.077 o
122.1 91.8115 o
121.163 79.4045 o
111.25 97.9526 o
106.004 103.705 o
110.115 106.824 o
136.34 94.8007 o
67.8175 115.208 o
74.1973 58.0677 o
54.5833 103.608 o
75.365 100.961 o
112.683 95.926 o
109.565 80.9343 o
105.033 89.9519 o
81.5473 126.102 o
110.308 103.729 o
97.3062 99.627 o
119.064 110.623 o
109.705 106.467 o
122.739 108.188 o
102.158 114.944 o
126.935 109.708 o
104.628 120.702 o
127.822 141.376 o
65.218 72.4696 o
120.84 102.535 o
100.384 99.1848 o
89.583 88.1453 o
96.7923 106.721 o
51.866 43.8408 o
63.559 96.2666 o
106.798 109.006 o
73.2764 149.33 o
105.485 124.354 o
108.774 124.689 o
100.049 118.684 o
123.117 90.4304 o
113.501 97.0491 o
91.7766 96.1358 o
115.898 89.7823 o
112.656 93.9809 o
34.872 108.458 o
129.789 112.163 o
72.6498 91.6558 o
117.024 104.429 o
101.523 110.152 o
136.871 79.3633 o
110.01 87.0694 o
123.485 98.809 o
124.715 92.825 o
92.8677 102.851 o
114.827 99.2311 o
98.6304 101.789 o
150.104 112.262 o
102.995 100.869 o
87.8269 112.815 o
129.471 120.423 o
127.414 98.9219 o
104.171 113.874 o
138.82 90.1877 o
116.529 96.5022 o
70.8311 73.7861 o
103.245 101.864 o
99.9263 111.786 o
160.109 99.4792 o
117.43 90.6002 o
138.124 110.924 o
78.2828 104.266 o
132.771 131.086 o
109.925 82.3372 o
131.479 99.2403 o
134.834 74.87 o
87.5147 111.134 o
40.802 126.398 o
123.17 97.225 o
106.7 65.8827 o
92.9551 82.2501 o
149.518 112.935 o
108.935 100.557 o
72.486 110.722 o
128.427 93.3176 o
94.1731 96.0372 o
105.356 88.9259 o
98.4311 78.0156 o
92.4947 117.142 o
43.4266 81.7522 o
142.466 75.6695 o
100.179 80.7569 o
73.6267 73.2632 o
128.238 91.1958 o
123.736 83.7644 o
96.4872 74.7099 o
127.848 88.5574 o
110.72 72.6305 o
109.572 107.968 o
106.456 105.116 o
102.16 111.64 o
98.3085 77.5619 o
126.686 102.002 o
117.127 85.0093 o
61.9385 155.455 o
108.914 101.035 o
95.9659 89.5066 o
106.49 105.679 o
101.246 96.149 o
102.657 113.826 o
54.331 133.093 o
108.423 87.1149 o
113.207 119.117 o
73.0073 80.6621 o
106.133 106.64 o
90.2731 95.7101 o
94.7575 108.599 o
155.809 108.493 o
90.7329 118.08 o
85.579 118.046 o
98.2135 107.017 o
93.4901 99.6903 o
99.683 94.1831 o
99.046 105.979 o
116.4 48.7888 o
82.9268 110.268 o
129.001 70.5596 o
60.725 106.736 o
106.556 65.1349 o
85.5692 126.641 o
163.247 61.1961 o
100.145 90.9614 o
126.933 115.826 o
93.6583 114.695 o
112.587 118.059 o
111.237 109.327 o
106.933 81.0441 o
97.77 80.5172 o
128.596 86.633 o
73.671 78.7137 o
106.545 111.312 o
125.087 50.7639 o
128.586 120.792 o
95.9303 109.826 o
103.621 91.5846 o
115.533 110.707 o
109.964 105.657 o
105.533 99.1806 o
79.8189 117.104 o
108.499 88.185 o
78.2266 133.083 o
101.298 99.0904 o
129.622 110.255 o
142.894 101.055 o
110.447 93.7791 o
119.876 102.883 o
131.197 90.9123 o
76.8822 72.3094 o
123 81.114 o
122.695 92.3342 o
79.288 101.051 o
78.9836 89.286 o
126.569 100.683 o
157.399 96.9576 o
121.298 90.246 o
122.104 112.918 o
137.158 94.859 o
96.1578 65.6211 o
92.4867 94.0538 o
148.796 146.385 o
103.774 105.263 o
124.312 109.913 o
112.771 119.516 o
57.9366 55.595 o
105.935 101.474 o
161.095 95.8539 o
116.028 100.624 o
119.713 87.1084 o
53.4707 107.87 o
141.689 105.922 o
69.225 74.6582 o
43.5229 76.7534 o
103.324 98.0687 o
109.217 64.4919 o
109.683 111.141 o
79.7209 93.7998 o
146.986 81.6856 o
105.68 103.117 o
108.684 99.4489 o
111.4 107.606 o
113.883 122.431 o
48.6599 119.582 o
138.889 127.183 o
113.348 104.878 o
115.896 101.886 o
59.6716 54.8908 o
94.1985 76.0378 o
139.305 76.4928 o
127.552 120.525 o
106.183 86.0042 o
111.136 110.179 o
107.348 105.23 o
106.31 84.1783 o
134.981 107.682 o
99.2452 88.0706 o
97.7986 152.26 o
106.368 94.0693 o
115.336 111.708 o
162.022 61.4296 o
141.754 92.8833 o
109.703 114.833 o
98.6396 106.137 o
160.887 129.162 o
51.5005 99.9303 o
87.8796 82.2357 o
97.9471 100.536 o
108.94 95.3883 o
106.697 107.81 o
65.5527 118.013 o
132.102 101.663 o
124.375 109.931 o
90.7538 115.212 o
101.322 96.6206 o
141.148 84.9707 o
85.7826 148.001 o
105.482 42.1429 o
111.661 102.659 o
103.457 72.1148 o
121.964 94.6997 o
101.718 100.448 o
104.395 95.3301 o
96.1676 107.688 o
93.0946 93.0132 o
101.281 95.2565 o
98.0079 104.267 o
151.338 69.0059 o
89.4494 93.9632 o
82.1166 111.776 o
111 98.0265 o
97.7397 109.778 o
130.053 120.525 o
87.4287 86.2035 o
109.198 79.3389 o
102.632 108.795 o
131.417 109.452 o
94.771 107.436 o
106.316 101.352 o
84.6928 95.3401 o
130.453 112.104 o
139.119 48.3875 o
88.8072 118.32 o
44.7035 130.193 o
95.8536 98.1528 o
94.0891 106.997 o
111.842 107.669 o
112.599 93.5146 o
100.797 79.4199 o
126.045 82.3228 o
125.076 96.958 o
72.7142 104.148 o
102.94 112.755 o
84.3888 93.4695 o
136.119 91.0849 o
98.2232 82.0414 o
111.419 104.748 o
109.325 83.4075 o
107.955 99.8651 o
101.81 107.954 o
69.5695 103.241 o
58.0903 129.591 o
69.7124 72.6111 o
135.329 100.156 o
94.1533 108.848 o
113.066 101.348 o
89.8757 101.907 o
109.82 105.772 o
85.1651 129.528 o
110.535 99.3865 o
90.7542 95.8364 o
80.2744 115.206 o
101.732 63.8513 o
104.649 91.6033 o
123.779 107.264 o
72.0752 73.7087 o
89.0207 54.3804 o
111.184 71.3992 o
68.9138 118.269 o
69.4007 73.1645 o
92.7496 78.6033 o
102.293 92.8425 o
86.3019 74.5827 o
91.3231 91.3902 o
88.5182 104.575 o
108.244 118.07 o
111.045 130.875 o
59.5192 117.322 o
133.325 104.473 o
104.14 106.683 o
143.192 119.172 o
93.2049 90.4879 o
130.922 78.0236 o
136.629 71.3658 o
102.696 113.988 o
55.6876 101.52 o
94.6654 101.222 o
96.2246 94.9599 o
107.679 111.516 o
113.07 101.578 o
120.548 108.729 o
110.807 108.636 o
130.758 104.394 o
90.3872 127.668 o
110.824 121.759 o
105.828 108.754 o
115.402 85.1194 o
89.5795 118.736 o
118.035 134.563 o
81.8805 148.531 o
128.309 133.056 o
90.4318 111.419 o
97.491 116.129 o
95.0923 86.0613 o
140.687 47.9873 o
89.9217 127.701 o
101.453 101.078 o
86.1324 63.1642 o
100.728 100.263 o
115.581 122.55 o
109.881 91.9738 o
112.289 104.703 o
99.9048 99.2763 o
121.456 130.869 o
124.045 81.1103 o
66.251 94.9641 o
65.3813 74.8914 o
104.725 119.177 o
122.622 122.584 o
109.629 94.4897 o
98.0299 98.5479 o
79.2106 98.8799 o
107.169 104.53 o
113.233 120.651 o
103.931 78.3028 o
111.176 89.2023 o
107.342 100.886 o
100.032 82.5011 o
110.339 98.0806 o
89.1091 112.904 o
93.6044 103.677 o
90.2239 83.7517 o
109.067 80.6552 o
104.408 116.148 o
101.641 90.3424 o
114.109 103.656 o
112.228 113.093 o
79.4586 141.282 o
106.249 109.519 o
116.363 122.335 o
102.215 87.0948 o
99.2962 113.6 o
127.36 145.404 o
122.952 117.019 o
119.646 110.123 o
87.0145 112.329 o
119.854 76.425 o
109.448 50.9628 o
86.4372 119.542 o
121.854 85.842 o
97.723 110.637 o
109.492 135.665 o
94.7623 66.8037 o
132.951 59.6243 o
91.9611 100.746 o
100.606 76.1857 o
102.496 101.015 o
108.165 104.445 o
117.127 129.823 o
92.9251 77.7543 o
117.503 96.854 o
118.161 105.087 o
115.346 102.247 o
142.027 55.5501 o
121.499 84.5319 o
120.229 104.156 o
48.8877 157.555 o
145.742 110.204 o
95.4724 100.437 o
92.5861 110.731 o
99.1505 83.56 o
138.474 96.8072 o
106.273 102.387 o
110.208 93.7183 o
93.1489 126.406 o
88.8569 80.3847 o
95.6505 81.66 o
116.854 72.6069 o
130.589 104.608 o
112.761 102.559 o
78.6579 126.864 o
52.1352 93.3901 o
95.8372 104.631 o
97.2632 86.3063 o
108.041 126.348 o
99.0096 97.0615 o
91.0771 83.1228 o
110.725 102.889 o
74.9442 137.363 o
60.5426 144.469 o
116.357 75.8872 o
122.062 97.6877 o
99.3721 63.242 o
104.012 53.0502 o
95.333 95.6099 o
108.247 74.7667 o
130.424 109.519 o
107.09 112.833 o
136.056 104.019 o
82.9439 81.1143 o
90.5724 102.844 o
112.96 95.7076 o
138.649 58.8049 o
96.2677 113.548 o
71.4141 126.311 o
109.015 104.512 o
118.923 130.993 o
85.1936 97.0151 o
108.946 102.337 o
165.981 102.531 o
61.5284 54.6842 o
99.298 104.236 o
93.8544 121.182 o
112.572 77.7583 o
113.735 100.357 o
111.559 89.2499 o
88.5205 99.6562 o
104.588 122.431 o
118.198 96.2402 o
105.993 79.5452 o
107.213 95.9708 o
110.36 86.8456 o
97.7939 66.4077 o
77.2848 98.1893 o
80.7995 91.8499 o
106.934 113.739 o
78.7857 56.3737 o
123.209 44.6838 o
111.805 97.002 o
95.3854 105.44 o
106.292 110.635 o
99.0819 123.842 o
90.3991 103.493 o
94.0483 98.4417 o
91.4298 129.715 o
110.64 85.6439 o
100.21 113.6 o
93.3623 106.605 o
45.9923 132.879 o
135.01 110.308 o
105.099 118.994 o
79.3395 100.373 o
109.502 86.4586 o
117.687 77.2539 o
114.731 87.5316 o
73.2304 108.433 o
148.639 97.3912 o
110.038 130.131 o
143.816 68.0895 o
103.194 95.2588 o
101.461 113.398 o
87.3706 114.448 o
53.835 108.906 o
103.147 92.6048 o
125.784 152.061 o
104.816 110.924 o
131.453 148.43 o
88.7794 91.2236 o
119.179 95.4984 o
63.5902 107.987 o
116.973 102.234 o
109.548 112.867 o
108.496 95.2956 o
167.198 115.076 o
90.1937 88.9093 o
121.016 108.251 o
107.576 76.7646 o
85.942 92.8414 o
121.22 86.3901 o
119.601 91.4224 o
93.4135 116.935 o
117.804 103.153 o
113.006 99.5282 o
99.3247 45.0386 o
105.329 88.5281 o
88.3727 115.359 o
128.333 101.309 o
133.41 86.9542 o
130.208 141.662 o
107.6 89.9186 o
85.022 77.4099 o
92.9928 93.7585 o
95.2966 105.775 o
109.012 47.6835 o
139.383 104.022 o
112.658 93.9785 o
104.595 85.7234 o
117.551 109.269 o
118.131 93.3415 o
69.1177 89.7098 o
116.27 71.5864 o
150.446 119.761 o
109.862 58.6243 o
112.606 71.5166 o
105.416 80.1063 o
159.958 73.663 o
115.555 97.3899 o
111.43 110.719 o
97.7104 63.185 o
63.3297 76.8368 o
108.996 106.967 o
114.889 98.8129 o
101.747 107.931 o
104.738 98.8811 o
114.99 95.9769 o
67.5716 72.4772 o
87.0268 108.027 o
107.07 99.0855 o
79.8422 118.316 o
80.1976 118.96 o
127.689 122.879 o
93.6225 89.0557 o
75.9859 76.4476 o
97.5622 113.572 o
83.1005 75.2747 o
116.306 100.756 o
103.047 115.5 o
92.0662 84.202 o
99.3597 73.2188 o
121.343 106.164 o
111.536 71.352 o
126.757 98.3743 o
103.529 114.91 o
106.661 105.357 o
115.681 113.238 o
65.4687 120.361 o
98.0201 101.455 o
62.1963 134.026 o
108.947 111.269 o
46.6577 117.885 o
102.906 113.066 o
97.1974 74.7259 o
103.901 102.361 o
103.767 93.7293 o
103.426 85.0142 o
85.4562 122.151 o
134.303 115.257 o
157.093 56.0609 o
76.7325 89.4941 o
120.844 98.8972 o
97.7607 110.169 o
98.493 87.2003 o
115.127 101.692 o
112.031 90.4397 o
92.1135 102.298 o
125.133 91.5759 o
102.662 102.974 o
104.691 75.5654 o
115 97.4401 o
69.2741 71.6062 o
71.4651 113.939 o
111.227 105.745 o
95.6307 53.2928 o
165.777 134.513 o
119.752 101.911 o
79.5734 70.1711 o
96.121 109.204 o
103.384 79.8063 o
102.449 98.8077 o
107.553 84.4774 o
111.726 90.9207 o
156.966 116.767 o
122.443 117.266 o
109.892 102.305 o
76.8154 123.623 o
91.4389 117.304 o
113.78 105.18 o
98.5403 105.168 o
108.819 117.046 o
109.018 83.3084 o
110.146 79.8773 o
79.7312 56.4121 o
95.5979 88.6772 o
105.418 89.7956 o
102.832 65.8048 o
74.3427 60.8199 o
103.111 64.5373 o
132.66 55.0728 o
103.726 88.7615 o
89.2971 87.0254 o
49.868 82.2702 o
114.745 87.2287 o
170.26 115.576 o
85.5141 81.3166 o
83.0339 90.3206 o
132.822 70.3542 o
94.7949 88.7152 o
110.699 108.303 o
103.741 134.147 o
98.9416 128.489 o
107.461 80.5209 o
112.416 95.3112 o
105.074 81.4923 o
104.358 106.245 o
170.677 40.7931 o
90.661 113.536 o
112.814 104.476 o
84.5267 79.2831 o
86.171 131.916 o
94.1606 102.54 o
91.5721 115.531 o
123.127 116.875 o
113.169 107.256 o
130.035 109.557 o
137.096 90.2648 o
106.835 99.0935 o
171.802 115.668 o
107.541 96.0897 o
118.085 74.5103 o
124.466 90.192 o
110.881 123.49 o
93.9184 105.691 o
98.8302 111.206 o
123.358 102.96 o
112.18 88.7289 o
98.7072 99.599 o
143.739 107.966 o
117.684 134.202 o
94.0734 138.129 o
109.198 69.9437 o
35.702 56.6072 o
107.36 78.4212 o
126.412 121.854 o
85.0695 110.331 o
107.461 100.005 o
80.1092 87.8014 o
110.936 85.2359 o
103.638 103.608 o
107.852 132.663 o
57.686 87.0899 o
82.2021 63.6792 o
79.7969 83.2129 o
102.13 102.486 o
116.705 103.966 o
97.6824 100.796 o
78.4159 85.065 o
96.7941 93.6442 o
72.3415 88.2092 o
99.1224 110.404 o
115.807 104.596 o
77.4935 66.7987 o
87.03 75.6649 o
91.3213 62.3645 o
110.37 100.094 o
52.1746 48.7589 o
156.955 97.2276 o
107.146 102.661 o
110.654 88.4481 o
108.088 90.5114 o
103.31 108.868 o
59.314 88.3328 o
95.6192 78.5454 o
131.478 78.1558 o
119.336 91.8684 o
113.217 105.597 o
60.744 45.5425 o
37.7645 84.6572 o
95.5394 91.3288 o
105.985 102.943 o
121.225 102.068 o
111.034 94.5624 o
110.803 88.9009 o
110.729 95.5011 o
107.58 94.0069 o
108.16 90.3955 o
73.2983 95.6352 o
107.698 126.719 o
113.339 69.0135 o
87.6205 99.1577 o
139.166 77.055 o
123.589 124.293 o
104.658 104.948 o
100.45 108.327 o
106.519 126.85 o
79.6023 98.2754 o
126.707 117.832 o
114.033 109.088 o
103.015 92.4808 o
111.813 55.9001 o
121.246 104.524 o
86.134 106.888 o
117.807 105.542 o
127.122 70.9203 o
109.862 93.723 o
131.957 159.663 o
106.76 115.558 o
137.533 110.528 o
124.964 135.737 o
106.934 109.794 o
120.746 79.5715 o
102.323 147.407 o
125.535 95.7997 o
89.2832 80.9889 o
106.493 119.736 o
155.163 58.0175 o
96.0443 96.3711 o
111.02 105.57 o
121.578 82.7092 o
101.592 100.1 o
118.819 120.787 o
105.364 119.394 o
111.793 81.8437 o
113.113 92.4695 o
96.8017 100.9 o
98.9873 93.4599 o
96.56 102.135 o
105.282 80.6003 o
94.3929 82.4411 o
108.488 86.5856 o
131.239 104.253 o
159.811 60.442 o
94.9514 92.1797 o
76.36 114.798 o
136.636 99.1083 o
67.2621 76.827 o
86.8636 73.2706 o
113.719 64.7761 o
101.82 108.411 o
112.585 102.089 o
98.5796 73.5531 o
59.585 128.774 o
170.397 87.3773 o
123.145 98.4343 o
159.5 82.2841 o
105.623 99.9914 o
89.5654 136.508 o
111.973 118.937 o
112.828 84.9701 o
128.275 57.9904 o
109.683 104.482 o
49.4698 114.723 o
107.928 114.916 o
91.8203 111.459 o
125.079 78.4656 o
102.121 107.374 o
43.8915 117.366 o
120.436 70.1719 o
106.71 95.3269 o
105.503 117.047 o
91.256 93.5452 o
106.794 95.5401 o
84.9895 75.5341 o
99.3692 45.6418 o
128.019 101.884 o
97.9672 106.341 o
93.5179 104.363 o
89.2904 110.846 o
95.142 95.8597 o
104.149 103.759 o
111.044 104.084 o
108.069 94.2443 o
47.3628 47.51 o
34.4812 112.068 o
125.482 137.387 o
42.3738 71.6795 o
110.822 86.1475 o
53.9872 111.238 o
122.42 139.131 o
92.9311 101.249 o
105.457 69.2094 o
120.138 96.3533 o
69.3317 114.872 o
94.2479 90.3379 o
107.092 119.56 o
99.887 100.462 o
98.7782 88.6982 o
103.432 104.787 o
87.3056 64.9107 o
82.589 100.165 o
142.273 88.1845 o
84.0134 56.923 o
161.384 109.427 o
151.163 114.113 o
123.676 84.9623 o
132.132 92.8442 o
134.144 76.905 o
112.786 72.2644 o
112.407 118.92 o
140.874 96.6686 o
125.544 127.089 o
87.6271 132.964 o
85.4423 92.5396 o
93.5326 57.9726 o
54.7993 52.4957 o
98.859 89.0531 o
89.4931 98.8253 o
90.3298 103.147 o
97.17 81.4852 o
80.7917 93.4102 o
87.3113 105.331 o
99.4082 87.6595 o
147.571 132.784 o
91.7381 113.026 o
115.053 99.1737 o
117.729 103.303 o
102.806 96.1702 o
113.995 102.061 o
76.1295 123.689 o
124.218 109.411 o
92.8649 94.5666 o
54.4369 85.3831 o
128.006 108.613 o
94.7378 99.641 o
96.1085 111.576 o
119.298 55.3967 o
98.5491 91.5972 o
133.105 67.0666 o
123.156 82.9049 o
86.2075 115.131 o
96.628 95.1634 o
107.213 65.7332 o
80.9944 132.596 o
102.264 103.558 o
103.16 97.1314 o
153.185 103.452 o
97.5691 106.918 o
98.3413 130.139 o
104.336 98.5738 o
92.0851 97.6222 o
85.8648 121.413 o
114.463 122.163 o
123.036 105.905 o
96.3146 103.371 o
94.965 94.3044 o
100.245 99.2896 o
139.977 124.045 o
165.571 65.6304 o
134.932 75.5579 o
120.566 122.651 o
80.3572 61.5205 o
36.8069 81.02 o
114.949 104.025 o
88.8962 149.909 o
148.284 47.5884 o
120.455 133.892 o
139.628 77.348 o
51.8429 113.342 o
41.2625 125.193 o
93.2837 98.593 o
84.8581 111.15 o
103.868 99.9918 o
155.807 87.3053 o
113.623 113.908 o
124.489 75.0545 o
87.333 97.1521 o
69.6888 102.617 o
113.702 95.0159 o
83.7948 137.836 o
118.342 120.714 o
131.127 100.46 o
107.277 106.371 o
103.513 93.4617 o
109.839 103.613 o
122.168 83.8704 o
89.7085 90.3213 o
150.347 103.138 o
133.744 122.002 o
103.354 151.067 o
95.4535 86.2171 o
87.0951 120.948 o
109.4 71.4154 o
124.837 119.555 o
128.304 113.404 o
130.076 101.971 o
59.8194 129.661 o
98.7027 90.0233 o
114.746 95.2082 o
163.931 97.3806 o
117.6 105.603 o
113.993 121.389 o
105.221 95.1487 o
108.143 116.067 o
96.8504 134.263 o
97.7286 112.282 o
100.144 95.627 o
143.237 97.9698 o
41.3947 114.98 o
140.409 54.3601 o
55.885 86.5139 o
115.597 95.8962 o
89.2994 150.761 o
103.498 98.8565 o
106.179 70.7381 o
94.4887 109.766 o
111.609 98.9177 o
100.115 121.629 o
107.577 112.961 o
96.7423 96.0941 o
99.7083 68.9124 o
120.922 120.373 o
116.097 131.103 o
105.935 90.3041 o
118.94 102.926 o
104.318 76.6077 o
109.573 107.358 o
115.164 133.5 o
88.8736 89.4218 o
100.134 104.539 o
76.2357 113.277 o
136.946 92.9455 o
88.7969 79.003 o
115.671 100.78 o
101.666 92.9966 o
158.259 92.3088 o
119.712 123.861 o
93.2335 124.164 o
119.949 61.4266 o
112.488 113.189 o
150.287 133.031 o
97.4615 105.189 o
107.493 151.967 o
68.2772 76.1949 o
108.613 103.052 o
165.597 51.9628 o
110.571 117.831 o
104.387 126.42 o
169.115 105.511 o
131.091 124.202 o
38.5516 75.6713 o
109.147 98.8737 o
92.6452 117.555 o
98.2637 67.7974 o
108.399 93.1423 o
104.608 64.1914 o
102.786 104.538 o
84.7984 102.723 o
62.4072 94.5197 o
64.5086 116.478 o
114.437 98.988 o
103.891 99.0414 o
83.4874 79.1275 o
111.195 93.8613 o
94.047 107.024 o
111.964 94.0044 o
147.608 99.5101 o
86.7634 132.593 o
97.1818 93.562 o
125.795 90.6471 o
119.091 120.2 o
141.136 100.7 o
99.9767 107.008 o
103.145 100.642 o
115.259 98.2151 o
111.629 108.735 o
86.3089 107.64 o
68.2611 110.128 o
113.343 61.9453 o
148.261 103.669 o
103.471 111.392 o
86.2916 117.023 o
109.889 84.1083 o
66.0505 114.96 o
73.6373 68.7703 o
90.9054 91.2907 o
97.0465 131.711 o
118.49 75.3862 o
105.411 124.014 o
139.068 99.6889 o
117.528 107.714 o
100.389 132.631 o
105.637 99.9132 o
115.895 99.8988 o
86.9329 113.768 o
114.315 81.9297 o
104.855 90.9583 o
68.2246 91.8262 o
109.035 101.093 o
129.331 66.3879 o
91.8437 112.658 o
98.5831 92.5019 o
117.179 102.234 o
51.1776 95.6081 o
87.2579 99.6124 o
95.7656 99.5217 o
101.977 94.1667 o
87.4271 120.121 o
115.276 82.8171 o
117.007 103.003 o
106.325 110.537 o
97.7068 95.9402 o
60.9808 135.67 o
92.353 102.677 o
93.2734 107.161 o
120.685 97.9388 o
112.813 103.698 o
116.436 113.676 o
99.2918 99.2228 o
123.184 98.4103 o
108.938 105.593 o
103.269 106.981 o
125.687 110.334 o
63.7668 101.15 o
94.7926 125.832 o
122.913 111.354 o
53.2023 92.0206 o
130.308 100.143 o
123.834 102.279 o
115.964 115.962 o
103.081 130.397 o
107.485 135.718 o
139.911 145.103 o
107.904 84.5377 o
112.045 100.931 o
131.434 81.7641 o
100.252 127.932 o
75.0548 119.191 o
79.7802 101.513 o
97.7764 85.6377 o
71.9146 130.175 o
89.8939 93.1569 o
grestore
0.000 1.000 1.000 setrgbcolor
gsave
140.4 124.2 34.2 37.8 clipbox
/o {
gsave
newpath
translate
0.5 setlinewidth
1 setlinejoin
0 setlinecap
0 -0.25 m
0.0663008 -0.25 0.129895 -0.223658 0.176777 -0.176777 c
0.223658 -0.129895 0.25 -0.0663008 0.25 0 c
0.25 0.0663008 0.223658 0.129895 0.176777 0.176777 c
0.129895 0.223658 0.0663008 0.25 0 0.25 c
-0.0663008 0.25 -0.129895 0.223658 -0.176777 0.176777 c
-0.223658 0.129895 -0.25 0.0663008 -0.25 0 c
-0.25 -0.0663008 -0.223658 -0.129895 -0.176777 -0.176777 c
-0.129895 -0.223658 -0.0663008 -0.25 0 -0.25 c
cl
gsave
0.000 1.000 1.000 setrgbcolor
fill
grestore
stroke
grestore
} bind def
120.582 78.4 o
124.61 70.6484 o
118.445 78.7393 o
125.787 76.7577 o
120.056 81.2832 o
116.228 78.0818 o
122.752 70.7732 o
118.388 75.6447 o
118.766 79.8974 o
124.434 77.6723 o
118.203 81.5174 o
124.929 74.0406 o
119.836 82.9388 o
121.795 68.8723 o
123.631 79.1291 o
122.209 77.4528 o
118.415 74.7727 o
121.601 73.7422 o
125.333 83.8038 o
123.742 82.7753 o
122.626 81.0732 o
121.372 80.807 o
121.293 72.655 o
123.566 79.1 o
124.482 71.3457 o
125.18 71.4939 o
119.98 81.229 o
119.132 79.2439 o
120.216 71.5206 o
118.119 70.9136 o
117.529 73.0917 o
123.608 77.4885 o
124.719 74.6067 o
122.653 82.4141 o
125.605 84.3111 o
125.587 79.7973 o
121.339 79.7253 o
122.866 73.8345 o
120.729 75.7231 o
122.275 79.6323 o
119.653 79.0932 o
122.447 76.1558 o
124.719 74.6067 o
124.668 81.4195 o
124.917 76.6687 o
123.105 71.1829 o
grestore
1.000 0.000 0.000 setrgbcolor
gsave
140.4 124.2 34.2 37.8 clipbox
/o {
gsave
newpath
translate
0.5 setlinewidth
1 setlinejoin
0 setlinecap
0 -0.25 m
0.0663008 -0.25 0.129895 -0.223658 0.176777 -0.176777 c
0.223658 -0.129895 0.25 -0.0663008 0.25 0 c
0.25 0.0663008 0.223658 0.129895 0.176777 0.176777 c
0.129895 0.223658 0.0663008 0.25 0 0.25 c
-0.0663008 0.25 -0.129895 0.223658 -0.176777 0.176777 c
-0.223658 0.129895 -0.25 0.0663008 -0.25 0 c
-0.25 -0.0663008 -0.223658 -0.129895 -0.176777 -0.176777 c
-0.129895 -0.223658 -0.0663008 -0.25 0 -0.25 c
cl
gsave
1.000 0.000 0.000 setrgbcolor
fill
grestore
stroke
grestore
} bind def
71.1809 140.74 o
73.0529 139.259 o
72.7582 141.524 o
74.9516 140.153 o
74.0612 144.905 o
76.7554 141.521 o
76.4893 142.597 o
77.2528 141.171 o
77.2946 142.219 o
77.3131 142.213 o
78.1394 140.944 o
78.6217 141.043 o
78.002 144.408 o
79.6965 137.401 o
78.8056 147.365 o
79.7236 143.139 o
81.7512 144.001 o
83.1136 143.096 o
grestore
1.000 setlinewidth
0 setlinejoin
2 setlinecap
0.000 setgray
gsave
34.2 162 m
174.6 162 l
stroke
grestore
gsave
174.6 37.8 m
174.6 162 l
stroke
grestore
gsave
34.2 37.8 m
174.6 37.8 l
stroke
grestore
gsave
34.2 37.8 m
34.2 162 l
stroke
grestore
0.500 setlinewidth
1 setlinejoin
0 setlinecap
gsave
/o {
gsave
newpath
translate
0.5 setlinewidth
1 setlinejoin
0 setlinecap
0 0 m
0 4 l
gsave
0.000 setgray
fill
grestore
stroke
grestore
} bind def
45.9 37.8 o
grestore
gsave
/o {
gsave
newpath
translate
0.5 setlinewidth
1 setlinejoin
0 setlinecap
0 0 m
0 -4 l
gsave
0.000 setgray
fill
grestore
stroke
grestore
} bind def
45.9 162 o
grestore
/BitstreamVeraSans-Roman findfont
6.000 scalefont
setfont
gsave
38.181250 29.237500 translate
0.000000 rotate
0.000000 0.000000 m /minus glyphshow
5.027344 0.000000 m /one glyphshow
8.844727 0.000000 m /five glyphshow
12.662109 0.000000 m /zero glyphshow
grestore
gsave
/o {
gsave
newpath
translate
0.5 setlinewidth
1 setlinejoin
0 setlinecap
0 0 m
0 4 l
gsave
0.000 setgray
fill
grestore
stroke
grestore
} bind def
65.4 37.8 o
grestore
gsave
/o {
gsave
newpath
translate
0.5 setlinewidth
1 setlinejoin
0 setlinecap
0 0 m
0 -4 l
gsave
0.000 setgray
fill
grestore
stroke
grestore
} bind def
65.4 162 o
grestore
gsave
57.681250 29.237500 translate
0.000000 rotate
0.000000 0.000000 m /minus glyphshow
5.027344 0.000000 m /one glyphshow
8.844727 0.000000 m /zero glyphshow
12.662109 0.000000 m /zero glyphshow
grestore
gsave
/o {
gsave
newpath
translate
0.5 setlinewidth
1 setlinejoin
0 setlinecap
0 0 m
0 4 l
gsave
0.000 setgray
fill
grestore
stroke
grestore
} bind def
84.9 37.8 o
grestore
gsave
/o {
gsave
newpath
translate
0.5 setlinewidth
1 setlinejoin
0 setlinecap
0 0 m
0 -4 l
gsave
0.000 setgray
fill
grestore
stroke
grestore
} bind def
84.9 162 o
grestore
gsave
79.087500 29.237500 translate
0.000000 rotate
0.000000 0.000000 m /minus glyphshow
5.027344 0.000000 m /five glyphshow
8.844727 0.000000 m /zero glyphshow
grestore
gsave
/o {
gsave
newpath
translate
0.5 setlinewidth
1 setlinejoin
0 setlinecap
0 0 m
0 4 l
gsave
0.000 setgray
fill
grestore
stroke
grestore
} bind def
104.4 37.8 o
grestore
gsave
/o {
gsave
newpath
translate
0.5 setlinewidth
1 setlinejoin
0 setlinecap
0 0 m
0 -4 l
gsave
0.000 setgray
fill
grestore
stroke
grestore
} bind def
104.4 162 o
grestore
gsave
102.884375 29.237500 translate
0.000000 rotate
0.000000 0.000000 m /zero glyphshow
grestore
gsave
/o {
gsave
newpath
translate
0.5 setlinewidth
1 setlinejoin
0 setlinecap
0 0 m
0 4 l
gsave
0.000 setgray
fill
grestore
stroke
grestore
} bind def
123.9 37.8 o
grestore
gsave
/o {
gsave
newpath
translate
0.5 setlinewidth
1 setlinejoin
0 setlinecap
0 0 m
0 -4 l
gsave
0.000 setgray
fill
grestore
stroke
grestore
} bind def
123.9 162 o
grestore
gsave
120.517187 29.237500 translate
0.000000 rotate
0.000000 0.000000 m /five glyphshow
3.817383 0.000000 m /zero glyphshow
grestore
gsave
/o {
gsave
newpath
translate
0.5 setlinewidth
1 setlinejoin
0 setlinecap
0 0 m
0 4 l
gsave
0.000 setgray
fill
grestore
stroke
grestore
} bind def
143.4 37.8 o
grestore
gsave
/o {
gsave
newpath
translate
0.5 setlinewidth
1 setlinejoin
0 setlinecap
0 0 m
0 -4 l
gsave
0.000 setgray
fill
grestore
stroke
grestore
} bind def
143.4 162 o
grestore
gsave
138.204687 29.237500 translate
0.000000 rotate
0.000000 0.000000 m /one glyphshow
3.817383 0.000000 m /zero glyphshow
7.634766 0.000000 m /zero glyphshow
grestore
gsave
/o {
gsave
newpath
translate
0.5 setlinewidth
1 setlinejoin
0 setlinecap
0 0 m
0 4 l
gsave
0.000 setgray
fill
grestore
stroke
grestore
} bind def
162.9 37.8 o
grestore
gsave
/o {
gsave
newpath
translate
0.5 setlinewidth
1 setlinejoin
0 setlinecap
0 0 m
0 -4 l
gsave
0.000 setgray
fill
grestore
stroke
grestore
} bind def
162.9 162 o
grestore
gsave
157.704687 29.237500 translate
0.000000 rotate
0.000000 0.000000 m /one glyphshow
3.817383 0.000000 m /five glyphshow
7.634766 0.000000 m /zero glyphshow
grestore
gsave
94.400000 15.987500 translate
0.000000 rotate
/Cmr10 findfont
8.0 scalefont
setfont
0.000000 0.557937 moveto
/l glyphshow

/BitstreamVeraSans-Roman findfont
8.0 scalefont
setfont
2.214844 0.557937 moveto
/space glyphshow

4.757812 0.557937 moveto
/space glyphshow

/Cmr10 findfont
8.0 scalefont
setfont
7.300781 0.557937 moveto
/parenleft glyphshow

/Cmsy10 findfont
5.6 scalefont
setfont
11.389531 4.517188 moveto
/openbullet glyphshow

/Cmr10 findfont
8.0 scalefont
setfont
15.898937 0.557937 moveto
/parenright glyphshow


grestore
gsave
/o {
gsave
newpath
translate
0.5 setlinewidth
1 setlinejoin
0 setlinecap
0 0 m
4 0 l
gsave
0.000 setgray
fill
grestore
stroke
grestore
} bind def
34.2 65.4 o
grestore
gsave
/o {
gsave
newpath
translate
0.5 setlinewidth
1 setlinejoin
0 setlinecap
0 0 m
-4 0 l
gsave
0.000 setgray
fill
grestore
stroke
grestore
} bind def
174.6 65.4 o
grestore
gsave
18.575000 63.743750 translate
0.000000 rotate
0.000000 0.000000 m /minus glyphshow
5.027344 0.000000 m /five glyphshow
8.844727 0.000000 m /zero glyphshow
grestore
gsave
/o {
gsave
newpath
translate
0.5 setlinewidth
1 setlinejoin
0 setlinecap
0 0 m
4 0 l
gsave
0.000 setgray
fill
grestore
stroke
grestore
} bind def
34.2 99.9 o
grestore
gsave
/o {
gsave
newpath
translate
0.5 setlinewidth
1 setlinejoin
0 setlinecap
0 0 m
-4 0 l
gsave
0.000 setgray
fill
grestore
stroke
grestore
} bind def
174.6 99.9 o
grestore
gsave
27.168750 98.243750 translate
0.000000 rotate
0.000000 0.000000 m /zero glyphshow
grestore
gsave
/o {
gsave
newpath
translate
0.5 setlinewidth
1 setlinejoin
0 setlinecap
0 0 m
4 0 l
gsave
0.000 setgray
fill
grestore
stroke
grestore
} bind def
34.2 134.4 o
grestore
gsave
/o {
gsave
newpath
translate
0.5 setlinewidth
1 setlinejoin
0 setlinecap
0 0 m
-4 0 l
gsave
0.000 setgray
fill
grestore
stroke
grestore
} bind def
174.6 134.4 o
grestore
gsave
23.434375 132.743750 translate
0.000000 rotate
0.000000 0.000000 m /five glyphshow
3.817383 0.000000 m /zero glyphshow
grestore
gsave
11.575000 88.900000 translate
90.000000 rotate
/Cmr10 findfont
8.0 scalefont
setfont
0.000000 0.557937 moveto
/b glyphshow

/BitstreamVeraSans-Roman findfont
8.0 scalefont
setfont
4.441406 0.557937 moveto
/space glyphshow

6.984375 0.557937 moveto
/space glyphshow

/Cmr10 findfont
8.0 scalefont
setfont
9.527344 0.557937 moveto
/parenleft glyphshow

/Cmsy10 findfont
5.6 scalefont
setfont
13.616094 4.517188 moveto
/openbullet glyphshow

/Cmr10 findfont
8.0 scalefont
setfont
18.125500 0.557937 moveto
/parenright glyphshow


grestore
/BitstreamVeraSans-Roman findfont
14.400 scalefont
setfont
gsave
70.860937 167.000000 translate
0.000000 rotate
0.000000 0.000000 m /N glyphshow
10.753174 0.000000 m /space glyphshow
15.322571 0.000000 m /equal glyphshow
27.367249 0.000000 m /space glyphshow
31.936646 0.000000 m /three glyphshow
41.082458 0.000000 m /zero glyphshow
50.228271 0.000000 m /six glyphshow
59.374084 0.000000 m /two glyphshow
grestore

end
showpage
