%!PS-Adobe-3.0 EPSF-3.0
%%Title: /Users/iuliasimion/bullock_johnston/denis_erkal/vasily/Figures/166507_1489549.0_xy.eps
%%Creator: matplotlib version 1.4.3, http://matplotlib.org/
%%CreationDate: Thu Aug 17 17:05:04 2017
%%Orientation: portrait
%%BoundingBox: 216 306 396 486
%%EndComments
%%BeginProlog
/mpldict 9 dict def
mpldict begin
/m { moveto } bind def
/l { lineto } bind def
/r { rlineto } bind def
/c { curveto } bind def
/cl { closepath } bind def
/box {
m
1 index 0 r
0 exch r
neg 0 r
cl
} bind def
/clipbox {
box
clip
newpath
} bind def
%!PS-Adobe-3.0 Resource-Font
%%Title: Bitstream Vera Sans
%%Copyright: Copyright (c) 2003 by Bitstream, Inc. All Rights Reserved.
%%Creator: Converted from TrueType to type 3 by PPR
25 dict begin
/_d{bind def}bind def
/_m{moveto}_d
/_l{lineto}_d
/_cl{closepath eofill}_d
/_c{curveto}_d
/_sc{7 -1 roll{setcachedevice}{pop pop pop pop pop pop}ifelse}_d
/_e{exec}_d
/FontName /BitstreamVeraSans-Roman def
/PaintType 0 def
/FontMatrix[.001 0 0 .001 0 0]def
/FontBBox[-183 -236 1287 928]def
/FontType 3 def
/Encoding [ /space /zero /one /two /three /four /five /minus ] def
/FontInfo 10 dict dup begin
/FamilyName (Bitstream Vera Sans) def
/FullName (Bitstream Vera Sans) def
/Notice (Copyright (c) 2003 by Bitstream, Inc. All Rights Reserved. Bitstream Vera is a trademark of Bitstream, Inc.) def
/Weight (Roman) def
/Version (Release 1.10) def
/ItalicAngle 0.0 def
/isFixedPitch false def
/UnderlinePosition -213 def
/UnderlineThickness 143 def
end readonly def
/CharStrings 8 dict dup begin
/space{318 0 0 0 0 0 _sc
}_d
/zero{636 0 66 -13 570 742 _sc
318 664 _m
267 664 229 639 203 589 _c
177 539 165 464 165 364 _c
165 264 177 189 203 139 _c
229 89 267 64 318 64 _c
369 64 407 89 433 139 _c
458 189 471 264 471 364 _c
471 464 458 539 433 589 _c
407 639 369 664 318 664 _c
318 742 _m
399 742 461 709 505 645 _c
548 580 570 486 570 364 _c
570 241 548 147 505 83 _c
461 19 399 -13 318 -13 _c
236 -13 173 19 130 83 _c
87 147 66 241 66 364 _c
66 486 87 580 130 645 _c
173 709 236 742 318 742 _c
_cl}_d
/one{636 0 110 0 544 729 _sc
124 83 _m
285 83 _l
285 639 _l
110 604 _l
110 694 _l
284 729 _l
383 729 _l
383 83 _l
544 83 _l
544 0 _l
124 0 _l
124 83 _l
_cl}_d
/two{{636 0 73 0 536 742 _sc
192 83 _m
536 83 _l
536 0 _l
73 0 _l
73 83 _l
110 121 161 173 226 239 _c
290 304 331 346 348 365 _c
380 400 402 430 414 455 _c
426 479 433 504 433 528 _c
433 566 419 598 392 622 _c
365 646 330 659 286 659 _c
255 659 222 653 188 643 _c
154 632 117 616 78 594 _c
78 694 _l
118 710 155 722 189 730 _c
223 738 255 742 284 742 _c
}_e{359 742 419 723 464 685 _c
509 647 532 597 532 534 _c
532 504 526 475 515 449 _c
504 422 484 390 454 354 _c
446 344 420 317 376 272 _c
332 227 271 164 192 83 _c
_cl}_e}_d
/three{{636 0 76 -13 556 742 _sc
406 393 _m
453 383 490 362 516 330 _c
542 298 556 258 556 212 _c
556 140 531 84 482 45 _c
432 6 362 -13 271 -13 _c
240 -13 208 -10 176 -4 _c
144 1 110 10 76 22 _c
76 117 _l
103 101 133 89 166 81 _c
198 73 232 69 268 69 _c
330 69 377 81 409 105 _c
441 129 458 165 458 212 _c
458 254 443 288 413 312 _c
383 336 341 349 287 349 _c
}_e{202 349 _l
202 430 _l
291 430 _l
339 430 376 439 402 459 _c
428 478 441 506 441 543 _c
441 580 427 609 401 629 _c
374 649 336 659 287 659 _c
260 659 231 656 200 650 _c
169 644 135 635 98 623 _c
98 711 _l
135 721 170 729 203 734 _c
235 739 266 742 296 742 _c
370 742 429 725 473 691 _c
517 657 539 611 539 553 _c
539 513 527 479 504 451 _c
481 423 448 403 406 393 _c
_cl}_e}_d
/four{636 0 49 0 580 729 _sc
378 643 _m
129 254 _l
378 254 _l
378 643 _l
352 729 _m
476 729 _l
476 254 _l
580 254 _l
580 172 _l
476 172 _l
476 0 _l
378 0 _l
378 172 _l
49 172 _l
49 267 _l
352 729 _l
_cl}_d
/five{{636 0 77 -13 549 729 _sc
108 729 _m
495 729 _l
495 646 _l
198 646 _l
198 467 _l
212 472 227 476 241 478 _c
255 480 270 482 284 482 _c
365 482 429 459 477 415 _c
525 370 549 310 549 234 _c
549 155 524 94 475 51 _c
426 8 357 -13 269 -13 _c
238 -13 207 -10 175 -6 _c
143 -1 111 6 77 17 _c
77 116 _l
106 100 136 88 168 80 _c
199 72 232 69 267 69 _c
}_e{323 69 368 83 401 113 _c
433 143 450 183 450 234 _c
450 284 433 324 401 354 _c
368 384 323 399 267 399 _c
241 399 214 396 188 390 _c
162 384 135 375 108 363 _c
108 729 _l
_cl}_e}_d
/minus{838 0 106 272 732 355 _sc
106 355 _m
732 355 _l
732 272 _l
106 272 _l
106 355 _l
_cl}_d
end readonly def

/BuildGlyph
 {exch begin
 CharStrings exch
 2 copy known not{pop /.notdef}if
 true 3 1 roll get exec
 end}_d

/BuildChar {
 1 index /Encoding get exch get
 1 index /BuildGlyph get exec
}_d

FontName currentdict end definefont pop
%!PS-Adobe-3.0 Resource-Font
%%Title: cmr10
%%Copyright: Copyright (C) 1994, Basil K. Malyshev. All Rights Reserved.012BaKoMa Fonts Collection, Level-B.
%%Creator: Converted from TrueType to type 3 by PPR
25 dict begin
/_d{bind def}bind def
/_m{moveto}_d
/_l{lineto}_d
/_cl{closepath eofill}_d
/_c{curveto}_d
/_sc{7 -1 roll{setcachedevice}{pop pop pop pop pop pop}ifelse}_d
/_e{exec}_d
/FontName /Cmr10 def
/PaintType 0 def
/FontMatrix[.001 0 0 .001 0 0]def
/FontBBox[-44 -250 1009 750]def
/FontType 3 def
/Encoding [ /k /parenright /Y /parenleft /c /p /X ] def
/FontInfo 10 dict dup begin
/FamilyName (cmr10) def
/FullName (cmr10) def
/Notice (Copyright (C) 1994, Basil K. Malyshev. All Rights Reserved.012BaKoMa Fonts Collection, Level-B. ) def
/Weight (Regular) def
/Version (1.1/12-Nov-94) def
/ItalicAngle 0.0 def
/isFixedPitch false def
/UnderlinePosition -133 def
/UnderlineThickness 20 def
end readonly def
/CharStrings 7 dict dup begin
/k{{527 0 26 0 511 694 _sc
26 0 _m
26 35 _l
48 35 67 36 82 40 _c
96 44 104 53 104 67 _c
104 592 _l
104 610 101 623 96 631 _c
90 639 83 643 73 645 _c
63 647 47 648 26 648 _c
26 683 _l
174 694 _l
174 219 _l
308 337 _l
321 349 328 361 328 372 _c
328 380 325 386 320 390 _c
314 394 308 396 300 396 _c
300 431 _l
488 431 _l
488 396 _l
}_e{442 396 397 376 352 337 _c
281 275 _l
408 94 _l
426 69 440 53 452 46 _c
464 38 483 35 511 35 _c
511 0 _l
312 0 _l
312 35 _l
334 35 346 42 346 56 _c
346 66 340 78 328 94 _c
232 231 _l
171 178 _l
171 67 _l
171 53 178 44 193 40 _c
207 36 226 35 249 35 _c
249 0 _l
26 0 _l
_cl}_e}_d
/parenright{{388 0 56 -249 291 750 _sc
65 -249 _m
59 -249 56 -246 56 -240 _c
56 -237 56 -235 58 -234 _c
172 -122 229 38 229 250 _c
229 462 172 623 60 733 _c
57 734 56 737 56 741 _c
56 743 57 745 59 747 _c
61 749 63 750 65 750 _c
74 750 _l
76 750 77 749 79 748 _c
127 710 167 664 199 610 _c
231 556 254 498 269 437 _c
283 376 291 314 291 250 _c
291 202 287 156 279 110 _c
}_e{271 64 258 20 241 -24 _c
223 -68 201 -108 175 -146 _c
148 -184 116 -217 79 -247 _c
77 -248 76 -249 74 -249 _c
65 -249 _l
_cl}_e}_d
/Y{{750 0 11 0 738 683 _sc
226 0 _m
226 35 _l
294 35 329 45 329 67 _c
329 273 _l
119 618 _l
109 631 95 639 78 643 _c
60 646 38 648 11 648 _c
11 683 _l
293 683 _l
293 648 _l
246 648 223 640 223 625 _c
223 623 223 621 225 617 _c
406 319 _l
571 590 _l
575 596 577 602 577 610 _c
577 623 571 633 559 639 _c
547 645 535 648 521 648 _c
521 683 _l
738 683 _l
738 648 _l
}_e{712 648 687 643 665 634 _c
643 624 625 610 613 591 _c
419 273 _l
419 67 _l
419 45 453 35 522 35 _c
522 0 _l
226 0 _l
_cl}_e}_d
/parenleft{{388 0 97 -249 332 750 _sc
310 -247 _m
272 -217 240 -184 214 -146 _c
187 -108 165 -67 148 -25 _c
131 17 118 62 110 109 _c
101 155 97 202 97 250 _c
97 298 101 345 110 392 _c
118 438 131 483 149 527 _c
166 570 188 611 215 649 _c
242 687 274 720 310 748 _c
310 749 311 750 315 750 _c
324 750 _l
326 750 327 749 329 747 _c
331 745 332 743 332 741 _c
332 738 331 736 330 735 _c
}_e{297 703 270 668 248 632 _c
226 596 209 557 196 516 _c
183 474 174 432 168 388 _c
162 344 159 298 159 250 _c
159 38 215 -122 329 -232 _c
331 -234 332 -236 332 -240 _c
332 -242 331 -244 329 -246 _c
327 -248 326 -249 324 -249 _c
315 -249 _l
311 -249 310 -248 310 -247 _c
_cl}_e}_d
/c{{444 0 33 -10 415 448 _sc
249 -10 _m
208 -10 171 0 139 21 _c
106 41 80 69 61 104 _c
42 139 33 176 33 216 _c
33 255 42 293 61 329 _c
79 365 105 393 138 415 _c
171 437 208 448 249 448 _c
288 448 324 440 356 425 _c
388 409 404 384 404 350 _c
404 337 399 326 390 316 _c
380 306 369 302 356 302 _c
342 302 331 306 322 316 _c
312 326 308 337 308 350 _c
}_e{308 362 311 372 319 381 _c
327 389 336 395 347 397 _c
324 411 292 419 250 419 _c
218 419 192 408 173 387 _c
153 365 140 339 132 308 _c
124 277 120 246 120 216 _c
120 183 124 152 134 122 _c
144 92 159 67 181 47 _c
202 27 229 18 261 18 _c
293 18 320 27 342 47 _c
364 66 379 91 387 123 _c
387 127 389 129 395 129 _c
407 129 _l
409 129 410 128 412 126 _c
}_e{414 124 415 122 415 120 _c
415 117 _l
405 77 385 46 355 24 _c
325 1 289 -10 249 -10 _c
_cl}_e}_d
/p{{555 0 26 -193 522 442 _sc
26 -193 _m
26 -158 _l
48 -158 67 -156 82 -152 _c
96 -148 104 -139 104 -126 _c
104 355 _l
104 373 97 384 84 389 _c
71 393 52 396 26 396 _c
26 431 _l
174 442 _l
174 380 _l
192 400 213 415 237 426 _c
261 436 287 442 315 442 _c
354 442 389 431 421 410 _c
453 388 477 360 495 326 _c
513 291 522 254 522 216 _c
522 175 512 137 492 103 _c
}_e{472 68 446 40 412 20 _c
378 0 340 -10 300 -10 _c
251 -10 210 9 177 48 _c
177 -126 _l
177 -139 184 -148 199 -152 _c
213 -156 232 -158 255 -158 _c
255 -193 _l
26 -193 _l
177 97 _m
188 73 204 54 225 38 _c
246 22 269 15 294 15 _c
317 15 337 21 355 33 _c
373 45 388 62 400 83 _c
412 104 420 126 426 149 _c
432 172 435 194 435 216 _c
435 242 430 271 420 302 _c
}_e{410 333 396 359 376 381 _c
356 402 333 413 305 413 _c
278 413 253 406 231 392 _c
208 378 190 360 177 336 _c
177 97 _l
_cl}_e}_d
/X{{750 0 23 0 726 683 _sc
23 0 _m
23 35 _l
91 35 138 54 165 92 _c
331 339 _l
147 619 _l
136 631 122 639 104 643 _c
86 646 64 648 37 648 _c
37 683 _l
317 683 _l
317 648 _l
305 648 291 645 275 641 _c
259 636 252 629 252 621 _c
252 619 252 618 253 617 _c
384 418 _l
499 590 _l
501 596 503 600 503 604 _c
503 618 496 628 482 636 _c
468 644 454 648 440 648 _c
}_e{440 683 _l
684 683 _l
684 648 _l
616 648 569 629 542 591 _c
405 386 _l
616 64 _l
627 51 641 43 659 40 _c
677 36 699 35 726 35 _c
726 0 _l
446 0 _l
446 35 _l
456 35 470 37 486 42 _c
502 46 511 53 511 62 _c
511 64 510 65 510 66 _c
352 307 _l
208 93 _l
206 89 205 84 205 79 _c
205 65 211 55 225 47 _c
238 39 252 35 267 35 _c
267 0 _l
}_e{23 0 _l
_cl}_e}_d
end readonly def

/BuildGlyph
 {exch begin
 CharStrings exch
 2 copy known not{pop /.notdef}if
 true 3 1 roll get exec
 end}_d

/BuildChar {
 1 index /Encoding get exch get
 1 index /BuildGlyph get exec
}_d

FontName currentdict end definefont pop
end
%%EndProlog
mpldict begin
216 306 translate
180 180 0 0 clipbox
gsave
0 0 m
180 0 l
180 180 l
0 180 l
cl
1.000 setgray
fill
grestore
gsave
34.2 37.8 m
174.6 37.8 l
174.6 162 l
34.2 162 l
cl
1.000 setgray
fill
grestore
0.500 setlinewidth
1 setlinejoin
0 setlinecap
[] 0 setdash
0.000 setgray
gsave
140.4 124.2 34.2 37.8 clipbox
/o {
gsave
newpath
translate
0.5 setlinewidth
1 setlinejoin
0 setlinecap
0 -0.75 m
0.198902 -0.75 0.389685 -0.670975 0.53033 -0.53033 c
0.670975 -0.389685 0.75 -0.198902 0.75 0 c
0.75 0.198902 0.670975 0.389685 0.53033 0.53033 c
0.389685 0.670975 0.198902 0.75 0 0.75 c
-0.198902 0.75 -0.389685 0.670975 -0.53033 0.53033 c
-0.670975 0.389685 -0.75 0.198902 -0.75 0 c
-0.75 -0.198902 -0.670975 -0.389685 -0.53033 -0.53033 c
-0.389685 -0.670975 -0.198902 -0.75 0 -0.75 c
cl
gsave
0.000 setgray
fill
grestore
stroke
grestore
} bind def
114.098 82.5849 o
143.697 89.227 o
120.842 92.0156 o
135.967 125.132 o
105.263 103.181 o
105.43 112.078 o
106.655 100.087 o
131.674 124.895 o
132.683 75.4271 o
97.0725 94.0773 o
130.057 121.852 o
134.924 93.0636 o
119.044 84.7531 o
83.3459 73.5099 o
103.773 91.6129 o
110.254 94.2388 o
101.42 116.884 o
75.9029 69.3468 o
115.987 106.208 o
148.232 88.1722 o
114.88 82.4926 o
116.577 105.35 o
130.453 99.0784 o
93.5813 76.0573 o
112.29 89.6858 o
118.244 95.0949 o
119.104 116.392 o
111.269 86.9021 o
109.828 85.7174 o
139.599 114.925 o
130.662 88.4159 o
139.947 117.763 o
121.517 91.1838 o
113.074 70.5416 o
135.283 112.592 o
122.151 61.2941 o
116.248 102.784 o
108.707 92.344 o
118.413 102.461 o
114.422 91.6759 o
129.498 87.7591 o
120.615 84.8181 o
101.111 101.261 o
106.463 83.8001 o
116.452 101.035 o
105.553 68.6751 o
116.025 89.5215 o
124.594 76.6885 o
150.656 99.7868 o
101.043 95.0697 o
122.224 93.0101 o
121.414 113.075 o
127.423 95.0002 o
120.194 102.151 o
92.1093 102.666 o
102.365 97.0529 o
105.24 119.272 o
103.496 92.4611 o
119.856 91.8911 o
121.97 97.4802 o
128.371 127.072 o
121.373 82.9561 o
97.7976 116.596 o
95.8725 84.2355 o
87.4352 93.9636 o
91.8262 99.0634 o
103.332 90.1416 o
116.998 90.6174 o
115.443 84.9627 o
135.137 117.168 o
82.0345 66.8978 o
101.959 98.5096 o
124.57 94.7726 o
119.155 93.031 o
97.1569 88.6368 o
119.065 79.1144 o
44.3581 91.6128 o
108.671 89.6839 o
86.9317 95.501 o
135.368 64.6961 o
115.199 75.8984 o
169.781 116.432 o
90.3352 63.8016 o
131.672 102.527 o
119.898 105.338 o
115.669 71.7517 o
107.416 106.382 o
103.733 98.6789 o
75.8016 82.2954 o
92.8727 114.317 o
108.492 86.3682 o
117.713 90.612 o
109.055 97.6881 o
130.5 97.1632 o
106.378 90.4215 o
113.422 57.2391 o
106.575 98.0775 o
126.536 100.07 o
108.337 102.092 o
99.7445 89.7588 o
122.706 88.3996 o
93.6016 100.992 o
113.335 99.4663 o
119.553 93.1589 o
84.4596 55.1599 o
116.253 97.1768 o
82.273 87.2909 o
121.473 91.153 o
113.482 83.7988 o
158.024 100.341 o
70.0592 119.817 o
98.0448 136.849 o
103.957 87.5783 o
104.047 59.7638 o
101.241 91.9172 o
101.144 98.066 o
60.0786 128.231 o
125.227 89.3492 o
113.001 71.5846 o
153.232 80.8435 o
104.59 105.469 o
80.371 62.8205 o
108.881 97.2756 o
143.889 114.739 o
144.994 91.4165 o
119.635 94.4007 o
76.837 90.301 o
94.0403 79.4349 o
135.811 57.1639 o
68.1025 98.1123 o
108.224 95.3691 o
110.34 90.7006 o
122.575 85.9119 o
122.494 70.2745 o
95.1191 92.8058 o
118.766 78.4104 o
137.561 99.2096 o
108.975 86.0377 o
131.707 46.3468 o
96.7099 110.958 o
124.947 81.9084 o
164.551 96.9078 o
107.13 52.2661 o
94.4085 68.8655 o
130.58 127.952 o
124.476 101.003 o
102.622 100.194 o
116.152 84.7445 o
123.514 88.0572 o
109.579 96.2331 o
102.57 97.7362 o
120.15 104.369 o
143.447 91.8436 o
101.232 95.6183 o
107.386 90.021 o
104.053 90.8019 o
101.995 109.982 o
104.723 89.6276 o
96.7059 92.3373 o
123.315 83.4477 o
92.6422 81.3797 o
150.302 96.9667 o
111.445 81.1057 o
149.829 81.2005 o
56.9617 83.9431 o
104.439 80.0948 o
79.6686 111.742 o
111.921 94.589 o
62.1644 130.674 o
118.009 69.3874 o
132.776 109.114 o
97.9694 78.3108 o
90.5347 104.739 o
94.9175 87.6091 o
116.825 88.7681 o
127.067 107.169 o
124.905 95.176 o
167.148 86.1556 o
131.045 96.1107 o
103.717 103.261 o
106.016 93.0135 o
121.963 84.5906 o
75.0758 108.88 o
125.515 115.821 o
107.424 80.1004 o
107.63 112.704 o
147.072 73.9622 o
109.313 95.1464 o
105.605 81.2256 o
110.089 76.1068 o
148.642 91.61 o
70.1345 99.0655 o
121.909 97.4188 o
100.024 97.798 o
111.053 116.08 o
121.317 94.8706 o
112.146 89.9123 o
110.452 106.385 o
127.448 106.559 o
90.9123 74.8581 o
115.01 93.2662 o
99.9176 94.3445 o
117.38 76.029 o
61.1453 85.7743 o
129.514 119.218 o
104.854 100.555 o
108.567 88.9416 o
116.794 89.0456 o
139.42 87.6367 o
140.358 99.118 o
147.263 69.6697 o
110.602 92.0653 o
110.661 91.3 o
115.667 79.279 o
109.649 138.461 o
135.672 91.6754 o
124.013 107.72 o
94.5912 85.3311 o
114.461 92.9357 o
127.058 96.532 o
111.036 114.74 o
111.928 89.5914 o
113.526 93.7233 o
96.3365 66.8594 o
123.591 83.3719 o
107.138 105.873 o
172.336 93.4999 o
112.364 98.2597 o
112.369 84.7603 o
107.82 98.7664 o
101.924 91.3752 o
64.9297 109.862 o
101.841 64.9983 o
103.518 72.9887 o
111.6 92.7597 o
113.929 66.0406 o
89.472 91.9763 o
95.6067 113.99 o
115.455 99.5623 o
119.252 116.633 o
112.629 86.4422 o
126.119 102.394 o
124.763 99.361 o
115.039 97.9908 o
136.32 119.954 o
98.0842 100.56 o
124.993 99.3592 o
100.676 83.0845 o
103.792 107.606 o
104.686 59.8107 o
124.87 84.5655 o
150.508 95.5372 o
106.789 68.5492 o
153.539 100.411 o
114.417 93.6536 o
124.628 105.785 o
123.599 95.8243 o
115.478 85.0993 o
105.001 90.9129 o
125.187 106.62 o
68.6282 108.96 o
102.703 95.8044 o
117.148 96.078 o
141.215 92.9196 o
91.2249 84.3243 o
101.254 109.131 o
92.6605 122.415 o
114.64 98.2765 o
142.749 84.418 o
117.993 90.4408 o
95.5007 106.169 o
135.974 86.8375 o
83.3655 88.8182 o
121.05 85.8912 o
115.166 106.365 o
146.478 110.211 o
138.153 123.737 o
125.993 61.0111 o
103.121 104.262 o
98.0908 108.612 o
111.497 88.1878 o
121.836 85.1643 o
113.885 99.6273 o
122.687 109.133 o
82.4205 65.2126 o
121.861 107.654 o
121.343 134.976 o
114.586 98.2966 o
127.778 82.8357 o
116.179 87.0387 o
108.505 95.2669 o
113.684 87.6827 o
128.538 85.1302 o
108.706 82.6413 o
105.371 103.959 o
104.427 103.17 o
115.008 104.214 o
87.46 72.2944 o
136.326 49.5026 o
111.593 108.545 o
111.029 93.3826 o
122.15 95.3514 o
103.907 96.2077 o
93.5932 89.4816 o
106.951 111.191 o
104.99 72.468 o
100.457 88.717 o
114.395 80.8334 o
114.976 90.1703 o
109.103 114.98 o
100.201 85.4979 o
128.78 88.8596 o
127.736 97.6957 o
132.236 93.1487 o
118.053 108.703 o
107.2 52.0161 o
95.923 99.6113 o
104.865 104.745 o
99.5316 83.4557 o
81.735 39.4736 o
103.682 110.994 o
100.754 115.138 o
111.483 100.924 o
117.586 102.187 o
120.56 95.6281 o
127.426 114.405 o
105.881 93.7633 o
109.01 90.2706 o
89.9927 113.371 o
114.354 69.8835 o
153.083 93.9 o
117.986 92.0164 o
76.0421 93.6789 o
113.247 110.296 o
105.76 76.5359 o
100.979 81.9717 o
75.9276 96.0269 o
88.1691 83.5725 o
117.429 105.285 o
103.334 75.8667 o
120.685 86.0576 o
126.075 104.466 o
102.315 105.42 o
116.913 76.9013 o
105.618 103.745 o
113.138 91.869 o
110.291 70.8947 o
109.979 92.6344 o
127.095 96.7187 o
94.7696 90.576 o
106.973 102.699 o
108.813 82.4268 o
105.786 85.3306 o
110.588 96.9969 o
105.355 66.8065 o
137.563 83.5974 o
123.878 94.3714 o
111.852 90.9263 o
93.5449 105.758 o
121.686 102.203 o
152.356 92.3226 o
115.601 97.7815 o
110.819 103.031 o
103.039 80.495 o
98.5774 91.4869 o
105.716 89.7795 o
107.47 108.478 o
126.068 101.126 o
114.123 82.7271 o
127.94 120.829 o
108.779 87.8638 o
110.608 110.551 o
101.434 103.381 o
104.101 98.2463 o
119.475 116.831 o
118.497 114.244 o
72.5318 98.0627 o
106.535 94.9474 o
101.468 89.0674 o
134.231 107.318 o
137.392 77.7189 o
123.956 99.0651 o
111.987 101.826 o
120.639 98.9238 o
79.073 87.2485 o
126.165 79.2006 o
129.574 101.604 o
128.931 92.1836 o
88.6364 91.0106 o
104.946 121.717 o
99.5095 99.1984 o
91.1723 70.1115 o
130.305 90.8222 o
88.6252 104.471 o
125.593 76.1652 o
84.0075 74.6592 o
89.4477 85.9071 o
132.859 88.9595 o
100.896 97.103 o
102.16 103.32 o
98.8289 91.8598 o
156.973 124.939 o
85.7229 120.374 o
117.563 73.5222 o
132.766 78.3551 o
115.054 69.8118 o
103.831 82.9837 o
124.571 67.9217 o
113.546 91.4084 o
127.445 94.1171 o
100.843 113.016 o
97.5313 99.9654 o
104.22 91.6122 o
96.4527 98.139 o
124.883 94.849 o
118.458 94.913 o
106.851 103.28 o
107.245 84.396 o
116.3 60.6013 o
83.3695 100.446 o
111.247 103.341 o
133.547 98.5569 o
98.4244 83.7331 o
86.5145 92.0821 o
99.4632 78.5621 o
125.881 91.6943 o
103 92.4295 o
131.678 96.4259 o
103.839 89.0682 o
120.847 94.7724 o
106.731 75.0752 o
123.983 86.8588 o
104.061 71.4251 o
142.776 97.868 o
107.11 97.0774 o
138.087 79.747 o
95.0985 94.606 o
152.598 68.9099 o
110.491 90.599 o
109.716 60.4544 o
129.137 81.7537 o
106.851 82.4063 o
136.693 119.123 o
97.4175 103.297 o
97.7316 120.074 o
126.85 77.6193 o
90.6616 109.385 o
88.0282 91.8269 o
116.287 81.3156 o
98.4275 80.4237 o
112.58 103.254 o
124.073 95.0123 o
104.817 80.4943 o
117.726 98.8049 o
112.054 92.2065 o
148.103 115.297 o
121.857 97.4052 o
124.153 92.5762 o
122.05 81.2916 o
102.723 104.216 o
108.2 87.56 o
102.766 92.2606 o
128.798 92.8453 o
134.108 106.229 o
111.943 71.6169 o
127.574 106.499 o
130.896 90.0912 o
141.484 104.81 o
106.938 108.975 o
113.818 89.2741 o
122.842 91.021 o
95.7074 89.6733 o
112.995 87.8927 o
101.535 89.4807 o
116.586 90.7077 o
117.844 95.0451 o
141.159 55.5423 o
118.417 85.1171 o
102.755 90.6207 o
124.101 89.459 o
132.548 101.26 o
69.8147 60.7184 o
111.939 102.104 o
122.733 89.5001 o
95.9128 104.768 o
121.308 97.0738 o
114.685 93.4405 o
90.4871 68.6169 o
120.083 116.669 o
131.686 99.1805 o
106.143 113.514 o
134.203 92.5206 o
116.801 108.875 o
110.796 105.653 o
117.904 100.352 o
119.851 87.7706 o
108.759 82.3837 o
106.329 87.4007 o
115.23 96.0732 o
141.157 77.2559 o
95.0064 84.2578 o
136.197 92.8607 o
127.023 102.098 o
113.731 97.5109 o
96.0652 136.376 o
105.131 98.561 o
114.203 109.584 o
107.508 92.7085 o
115.115 88.1864 o
115.126 94.6489 o
113.692 94.0627 o
103.995 86.5725 o
122.79 96.3219 o
134.044 92.573 o
120.155 108.213 o
112.288 82.696 o
112.362 86.4155 o
123.391 92.7954 o
123.25 83.0983 o
129.436 90.0649 o
144.829 103.356 o
119.452 108.432 o
97.0889 107.302 o
113.139 95.6755 o
106.693 83.249 o
133.721 92.1904 o
108.882 79.4505 o
123.136 113.565 o
102.769 105.211 o
111.336 92.0619 o
103.807 89.0117 o
122.251 97.7758 o
126.192 113.65 o
118.507 61.0774 o
98.6502 95.1595 o
126.379 99.8877 o
119.083 111.945 o
124.906 103.74 o
116.185 111.501 o
120.013 109.882 o
86.1671 69.9415 o
119.163 77.6272 o
114.722 92.9542 o
119.407 100.235 o
118.62 60.2116 o
136.407 92.719 o
112.059 79.531 o
106.5 85.2211 o
104.456 96.3321 o
104.219 97.8347 o
140.919 96.8306 o
138.222 114.177 o
136.261 87.1242 o
78.1592 97.7113 o
117.871 93.8126 o
115.726 100.056 o
110.281 99.1424 o
118.194 98.0796 o
92.6332 102.995 o
117.91 85.9983 o
110.032 84.7656 o
120.791 83.0618 o
100.85 86.082 o
109.055 97.2023 o
120.699 81.7948 o
115.66 78.3595 o
117.706 105.187 o
98.7642 86.1682 o
122.088 93.2404 o
87.9896 109.487 o
156.647 55.8074 o
87.3173 93.4535 o
139.02 79.0337 o
95.4016 92.8622 o
116.856 91.9465 o
99.7028 84.4717 o
117.594 104.582 o
112.44 92.9398 o
91.7632 93.8858 o
104.153 88.7549 o
108.025 92.3448 o
128.967 99.7693 o
112.92 102.121 o
80.8698 84.891 o
100.679 85.3614 o
106.727 97.2411 o
125.47 86.7838 o
111.134 94.6802 o
117.143 98.0958 o
118.226 68.0082 o
124.201 90.3132 o
65.8342 109.45 o
114.61 89.2486 o
95.2383 102.383 o
81.6446 130.04 o
97.9417 96.5738 o
140.534 106.808 o
108.028 96.7332 o
124.03 107.893 o
117.44 79.2038 o
116.201 101.578 o
109.431 94.1641 o
111.034 98.9278 o
103.467 72.159 o
113.857 94.7083 o
123.797 98.2889 o
107.813 102.419 o
128.263 97.8234 o
108.996 67.234 o
126.348 84.8859 o
97.6587 88.7929 o
134.816 65.5125 o
121.709 91.8746 o
116.821 78.9138 o
115.051 125.09 o
114.616 112.938 o
124.483 100.86 o
116.125 102.819 o
109.521 95.1845 o
118.045 80.6473 o
114.648 96.0669 o
99.1902 119.503 o
116.535 99.7529 o
112.893 71.1626 o
146.296 49.8396 o
131.366 94.0537 o
114.834 89.1634 o
97.0614 89.9296 o
102.776 91.8078 o
106.781 92.915 o
123.316 90.7512 o
111.796 110.615 o
105.326 103.508 o
121.94 89.6749 o
109.769 103.751 o
125.775 98.5491 o
102.093 92.2886 o
99.6401 86.9597 o
111.349 88.7106 o
168.069 93.0103 o
101.167 69.4103 o
128.666 98.4716 o
124.635 93.9012 o
98.7871 100.262 o
104.161 80.8399 o
100.272 102.168 o
118.185 106.179 o
107.568 92.0287 o
118.879 89.4247 o
85.8552 128.843 o
122.355 109.792 o
118.265 86.249 o
102.149 93.6826 o
121.52 90.3056 o
104.825 85.0476 o
95.6386 103.331 o
95.7852 99.5313 o
101.666 90.1091 o
71.726 81.8096 o
114.751 88.9265 o
108.976 87.1375 o
88.1314 85.9029 o
66.9984 72.2893 o
116.932 104.786 o
117.203 94.7756 o
95.1182 86.6761 o
92.5844 101.153 o
110.597 86.1894 o
113.311 83.5142 o
119.124 91.6607 o
122.468 86.5938 o
126.101 91.1562 o
59.2125 77.2158 o
124.501 84.6902 o
119.673 84.0716 o
124.693 104.461 o
123.863 105.647 o
128.017 94.3396 o
55.9743 57.492 o
105.954 84.4989 o
111.802 87.9506 o
132.465 97.8625 o
101.307 100.333 o
119.88 94.2902 o
102.967 89.3613 o
123.349 95.6481 o
112.423 95.5375 o
100.583 87.4548 o
108.311 96.4718 o
134.205 108.425 o
112.172 90.6084 o
130.474 102.62 o
105.474 92.9752 o
153.816 132.361 o
128.773 124.888 o
119.699 95.9195 o
100.261 104.162 o
80.7134 95.7696 o
120.047 99.4293 o
116.725 83.1462 o
113.246 94.5693 o
111.883 92.6812 o
121.185 82.6852 o
82.3174 90.1482 o
143.503 75.7531 o
115.082 90.765 o
110.704 100.157 o
139.255 105.919 o
111.091 91.7349 o
87.7232 111.266 o
118.269 94.3284 o
113.134 103.47 o
97.7755 74.9039 o
112.937 98.9622 o
123.309 98.7699 o
103.558 107.144 o
90.354 93.9771 o
107.524 97.6701 o
122.846 102.682 o
88.2519 94.758 o
114.912 97.1313 o
102.075 98.6353 o
114.587 112.251 o
113.95 95.4044 o
115.681 77.0504 o
137.786 93.7037 o
91.2361 113.333 o
98.8932 107.408 o
105.788 105.103 o
111.13 75.8443 o
109.631 92.9234 o
91.3409 102.604 o
112.24 103.385 o
123.221 97.1434 o
106.822 85.8727 o
113.248 116.358 o
123.043 77.815 o
108.434 65.5677 o
107.438 97.7584 o
106.111 75.086 o
134.553 101.147 o
123.067 84.1362 o
115.806 97.199 o
140.62 82.723 o
100.949 101.107 o
111.273 101.48 o
113.102 109.242 o
106.742 92.3233 o
112.656 84.9184 o
114.746 100.258 o
133.861 95.4986 o
110 91.9989 o
99.2631 109.678 o
89.1328 81.9732 o
138.001 103.785 o
127.539 90.0001 o
84.3619 89.7392 o
113.32 98.5786 o
95.957 83.3763 o
110.405 85.5615 o
119.129 74.6174 o
120.177 101.443 o
115.056 85.8993 o
112.371 38.9039 o
116.643 92.6678 o
107.79 94.8474 o
109.676 107.117 o
106.775 88.7001 o
131.983 94.2107 o
118.25 81.2127 o
122.679 106.488 o
122.648 98.7386 o
110.878 100.97 o
105.35 126.907 o
136.169 91.5178 o
163.021 100.49 o
99.5485 89.0725 o
112.18 92.1104 o
107.287 89.5292 o
107.735 85.9694 o
107.111 79.5923 o
116.506 79.359 o
105.103 71.7597 o
124.41 89.0518 o
113.673 88.1778 o
133.142 121.642 o
76.836 98.0871 o
149.518 80.6247 o
123.362 102.572 o
113.134 89.5147 o
116.17 101.91 o
102.133 89.5697 o
128.237 81.3736 o
107.566 86.7841 o
129.119 94.3231 o
103.501 94.7178 o
122.221 91.41 o
120.881 98.6503 o
109.037 94.4818 o
104.228 112.968 o
102.292 82.792 o
102.298 85.9082 o
101.335 104.294 o
117.909 87.8024 o
108.123 97.5547 o
105.625 96.9405 o
129.233 78.9992 o
117.66 79.5913 o
104.974 93.6136 o
115.229 99.6932 o
111.053 82.5951 o
115.061 90.2335 o
129.532 117.654 o
106.81 88.8641 o
116.966 102.267 o
105.843 74.3846 o
106.949 99.0697 o
107.222 103.003 o
114.791 98.3946 o
104.807 73.4435 o
111.575 95.2564 o
128.386 95.5169 o
106.667 84.7968 o
101.243 91.7792 o
111.246 94.2996 o
138.348 100.603 o
104.754 89.9879 o
108.501 98.046 o
94.0064 94.8098 o
59.6241 97.545 o
111.254 105.201 o
134.792 102.579 o
104.602 87.6133 o
114.863 79.563 o
109.311 94.2072 o
87.7112 85.8299 o
116.494 87.7195 o
114.299 84.4716 o
122.948 101.65 o
123.938 122.128 o
112.252 86.421 o
109.336 92.6969 o
109.768 95.5305 o
112.706 92.099 o
138.763 97.4255 o
114.007 113.432 o
108.975 111.234 o
104.288 94.3712 o
95.0269 100.751 o
111.305 92.6432 o
104.227 62.5461 o
118.051 71.7532 o
116.625 89.7424 o
125.193 101.192 o
111.948 70.9532 o
156.909 104.934 o
112.99 77.8414 o
104.486 88.4993 o
107.708 100.796 o
114.704 110.264 o
122.467 84.8858 o
98.1393 76.5302 o
116.673 86.3682 o
102.453 100.8 o
114.338 119.652 o
131.244 79.2888 o
113.837 96.1749 o
124.924 92.097 o
110.093 80.9662 o
118.053 101.446 o
106.245 79.2054 o
114.242 98.2035 o
129.697 95.629 o
103.412 93.1138 o
126.689 92.2706 o
107.594 89.9564 o
109.473 92.2948 o
116.804 80.1232 o
123.825 92.1665 o
125.088 96.3117 o
127.517 87.0465 o
66.0224 68.3367 o
121.553 115.552 o
144.199 78.2905 o
111.963 94.2028 o
105.428 76.7706 o
109.779 75.2606 o
103.764 101.733 o
115.76 79.7735 o
106.168 77.7345 o
129.824 99.2334 o
125.058 116.578 o
100.458 82.2178 o
119.123 129.654 o
109.855 125.343 o
127.866 103.27 o
93.8357 93.8084 o
111.251 81.5878 o
117.466 81.2038 o
96.8279 92.1466 o
112.372 58.5368 o
112.041 92.2935 o
109.869 90.3733 o
114.321 91.6393 o
133.002 89.3964 o
127.862 50.9506 o
111.91 109.679 o
106.939 89.4684 o
110.835 101.967 o
110.464 106.174 o
116.183 106.696 o
117.736 62.4418 o
106.749 92.4895 o
118.781 98.4957 o
87.5861 103.117 o
100.965 106.216 o
118.168 92.5795 o
112.097 90.3749 o
102.163 84.149 o
119.603 66.9618 o
129.79 85.082 o
129.806 95.402 o
96.0876 107.731 o
118.141 100.46 o
139.275 111.036 o
113.014 91.165 o
115.102 99.1268 o
101.912 106.259 o
120.383 92.1882 o
116.58 81.5478 o
109.112 82.0565 o
147.255 99.8941 o
138.226 105.014 o
125.039 87.4059 o
133.647 100.252 o
138.095 112.082 o
120.73 113.464 o
129.882 99.6931 o
125.518 87.0898 o
106.844 94.3976 o
87.4029 98.3037 o
124.422 108.191 o
92.016 92.6715 o
140.06 93.914 o
123.587 93.9282 o
126.874 102.055 o
104.159 106.582 o
117.821 98.4347 o
106.334 95.0675 o
123.359 105.641 o
103.683 82.5681 o
102.214 114.516 o
124.943 107.704 o
102.117 94.4626 o
123.785 81.7545 o
106.813 83.1361 o
133.211 86.2005 o
104.492 114.478 o
116.501 90.7235 o
120.634 67.2403 o
93.3514 71.3592 o
95.768 87.5175 o
113.863 97.7536 o
117.959 94.2167 o
114.954 95.7951 o
120.967 112.988 o
113.657 111.482 o
110.858 82.2566 o
139.526 102.285 o
135.721 80.4383 o
93.7971 100.463 o
127.244 64.2624 o
134.37 100.688 o
118.996 103.581 o
129.363 92.2237 o
140.45 86.488 o
103.186 91.1477 o
109.308 96.7006 o
114.521 75.7285 o
103.357 80.773 o
111.489 84.9779 o
100.147 101.339 o
110.455 88.9803 o
119.199 101.88 o
119.75 76.1654 o
125.367 94.0476 o
91.6459 71.3297 o
110.583 86.7006 o
112.029 94.6687 o
114.079 56.727 o
105.394 98.285 o
110.804 81.2567 o
102.371 102.105 o
119.897 96.1574 o
93.0767 83.417 o
117.12 85.5061 o
107.49 101.564 o
128.061 88.8979 o
97.905 74.5815 o
111.143 100.486 o
93.2467 83.8043 o
104.151 85.4559 o
109.676 104.247 o
102.669 102.189 o
143.705 87.6701 o
120.271 83.0082 o
107.611 92.5953 o
110.598 89.253 o
107.408 56.361 o
121.146 114.092 o
133.015 101.892 o
83.8677 95.9935 o
119.747 87.8441 o
114.161 91.2233 o
102.814 80.3394 o
129.864 91.3929 o
102.488 85.3174 o
122.111 90.4518 o
117.543 91.3834 o
117.815 102.947 o
122.346 97.0103 o
125.324 97.2889 o
122.964 99.7208 o
126.678 111.792 o
111.834 92.3833 o
95.4426 100.807 o
104.667 80.8994 o
121.805 91.308 o
103.995 104.375 o
113.239 91.8384 o
126.037 98.0679 o
105.226 117.093 o
101.302 90.5046 o
96.3973 81.5933 o
110.761 85.5133 o
114.688 100.285 o
97.6396 102.09 o
111.017 86.6652 o
95.1495 83.9433 o
108.024 97.2403 o
112.515 86.8032 o
111.057 90.04 o
110.04 93.8336 o
116.403 92.4553 o
114.52 96.4257 o
113.39 97.5923 o
110.07 92.8005 o
77.791 97.7193 o
119.319 92.1042 o
121.495 86.7908 o
106.202 83.105 o
125.548 89.82 o
111.477 88.4012 o
129.421 139.15 o
103.386 94.0482 o
114.776 94.6112 o
90.9231 94.7563 o
93.9359 105.021 o
103.444 92.1962 o
109.522 87.8697 o
126.13 94.8406 o
80.5567 82.1171 o
98.4131 99.8436 o
110.891 95.2468 o
118.591 84.876 o
110.059 94.9336 o
127.719 89.7506 o
105.498 81.6031 o
109.677 115.385 o
137.378 85.3441 o
132.82 121.682 o
106.706 98.4977 o
114.346 101.641 o
109.983 92.6304 o
106.026 102.874 o
111.807 97.175 o
84.6055 95.1968 o
111.396 92.0848 o
120.883 110.581 o
123.512 97.1137 o
108.059 98.3589 o
102.473 83.3513 o
94.8696 89.2849 o
110.97 90.8261 o
114.208 86.9587 o
130.58 93.5638 o
113.699 80.4412 o
138.763 100.083 o
126.607 113.729 o
122.73 93.0882 o
116.731 93.5341 o
96.5612 92.201 o
126.053 98.7083 o
121.274 93.2516 o
95.1535 96.7093 o
126.394 87.6453 o
113.532 107.884 o
125.068 104.206 o
118.086 103.709 o
107.847 64.0374 o
104.049 109.76 o
132.057 79.2126 o
127.049 102.43 o
119.827 80.6647 o
106.372 124.488 o
106.591 93.773 o
131.63 97.4213 o
129.973 98.6243 o
109.797 84.7162 o
116.776 80.573 o
103.978 98.7094 o
108.101 87.4096 o
107.278 85.509 o
102.682 83.9553 o
126.338 102.442 o
126.401 81.573 o
106.805 78.6327 o
102.37 92.9948 o
114.833 93.9006 o
103.677 107.39 o
90.9014 105.083 o
103.615 90.5431 o
112.727 78.3576 o
104.732 93.6445 o
110.537 95.0453 o
119.607 102.069 o
121.256 87.4839 o
108.263 89.2432 o
115.485 100.074 o
108.234 94.9783 o
101.7 103.091 o
117.074 116.813 o
115.277 94.5219 o
85.0443 75.0407 o
104.63 78.547 o
137.925 94.7191 o
111.886 90.4629 o
115.129 88.9342 o
129.393 103.255 o
115.057 98.3339 o
119.453 76.3181 o
122.077 108.722 o
91.3083 104.221 o
131.875 81.2944 o
121.848 71.8202 o
102.965 94.648 o
110.615 92.3649 o
104.673 84.1079 o
130.741 84.614 o
101.792 90.364 o
117.94 88.8787 o
136.794 79.2424 o
115.896 94.9633 o
105.071 87.3109 o
121.598 90.6842 o
80.4784 78.9054 o
125.628 90.9308 o
106.5 83.2941 o
110.787 106.941 o
108.774 84.6074 o
90.1889 85.6576 o
132.612 109.695 o
126.736 83.6314 o
126.064 98.2449 o
126.664 89.745 o
98.5904 113.299 o
117.163 59.4709 o
125.164 89.552 o
110.376 103.948 o
103.142 94.3693 o
122.635 81.0686 o
110.031 91.2996 o
125.088 104.665 o
116.826 100.02 o
110.404 91.7959 o
103.692 86.7467 o
104.587 99.0062 o
129.536 93.1075 o
113.462 108.083 o
126.6 84.9309 o
117.73 89.0321 o
120.03 87.7329 o
125.159 105.534 o
112.777 92.491 o
106.486 90.7955 o
116.569 89.0016 o
112.454 106.456 o
118.532 100.042 o
108.735 101.575 o
95.1797 80.7685 o
113.252 92.1502 o
113.846 80.1222 o
127.26 80.3975 o
127.64 89.7262 o
106.292 85.5752 o
110.601 104.941 o
132.72 113.153 o
129.009 105.074 o
110.18 81.4756 o
101.132 116.323 o
110.647 90.2219 o
106.152 98.5868 o
107.955 94.1687 o
111.041 85.3796 o
123.669 114.34 o
105.133 88.3713 o
116.956 94.8588 o
116.051 104.33 o
89.856 96.3939 o
113.163 81.4898 o
105.006 89.9636 o
121.656 103.272 o
102.566 97.5207 o
108.546 90.6291 o
99.5744 77.8753 o
107.001 93.2963 o
106.765 97.7627 o
90.7408 92.2619 o
107.612 92.4056 o
98.3568 116.559 o
115.81 107.931 o
127.881 110.258 o
113.462 56.9507 o
110.106 93.7516 o
103.043 94.0212 o
110.783 76.8023 o
113.725 95.9667 o
99.0017 83.0385 o
104.965 89.7882 o
113.094 94.1867 o
113.275 87.2701 o
111.469 91.8107 o
107.296 94.1841 o
119.93 89.8627 o
103.643 99.5891 o
108.822 100.457 o
117.504 103.701 o
99.4547 90.6697 o
119.507 72.6494 o
102.609 97.167 o
97.0862 108.563 o
122.76 87.0122 o
103.147 81.1801 o
95.534 89.8349 o
110.339 94.7187 o
105.614 105.389 o
115.451 96.0848 o
105.851 113.638 o
129.044 76.7755 o
117.538 86.3581 o
87.8258 94.838 o
122.299 108.348 o
109.713 94.5171 o
99.881 95.4681 o
113.387 79.3305 o
82.3344 55.2646 o
112.722 89.6886 o
119.703 96.0635 o
106.316 79.4351 o
116.36 84.1515 o
112.95 82.6933 o
95.231 92.5962 o
112.21 101.186 o
133.695 85.9833 o
118.367 89.5337 o
102.374 85.2168 o
104.972 90.5503 o
110.588 90.4535 o
106.419 91.3136 o
112.313 96.8716 o
128.829 86.3232 o
126.803 76.5153 o
114.736 92.1134 o
109.044 93.9574 o
121.131 109.114 o
109.711 95.0879 o
111.871 86.7608 o
118.965 93.1717 o
111.737 84.5773 o
101.739 92.7232 o
160.061 84.4672 o
114.953 98.889 o
91.259 82.9408 o
107.509 87.9312 o
79.3905 95.7849 o
117.289 95.8481 o
109.385 92.371 o
104.472 95.2513 o
118.275 90.0602 o
89.1963 99.4535 o
121.573 107.795 o
121.274 83.7985 o
104.849 115.366 o
122.031 94.7175 o
131.848 118.191 o
106.901 97.9302 o
105.277 92.5709 o
112.566 88.0263 o
93.9015 89.4038 o
118.159 81.4189 o
113.457 87.1694 o
113.012 101.966 o
65.4664 117.9 o
111.389 94.5588 o
109.827 98.1229 o
108.002 88.0611 o
112.171 95.8395 o
126.812 81.7371 o
111.317 89.5999 o
121.784 86.246 o
95.7447 107.423 o
111.239 93.5082 o
95.7508 94.1886 o
117.244 76.6067 o
64.4735 62.0584 o
106.486 102.676 o
107.449 98.3759 o
131.449 105.699 o
124.965 87.7545 o
118.695 90.6192 o
120.846 99.69 o
102.462 96.6474 o
127.072 109.43 o
97.0158 95.8924 o
117.586 95.0086 o
112.212 90.2482 o
111.782 89.0814 o
126.993 103.593 o
109.548 90.4044 o
112.209 102.224 o
115.715 96.3844 o
106.584 68.496 o
79.5665 43.5284 o
124.164 87.3899 o
116.145 89.373 o
89.1315 102.177 o
102.587 90.3868 o
108.502 86.3206 o
105.296 102.59 o
94.578 64.5276 o
93.7578 73.8003 o
114.29 83.3057 o
143.386 100.391 o
134.284 93.2611 o
110.467 93.1077 o
105.44 79.3446 o
87.5518 79.8348 o
108.229 96.6107 o
109.636 105.957 o
111.957 90.5543 o
98.5837 102.318 o
103.469 100.653 o
101.872 69.7309 o
119.879 91.0484 o
117.047 81.7021 o
110.692 85.3946 o
116.868 90.2238 o
119.602 90.3868 o
127.317 60.6662 o
98.0165 97.0607 o
121.197 96.7195 o
113.173 81.193 o
103.38 90.7937 o
105.886 95.9758 o
126.956 82.1766 o
115.139 102.128 o
105.833 91.4186 o
104.953 86.3415 o
103.393 91.0769 o
116.147 86.3536 o
105.233 92.2867 o
102.41 90.0992 o
111.629 101.493 o
99.7819 95.4408 o
121.846 90.7594 o
137.358 109.042 o
102.719 94.8285 o
108.149 86.378 o
112.064 89.9103 o
116.452 112.002 o
97.4001 101.623 o
82.7316 125.752 o
127.123 107.205 o
99.6827 77.8633 o
110.837 97.3144 o
116.474 106.014 o
107.71 99.483 o
110.154 103.031 o
109.054 107.788 o
109.471 93.9525 o
103.139 89.818 o
130.807 91.3238 o
119.034 73.7959 o
117.019 80.3752 o
110.527 92.573 o
120.916 91.2842 o
130.03 106.595 o
119.352 94.8065 o
102.293 88.6417 o
111.642 97.6747 o
100.884 99.0163 o
106.585 108.557 o
102.943 89.3848 o
118.074 88.7399 o
120.374 95.9345 o
102.839 93.1908 o
122.843 94.7126 o
74.478 94.5999 o
122.659 83.8861 o
101.191 80.1148 o
102.328 71.8343 o
106.199 93.425 o
130.787 94.9279 o
96.7968 87.861 o
117.557 89.1495 o
110.122 87.0715 o
115.06 91.4611 o
98.2838 86.7461 o
105.135 83.9016 o
124.816 96.6459 o
68.1507 76.6287 o
90.1283 141.035 o
116.045 98.6978 o
107.477 90.3429 o
130.05 101.675 o
108.292 88.7888 o
118.177 90.6218 o
95.2623 88.44 o
122.502 87.3421 o
103.136 92.6213 o
88.6329 96.4724 o
102.581 100.066 o
93.9379 70.6829 o
94.4895 76.5903 o
108.119 82.58 o
106.651 92.9947 o
88.4684 69.744 o
96.6061 93.6911 o
124.336 92.7831 o
126.02 86.5008 o
102.756 102.348 o
102.632 83.9356 o
97.5422 97.0341 o
140.449 68.5858 o
100.699 94.0158 o
112.463 81.2561 o
97.6386 89.0743 o
109.277 86.4459 o
130.361 103.783 o
98.593 97.4668 o
109.776 97.0857 o
109.603 94.3976 o
133.193 89.1629 o
136 91.5144 o
122.814 100.993 o
112.535 95.7035 o
87.6058 81.2765 o
143.956 97.0313 o
111.702 105.187 o
116.235 87.1923 o
122.503 97.9194 o
115.018 92.1251 o
105.218 106.222 o
115.297 99.5614 o
101.146 104.283 o
112.399 86.0171 o
106.351 109.081 o
97.249 95.7976 o
114.859 90.7908 o
114.428 88.5309 o
127.182 92.9219 o
110.566 103.447 o
109.548 95.277 o
96.4242 97.3393 o
133.461 79.4282 o
113.543 93.6532 o
128.048 96.9993 o
117.498 96.9782 o
117.12 105.872 o
108.971 80.5596 o
108.066 91.7687 o
105.664 97.4174 o
116.403 98.5309 o
122.785 92.8635 o
94.4316 80.5679 o
114.774 93.7368 o
126.068 80.4498 o
123.179 104.312 o
116.464 95.9796 o
99.4395 80.302 o
117.721 99.6453 o
116.9 92.9648 o
93.1871 91.1567 o
123.123 87.0078 o
80.3527 80.4942 o
124.58 64.853 o
99.8717 83.6311 o
117.538 108.831 o
140.539 74.4782 o
104.397 96.9335 o
120.117 93.227 o
109.491 89.7671 o
105.744 97.0961 o
138.771 47.0522 o
102.439 99.4696 o
107.731 78.8716 o
110.027 98.3724 o
119.746 108.969 o
101.25 87.2362 o
107.59 97.8397 o
124.923 84.0827 o
162.824 70.8378 o
114.072 89.54 o
113.199 113.52 o
148.518 81.5149 o
134.604 92.4629 o
107.162 103.737 o
104.27 114.968 o
106.484 96.3535 o
119.099 91.928 o
119.604 86.4315 o
147.733 81.4011 o
114.586 84.1524 o
124.801 104.347 o
94.7167 88.9493 o
121.856 79.9395 o
126.909 95.7214 o
113.902 104.012 o
107.62 97.0789 o
81.2949 86.8022 o
116.38 96.9393 o
125.718 105.461 o
97.0934 81.4285 o
134.205 97.9325 o
110.371 98.7791 o
123.134 85.9974 o
101.588 95.2994 o
135.477 103.92 o
127.872 94.4409 o
114.038 80.1138 o
112.439 96.2457 o
113.478 92.5594 o
118.51 86.5544 o
124.459 84.7249 o
98.962 77.7435 o
122.607 92.7269 o
112.556 81.9032 o
111.902 94.1466 o
143.073 66.2238 o
110.837 83.5594 o
113.105 94.2072 o
98.9306 59.1328 o
94.3664 97.4338 o
125.545 86.9545 o
115.212 74.8119 o
134.58 88.5341 o
102.405 87.5233 o
115.328 96.8255 o
126.007 90.8637 o
137.327 98.8198 o
108.336 104.19 o
126.924 87.3814 o
121.061 92.4308 o
120.493 84.0078 o
113.165 92.8423 o
79.2776 95.7001 o
127.174 94.3686 o
115.466 90.7257 o
121.054 80.263 o
98.1603 104.908 o
109.932 100.149 o
125.621 86.1931 o
93.87 92.39 o
109.172 99.1145 o
120.128 96.7962 o
100.85 101.721 o
131 104.905 o
96.9885 84.6014 o
116.07 89.8015 o
101.892 105.316 o
103.454 97.4854 o
95.566 85.3552 o
115.155 84.1284 o
106.401 92.3144 o
96.2553 91.6393 o
129.056 100.894 o
112.045 100.314 o
138.623 82.4842 o
126.594 102.59 o
120.592 96.9429 o
113.646 109.889 o
139.797 64.9776 o
96.0957 67.1093 o
97.6147 88.878 o
119.436 98.931 o
127.021 76.4106 o
112.747 90.4091 o
99.9941 96.3241 o
118.752 96.108 o
102.324 80.5339 o
110.592 106.317 o
111.539 88.3541 o
127.279 139.166 o
115.458 86.3604 o
124.314 84.3331 o
129.569 108.422 o
109.962 82.1532 o
116.25 95.4542 o
136.541 104.576 o
122.605 91.5246 o
118.281 98.9824 o
109.895 93.473 o
125.558 91.6875 o
70.71 79.2902 o
111.083 94.3483 o
120.092 110.132 o
107.13 96.2055 o
134.89 98.7613 o
116.167 93.1865 o
105.753 71.8412 o
98.7639 87.9693 o
102.764 89.5596 o
103.829 81.1302 o
112.35 95.434 o
107.066 98.7707 o
78.2174 88.6828 o
102.657 116.772 o
106.354 78.5902 o
124.05 96.4383 o
106.111 96.1797 o
131.572 134.763 o
112.826 83.054 o
108.866 96.2822 o
120.347 91.4639 o
103.307 76.7765 o
113.628 89.1504 o
104.323 91.3499 o
115.748 109.571 o
123.865 90.2276 o
99.6067 93.4505 o
127.875 99.5245 o
145.66 93.6904 o
104.755 96.0932 o
107.703 104.504 o
120.44 84.0405 o
107.412 90.6148 o
121.515 114.717 o
108.339 97.2712 o
102.791 95.0032 o
129.272 88.5294 o
106.201 93.3755 o
106.249 94.9198 o
118.393 89.2026 o
114.663 86.9456 o
120.437 90.0068 o
105.092 80.4529 o
120.176 86.7307 o
105.957 91.3449 o
118.645 95.6653 o
112.568 93.5491 o
135.871 87.5037 o
117.693 102.456 o
105.97 84.7677 o
116.372 94.7234 o
98.1896 109.895 o
119.974 99.5929 o
113.72 85.0954 o
114.819 93.1555 o
105.195 101.415 o
101.289 88.4416 o
115.062 91.7463 o
110.862 81.5994 o
116.177 65.3038 o
118.768 86.3585 o
110.772 86.4861 o
111.274 84.661 o
104.774 134.282 o
116.525 83.8816 o
109.825 85.298 o
116.965 103.183 o
130.693 102.947 o
136.753 92.6352 o
120.476 102.532 o
100.581 92.0753 o
98.0347 102.091 o
118.565 101.599 o
110.906 95.6991 o
97.6533 99.6343 o
125.437 101.659 o
113.675 92.8554 o
107.616 98.4805 o
127.235 90.1869 o
110.978 90.4394 o
110.815 97.5557 o
117.901 107.167 o
108.947 105.83 o
116.089 94.582 o
113.309 103.494 o
108.626 89.7659 o
100.521 96.7364 o
104.755 93.039 o
114.357 86.8193 o
113.459 89.866 o
117.252 101.674 o
127.347 79.3988 o
110.224 110.582 o
95.3032 77.9408 o
108.252 98.9855 o
118.69 106.906 o
122.997 101.246 o
112.484 82.0003 o
133.92 99.8855 o
97.0465 90.2032 o
100.2 97.7667 o
123.809 108.124 o
128.146 83.9588 o
89.3682 94.0787 o
113.255 100.703 o
97.3782 77.3991 o
95.571 90.1089 o
133.471 96.2776 o
154.432 116.084 o
119.566 92.6756 o
123.567 93.5764 o
117.622 82.454 o
89.2444 87.6719 o
124.003 94.6908 o
103.891 91.8115 o
106.243 90.3475 o
130.18 76.5112 o
109.701 76.8979 o
113.167 95.2223 o
108.577 74.9696 o
114.339 93.2179 o
117.495 92.8246 o
101.047 91.6894 o
105.741 65.9099 o
102.332 95.6372 o
110.986 94.5597 o
99.7448 86.4437 o
111.817 98.5304 o
88.7819 91.5342 o
126.319 84.9433 o
113.317 88.6548 o
100.925 82.6409 o
120.294 90.2091 o
112.101 86.8462 o
100.575 72.6197 o
96.2721 85.153 o
107.991 87.4633 o
113.186 93.0761 o
113.241 89.7469 o
97.6333 98.4642 o
122.988 83.5872 o
119.041 87.0486 o
100.386 84.3688 o
115.042 111.354 o
111.339 95.4654 o
118.536 77.9011 o
111.307 91.4602 o
100.284 93.0563 o
133.505 87.6532 o
110.309 102.437 o
109.006 88.693 o
125.722 85.7117 o
114.725 92.9625 o
115.71 105.143 o
109.373 95.8392 o
116.816 97.2153 o
126.014 101.395 o
70.8313 130.539 o
124.415 94.0801 o
119.526 90.3469 o
94.835 93.9928 o
118.529 83.2016 o
116.158 96.8505 o
78.3694 92.398 o
101.823 95.4915 o
129.92 92.1304 o
118.631 81.5212 o
121.328 95.4317 o
116.245 81.5503 o
84.8346 92.6495 o
110.797 99.9833 o
98.6867 110.821 o
97.4133 100.65 o
117.493 88.2796 o
119.798 52.4942 o
114.365 76.7218 o
110.333 95.816 o
111.449 83.0096 o
109.65 79.8969 o
87.8015 94.7253 o
90.9696 107.96 o
130.138 90.0776 o
106.498 107.075 o
114.849 95.8244 o
117.249 101.177 o
134.465 101.608 o
121.644 87.9874 o
101.004 79.3132 o
109.516 99.2595 o
87.5944 90.7108 o
117.624 91.2546 o
122.633 89.3661 o
107.502 79.1576 o
117.436 87.1874 o
123.828 99.3088 o
121.867 90.1716 o
131.951 91.1862 o
122.348 103.53 o
114.106 103.726 o
119.557 101.072 o
107.337 84.4656 o
123.312 78.8518 o
116.975 93.2483 o
130.714 92.5449 o
86.4557 51.9391 o
110.605 93.0306 o
129.816 81.616 o
114.01 93.1607 o
107.669 92.087 o
154.379 116.687 o
108.2 101.757 o
120.508 84.4047 o
106.629 54.6424 o
123.824 98.5892 o
111.888 86.9957 o
87.8297 93.3595 o
88.8697 82.9039 o
121.615 72.2171 o
114.095 96.1385 o
109.813 92.5941 o
114.769 90.0275 o
94.9232 88.8938 o
100.007 86.6473 o
129.458 89.1272 o
107.846 95.1117 o
96.8465 92.8507 o
106.136 85.6485 o
95.7883 85.4213 o
114.672 81.4523 o
104.271 84.8037 o
126.453 94.0074 o
88.8571 135.819 o
93.4734 95.8826 o
154.339 105.3 o
127.88 92.7908 o
108.256 68.8525 o
111.37 110.914 o
123.516 93.6639 o
108.573 88.8136 o
117.611 98.2795 o
121.337 98.6253 o
103.728 106.049 o
119.912 102.543 o
100.911 82.2596 o
115.068 95.8491 o
111.474 92.6949 o
120.742 74.6681 o
118.577 102.817 o
115.897 91.4872 o
106.995 77.5265 o
119.159 99.2859 o
109.552 83.7791 o
114.263 92.8767 o
106.842 107.54 o
107.524 100.687 o
118.88 66.4443 o
117.51 104.128 o
113.18 89.0382 o
113.63 106.336 o
117.609 102.367 o
84.6504 91.9559 o
104.34 101.404 o
116.201 88.3305 o
115.788 93.1269 o
100.765 88.8203 o
89.1053 106.064 o
60.3118 69.7144 o
106.892 97.8284 o
97.7455 88.7864 o
115.82 80.7981 o
106.402 87.6541 o
114.9 104.223 o
101.48 99.036 o
100.799 93.3362 o
105.12 83.3272 o
131.419 91.1142 o
126.676 99.6543 o
140.846 102.183 o
104.421 95.9795 o
105.315 108.878 o
123.336 90.185 o
109.421 83.1482 o
122.114 98.9718 o
104.95 100.057 o
137.706 76.3285 o
111.623 80.1578 o
114.024 70.5958 o
114.995 101.18 o
107.645 104.761 o
109.801 96.2388 o
117.606 98.0983 o
117.857 95.9692 o
109.695 92.3375 o
121.608 84.7878 o
110.123 89.3371 o
122.838 95.2872 o
102.718 82.0761 o
118.867 87.3718 o
126.414 84.3265 o
86.8836 79.5614 o
97.0652 99.4186 o
103.407 86.4802 o
120.847 102.064 o
90.2269 90.7138 o
133.241 90.3559 o
140.919 107.625 o
106.651 86.8938 o
118.384 79.728 o
134.721 108.362 o
128.456 96.7465 o
96.6639 108.624 o
114.886 88.3604 o
113.343 96.5038 o
120.105 109.965 o
106.801 96.3131 o
106.032 112.916 o
92.479 93.438 o
116.082 82.5988 o
113.376 91.9342 o
101.336 101.534 o
121.074 79.3153 o
101.395 109.097 o
111.594 74.7217 o
121.707 106.721 o
108.956 92.3125 o
105.876 102.205 o
99.1412 81.8698 o
112.683 99.6033 o
113.99 94.223 o
119.045 105.728 o
99.5215 97.6136 o
138.362 127.084 o
94.8352 79.2994 o
128.573 80.9351 o
155.588 89.7813 o
121.162 100.676 o
121.807 84.0433 o
121.159 87.2777 o
112.017 89.3874 o
115.991 95.242 o
98.7148 84.9793 o
109.404 92.9952 o
92.0443 115.169 o
108.304 101.026 o
94.5452 87.7657 o
113.775 96.7837 o
89.5472 108.749 o
115.361 96.2813 o
113.041 84.3018 o
120.976 90.2677 o
102.964 85.1923 o
103.351 108.688 o
94.7324 80.4841 o
118.137 102.505 o
131.381 104.245 o
115.845 83.4632 o
108.955 94.5521 o
102.834 98.8913 o
93.2344 84.54 o
134.712 88.7624 o
93.1717 59.4843 o
112.345 96.7404 o
130.819 100.08 o
108.725 89.6771 o
114.393 103.461 o
134.266 40.558 o
88.6095 79.4823 o
116.159 117.086 o
111.32 104.912 o
131.131 96.6582 o
105.434 103.03 o
113.06 98.7959 o
119.786 138.89 o
110.382 96.8271 o
124.895 80.4713 o
120.964 80.805 o
109.799 94.9927 o
137.197 102.995 o
121.564 76.8411 o
133.533 99.5711 o
113.926 80.6577 o
115.034 87.2717 o
120.372 100.139 o
103.49 94.3581 o
110.234 98.0907 o
147.833 71.3004 o
119.057 94.0079 o
110.838 98.0817 o
120.088 92.6187 o
130.651 120.988 o
98.6819 112.251 o
118.535 94.4857 o
116.883 96.6982 o
117.572 74.6328 o
126.166 97.8512 o
90.6131 87.9451 o
112.066 90.1682 o
113.337 96.8644 o
96.6331 93.923 o
99.882 78.7261 o
106.562 45.0722 o
104.305 97.8941 o
120.443 100.006 o
125.528 97.7388 o
124.137 91.2818 o
108.955 92.8958 o
108.463 82.7173 o
124.732 88.1489 o
131.938 109.413 o
108.885 92.9218 o
107.041 94.8748 o
104.753 95.336 o
131.922 99.197 o
120.222 86.7988 o
102.811 84.111 o
117.462 158.243 o
121.933 81.034 o
90.8259 84.5572 o
116.398 92.793 o
110.434 93.9778 o
118.787 86.7595 o
118.189 96.5286 o
94.6373 100.591 o
124.16 81.8211 o
122.09 92.7425 o
102.649 88.7947 o
117.666 109.09 o
108.705 100.407 o
116.963 97.828 o
126.131 94.6804 o
106.296 94.5213 o
101.965 106.951 o
98.1801 72.4966 o
104.04 75.843 o
76.6618 66.642 o
103.231 81.8392 o
127.244 102.462 o
122.186 97.677 o
114.427 93.3686 o
101.751 90.0566 o
111.038 95.7105 o
122.456 86.3915 o
134.194 116.486 o
111.812 95.5882 o
105.478 98.4668 o
112.223 91.8864 o
122.697 125.256 o
101.99 93.0205 o
104.91 100.969 o
97.8928 84.2504 o
112.9 103.555 o
128.19 88.4247 o
118.751 79.8507 o
115.976 87.9057 o
96.937 90.5124 o
98.4766 88.8136 o
112.027 94.173 o
100.673 88.3116 o
122.982 93.9998 o
111.806 95.1198 o
114.451 90.4299 o
121.883 114.767 o
113.761 98.3584 o
111.189 86.5692 o
117.398 101.841 o
112.067 97.2299 o
81.0822 92.504 o
106.257 105.459 o
103.922 68.3887 o
115.126 101.638 o
115.593 91.182 o
102.021 110.219 o
123.902 98.4863 o
110.492 103.938 o
108.958 103.494 o
114.377 85.6432 o
115.352 99.9661 o
114.407 89.5687 o
74.6516 136.166 o
114.477 92.1779 o
106.901 87.18 o
106.761 105.933 o
114.349 114.546 o
130.559 92.7208 o
100.159 105.751 o
117.651 102.569 o
100.314 85.3392 o
125.187 91.835 o
113.798 90.4728 o
82.0202 104.866 o
107.047 97.2752 o
100.85 109.215 o
102.169 87.9038 o
107.044 113.86 o
119.864 97.4982 o
110.092 117.453 o
101.854 101.909 o
108.466 85.7105 o
80.7413 87.8901 o
117.423 110.471 o
113.287 94.2396 o
107.201 89.2795 o
91.0986 108.857 o
112.567 95.3385 o
103.302 70.9296 o
108.659 107.628 o
109.343 88.8071 o
118.521 93.712 o
114.578 89.4032 o
113.367 85.8813 o
91.7448 89.9093 o
98.4683 101.294 o
112.882 90.774 o
106.91 60.5651 o
107.785 105.937 o
114.133 107.97 o
109.482 89.8073 o
101.782 96.1745 o
128.189 100.319 o
115.328 96.2537 o
113.382 94.1149 o
112.573 91.8566 o
107.852 90.989 o
112.462 110.453 o
114.276 101.245 o
98.9093 90.9024 o
112.253 95.2709 o
121.19 85.4703 o
118.417 94.5516 o
109.473 91.774 o
126.831 91.1254 o
89.8647 81.9934 o
106.483 94.089 o
121.62 101.057 o
103.729 71.8191 o
136.903 95.5563 o
120.934 79.254 o
128.563 81.2512 o
96.5558 96.1288 o
149.914 61.8585 o
118.126 74.752 o
115.207 89.1069 o
135.255 76.304 o
124.204 88.3588 o
147.102 82.7604 o
102.82 94.6326 o
108.9 81.3761 o
107.736 106.965 o
92.4417 77.0537 o
110.192 93.8965 o
111.795 81.0178 o
92.3274 96.6415 o
117.191 90.0209 o
108.627 105.502 o
114.612 86.1297 o
116.758 98.7837 o
109.403 95.7059 o
121.308 95.1741 o
120.164 87.4707 o
114.698 117.962 o
109.19 50.7199 o
136.659 96.147 o
100.551 93.9767 o
104.143 100.364 o
108.609 89.8681 o
114.157 92.5544 o
120.613 103.054 o
132.248 100.317 o
112.827 93.5886 o
107.504 79.4689 o
124.999 97.1484 o
102.456 87.2679 o
117.144 90.8463 o
107.956 108.394 o
98.8153 98.2284 o
124.062 98.9736 o
111.425 101.592 o
108.544 113.031 o
104.084 82.0622 o
102.571 95.7709 o
130.475 122.083 o
115.442 63.9851 o
105.818 81.3417 o
116.996 116.393 o
92.6805 99.0356 o
118.846 108.96 o
113.726 105.562 o
101.996 112.137 o
110.638 89.2667 o
111.817 86.6848 o
96.9742 98.4978 o
121.635 92.4565 o
118.931 114.028 o
131.62 104.095 o
97.516 89.5023 o
142.963 95.6327 o
97.4589 94.3813 o
125.435 106.037 o
107.175 98.391 o
91.7731 84.7945 o
96.1006 125.584 o
99.6639 78.2306 o
88.9992 88.7964 o
108.655 92.6189 o
107.71 94.5478 o
109.513 95.0874 o
126.16 46.5375 o
94.2207 106.973 o
115.142 93.7825 o
113.427 95.3537 o
119.754 98.7412 o
106.98 95.9019 o
83.3982 82.0895 o
100.119 105.887 o
140.99 108.454 o
127.569 106.926 o
96.4938 86.7918 o
109.579 88.7163 o
99.862 107.402 o
109.831 108.102 o
109.291 93.6772 o
113.319 96.74 o
114.376 94.7207 o
132.17 95.4596 o
101.914 102.464 o
135.485 85.5693 o
102.086 92.3631 o
109.459 93.7607 o
119.06 102.113 o
92.7956 96.8652 o
98.2568 105.789 o
112.219 95.6742 o
113.079 89.8842 o
84.9008 102.235 o
93.0179 87.2021 o
116.771 79.246 o
112.621 89.6096 o
155.821 103.224 o
111.437 94.0693 o
96.6648 77.035 o
107.659 113.432 o
114.467 109.236 o
116.755 82.4524 o
126.045 89.7719 o
98.8976 102.847 o
101.848 90.9285 o
102.906 93.1366 o
114.53 97.4134 o
117.004 92.3543 o
115.827 107.266 o
118.266 91.0211 o
115.082 92.9969 o
112.138 88.7593 o
107.793 89.0434 o
139.114 88.1041 o
132.141 84.5645 o
91.584 105.29 o
114.93 82.3607 o
108.601 80.8385 o
111.441 96.1547 o
109.498 90.3427 o
104.936 103.256 o
126.621 70.4045 o
111.013 95.1786 o
128.879 90.9547 o
103.913 102.802 o
128.386 81.3419 o
117.777 94.3732 o
103.16 89.3038 o
106.472 106.939 o
99.7386 93.9656 o
119.472 78.3481 o
88.4043 87.9146 o
116.305 87.0981 o
122.775 82.8589 o
118.742 98.8213 o
120.44 100.044 o
110.216 91.4897 o
104.962 99.747 o
121.249 118.286 o
101.915 80.3921 o
108.743 92.4776 o
115.484 75.5872 o
102.688 110.22 o
117.876 88.4436 o
120.029 98.8361 o
111.486 95.3319 o
133.184 97.75 o
129.432 89.9399 o
99.9354 77.1992 o
92.5082 81.3679 o
100.04 77.653 o
101.51 101.383 o
119.025 84.5694 o
110.59 96.928 o
107.141 88.0097 o
132.016 100.069 o
110.516 81.8886 o
130.1 100.57 o
117.723 81.8531 o
111.609 73.3354 o
108.612 92.0564 o
154.67 93.541 o
105.114 98.6244 o
105.604 51.3021 o
104.936 89.2056 o
105.896 94.7115 o
99.3917 76.198 o
99.771 82.9907 o
103.048 91.3088 o
118.534 91.4262 o
112.994 80.6671 o
109.817 87.0814 o
119.421 77.9981 o
119.535 96.0455 o
112.005 96.3304 o
96.5631 87.0327 o
105.032 109.568 o
116.252 92.8297 o
98.5129 99.4042 o
116.436 84.9026 o
104.139 102.677 o
100.338 97.2286 o
115.001 91.9673 o
91.7113 82.8457 o
112.969 87.5447 o
112.593 88.6373 o
107.771 94.0526 o
112.69 97.6892 o
116.985 106.467 o
111.113 95.9717 o
109.58 114.145 o
105.155 89.5155 o
124.681 99.5288 o
115.836 93.9121 o
119.314 102.298 o
122.03 77.5803 o
109.641 99.1367 o
104.373 86.4781 o
106.905 104.612 o
116.926 82.0161 o
115.024 88.6754 o
115.016 87.0135 o
99.4807 96.9807 o
111.4 85.1789 o
120.66 90.5424 o
104.515 88.4771 o
117.6 90.377 o
116.492 101.113 o
116.85 96.7938 o
116.405 98.439 o
117.863 89.727 o
107.562 99.6373 o
107.135 100.922 o
94.9039 61.971 o
93.1938 60.4184 o
129.303 93.3802 o
112.25 104.772 o
118.38 96.9347 o
116.061 88.7637 o
106.577 80.2321 o
132.768 96.641 o
117.906 99.7127 o
111.02 92.79 o
121.994 99.165 o
114.871 94.7752 o
122.655 88.9828 o
121.202 98.1734 o
105.693 88.6892 o
122.736 82.319 o
114.473 83.3963 o
126.517 98.0244 o
119.957 93.0061 o
117.67 91.0291 o
117.058 100.117 o
128.777 102.392 o
103.755 85.6975 o
116.95 94.2644 o
120.655 103.985 o
115.667 91.6164 o
116.044 89.6431 o
102.392 96.9135 o
107.844 100.862 o
104.665 96.5544 o
129.725 66.8449 o
106.468 97.9425 o
102.358 93.5363 o
109.124 84.3676 o
115.546 106.88 o
115.771 88.6264 o
104.109 93.9003 o
111.708 88.1196 o
101.183 97.2874 o
112.353 86.0455 o
118.605 90.1357 o
115.26 91.8261 o
112.246 94.885 o
106.271 96.7111 o
115.385 85.1846 o
115.852 102.48 o
116.825 103.708 o
121.981 103.5 o
98.6899 101.024 o
102.541 95.3966 o
116.632 105.816 o
98.717 92.3152 o
92.9756 113.801 o
119.137 85.7473 o
118.128 83.4877 o
108.479 91.1456 o
100.331 104.769 o
118.206 94.3741 o
116.429 96.9308 o
106.1 89.8912 o
110.919 84.7304 o
124.13 84.0846 o
114.232 101.001 o
109.09 112.67 o
107.329 95.6432 o
103.086 86.3107 o
90.4145 84.4794 o
131.845 81.5435 o
113.245 89.0434 o
106.351 93.9645 o
129.494 86.52 o
111.371 86.0055 o
117.416 97.5528 o
101.808 85.8437 o
95.1784 83.279 o
131.365 109.594 o
108.078 100.468 o
106.791 91.5683 o
102.869 92.9516 o
125.285 83.2843 o
115.579 95.4393 o
107.491 108.984 o
137.048 96.9947 o
102.525 108.973 o
114.611 74.1769 o
121.17 79.4878 o
118.669 99.7555 o
99.9371 98.0382 o
127.076 83.7823 o
100.479 85.9223 o
124.389 97.5726 o
108.503 98.9053 o
112.646 79.7313 o
115.785 95.9321 o
84.5386 98.453 o
99.1938 91.7161 o
103.463 92.2305 o
117.132 85.1381 o
119.584 99.7292 o
130.716 105.171 o
119.351 98.762 o
118.225 78.9115 o
105.652 93.0442 o
123.155 107.721 o
118.099 94.1612 o
127.925 96.1582 o
110.4 95.5814 o
121.183 87.2174 o
104.328 82.0827 o
111.119 75.1667 o
105.048 93.5368 o
102.945 86.6874 o
101.821 95.0807 o
118.88 98.8322 o
112.84 88.0461 o
122.826 94.7352 o
119.632 88.7268 o
122.183 78.6155 o
111.558 87.769 o
105.245 89.7949 o
126.55 99.806 o
110.358 91.2143 o
129.81 78.6664 o
93.4836 89.7844 o
105.635 118.689 o
137.094 94.0342 o
110.651 72.9457 o
128.357 98.8868 o
118.203 104.057 o
119.493 101.717 o
101.506 84.1113 o
96.9968 98.5581 o
112.346 95.8793 o
97.0887 104.901 o
128.699 91.6146 o
114.846 91.23 o
132.645 65.2007 o
89.7023 82.3084 o
125.166 91.7362 o
101.687 95.4696 o
128.077 93.4675 o
101.667 97.5734 o
116.893 80.2294 o
108.546 99.077 o
93.1324 70.6926 o
114.962 101.504 o
119.785 97.1629 o
116.205 95.7034 o
79.4763 99.1587 o
111.103 85.5688 o
111.749 102.786 o
114.527 94.8744 o
112.444 80.7898 o
113.826 104.688 o
114.173 103.345 o
112.237 87.0704 o
112.641 100.818 o
130.325 103.976 o
105.038 91.9127 o
128.919 94.0743 o
105.063 88.8777 o
108.253 106.826 o
102.057 100.398 o
101.474 96.5132 o
141.246 98.2968 o
107.313 85.0835 o
114.311 85.7718 o
124.129 83.6818 o
100.936 93.2252 o
99.8059 107.517 o
123.229 101.056 o
125.378 93.1976 o
115.648 102.404 o
118.638 104.808 o
99.6761 88.2438 o
121.04 104.081 o
85.0783 117.292 o
112.551 95.8312 o
112.884 97.4795 o
116.919 93.6922 o
90.7922 99.0695 o
115.506 100.615 o
129.382 101.538 o
114.448 88.9788 o
95.2581 78.5804 o
114.253 95.6819 o
118.774 101.549 o
129.758 89.8299 o
114.92 93.2033 o
121.339 102.81 o
98.986 84.622 o
107.877 85.8976 o
131.683 96.3944 o
107.292 79.8714 o
116.059 65.7508 o
111.712 111.165 o
125.952 80.8506 o
104.476 79.3615 o
128.136 85.0585 o
111.979 77.7317 o
114.441 100.68 o
128.247 91.4696 o
117.525 83.3006 o
116.874 89.5179 o
116.428 106.998 o
112.6 96.7674 o
104.735 99.9176 o
134.939 91.785 o
115.294 94.3986 o
116.486 101.196 o
97.1005 79.6177 o
132.287 84.5435 o
98.9596 90.9559 o
121.592 96.9928 o
91.183 88.2915 o
146.545 90.2265 o
106.035 91.1342 o
110.203 92.7927 o
114.116 92.6394 o
117.75 92.3047 o
103.042 89.6699 o
101.675 100.3 o
97.1917 95.228 o
108.014 71.7613 o
122.527 111.27 o
113.971 89.14 o
128.225 86.1744 o
122.42 103.455 o
120.262 99.4589 o
127.737 77.81 o
114.604 110.576 o
117.875 91.7485 o
129.869 93.3473 o
126.762 105.284 o
99.7101 85.4178 o
102.316 69.372 o
126.504 100.473 o
102.647 91.9284 o
83.9768 98.8039 o
135.004 118.605 o
108.7 76.9558 o
117.168 87.0045 o
109.139 92.621 o
124.946 91.047 o
115.861 95.0285 o
114.463 97.4361 o
96.8637 95.5458 o
113.175 105.439 o
154.592 105.177 o
118.257 46.0969 o
117.249 82.8397 o
124.794 102.899 o
109.212 90.7462 o
121.406 96.8437 o
111.062 95.1038 o
115.694 96.716 o
103.629 86.1385 o
123.141 84.3888 o
112.683 93.5228 o
106.887 92.5542 o
100.996 88.0841 o
107.521 92.6016 o
102.064 99.5626 o
109.688 92.7339 o
108.583 86.7128 o
75.9987 75.2831 o
115.15 99.813 o
84.1275 95.7129 o
123.997 68.79 o
108.278 82.2743 o
107.94 116.605 o
110.184 88.7563 o
115.323 96.9977 o
106.58 92.821 o
113.927 89.8674 o
128.539 96.5148 o
120.171 99.7835 o
114.383 93.3915 o
110.86 92.9814 o
98.7849 93.1467 o
118.944 80.9909 o
124.799 101.772 o
110.469 81.2753 o
129.362 65.1342 o
117.67 85.1676 o
119.017 81.9597 o
110.938 104.028 o
118.174 99.7569 o
103.061 99.5551 o
101.918 111.003 o
111.073 94.0987 o
66.2463 96.728 o
116.668 95.1213 o
102.207 94.5454 o
103.674 97.3897 o
125.21 99.7298 o
120.562 83.6559 o
118.039 88.8748 o
124.955 118.33 o
113.3 97.3599 o
131.95 85.5752 o
96.914 105.927 o
107.455 97.626 o
106.29 90.1052 o
119.675 96.8495 o
87.533 92.2743 o
123.948 95.8561 o
103.722 98.3365 o
108.345 84.0464 o
111.974 94.4944 o
108.65 77.9632 o
119.696 98.3217 o
115.083 92.5366 o
122.702 96.1659 o
97.8576 90.1209 o
105.467 85.1959 o
105.036 83.7366 o
117.835 91.3665 o
124.532 106.477 o
114.051 89.0696 o
108.311 75.4155 o
130.635 83.3143 o
101.296 82.821 o
161.837 79.775 o
115.043 100.591 o
107.634 74.7706 o
113.064 81.3845 o
107.187 88.6221 o
118.948 97.6553 o
97.905 91.3322 o
90.9553 100.82 o
125.471 95.8135 o
136.422 102.332 o
132.75 97.867 o
121.009 92.0802 o
98.3702 90.5085 o
122.651 84.5915 o
103.194 101.189 o
122.976 109.246 o
115.949 98.9785 o
98.74 90.8476 o
80.2902 90.2347 o
128.925 82.1827 o
125.556 94.6237 o
127.682 116.18 o
107.586 95.1287 o
114.701 96.9048 o
129.439 100.652 o
129.533 96.7793 o
107.89 94.2277 o
105.488 64.7907 o
122.421 95.9858 o
107.576 95.9385 o
117.413 78.3924 o
99.9327 105.577 o
110.557 104.107 o
109.681 93.1018 o
120.054 89.7865 o
125.711 95.1872 o
115.579 64.7583 o
111.497 109.164 o
121.886 102.018 o
107.629 92.5657 o
103.314 94.0952 o
114.547 105.315 o
114.323 79.2265 o
114.055 101.675 o
103.49 98.3912 o
116.53 96.709 o
99.9199 93.5037 o
129.458 95.7885 o
101.265 108.494 o
102.848 96.6358 o
137.864 96.8435 o
112.22 102.926 o
109.552 92.1893 o
112.725 108.946 o
113.509 83.2059 o
113.632 94.1561 o
90.7018 102.453 o
129.653 82.6098 o
113.775 96.7954 o
117.868 108.528 o
115.541 91.2322 o
123.319 108.715 o
123.304 93.9003 o
105.404 94.727 o
112.287 97.5688 o
134.207 82.2069 o
109.983 90.7568 o
108.453 90.1725 o
109.101 93.3277 o
115.001 86.506 o
120.777 96.4461 o
104.108 103.017 o
94.148 96.84 o
113.699 87.4354 o
106.09 75.7617 o
104.763 127.617 o
97.0581 67.2517 o
113.26 81.0373 o
106.676 95.726 o
128.331 90.065 o
132.338 104.069 o
136.559 84.3142 o
95.3661 84.7066 o
88.554 94.8803 o
108.49 101.636 o
79.7788 107.141 o
113.539 93.6697 o
116.201 81.594 o
114.826 97.7107 o
122.495 100.981 o
105.928 102.997 o
132.433 99.9721 o
87.9236 84.5033 o
132.367 97.5979 o
115.037 84.4491 o
115.419 111.445 o
124.492 90.7574 o
96.2123 91.5629 o
112.778 103.083 o
122.044 95.0488 o
113.191 93.5886 o
115.321 83.7948 o
124.736 95.3801 o
110.022 82.2271 o
103.182 92.2986 o
107.655 105.438 o
110.308 90.2267 o
125.401 80.9704 o
102.232 91.217 o
110.553 88.7857 o
117.579 92.8226 o
113.128 96.6341 o
134.027 98.0284 o
96.6049 91.1587 o
90.0371 92.8922 o
100.735 94.2378 o
89.3847 89.498 o
112.578 96.3623 o
92.9472 85.6706 o
108.224 100.846 o
115.467 85.1483 o
112.724 93.5444 o
106.419 98.0353 o
99.7301 86.7229 o
131.274 79.3671 o
116.298 94.7752 o
140.323 85.6455 o
120.526 88.2693 o
122.247 92.1364 o
107.759 86.1729 o
109.193 80.6105 o
97.1631 111.133 o
104.398 87.6513 o
95.6276 95.4314 o
91.8875 105.048 o
113.173 106.898 o
107.211 112.361 o
103.187 105.548 o
118.814 99.6542 o
112.689 97.2962 o
98.5495 109.814 o
113.373 109.756 o
103.033 90.2665 o
124.9 67.7255 o
109.695 88.3347 o
91.5717 83.4972 o
115.044 89.568 o
144.419 61.8581 o
104.659 89.8167 o
117.706 87.6646 o
107.027 81.5586 o
114.908 80.1077 o
123.954 88.1296 o
98.2999 96.3255 o
115.941 83.8702 o
118.974 101.797 o
121.569 106.124 o
111.646 92.246 o
125.295 103.359 o
103.977 81.0641 o
113.998 108.495 o
113.407 86.1282 o
89.1635 81.0948 o
109.149 107.759 o
123.742 83.1923 o
113.568 88.2335 o
106.207 97.5158 o
123.701 87.3148 o
101.573 98.5715 o
116.593 109.63 o
115.831 77.9041 o
108.911 90.0522 o
120.169 95.2893 o
105.615 83.9627 o
131.883 90.272 o
117.88 92.1073 o
81.7641 115.61 o
132.536 83.8387 o
116.956 88.7616 o
122.704 92.9415 o
115.184 84.5921 o
113.119 80.0533 o
103.966 94.8161 o
103.92 97.0953 o
117.5 87.0468 o
114.813 87.0016 o
114.147 90.5993 o
99.4742 103.176 o
92.2128 95.8397 o
103.049 107.204 o
115.632 105.432 o
104.542 85.0949 o
85.1777 91.4924 o
117.533 101.046 o
103.516 90.207 o
98.2703 96.0926 o
112.296 102.728 o
99.6144 109.319 o
96.8466 90.4369 o
90.4643 90.3224 o
115.419 85.4586 o
105.361 87.0303 o
137.095 92.2124 o
94.5418 98.1208 o
120.498 101.049 o
111.984 106.645 o
124.971 71.6081 o
100.103 73.5182 o
112.961 98.1789 o
105.911 85.7763 o
118.758 105.123 o
103.606 101.741 o
107.693 93.9131 o
105.944 92.7813 o
115.938 96.5623 o
111.463 103.593 o
118.494 80.178 o
96.2566 98.8077 o
102.381 101.934 o
103.735 92.8337 o
124.97 83.5463 o
105.904 87.6483 o
109.399 94.9486 o
109.73 104.499 o
105.424 102.214 o
111.394 116.019 o
97.566 88.7817 o
103.817 92.0554 o
116.566 100.439 o
82.2362 101.002 o
107.189 97.4309 o
115.271 99.2974 o
130.446 93.9996 o
118.545 95.8157 o
120.543 86.5285 o
110.235 90.1373 o
109.951 91.255 o
97.8161 102.976 o
72.4907 84.9648 o
99.5983 95.6452 o
86.5859 76.0298 o
130.669 107.996 o
103.385 90.4005 o
112.219 92.5535 o
117.311 94.2412 o
123.868 82.8504 o
135.502 103.582 o
109.84 91.2619 o
113.117 94.6965 o
127.372 84.2727 o
115.965 89.9377 o
119.846 109.237 o
115.816 101.218 o
121.47 94.3236 o
130.085 113.45 o
108.119 92.9729 o
130.431 99.4043 o
114.5 99.8347 o
107.714 87.106 o
123.587 88.9196 o
106.929 73.1172 o
102.718 116.1 o
103.134 90.4654 o
110.236 98.1354 o
133.977 89.2729 o
87.1022 103.015 o
109.005 99.7133 o
127.23 79.7141 o
103.188 95.5622 o
122.973 100.789 o
92.6634 104.911 o
114.272 88.8692 o
104.209 93.5531 o
98.6541 72.4157 o
110.345 94.7934 o
95.1773 94.7129 o
114.33 96.6627 o
120.128 92.9893 o
88.0847 95.5784 o
107.012 109.325 o
63.4158 86.6655 o
116.735 96.2464 o
149.828 67.2632 o
107.606 91.0347 o
116.362 95.663 o
107.964 93.0679 o
111.409 92.2517 o
114.816 76.9374 o
95.9101 82.4229 o
93.0768 66.0147 o
121.027 102.086 o
137.171 92.2452 o
111.955 78.3075 o
155.125 108.381 o
130.722 79.299 o
117.712 98.6036 o
94.8768 104.285 o
113.377 80.8249 o
137.954 81.6778 o
111.977 108.404 o
102.918 95.1841 o
98.6499 105.91 o
126.456 88.2562 o
115.141 92.2333 o
117.886 101.489 o
110.462 96.1863 o
108.336 85.0002 o
98.7508 74.572 o
106.37 95.4886 o
94.78 103.569 o
128.127 91.9543 o
116.927 76.9978 o
111.442 95.5996 o
96.3554 72.6773 o
100.918 87.6081 o
117.874 81.9206 o
124.95 85.378 o
102.985 95.1086 o
115.962 93.6507 o
100.248 117.169 o
106.036 96.7208 o
101.576 92.7021 o
129.226 94.4463 o
112.098 99.1885 o
117.257 77.6011 o
122.519 102.586 o
112.095 93.223 o
98.156 64.2732 o
109.192 94.7633 o
101.82 96.7958 o
136.275 72.6398 o
120.036 88.213 o
146.287 119.514 o
81.4359 77.6337 o
114.724 80.2033 o
128.17 82.7605 o
113.03 91.718 o
112.851 81.9691 o
117.732 101.432 o
119.416 104.025 o
110.787 93.8457 o
140.291 81.9163 o
93.2824 78.4171 o
121.99 81.2146 o
109.343 88.3723 o
115.614 105.552 o
142.795 108.065 o
111.63 99.296 o
129.418 86.8875 o
108.617 101.792 o
125.064 97.6163 o
114.14 92.354 o
114.088 110.872 o
85.5396 43.3813 o
118.313 85.4578 o
120.13 112.683 o
92.855 86.0816 o
109.003 111.822 o
114.27 108.247 o
110.13 98.2426 o
113.442 92.2829 o
109.659 94.2217 o
99.5335 101.963 o
114.696 95.0949 o
118.182 98.8167 o
112.072 121.945 o
123.706 89.0153 o
103.123 81.5723 o
108.854 77.054 o
114.215 89.0838 o
101.22 81.7108 o
113.589 83.6891 o
grestore
0.000 1.000 1.000 setrgbcolor
gsave
140.4 124.2 34.2 37.8 clipbox
/o {
gsave
newpath
translate
0.5 setlinewidth
1 setlinejoin
0 setlinecap
0 -0.25 m
0.0663008 -0.25 0.129895 -0.223658 0.176777 -0.176777 c
0.223658 -0.129895 0.25 -0.0663008 0.25 0 c
0.25 0.0663008 0.223658 0.129895 0.176777 0.176777 c
0.129895 0.223658 0.0663008 0.25 0 0.25 c
-0.0663008 0.25 -0.129895 0.223658 -0.176777 0.176777 c
-0.223658 0.129895 -0.25 0.0663008 -0.25 0 c
-0.25 -0.0663008 -0.223658 -0.129895 -0.176777 -0.176777 c
-0.129895 -0.223658 -0.0663008 -0.25 0 -0.25 c
cl
gsave
0.000 1.000 1.000 setrgbcolor
fill
grestore
stroke
grestore
} bind def
115.319 105.205 o
110.502 105.13 o
116.337 103.685 o
111.933 108.337 o
116.394 105.44 o
118.054 102.488 o
112.543 105.188 o
116.093 103.472 o
116.506 104.123 o
113.818 108.606 o
117.521 104.188 o
111.41 106.544 o
116.493 105.266 o
111.775 103.517 o
113.121 106.787 o
113.792 105.741 o
115.282 102.978 o
113.463 104.783 o
114.044 110.233 o
114.561 108.423 o
115.969 108.272 o
115.99 106.667 o
113.92 104.844 o
113.584 107.18 o
112.867 107.617 o
112.105 107.689 o
116.004 105.065 o
119.082 106.274 o
114.522 104.205 o
115.192 102.647 o
115.767 102.454 o
113.885 107.543 o
113.281 108.41 o
117.304 109.566 o
114.688 111.475 o
113.245 109.666 o
115.744 106.42 o
114.148 106.855 o
116.46 106.273 o
116.201 108.01 o
118.036 106.173 o
114.834 106.978 o
113.281 108.41 o
114.323 109.516 o
113.273 108.686 o
112.363 105.405 o
grestore
1.000 0.000 0.000 setrgbcolor
gsave
140.4 124.2 34.2 37.8 clipbox
/o {
gsave
newpath
translate
0.5 setlinewidth
1 setlinejoin
0 setlinecap
0 -0.25 m
0.0663008 -0.25 0.129895 -0.223658 0.176777 -0.176777 c
0.223658 -0.129895 0.25 -0.0663008 0.25 0 c
0.25 0.0663008 0.223658 0.129895 0.176777 0.176777 c
0.129895 0.223658 0.0663008 0.25 0 0.25 c
-0.0663008 0.25 -0.129895 0.223658 -0.176777 0.176777 c
-0.223658 0.129895 -0.25 0.0663008 -0.25 0 c
-0.25 -0.0663008 -0.223658 -0.129895 -0.176777 -0.176777 c
-0.129895 -0.223658 -0.0663008 -0.25 0 -0.25 c
cl
gsave
1.000 0.000 0.000 setrgbcolor
fill
grestore
stroke
grestore
} bind def
100.855 81.0962 o
102.685 77.53 o
102.03 79.9041 o
103.367 80.5164 o
102.098 83.2782 o
104.729 80.2165 o
104.231 81.0289 o
105.487 79.2764 o
105.04 80.412 o
103.845 83.2644 o
105.703 80.3265 o
105.377 81.7089 o
105.15 81.2946 o
108.246 77.9765 o
104.099 84.4505 o
105.841 82.2465 o
106.213 83.7812 o
106.834 84.1507 o
grestore
1.000 setlinewidth
0 setlinejoin
2 setlinecap
0.000 setgray
gsave
34.2 162 m
174.6 162 l
stroke
grestore
gsave
174.6 37.8 m
174.6 162 l
stroke
grestore
gsave
34.2 37.8 m
174.6 37.8 l
stroke
grestore
gsave
34.2 37.8 m
34.2 162 l
stroke
grestore
0.500 setlinewidth
1 setlinejoin
0 setlinecap
gsave
/o {
gsave
newpath
translate
0.5 setlinewidth
1 setlinejoin
0 setlinecap
0 0 m
0 4 l
gsave
0.000 setgray
fill
grestore
stroke
grestore
} bind def
34.2 37.8 o
grestore
gsave
/o {
gsave
newpath
translate
0.5 setlinewidth
1 setlinejoin
0 setlinecap
0 0 m
0 -4 l
gsave
0.000 setgray
fill
grestore
stroke
grestore
} bind def
34.2 162 o
grestore
/BitstreamVeraSans-Roman findfont
6.000 scalefont
setfont
gsave
28.387500 29.237500 translate
0.000000 rotate
0.000000 0.000000 m /minus glyphshow
5.027344 0.000000 m /five glyphshow
8.844727 0.000000 m /zero glyphshow
grestore
gsave
/o {
gsave
newpath
translate
0.5 setlinewidth
1 setlinejoin
0 setlinecap
0 0 m
0 4 l
gsave
0.000 setgray
fill
grestore
stroke
grestore
} bind def
49.8 37.8 o
grestore
gsave
/o {
gsave
newpath
translate
0.5 setlinewidth
1 setlinejoin
0 setlinecap
0 0 m
0 -4 l
gsave
0.000 setgray
fill
grestore
stroke
grestore
} bind def
49.8 162 o
grestore
gsave
43.987500 29.237500 translate
0.000000 rotate
0.000000 0.000000 m /minus glyphshow
5.027344 0.000000 m /four glyphshow
8.844727 0.000000 m /zero glyphshow
grestore
gsave
/o {
gsave
newpath
translate
0.5 setlinewidth
1 setlinejoin
0 setlinecap
0 0 m
0 4 l
gsave
0.000 setgray
fill
grestore
stroke
grestore
} bind def
65.4 37.8 o
grestore
gsave
/o {
gsave
newpath
translate
0.5 setlinewidth
1 setlinejoin
0 setlinecap
0 0 m
0 -4 l
gsave
0.000 setgray
fill
grestore
stroke
grestore
} bind def
65.4 162 o
grestore
gsave
59.587500 29.237500 translate
0.000000 rotate
0.000000 0.000000 m /minus glyphshow
5.027344 0.000000 m /three glyphshow
8.844727 0.000000 m /zero glyphshow
grestore
gsave
/o {
gsave
newpath
translate
0.5 setlinewidth
1 setlinejoin
0 setlinecap
0 0 m
0 4 l
gsave
0.000 setgray
fill
grestore
stroke
grestore
} bind def
81 37.8 o
grestore
gsave
/o {
gsave
newpath
translate
0.5 setlinewidth
1 setlinejoin
0 setlinecap
0 0 m
0 -4 l
gsave
0.000 setgray
fill
grestore
stroke
grestore
} bind def
81 162 o
grestore
gsave
75.187500 29.237500 translate
0.000000 rotate
0.000000 0.000000 m /minus glyphshow
5.027344 0.000000 m /two glyphshow
8.844727 0.000000 m /zero glyphshow
grestore
gsave
/o {
gsave
newpath
translate
0.5 setlinewidth
1 setlinejoin
0 setlinecap
0 0 m
0 4 l
gsave
0.000 setgray
fill
grestore
stroke
grestore
} bind def
96.6 37.8 o
grestore
gsave
/o {
gsave
newpath
translate
0.5 setlinewidth
1 setlinejoin
0 setlinecap
0 0 m
0 -4 l
gsave
0.000 setgray
fill
grestore
stroke
grestore
} bind def
96.6 162 o
grestore
gsave
90.787500 29.237500 translate
0.000000 rotate
0.000000 0.000000 m /minus glyphshow
5.027344 0.000000 m /one glyphshow
8.844727 0.000000 m /zero glyphshow
grestore
gsave
/o {
gsave
newpath
translate
0.5 setlinewidth
1 setlinejoin
0 setlinecap
0 0 m
0 4 l
gsave
0.000 setgray
fill
grestore
stroke
grestore
} bind def
112.2 37.8 o
grestore
gsave
/o {
gsave
newpath
translate
0.5 setlinewidth
1 setlinejoin
0 setlinecap
0 0 m
0 -4 l
gsave
0.000 setgray
fill
grestore
stroke
grestore
} bind def
112.2 162 o
grestore
gsave
110.684375 29.237500 translate
0.000000 rotate
0.000000 0.000000 m /zero glyphshow
grestore
gsave
/o {
gsave
newpath
translate
0.5 setlinewidth
1 setlinejoin
0 setlinecap
0 0 m
0 4 l
gsave
0.000 setgray
fill
grestore
stroke
grestore
} bind def
127.8 37.8 o
grestore
gsave
/o {
gsave
newpath
translate
0.5 setlinewidth
1 setlinejoin
0 setlinecap
0 0 m
0 -4 l
gsave
0.000 setgray
fill
grestore
stroke
grestore
} bind def
127.8 162 o
grestore
gsave
124.510937 29.237500 translate
0.000000 rotate
0.000000 0.000000 m /one glyphshow
3.817383 0.000000 m /zero glyphshow
grestore
gsave
/o {
gsave
newpath
translate
0.5 setlinewidth
1 setlinejoin
0 setlinecap
0 0 m
0 4 l
gsave
0.000 setgray
fill
grestore
stroke
grestore
} bind def
143.4 37.8 o
grestore
gsave
/o {
gsave
newpath
translate
0.5 setlinewidth
1 setlinejoin
0 setlinecap
0 0 m
0 -4 l
gsave
0.000 setgray
fill
grestore
stroke
grestore
} bind def
143.4 162 o
grestore
gsave
140.001562 29.237500 translate
0.000000 rotate
0.000000 0.000000 m /two glyphshow
3.817383 0.000000 m /zero glyphshow
grestore
gsave
/o {
gsave
newpath
translate
0.5 setlinewidth
1 setlinejoin
0 setlinecap
0 0 m
0 4 l
gsave
0.000 setgray
fill
grestore
stroke
grestore
} bind def
159 37.8 o
grestore
gsave
/o {
gsave
newpath
translate
0.5 setlinewidth
1 setlinejoin
0 setlinecap
0 0 m
0 -4 l
gsave
0.000 setgray
fill
grestore
stroke
grestore
} bind def
159 162 o
grestore
gsave
155.609375 29.237500 translate
0.000000 rotate
0.000000 0.000000 m /three glyphshow
3.817383 0.000000 m /zero glyphshow
grestore
gsave
/o {
gsave
newpath
translate
0.5 setlinewidth
1 setlinejoin
0 setlinecap
0 0 m
0 4 l
gsave
0.000 setgray
fill
grestore
stroke
grestore
} bind def
174.6 37.8 o
grestore
gsave
/o {
gsave
newpath
translate
0.5 setlinewidth
1 setlinejoin
0 setlinecap
0 0 m
0 -4 l
gsave
0.000 setgray
fill
grestore
stroke
grestore
} bind def
174.6 162 o
grestore
gsave
171.131250 29.237500 translate
0.000000 rotate
0.000000 0.000000 m /four glyphshow
3.817383 0.000000 m /zero glyphshow
grestore
gsave
90.900000 16.987500 translate
0.000000 rotate
/Cmr10 findfont
8.0 scalefont
setfont
0.000000 0.000000 moveto
/X glyphshow

/BitstreamVeraSans-Roman findfont
8.0 scalefont
setfont
6.000000 0.000000 moveto
/space glyphshow

/Cmr10 findfont
8.0 scalefont
setfont
8.542969 0.000000 moveto
/parenleft glyphshow

11.648438 0.000000 moveto
/k glyphshow

15.863281 0.000000 moveto
/p glyphshow

20.304688 0.000000 moveto
/c glyphshow

23.855469 0.000000 moveto
/parenright glyphshow


grestore
gsave
/o {
gsave
newpath
translate
0.5 setlinewidth
1 setlinejoin
0 setlinecap
0 0 m
4 0 l
gsave
0.000 setgray
fill
grestore
stroke
grestore
} bind def
34.2 37.8 o
grestore
gsave
/o {
gsave
newpath
translate
0.5 setlinewidth
1 setlinejoin
0 setlinecap
0 0 m
-4 0 l
gsave
0.000 setgray
fill
grestore
stroke
grestore
} bind def
174.6 37.8 o
grestore
gsave
18.575000 36.143750 translate
0.000000 rotate
0.000000 0.000000 m /minus glyphshow
5.027344 0.000000 m /four glyphshow
8.844727 0.000000 m /zero glyphshow
grestore
gsave
/o {
gsave
newpath
translate
0.5 setlinewidth
1 setlinejoin
0 setlinecap
0 0 m
4 0 l
gsave
0.000 setgray
fill
grestore
stroke
grestore
} bind def
34.2 51.6 o
grestore
gsave
/o {
gsave
newpath
translate
0.5 setlinewidth
1 setlinejoin
0 setlinecap
0 0 m
-4 0 l
gsave
0.000 setgray
fill
grestore
stroke
grestore
} bind def
174.6 51.6 o
grestore
gsave
18.575000 49.943750 translate
0.000000 rotate
0.000000 0.000000 m /minus glyphshow
5.027344 0.000000 m /three glyphshow
8.844727 0.000000 m /zero glyphshow
grestore
gsave
/o {
gsave
newpath
translate
0.5 setlinewidth
1 setlinejoin
0 setlinecap
0 0 m
4 0 l
gsave
0.000 setgray
fill
grestore
stroke
grestore
} bind def
34.2 65.4 o
grestore
gsave
/o {
gsave
newpath
translate
0.5 setlinewidth
1 setlinejoin
0 setlinecap
0 0 m
-4 0 l
gsave
0.000 setgray
fill
grestore
stroke
grestore
} bind def
174.6 65.4 o
grestore
gsave
18.575000 63.743750 translate
0.000000 rotate
0.000000 0.000000 m /minus glyphshow
5.027344 0.000000 m /two glyphshow
8.844727 0.000000 m /zero glyphshow
grestore
gsave
/o {
gsave
newpath
translate
0.5 setlinewidth
1 setlinejoin
0 setlinecap
0 0 m
4 0 l
gsave
0.000 setgray
fill
grestore
stroke
grestore
} bind def
34.2 79.2 o
grestore
gsave
/o {
gsave
newpath
translate
0.5 setlinewidth
1 setlinejoin
0 setlinecap
0 0 m
-4 0 l
gsave
0.000 setgray
fill
grestore
stroke
grestore
} bind def
174.6 79.2 o
grestore
gsave
18.575000 77.543750 translate
0.000000 rotate
0.000000 0.000000 m /minus glyphshow
5.027344 0.000000 m /one glyphshow
8.844727 0.000000 m /zero glyphshow
grestore
gsave
/o {
gsave
newpath
translate
0.5 setlinewidth
1 setlinejoin
0 setlinecap
0 0 m
4 0 l
gsave
0.000 setgray
fill
grestore
stroke
grestore
} bind def
34.2 93 o
grestore
gsave
/o {
gsave
newpath
translate
0.5 setlinewidth
1 setlinejoin
0 setlinecap
0 0 m
-4 0 l
gsave
0.000 setgray
fill
grestore
stroke
grestore
} bind def
174.6 93 o
grestore
gsave
27.168750 91.343750 translate
0.000000 rotate
0.000000 0.000000 m /zero glyphshow
grestore
gsave
/o {
gsave
newpath
translate
0.5 setlinewidth
1 setlinejoin
0 setlinecap
0 0 m
4 0 l
gsave
0.000 setgray
fill
grestore
stroke
grestore
} bind def
34.2 106.8 o
grestore
gsave
/o {
gsave
newpath
translate
0.5 setlinewidth
1 setlinejoin
0 setlinecap
0 0 m
-4 0 l
gsave
0.000 setgray
fill
grestore
stroke
grestore
} bind def
174.6 106.8 o
grestore
gsave
23.621875 105.143750 translate
0.000000 rotate
0.000000 0.000000 m /one glyphshow
3.817383 0.000000 m /zero glyphshow
grestore
gsave
/o {
gsave
newpath
translate
0.5 setlinewidth
1 setlinejoin
0 setlinecap
0 0 m
4 0 l
gsave
0.000 setgray
fill
grestore
stroke
grestore
} bind def
34.2 120.6 o
grestore
gsave
/o {
gsave
newpath
translate
0.5 setlinewidth
1 setlinejoin
0 setlinecap
0 0 m
-4 0 l
gsave
0.000 setgray
fill
grestore
stroke
grestore
} bind def
174.6 120.6 o
grestore
gsave
23.403125 118.943750 translate
0.000000 rotate
0.000000 0.000000 m /two glyphshow
3.817383 0.000000 m /zero glyphshow
grestore
gsave
/o {
gsave
newpath
translate
0.5 setlinewidth
1 setlinejoin
0 setlinecap
0 0 m
4 0 l
gsave
0.000 setgray
fill
grestore
stroke
grestore
} bind def
34.2 134.4 o
grestore
gsave
/o {
gsave
newpath
translate
0.5 setlinewidth
1 setlinejoin
0 setlinecap
0 0 m
-4 0 l
gsave
0.000 setgray
fill
grestore
stroke
grestore
} bind def
174.6 134.4 o
grestore
gsave
23.418750 132.743750 translate
0.000000 rotate
0.000000 0.000000 m /three glyphshow
3.817383 0.000000 m /zero glyphshow
grestore
gsave
/o {
gsave
newpath
translate
0.5 setlinewidth
1 setlinejoin
0 setlinecap
0 0 m
4 0 l
gsave
0.000 setgray
fill
grestore
stroke
grestore
} bind def
34.2 148.2 o
grestore
gsave
/o {
gsave
newpath
translate
0.5 setlinewidth
1 setlinejoin
0 setlinecap
0 0 m
-4 0 l
gsave
0.000 setgray
fill
grestore
stroke
grestore
} bind def
174.6 148.2 o
grestore
gsave
23.262500 146.543750 translate
0.000000 rotate
0.000000 0.000000 m /four glyphshow
3.817383 0.000000 m /zero glyphshow
grestore
gsave
/o {
gsave
newpath
translate
0.5 setlinewidth
1 setlinejoin
0 setlinecap
0 0 m
4 0 l
gsave
0.000 setgray
fill
grestore
stroke
grestore
} bind def
34.2 162 o
grestore
gsave
/o {
gsave
newpath
translate
0.5 setlinewidth
1 setlinejoin
0 setlinecap
0 0 m
-4 0 l
gsave
0.000 setgray
fill
grestore
stroke
grestore
} bind def
174.6 162 o
grestore
gsave
23.434375 160.343750 translate
0.000000 rotate
0.000000 0.000000 m /five glyphshow
3.817383 0.000000 m /zero glyphshow
grestore
gsave
11.575000 86.400000 translate
90.000000 rotate
/Cmr10 findfont
8.0 scalefont
setfont
0.000000 0.000000 moveto
/Y glyphshow

/BitstreamVeraSans-Roman findfont
8.0 scalefont
setfont
6.000000 0.000000 moveto
/space glyphshow

/Cmr10 findfont
8.0 scalefont
setfont
8.542969 0.000000 moveto
/parenleft glyphshow

11.648438 0.000000 moveto
/k glyphshow

15.863281 0.000000 moveto
/p glyphshow

20.304688 0.000000 moveto
/c glyphshow

23.855469 0.000000 moveto
/parenright glyphshow


grestore

end
showpage
