%!PS-Adobe-3.0 EPSF-3.0
%%Title: /Users/iuliasimion/bullock_johnston/denis_erkal/vasily/Figures/166507_1489549.0_yz.eps
%%Creator: matplotlib version 1.4.3, http://matplotlib.org/
%%CreationDate: Thu Aug 17 17:05:04 2017
%%Orientation: portrait
%%BoundingBox: 216 306 396 486
%%EndComments
%%BeginProlog
/mpldict 9 dict def
mpldict begin
/m { moveto } bind def
/l { lineto } bind def
/r { rlineto } bind def
/c { curveto } bind def
/cl { closepath } bind def
/box {
m
1 index 0 r
0 exch r
neg 0 r
cl
} bind def
/clipbox {
box
clip
newpath
} bind def
%!PS-Adobe-3.0 Resource-Font
%%Title: Bitstream Vera Sans
%%Copyright: Copyright (c) 2003 by Bitstream, Inc. All Rights Reserved.
%%Creator: Converted from TrueType to type 3 by PPR
25 dict begin
/_d{bind def}bind def
/_m{moveto}_d
/_l{lineto}_d
/_cl{closepath eofill}_d
/_c{curveto}_d
/_sc{7 -1 roll{setcachedevice}{pop pop pop pop pop pop}ifelse}_d
/_e{exec}_d
/FontName /BitstreamVeraSans-Roman def
/PaintType 0 def
/FontMatrix[.001 0 0 .001 0 0]def
/FontBBox[-183 -236 1287 928]def
/FontType 3 def
/Encoding [ /space /zero /one /two /three /four /five /minus ] def
/FontInfo 10 dict dup begin
/FamilyName (Bitstream Vera Sans) def
/FullName (Bitstream Vera Sans) def
/Notice (Copyright (c) 2003 by Bitstream, Inc. All Rights Reserved. Bitstream Vera is a trademark of Bitstream, Inc.) def
/Weight (Roman) def
/Version (Release 1.10) def
/ItalicAngle 0.0 def
/isFixedPitch false def
/UnderlinePosition -213 def
/UnderlineThickness 143 def
end readonly def
/CharStrings 8 dict dup begin
/space{318 0 0 0 0 0 _sc
}_d
/zero{636 0 66 -13 570 742 _sc
318 664 _m
267 664 229 639 203 589 _c
177 539 165 464 165 364 _c
165 264 177 189 203 139 _c
229 89 267 64 318 64 _c
369 64 407 89 433 139 _c
458 189 471 264 471 364 _c
471 464 458 539 433 589 _c
407 639 369 664 318 664 _c
318 742 _m
399 742 461 709 505 645 _c
548 580 570 486 570 364 _c
570 241 548 147 505 83 _c
461 19 399 -13 318 -13 _c
236 -13 173 19 130 83 _c
87 147 66 241 66 364 _c
66 486 87 580 130 645 _c
173 709 236 742 318 742 _c
_cl}_d
/one{636 0 110 0 544 729 _sc
124 83 _m
285 83 _l
285 639 _l
110 604 _l
110 694 _l
284 729 _l
383 729 _l
383 83 _l
544 83 _l
544 0 _l
124 0 _l
124 83 _l
_cl}_d
/two{{636 0 73 0 536 742 _sc
192 83 _m
536 83 _l
536 0 _l
73 0 _l
73 83 _l
110 121 161 173 226 239 _c
290 304 331 346 348 365 _c
380 400 402 430 414 455 _c
426 479 433 504 433 528 _c
433 566 419 598 392 622 _c
365 646 330 659 286 659 _c
255 659 222 653 188 643 _c
154 632 117 616 78 594 _c
78 694 _l
118 710 155 722 189 730 _c
223 738 255 742 284 742 _c
}_e{359 742 419 723 464 685 _c
509 647 532 597 532 534 _c
532 504 526 475 515 449 _c
504 422 484 390 454 354 _c
446 344 420 317 376 272 _c
332 227 271 164 192 83 _c
_cl}_e}_d
/three{{636 0 76 -13 556 742 _sc
406 393 _m
453 383 490 362 516 330 _c
542 298 556 258 556 212 _c
556 140 531 84 482 45 _c
432 6 362 -13 271 -13 _c
240 -13 208 -10 176 -4 _c
144 1 110 10 76 22 _c
76 117 _l
103 101 133 89 166 81 _c
198 73 232 69 268 69 _c
330 69 377 81 409 105 _c
441 129 458 165 458 212 _c
458 254 443 288 413 312 _c
383 336 341 349 287 349 _c
}_e{202 349 _l
202 430 _l
291 430 _l
339 430 376 439 402 459 _c
428 478 441 506 441 543 _c
441 580 427 609 401 629 _c
374 649 336 659 287 659 _c
260 659 231 656 200 650 _c
169 644 135 635 98 623 _c
98 711 _l
135 721 170 729 203 734 _c
235 739 266 742 296 742 _c
370 742 429 725 473 691 _c
517 657 539 611 539 553 _c
539 513 527 479 504 451 _c
481 423 448 403 406 393 _c
_cl}_e}_d
/four{636 0 49 0 580 729 _sc
378 643 _m
129 254 _l
378 254 _l
378 643 _l
352 729 _m
476 729 _l
476 254 _l
580 254 _l
580 172 _l
476 172 _l
476 0 _l
378 0 _l
378 172 _l
49 172 _l
49 267 _l
352 729 _l
_cl}_d
/five{{636 0 77 -13 549 729 _sc
108 729 _m
495 729 _l
495 646 _l
198 646 _l
198 467 _l
212 472 227 476 241 478 _c
255 480 270 482 284 482 _c
365 482 429 459 477 415 _c
525 370 549 310 549 234 _c
549 155 524 94 475 51 _c
426 8 357 -13 269 -13 _c
238 -13 207 -10 175 -6 _c
143 -1 111 6 77 17 _c
77 116 _l
106 100 136 88 168 80 _c
199 72 232 69 267 69 _c
}_e{323 69 368 83 401 113 _c
433 143 450 183 450 234 _c
450 284 433 324 401 354 _c
368 384 323 399 267 399 _c
241 399 214 396 188 390 _c
162 384 135 375 108 363 _c
108 729 _l
_cl}_e}_d
/minus{838 0 106 272 732 355 _sc
106 355 _m
732 355 _l
732 272 _l
106 272 _l
106 355 _l
_cl}_d
end readonly def

/BuildGlyph
 {exch begin
 CharStrings exch
 2 copy known not{pop /.notdef}if
 true 3 1 roll get exec
 end}_d

/BuildChar {
 1 index /Encoding get exch get
 1 index /BuildGlyph get exec
}_d

FontName currentdict end definefont pop
%!PS-Adobe-3.0 Resource-Font
%%Title: cmr10
%%Copyright: Copyright (C) 1994, Basil K. Malyshev. All Rights Reserved.012BaKoMa Fonts Collection, Level-B.
%%Creator: Converted from TrueType to type 3 by PPR
25 dict begin
/_d{bind def}bind def
/_m{moveto}_d
/_l{lineto}_d
/_cl{closepath eofill}_d
/_c{curveto}_d
/_sc{7 -1 roll{setcachedevice}{pop pop pop pop pop pop}ifelse}_d
/_e{exec}_d
/FontName /Cmr10 def
/PaintType 0 def
/FontMatrix[.001 0 0 .001 0 0]def
/FontBBox[-44 -250 1009 750]def
/FontType 3 def
/Encoding [ /Z /k /parenright /Y /parenleft /c /p ] def
/FontInfo 10 dict dup begin
/FamilyName (cmr10) def
/FullName (cmr10) def
/Notice (Copyright (C) 1994, Basil K. Malyshev. All Rights Reserved.012BaKoMa Fonts Collection, Level-B. ) def
/Weight (Regular) def
/Version (1.1/12-Nov-94) def
/ItalicAngle 0.0 def
/isFixedPitch false def
/UnderlinePosition -133 def
/UnderlineThickness 20 def
end readonly def
/CharStrings 7 dict dup begin
/Z{{611 0 56 0 560 683 _sc
67 0 _m
59 0 56 3 56 11 _c
56 25 _l
56 27 56 29 58 31 _c
447 648 _l
306 648 _l
259 648 220 641 190 629 _c
160 617 137 596 121 568 _c
105 540 98 502 98 454 _c
69 454 _l
80 683 _l
543 683 _l
550 683 554 679 554 672 _c
554 660 _l
554 657 553 655 553 654 _c
164 38 _l
311 38 _l
346 38 378 41 406 48 _c
}_e{434 54 458 67 478 86 _c
491 99 501 116 509 136 _c
517 156 522 176 524 195 _c
526 213 528 239 531 271 _c
560 271 _l
543 0 _l
67 0 _l
_cl}_e}_d
/k{{527 0 26 0 511 694 _sc
26 0 _m
26 35 _l
48 35 67 36 82 40 _c
96 44 104 53 104 67 _c
104 592 _l
104 610 101 623 96 631 _c
90 639 83 643 73 645 _c
63 647 47 648 26 648 _c
26 683 _l
174 694 _l
174 219 _l
308 337 _l
321 349 328 361 328 372 _c
328 380 325 386 320 390 _c
314 394 308 396 300 396 _c
300 431 _l
488 431 _l
488 396 _l
}_e{442 396 397 376 352 337 _c
281 275 _l
408 94 _l
426 69 440 53 452 46 _c
464 38 483 35 511 35 _c
511 0 _l
312 0 _l
312 35 _l
334 35 346 42 346 56 _c
346 66 340 78 328 94 _c
232 231 _l
171 178 _l
171 67 _l
171 53 178 44 193 40 _c
207 36 226 35 249 35 _c
249 0 _l
26 0 _l
_cl}_e}_d
/parenright{{388 0 56 -249 291 750 _sc
65 -249 _m
59 -249 56 -246 56 -240 _c
56 -237 56 -235 58 -234 _c
172 -122 229 38 229 250 _c
229 462 172 623 60 733 _c
57 734 56 737 56 741 _c
56 743 57 745 59 747 _c
61 749 63 750 65 750 _c
74 750 _l
76 750 77 749 79 748 _c
127 710 167 664 199 610 _c
231 556 254 498 269 437 _c
283 376 291 314 291 250 _c
291 202 287 156 279 110 _c
}_e{271 64 258 20 241 -24 _c
223 -68 201 -108 175 -146 _c
148 -184 116 -217 79 -247 _c
77 -248 76 -249 74 -249 _c
65 -249 _l
_cl}_e}_d
/Y{{750 0 11 0 738 683 _sc
226 0 _m
226 35 _l
294 35 329 45 329 67 _c
329 273 _l
119 618 _l
109 631 95 639 78 643 _c
60 646 38 648 11 648 _c
11 683 _l
293 683 _l
293 648 _l
246 648 223 640 223 625 _c
223 623 223 621 225 617 _c
406 319 _l
571 590 _l
575 596 577 602 577 610 _c
577 623 571 633 559 639 _c
547 645 535 648 521 648 _c
521 683 _l
738 683 _l
738 648 _l
}_e{712 648 687 643 665 634 _c
643 624 625 610 613 591 _c
419 273 _l
419 67 _l
419 45 453 35 522 35 _c
522 0 _l
226 0 _l
_cl}_e}_d
/parenleft{{388 0 97 -249 332 750 _sc
310 -247 _m
272 -217 240 -184 214 -146 _c
187 -108 165 -67 148 -25 _c
131 17 118 62 110 109 _c
101 155 97 202 97 250 _c
97 298 101 345 110 392 _c
118 438 131 483 149 527 _c
166 570 188 611 215 649 _c
242 687 274 720 310 748 _c
310 749 311 750 315 750 _c
324 750 _l
326 750 327 749 329 747 _c
331 745 332 743 332 741 _c
332 738 331 736 330 735 _c
}_e{297 703 270 668 248 632 _c
226 596 209 557 196 516 _c
183 474 174 432 168 388 _c
162 344 159 298 159 250 _c
159 38 215 -122 329 -232 _c
331 -234 332 -236 332 -240 _c
332 -242 331 -244 329 -246 _c
327 -248 326 -249 324 -249 _c
315 -249 _l
311 -249 310 -248 310 -247 _c
_cl}_e}_d
/c{{444 0 33 -10 415 448 _sc
249 -10 _m
208 -10 171 0 139 21 _c
106 41 80 69 61 104 _c
42 139 33 176 33 216 _c
33 255 42 293 61 329 _c
79 365 105 393 138 415 _c
171 437 208 448 249 448 _c
288 448 324 440 356 425 _c
388 409 404 384 404 350 _c
404 337 399 326 390 316 _c
380 306 369 302 356 302 _c
342 302 331 306 322 316 _c
312 326 308 337 308 350 _c
}_e{308 362 311 372 319 381 _c
327 389 336 395 347 397 _c
324 411 292 419 250 419 _c
218 419 192 408 173 387 _c
153 365 140 339 132 308 _c
124 277 120 246 120 216 _c
120 183 124 152 134 122 _c
144 92 159 67 181 47 _c
202 27 229 18 261 18 _c
293 18 320 27 342 47 _c
364 66 379 91 387 123 _c
387 127 389 129 395 129 _c
407 129 _l
409 129 410 128 412 126 _c
}_e{414 124 415 122 415 120 _c
415 117 _l
405 77 385 46 355 24 _c
325 1 289 -10 249 -10 _c
_cl}_e}_d
/p{{555 0 26 -193 522 442 _sc
26 -193 _m
26 -158 _l
48 -158 67 -156 82 -152 _c
96 -148 104 -139 104 -126 _c
104 355 _l
104 373 97 384 84 389 _c
71 393 52 396 26 396 _c
26 431 _l
174 442 _l
174 380 _l
192 400 213 415 237 426 _c
261 436 287 442 315 442 _c
354 442 389 431 421 410 _c
453 388 477 360 495 326 _c
513 291 522 254 522 216 _c
522 175 512 137 492 103 _c
}_e{472 68 446 40 412 20 _c
378 0 340 -10 300 -10 _c
251 -10 210 9 177 48 _c
177 -126 _l
177 -139 184 -148 199 -152 _c
213 -156 232 -158 255 -158 _c
255 -193 _l
26 -193 _l
177 97 _m
188 73 204 54 225 38 _c
246 22 269 15 294 15 _c
317 15 337 21 355 33 _c
373 45 388 62 400 83 _c
412 104 420 126 426 149 _c
432 172 435 194 435 216 _c
435 242 430 271 420 302 _c
}_e{410 333 396 359 376 381 _c
356 402 333 413 305 413 _c
278 413 253 406 231 392 _c
208 378 190 360 177 336 _c
177 97 _l
_cl}_e}_d
end readonly def

/BuildGlyph
 {exch begin
 CharStrings exch
 2 copy known not{pop /.notdef}if
 true 3 1 roll get exec
 end}_d

/BuildChar {
 1 index /Encoding get exch get
 1 index /BuildGlyph get exec
}_d

FontName currentdict end definefont pop
end
%%EndProlog
mpldict begin
216 306 translate
180 180 0 0 clipbox
gsave
0 0 m
180 0 l
180 180 l
0 180 l
cl
1.000 setgray
fill
grestore
gsave
34.2 36 m
174.6 36 l
174.6 162 l
34.2 162 l
cl
1.000 setgray
fill
grestore
0.500 setlinewidth
1 setlinejoin
0 setlinecap
[] 0 setdash
0.000 setgray
gsave
140.4 126 34.2 36 clipbox
/o {
gsave
newpath
translate
0.5 setlinewidth
1 setlinejoin
0 setlinecap
0 -0.25 m
0.0663008 -0.25 0.129895 -0.223658 0.176777 -0.176777 c
0.223658 -0.129895 0.25 -0.0663008 0.25 0 c
0.25 0.0663008 0.223658 0.129895 0.176777 0.176777 c
0.129895 0.223658 0.0663008 0.25 0 0.25 c
-0.0663008 0.25 -0.129895 0.223658 -0.176777 0.176777 c
-0.223658 0.129895 -0.25 0.0663008 -0.25 0 c
-0.25 -0.0663008 -0.223658 -0.129895 -0.176777 -0.176777 c
-0.129895 -0.223658 -0.0663008 -0.25 0 -0.25 c
cl
gsave
0.000 setgray
fill
grestore
stroke
grestore
} bind def
84.8264 90.719 o
92.3349 105.004 o
95.4871 101.094 o
132.923 85.5437 o
108.109 95.7216 o
118.166 86.8648 o
104.611 107.234 o
132.655 107.708 o
76.7349 94.3774 o
97.8178 82.0583 o
129.216 95.3565 o
96.6719 87.6762 o
87.2774 94.6769 o
74.5677 102.483 o
95.032 90.8475 o
98.0003 94.6898 o
123.599 92.603 o
69.8616 107.337 o
111.531 94.0394 o
91.1425 93.5161 o
84.7221 100.244 o
110.56 81.0393 o
103.471 102.664 o
77.4474 95.6237 o
92.8535 100.711 o
98.9682 99.3418 o
123.044 102.802 o
89.7067 103.061 o
88.3675 97.0981 o
121.384 97.3916 o
91.418 110.925 o
124.593 74.7598 o
94.5469 111.35 o
71.2122 99.3858 o
118.747 112.543 o
60.7585 104.256 o
107.66 99.1424 o
95.8585 112.537 o
107.295 90.5018 o
95.1032 106.024 o
90.6755 94.6608 o
87.3509 106.335 o
105.938 102.655 o
86.2001 99.0861 o
105.683 90.1047 o
69.1022 106.485 o
92.6678 100.961 o
78.1609 74.9109 o
104.272 105.069 o
98.9396 95.9311 o
96.6114 104.351 o
119.294 102.23 o
98.8611 99.9919 o
106.945 95.1216 o
107.527 106.981 o
101.182 104.923 o
126.299 100.169 o
95.9908 99.7413 o
95.3464 113.461 o
101.665 97.1928 o
135.116 85.5481 o
85.246 88.1126 o
123.273 90.5085 o
86.6922 90.7973 o
97.6893 130.13 o
103.454 100.614 o
93.3687 96.0728 o
93.9066 101.002 o
87.5144 96.1287 o
123.92 110.087 o
67.0932 118.074 o
102.828 82.2626 o
98.6038 92.2573 o
96.6351 94.9743 o
91.6677 79.798 o
80.9032 114.218 o
95.0318 114.541 o
92.8514 100.439 o
99.4272 113.671 o
64.6042 118.245 o
77.2677 96.0173 o
123.088 95.4865 o
63.5931 108.225 o
107.37 91.9901 o
110.547 103.478 o
72.5802 111.642 o
111.727 106.192 o
103.02 102.605 o
84.4991 87.1632 o
120.698 100.209 o
89.1032 103.699 o
93.9005 101.881 o
101.9 98.1343 o
101.306 96.9958 o
93.6852 96.5941 o
56.1746 98.6216 o
102.34 92.5517 o
104.592 92.5132 o
106.878 103.103 o
92.9361 96.4998 o
91.3995 94.341 o
105.634 91.6539 o
103.91 100.038 o
96.7797 92.1136 o
53.8242 61.1026 o
101.322 91.7156 o
90.1462 86.713 o
94.5121 116.649 o
86.1987 86.7862 o
104.898 116.744 o
126.915 114.593 o
146.169 120.59 o
90.4711 95.3481 o
59.0286 72.2672 o
95.3759 97.0786 o
102.327 103.429 o
136.427 78.5114 o
92.473 103.384 o
72.3913 91.3285 o
82.8578 66.5975 o
110.695 104.092 o
62.484 88.0013 o
101.433 101.361 o
121.174 98.9519 o
94.8099 108.331 o
98.1834 104.838 o
93.549 98.4597 o
81.2655 105.997 o
56.0896 103.086 o
102.379 102.261 o
99.2781 109.119 o
94.0006 106.512 o
88.5874 43.1965 o
70.9103 113.853 o
96.3805 91.0903 o
80.1074 106.848 o
103.62 94.845 o
88.7296 105.281 o
43.8616 100.851 o
116.901 69.832 o
84.0616 127.085 o
101.018 113.331 o
50.553 114.112 o
69.3175 92.7197 o
136.111 115.783 o
105.647 79.6606 o
104.732 107.007 o
87.2677 99.9776 o
91.0124 95.7569 o
100.255 96.3715 o
101.954 101.202 o
109.452 108.279 o
95.2928 97.8037 o
99.5598 107.07 o
93.2324 95.442 o
94.1152 108.71 o
115.797 100.952 o
92.7877 95.3703 o
95.8509 99.3683 o
85.8017 98.3982 o
83.464 97.0433 o
101.084 122.692 o
83.1543 91.7164 o
83.2615 76.3813 o
86.3617 86.4099 o
82.0115 103.594 o
117.786 90.7889 o
98.3962 98.7974 o
139.188 108.033 o
69.9074 94.5928 o
114.816 139.516 o
79.9948 98.2663 o
109.871 103.847 o
90.506 101.664 o
91.8161 100.164 o
112.617 105.484 o
99.0599 102.443 o
88.8629 89.3393 o
100.116 91.6267 o
108.199 100.476 o
96.6153 92.2217 o
87.0938 86.9235 o
114.551 99.9728 o
122.398 111.481 o
82.0178 120.135 o
118.874 78.1326 o
75.079 76.9254 o
99.0264 93.9639 o
83.2898 92.5043 o
77.5033 110.893 o
95.0287 89.2093 o
103.457 93.2417 o
101.595 117.322 o
102.024 90.4867 o
122.69 100.827 o
98.7146 101.882 o
93.1096 98.575 o
111.731 99.7748 o
111.927 93.3368 o
76.0918 94.0341 o
96.9009 95.2555 o
98.1199 87.1007 o
77.4154 109.413 o
88.4318 110.096 o
126.237 95.2999 o
105.14 102.636 o
92.0122 108.916 o
92.1298 112.578 o
90.5371 113.163 o
103.516 115.903 o
70.2267 93.0177 o
95.5433 99.7144 o
94.6783 100.797 o
81.0893 110.67 o
147.99 65.3414 o
95.1027 84.3892 o
113.24 96.7003 o
87.9308 103.707 o
96.5273 100.401 o
100.593 103.977 o
121.176 107.959 o
92.7468 103.085 o
97.4176 107.369 o
67.0498 95.5291 o
85.7161 96.366 o
111.152 106.195 o
97.1651 87.6808 o
102.546 91.1709 o
87.2855 94.4921 o
103.119 96.674 o
94.7633 97.0527 o
115.662 109.339 o
64.9459 101.038 o
73.9786 85.8897 o
96.3284 100.535 o
66.1242 59.5864 o
95.4428 104.767 o
120.328 119.324 o
104.018 92.4148 o
123.316 106.339 o
89.1868 100.728 o
107.219 108.557 o
103.791 100.626 o
102.242 102.724 o
127.07 117.892 o
105.146 91.3936 o
103.789 100.436 o
85.3912 105.73 o
113.112 99.0631 o
59.0817 101.327 o
87.0654 105.917 o
99.4681 98.5168 o
68.9599 87.2045 o
104.978 91.1918 o
97.3389 96.1686 o
111.053 104.331 o
99.7927 101.14 o
87.6688 99.1089 o
94.2407 102.367 o
111.997 103.517 o
114.642 85.4689 o
99.7702 88.0607 o
100.079 92.3007 o
96.5091 101.483 o
86.7927 111.655 o
114.835 102.583 o
129.852 96.1894 o
102.565 99.7852 o
86.8986 119.963 o
93.707 101.744 o
111.487 114.149 o
89.6337 99.0014 o
91.8728 110.474 o
88.5639 91.5612 o
111.708 82.1706 o
116.056 125.696 o
131.346 133.349 o
60.4387 78.4309 o
109.331 86.6493 o
114.248 98.5019 o
91.1601 123.02 o
87.7423 103.059 o
104.092 90.6749 o
114.837 100.475 o
65.1881 78.7807 o
113.165 95.3589 o
144.051 102.716 o
102.587 114.145 o
85.1099 97.9342 o
89.8611 90.7202 o
99.1626 101.133 o
90.5891 90.6867 o
87.7037 92.855 o
84.8902 94.2414 o
108.988 110.748 o
108.097 99.3901 o
109.277 87.0494 o
73.1937 94.1537 o
47.4291 137.684 o
114.172 108.814 o
97.0325 99.3179 o
99.2581 98.0509 o
100.226 104.681 o
92.6227 109.227 o
117.163 97.0343 o
73.3899 94.9781 o
91.7584 108.641 o
82.8464 87.9125 o
93.4012 104.958 o
121.447 81.0942 o
88.1194 101.364 o
91.9196 115.722 o
101.908 94.0814 o
96.768 106.226 o
114.352 109.144 o
50.2703 96.5795 o
104.074 98.6529 o
109.877 98.1091 o
85.8108 101.749 o
36.0919 82.2536 o
116.942 99.437 o
121.626 100.171 o
105.558 101.472 o
106.986 124.594 o
99.5709 88.0333 o
120.797 94.8959 o
97.4628 110.345 o
93.5145 103.485 o
119.628 97.7897 o
70.4683 95.3518 o
97.6173 120.853 o
95.4881 99.5926 o
97.3675 103.852 o
116.152 87.8774 o
77.9884 102.581 o
84.1332 79.7083 o
100.022 51.8814 o
85.9429 89.3827 o
110.487 97.0248 o
77.2319 106.431 o
88.7521 127.29 o
109.562 102.53 o
110.64 92.4005 o
78.4015 102.737 o
108.746 105.7 o
95.3215 99.7588 o
71.6114 99.366 o
96.1867 100.529 o
100.804 91.591 o
93.8599 95.3543 o
107.564 103.461 o
84.6477 122.884 o
87.9303 87.6303 o
101.118 106.374 o
66.99 115.767 o
85.971 120.938 o
98.1503 97.9773 o
94.2558 71.5961 o
111.022 100.351 o
107.003 86.1333 o
95.8342 78.6151 o
102.005 98.104 o
107.939 96.1365 o
82.464 103.632 o
94.8896 83.3759 o
92.9594 83.2994 o
114.097 97.9004 o
105.786 89.8956 o
84.9871 109.213 o
128.058 103.148 o
90.7938 97.9056 o
116.44 98.9536 o
108.335 128.101 o
102.531 114.141 o
123.54 100.968 o
120.615 114.332 o
102.323 90.957 o
98.8014 98.7024 o
92.1545 96.7181 o
112.786 101.461 o
79.3257 93.1011 o
103.456 106.987 o
106.577 96.1378 o
103.297 110.669 o
90.0983 82.4679 o
81.0007 98.2325 o
106.326 107.251 o
95.6772 91.1298 o
94.3511 94.2126 o
129.063 107.55 o
103.607 96.1355 o
70.7261 91.7619 o
94.1382 102.03 o
109.567 109.276 o
77.5694 135.815 o
75.867 126.551 o
88.5819 93.0403 o
92.0325 99.9481 o
101.238 99.8224 o
108.266 78.8668 o
95.311 103.73 o
132.705 105.183 o
127.544 111.745 o
74.5816 108.165 o
80.0449 101.361 o
70.3873 90.8946 o
85.2772 88.4087 o
68.2506 108.595 o
94.8008 94.6454 o
97.8628 100.01 o
119.226 114.699 o
104.474 96.3506 o
95.0312 99.1956 o
102.409 79.754 o
98.6901 94.9933 o
98.7625 100.906 o
108.221 98.0561 o
86.8737 87.6403 o
59.9754 91.5352 o
105.017 119.186 o
108.29 102.32 o
102.882 79.9407 o
86.1243 100.276 o
95.5624 120.175 o
80.2789 92.7241 o
95.124 99.7205 o
95.9551 104.712 o
100.473 107.212 o
92.1553 79.936 o
98.6036 93.8645 o
76.3372 109.904 o
89.6577 104.094 o
72.211 98.1017 o
102.103 81.712 o
101.209 104.232 o
81.6184 89.6148 o
98.4155 95.7396 o
69.3677 102.419 o
93.8858 88.2026 o
59.8093 80.244 o
83.8868 131.808 o
84.6245 92.8203 o
126.13 123.996 o
108.24 116.833 o
127.205 105.562 o
79.2131 99.1742 o
115.122 103.444 o
95.2739 115.199 o
83.3915 104.11 o
82.3833 97.3881 o
108.191 92.6122 o
98.8747 116.006 o
82.4631 122.047 o
103.162 92.7169 o
95.703 95.9431 o
121.805 92.1646 o
101.58 92.7595 o
96.1209 83.4796 o
83.3645 97.6687 o
109.278 91.8181 o
90.4505 102.599 o
95.7641 101.63 o
96.4251 93.3642 o
111.554 104.73 o
72.4278 87.2129 o
111.86 96.3181 o
93.3118 104.581 o
109.95 108.671 o
114.658 92.7951 o
92.3881 104.438 o
94.3629 97.5003 o
92.8394 76.2328 o
90.8265 100.253 o
92.6217 94.5911 o
94.0087 111.662 o
98.9118 101.677 o
54.2565 50.999 o
87.6889 114.869 o
93.9103 92.2764 o
92.5971 109.1 o
105.938 93.9458 o
60.1078 113.881 o
106.891 106.071 o
92.6436 113.164 o
109.903 97.2859 o
101.205 85.5829 o
97.0979 94.1934 o
69.0364 106.369 o
123.356 102.819 o
103.587 94.5684 o
119.79 102.896 o
96.0581 105.98 o
114.546 99.4606 o
110.903 98.5742 o
104.911 101.198 o
90.6885 107.604 o
84.5989 95.5813 o
90.2704 97.8294 o
100.074 101.855 o
78.8023 143.786 o
86.7175 103.515 o
96.4425 93.2948 o
106.885 92.7015 o
101.699 96.6823 o
145.634 70.8402 o
102.886 104.04 o
115.347 102.115 o
96.2705 103.606 o
91.1586 97.0351 o
98.464 94.6214 o
97.8013 102.564 o
89.3341 103.097 o
100.355 101.284 o
96.1173 90.4533 o
113.798 93.1403 o
84.952 94.0359 o
89.1566 93.2451 o
96.3688 87.7078 o
85.4068 106.476 o
93.282 82.8285 o
108.307 100.937 o
114.045 101.98 o
112.767 94.9172 o
99.6245 97.8698 o
85.5771 94.5097 o
95.6848 98.8168 o
81.2831 102.808 o
119.848 102.464 o
110.403 105.113 o
95.5395 98.3858 o
92.0915 127.847 o
101.999 103.058 o
119.943 90.6134 o
60.5135 113.491 o
99.0412 102.47 o
104.386 94.8396 o
118.016 106.847 o
108.741 98.5299 o
117.515 101.819 o
115.684 113.884 o
70.5338 62.7111 o
79.222 92.6856 o
96.5482 98.141 o
104.779 94.4147 o
59.5348 106.439 o
96.2823 122.584 o
81.3742 97.9755 o
87.8064 110.999 o
100.367 117.146 o
102.065 99.485 o
100.93 100.313 o
120.539 99.0673 o
89.9578 102.315 o
101.926 97.99 o
97.5186 99.5201 o
104.576 94.6518 o
103.544 105.733 o
102.342 89.5025 o
107.898 102.487 o
88.6851 96.2036 o
87.2915 98.5111 o
85.3655 105.858 o
88.7796 100.267 o
101.35 96.6426 o
83.9332 92.3731 o
80.0499 96.9421 o
110.377 102.271 o
88.8771 98.8202 o
96.8717 96.0318 o
115.237 103.876 o
54.5562 83.7279 o
97.1127 106.056 o
80.812 95.2351 o
96.4442 109.477 o
95.4091 102.76 o
86.9594 103.966 o
109.693 109.291 o
96.532 80.9372 o
97.6014 83.095 o
91.8012 105.334 o
95.8594 116.021 o
104.252 105.305 o
106.911 97.6006 o
87.4333 109.876 o
87.965 96.6769 o
101.394 102.413 o
89.573 99.0768 o
98.4994 104.243 o
102.36 100.429 o
68.3484 98.0309 o
93.5628 111.614 o
115.195 71.0074 o
92.3593 104.334 o
107.206 94.5566 o
138.472 85.3442 o
100.64 111.762 o
112.209 89.5748 o
100.82 99.4168 o
113.435 99.353 o
81.0043 84.9713 o
106.297 126.753 o
97.916 98.7379 o
103.301 99.0619 o
73.0407 96.4707 o
98.5311 95.4737 o
102.579 99.0562 o
107.248 79.7549 o
102.053 96.6679 o
67.4732 89.5626 o
87.4276 110.819 o
91.8441 79.4726 o
65.5272 82.5526 o
95.3278 98.8329 o
80.6765 93.2428 o
132.876 93.0941 o
119.139 111.539 o
105.486 86.3871 o
107.7 92.011 o
99.0694 98.5062 o
82.6361 109.698 o
100.067 101.264 o
126.56 93.8038 o
104.234 105.992 o
71.9142 100.378 o
47.8099 76.3 o
97.7911 77.5283 o
92.263 97.5635 o
93.1291 109.097 o
95.2523 103.616 o
96.5039 97.1416 o
94.0578 94.2528 o
116.513 102.155 o
108.478 100.198 o
92.8412 99.3503 o
108.753 119.41 o
102.873 97.4412 o
95.7958 98.9914 o
89.7719 111.203 o
91.7511 101.397 o
96.6117 114.742 o
69.9334 98.2488 o
102.785 98.4909 o
97.6188 96.0199 o
104.809 123.585 o
82.8538 93.9018 o
106.963 86.5848 o
111.498 115.614 o
95.502 104.288 o
92.5584 103.069 o
137.118 96.0821 o
115.583 86.7237 o
88.9684 111.116 o
97.3716 111.556 o
93.5541 114.71 o
87.6104 116.05 o
108.278 94.6511 o
103.983 88.1669 o
93.332 104.367 o
83.95 80.9842 o
91.9951 93.8361 o
89.9728 102.315 o
88.5772 103.557 o
73.1879 127.961 o
109.923 90.0991 o
98.6072 122.621 o
89.4512 116.943 o
105.816 96.8343 o
88.9011 101.687 o
85.8769 88.2131 o
95.086 101.823 o
89.3582 100.85 o
94.5157 106.949 o
78.757 92.2022 o
87.2063 100.413 o
86.5071 94.2254 o
109.556 105.377 o
110.897 81.9727 o
98.1143 95.9294 o
56.4605 112.422 o
86.9901 99.7496 o
90.892 95.4491 o
102.097 76.1639 o
104.889 102.87 o
98.0584 102.754 o
92.4867 105.611 o
99.5935 112.913 o
99.4684 93.6823 o
90.3315 93.9264 o
100.525 98.715 o
114.037 103.476 o
93.8965 99.9139 o
107.475 106.337 o
96.572 105.112 o
141.095 103.118 o
132.647 101.714 o
99.9003 92.5366 o
109.217 106.314 o
99.7309 96.5824 o
103.868 86.677 o
85.4609 105.245 o
98.374 103.201 o
96.2396 100.249 o
84.9398 105.164 o
93.3763 86.924 o
77.1035 101.982 o
94.0735 100.407 o
104.69 101.739 o
111.205 102.561 o
95.1699 127.434 o
117.248 71.3537 o
98.1016 97.6307 o
108.436 87.5968 o
76.1435 92.1925 o
103.34 91.7768 o
103.123 100.517 o
112.589 84.351 o
97.7045 108.25 o
101.879 95.6871 o
107.545 127.098 o
98.5873 103.673 o
101.27 97.6137 o
102.97 96.5257 o
118.362 98.4462 o
99.318 93.6366 o
78.57 96.9882 o
97.3955 106.201 o
119.585 67.6577 o
112.888 91.2779 o
110.282 107.631 o
77.2066 102.604 o
96.5135 102.286 o
107.457 101.88 o
108.34 97.9758 o
101.284 104.846 o
88.5431 95.6766 o
123.005 91.3579 o
79.4343 112.079 o
65.5896 93.0576 o
101.979 86.3453 o
76.3494 89.0875 o
105.81 89.1507 o
86.5801 90.8205 o
101.347 93.3242 o
84.9825 87.6305 o
105.764 106.975 o
106.186 98.7697 o
114.961 86.2812 o
95.835 102.421 o
87.4643 103.775 o
104.805 117.69 o
99.4245 78.9617 o
95.4683 106.08 o
115.454 102.901 o
84.1349 100.847 o
108.792 75.6224 o
93.2088 101.159 o
92.9138 108.711 o
102.906 96.9727 o
85.721 104.739 o
88.1912 99.5699 o
75.8197 94.1898 o
106.144 104.767 o
88.5732 96.6254 o
35.4478 119.958 o
96.2245 93.6166 o
98.6883 101.401 o
112.558 98.0212 o
91.7392 97.7656 o
97.9686 89.4452 o
83.2752 99.3719 o
111.847 97.2166 o
103.087 107.351 o
105.61 104.721 o
134.929 65.0891 o
94.9245 119.892 o
105.067 84.8315 o
92.1602 98.5776 o
95.5944 100.773 o
92.6765 98.0798 o
88.6524 106.197 o
81.4434 87.651 o
81.1797 104.725 o
72.5893 99.418 o
92.1368 72.4047 o
91.1488 105.996 o
128.978 103.43 o
102.351 119.837 o
82.6105 89.2143 o
107.421 100.19 o
92.6601 100.763 o
106.672 96.0463 o
92.7222 98.0051 o
83.4571 99.157 o
89.5733 100.03 o
98.0956 98.313 o
98.5419 104.529 o
94.8026 105.923 o
102.987 93.2782 o
98.2751 84.021 o
119.173 97.6891 o
85.0605 87.7965 o
88.5831 71.4751 o
109.367 90.6767 o
90.7244 99.0268 o
101.749 99.2881 o
101.055 104.132 o
80.7731 102.288 o
81.4423 99.4047 o
97.2936 96.0504 o
104.166 103.428 o
84.838 103.148 o
93.4726 98.966 o
124.47 103.301 o
91.9246 86.4547 o
107.075 125.473 o
75.5565 89.7786 o
103.461 91.056 o
107.908 99.3271 o
102.698 95.3942 o
74.4927 110.156 o
99.1507 100.702 o
99.4452 96.636 o
87.3268 99.6371 o
95.22 107.614 o
98.0691 95.5646 o
105.194 100.741 o
93.195 104.397 o
102.304 106.31 o
98.6458 100.104 o
101.738 68.3315 o
110.393 98.4338 o
107.428 92.2302 o
90.5107 102.709 o
81.4104 91.965 o
97.9647 114.34 o
88.4947 78.5258 o
90.6307 96.9096 o
86.9593 99.9573 o
106.379 94.2726 o
129.528 97.5046 o
89.1629 94.0733 o
96.2573 115.096 o
99.4606 100.599 o
95.5815 103.806 o
101.603 93.8525 o
119.697 98.8372 o
117.213 103.779 o
98.1501 94.4018 o
105.362 106.705 o
96.1967 104.993 o
62.1739 106.743 o
72.5819 110.276 o
92.9175 106.942 o
105.86 105.46 o
71.6775 102.472 o
110.09 112.12 o
79.4642 88.1895 o
91.5123 90.6333 o
105.413 89.711 o
116.116 119.108 o
87.4274 95.0136 o
77.982 99.8211 o
89.1032 93.2451 o
105.417 114.8 o
126.728 110.833 o
81.1004 102.674 o
100.189 105.896 o
95.5793 96.6331 o
82.9966 110.156 o
106.148 105.9 o
81.0061 93.038 o
102.482 100.617 o
99.5719 92.8997 o
96.7287 110.62 o
95.7754 97.5994 o
93.1594 96.3717 o
95.8028 93.7007 o
82.0436 112.197 o
95.6578 93.7522 o
100.344 113 o
89.87 115.292 o
68.7197 84.3256 o
122.093 99.4348 o
79.9719 117.345 o
97.9596 103.786 o
78.2537 107.795 o
76.5467 109.666 o
106.472 95.4106 o
81.6483 103.849 o
79.3433 101.592 o
103.646 114.657 o
123.254 102.351 o
84.4114 81.9166 o
138.035 97.4543 o
133.162 95.2977 o
108.21 124.84 o
97.5138 114.874 o
83.6993 98.7672 o
83.2652 98.6028 o
95.6352 98.0136 o
57.6416 106.458 o
95.8013 105.543 o
93.6307 97.1907 o
95.0619 98.5655 o
92.5264 106.305 o
49.0659 104.218 o
115.455 88.8056 o
92.6078 73.7666 o
106.736 79.3677 o
111.492 103.489 o
112.083 99.6519 o
62.056 101.575 o
96.0229 94.3634 o
102.813 95.5847 o
108.037 100.39 o
111.54 93.5196 o
96.1246 94.652 o
93.6325 112.916 o
86.5945 114.471 o
67.1655 101.518 o
87.6492 87.9741 o
99.3153 103.511 o
113.252 92.3084 o
105.033 108.332 o
116.988 103.811 o
94.5256 94.9267 o
103.526 102.448 o
111.588 102.873 o
95.6823 93.2038 o
83.654 87.9919 o
84.229 95.0986 o
104.393 96.3287 o
110.181 90.6274 o
90.2762 103.649 o
104.798 101.02 o
118.171 102.483 o
119.734 86.5755 o
104.166 99.2419 o
89.9189 98.7968 o
98.1799 99.9789 o
102.595 100.901 o
113.772 114.771 o
96.2287 88.4074 o
97.6332 98.5645 o
97.6492 98.9706 o
106.837 70.761 o
111.954 109.323 o
102.744 106.533 o
98.9372 100.313 o
110.89 99.0814 o
84.8074 100.187 o
120.922 114.813 o
113.222 104.966 o
98.2534 101.285 o
83.8877 108.209 o
85.4495 90.2181 o
88.9136 83.8336 o
120.879 110.07 o
94.0265 108.8 o
67.4804 110.423 o
72.1365 82.2521 o
90.4024 102.84 o
101.974 105.498 o
97.9754 101.716 o
99.7597 93.5101 o
119.195 113.78 o
117.492 92.3875 o
84.4553 106.489 o
107.096 120.433 o
82.3999 98.7383 o
105.037 104.209 o
64.114 113.977 o
105.291 116.321 o
108.561 98.4715 o
95.7224 81.1823 o
89.2387 124.766 o
94.5061 92.0039 o
100.783 92.3666 o
77.0757 82.4413 o
82.7782 99.2761 o
87.5315 109.368 o
106.027 95.9484 o
92.056 104.441 o
106.638 105.608 o
77.5695 89.5064 o
97.7842 105.06 o
72.1032 78.2094 o
89.479 106.451 o
98.4863 96.3875 o
55.5958 90.1569 o
102.574 95.4672 o
83.3249 107.078 o
106.893 87.7261 o
100.169 113.93 o
85.767 110.503 o
88.1286 88.5676 o
106.281 107.764 o
91.9629 101.812 o
75.7791 102.154 o
105.063 88.7391 o
86.2049 103.685 o
88.0719 95.6118 o
109.314 108.351 o
106.987 111.66 o
90.5749 93.8951 o
85.3049 103.341 o
96.1425 99.3289 o
92.3642 98.3097 o
55.182 85.188 o
120.443 118.413 o
106.652 105.105 o
99.984 77.4822 o
90.7716 109.356 o
94.5916 96.1104 o
82.288 102.151 o
94.7832 105.743 o
87.9153 83.1651 o
93.7194 90.6326 o
94.7725 100.531 o
107.844 123.928 o
101.133 105.368 o
101.448 106.704 o
104.197 113.122 o
117.843 125.504 o
95.9028 99.4476 o
105.425 95.8835 o
82.921 86.3068 o
94.6873 102.41 o
109.458 99.4286 o
95.2869 93.9179 o
102.329 102.136 o
123.835 89.8115 o
93.7791 78.4428 o
83.7054 94.361 o
88.1368 78.5568 o
104.835 115.392 o
106.875 94.922 o
89.4389 94.871 o
86.362 99.7751 o
101.393 98.2657 o
89.595 98.6751 o
93.2539 102.228 o
97.5424 93.3618 o
95.9843 99.775 o
100.473 97.6953 o
101.791 90.4229 o
96.3745 101.806 o
101.935 118.61 o
95.5873 108.09 o
89.5809 107.734 o
85.4143 110.326 o
93.0052 100.411 o
91.4014 94.9807 o
148.769 105.698 o
97.785 92.7859 o
98.4213 78.6242 o
98.5854 108.145 o
110.189 106.878 o
95.6914 110.19 o
90.8005 109.923 o
98.6806 94.6822 o
84.2976 93.6883 o
104.336 109.403 o
99.1398 99.0732 o
87.4164 112.556 o
98.7859 99.8262 o
92.9267 102.28 o
83.7165 95.2622 o
121.905 103.453 o
87.9455 74.0491 o
129.023 87.0907 o
102.815 98.0125 o
106.368 81.6894 o
96.1822 101.16 o
107.762 117.7 o
101.32 101.871 o
99.0833 106.376 o
95.5654 101.618 o
116.475 97.859 o
101.25 86.7511 o
102.658 98.0377 o
85.6927 110.618 o
92.4003 102.921 o
94.1425 95.7075 o
89.7707 100.386 o
97.2374 116.151 o
82.4031 103.611 o
104.607 107.373 o
120.033 88.7933 o
96.6997 97.9462 o
97.2038 97.9775 o
95.6968 95.8485 o
103.053 91.0092 o
96.8844 101.168 o
100.793 103.845 o
90.5468 99.1293 o
113.425 90.6272 o
109.267 110.36 o
108.706 109.393 o
63.8597 96.081 o
115.546 89.4662 o
81.0142 98.6941 o
107.26 95.5513 o
82.6557 90.9615 o
132.195 87.702 o
97.4739 103.404 o
101.598 96.6909 o
102.958 89.5334 o
87.2357 92.8572 o
82.5521 93.0074 o
103.054 93.8061 o
90.2804 99.7381 o
88.132 99.4228 o
86.3755 97.3615 o
107.273 121.782 o
83.6825 101.645 o
80.3587 112.102 o
96.5942 87.648 o
97.6181 100.96 o
112.867 96.9879 o
110.259 83.8044 o
93.8226 94.5232 o
80.0477 99.8169 o
97.3286 98.0742 o
98.9121 92.4842 o
106.852 105.624 o
90.3644 103.969 o
92.3532 100.973 o
104.597 101.181 o
98.8363 90.6604 o
108.007 104.755 o
123.519 91.5785 o
98.3205 81.0132 o
76.2982 106.005 o
80.2618 113.987 o
98.5434 99.6487 o
93.732 104.283 o
92.0039 98.1348 o
108.193 123.396 o
102.63 93.3887 o
77.7422 97.3389 o
114.372 96.4977 o
109.284 100.568 o
83.3676 81.9272 o
72.6576 90.8591 o
98.4629 105.932 o
95.882 97.9133 o
86.5481 107.624 o
87.1202 96.4037 o
93.6202 99.2822 o
91.9411 86.1779 o
81.0479 94.3043 o
98.8194 100.091 o
90.1688 97.3635 o
93.9821 104.866 o
80.6669 100.188 o
94.2609 84.2042 o
85.6281 83.2067 o
112.359 95.5523 o
87.1128 97.302 o
88.2999 110.086 o
115.472 125.748 o
86.0094 120.499 o
102.529 91.1743 o
92.9204 101.773 o
119.547 92.0628 o
58.6976 79.0425 o
92.7022 109.209 o
108.976 79.7163 o
98.1479 100.074 o
83.1124 90.3837 o
94.6778 82.6161 o
109.787 109.092 o
104.535 97.9108 o
95.2388 98.758 o
89.5311 97.2172 o
103.39 99.3472 o
96.7216 110.684 o
113.651 108.996 o
87.4784 106.707 o
92.1146 103.084 o
90.6459 112.954 o
110.768 97.0489 o
96.0246 93.2957 o
94.1079 108.153 o
92.0801 95.5183 o
111.811 103.286 o
104.561 90.4928 o
106.293 82.0487 o
82.7731 119.255 o
95.6393 96.2346 o
82.0425 96.4701 o
82.3537 114.089 o
92.8992 99.3265 o
88.2068 91.5767 o
110.099 102.324 o
119.382 95.5777 o
110.249 89.415 o
83.5725 95.3404 o
122.966 78.0722 o
93.4596 99.185 o
102.915 93.2665 o
97.9211 96.5548 o
87.9856 97.605 o
120.723 102.2 o
91.3675 84.7098 o
98.7013 90.5314 o
109.407 125.291 o
100.437 98.3657 o
83.5885 85.8717 o
93.1675 105.311 o
108.211 89.4504 o
101.71 100.647 o
93.9199 100.59 o
79.5026 102.66 o
96.935 97.1679 o
101.984 89.7352 o
95.7656 98.7162 o
95.9281 107.503 o
123.232 76.7741 o
113.478 98.3725 o
116.109 93.3113 o
55.8487 104.105 o
97.4496 127.568 o
97.7544 96.59 o
78.2895 113.072 o
99.9537 100.31 o
85.3392 100.869 o
92.9693 94.8021 o
97.9415 98.9284 o
90.1227 99.9278 o
95.2556 96.254 o
97.9385 83.8068 o
93.0535 90.5724 o
104.049 102.228 o
105.03 94.1663 o
108.697 105.079 o
93.9658 101.748 o
73.5949 80.7917 o
101.311 96.7756 o
114.193 94.0082 o
89.8312 104.935 o
83.2384 97.143 o
93.0221 101.255 o
98.5429 103.996 o
110.605 116.342 o
100.087 110.159 o
119.93 105.74 o
78.2593 97.2161 o
89.0918 96.1953 o
98.6778 74.3374 o
113.95 108.184 o
98.315 89.9634 o
99.39 95.969 o
81.1475 114.398 o
53.9426 120.222 o
92.8566 99.1598 o
100.063 89.8369 o
81.2657 96.9022 o
86.5974 100.188 o
84.9489 102.347 o
96.1435 98.4303 o
105.853 94.4606 o
88.6681 86.8133 o
92.6816 87.8415 o
87.8016 106.854 o
93.8308 86.9431 o
93.7214 100.278 o
94.6936 100.339 o
100.977 95.7773 o
89.0523 106.804 o
77.9651 97.4133 o
95.5978 101.471 o
97.6823 104.484 o
114.816 98.8655 o
98.9603 98.7418 o
89.547 104 o
96.7941 95.8737 o
87.0786 98.1201 o
96.2871 95.993 o
86.9543 94.4201 o
103.257 100.412 o
85.2287 111.753 o
90.87 101.681 o
99.7481 99.7494 o
99.8196 86.8008 o
95.889 95.3289 o
99.1449 105.759 o
93.2767 95.9274 o
103.895 82.9343 o
113.325 86.0955 o
86.1983 97.2202 o
121.883 99.585 o
98.5415 117.674 o
125.077 122.318 o
102.173 92.6275 o
96.1149 96.1572 o
90.9776 97.075 o
92.5347 103.014 o
83.5083 97.9574 o
90.0088 91.9812 o
106.736 106.265 o
124.748 103.388 o
98.3621 95.6652 o
102.391 104.321 o
91.0169 91.4008 o
99.8098 98.4583 o
83.8681 100.58 o
92.7565 98.0716 o
88.965 105.375 o
112.904 99.1823 o
97.1745 104.485 o
97.9437 103.382 o
78.0685 107.188 o
61.6225 69.9925 o
107.539 100.568 o
102.677 99.0794 o
110.955 96.8599 o
90.6703 97.8073 o
93.9087 101.494 o
104.163 94.4943 o
100.723 101.697 o
115.173 101.468 o
99.8697 90.1152 o
98.8706 98.6401 o
93.4893 99.4591 o
92.1703 97.6587 o
108.575 109.226 o
93.6658 93.7584 o
107.027 96.8845 o
100.426 107.855 o
68.8999 92.6684 o
40.6755 97.9067 o
90.2582 88.5187 o
92.4999 102.072 o
106.974 64.5717 o
93.6459 99.013 o
89.0494 108.16 o
107.441 95.8727 o
64.4138 110.929 o
74.896 101.7 o
85.6412 89.9109 o
104.955 120.665 o
96.8952 106.45 o
96.7218 91.9719 o
81.1634 122.592 o
81.7177 81.4793 o
100.682 109.638 o
111.248 93.4632 o
93.8353 99.6774 o
107.134 88.3873 o
105.252 102.711 o
70.2958 87.6722 o
94.3939 99.2046 o
83.8285 89.3157 o
88.0026 101.514 o
93.4616 99.7422 o
93.6459 101.115 o
60.0487 141.62 o
101.19 96.5638 o
100.805 107.02 o
83.2529 92.6473 o
94.1059 95.2239 o
99.964 101.742 o
84.3648 110.915 o
106.919 102.237 o
94.8123 93.2796 o
89.073 97.9202 o
94.4261 125.086 o
89.0867 119.741 o
95.7937 90.468 o
93.3209 102.268 o
106.201 98.4124 o
99.3592 91.8149 o
94.0672 102.208 o
114.735 98.0303 o
98.667 77.3178 o
89.1142 106.377 o
93.1073 93.0096 o
118.081 84.4016 o
106.347 99.4462 o
133.624 100.207 o
112.658 90.0671 o
79.4889 117.389 o
101.477 117.835 o
111.312 109.002 o
103.929 105.038 o
107.94 104.128 o
113.317 92.1604 o
97.6767 101.712 o
93.003 106.537 o
94.7052 97.3138 o
74.891 100.299 o
82.3285 94.2832 o
96.1173 100.116 o
94.6604 104.712 o
111.968 97.9716 o
98.6422 109.572 o
91.6732 112.554 o
101.884 104.442 o
103.401 101.16 o
114.186 108.631 o
92.5133 101.464 o
91.7842 103.416 o
99.9173 94.4557 o
96.8157 102.665 o
98.5359 90.8673 o
98.4086 95.8556 o
86.2974 112.03 o
82.0341 101.265 o
72.6736 112.545 o
97.0804 105.615 o
98.7794 90.172 o
90.7907 112.748 o
92.2472 101.936 o
89.8982 115.127 o
94.8603 101.78 o
89.5303 110.458 o
86.3148 103.298 o
100.721 87.8484 o
78.0933 77.0516 o
150.9 72.3837 o
103.041 102.834 o
93.5963 99.8827 o
106.407 113.719 o
91.8395 96.0304 o
93.9116 99.0103 o
91.4452 84.2684 o
90.2041 105.031 o
96.1719 105.398 o
100.525 84.8948 o
104.588 86.4001 o
71.372 83.0698 o
78.05 93.5217 o
84.8208 100.634 o
96.594 97.7212 o
70.3106 125.92 o
97.3812 77.4966 o
96.3548 99.2184 o
89.2531 101.269 o
107.168 94.8335 o
86.3533 100.264 o
101.16 90.1179 o
69.0013 91.65 o
97.7483 100.101 o
83.3243 81.1552 o
92.1623 101.897 o
89.191 92.7168 o
108.79 100.209 o
101.649 114.102 o
101.219 94.3897 o
98.1799 97.8606 o
92.2624 93.3528 o
94.9206 102.026 o
105.635 120.515 o
99.6562 95.1939 o
83.3473 85.7803 o
101.157 90.3975 o
110.377 96.5145 o
90.0348 103.419 o
102.161 103.537 o
95.611 99.3455 o
111.547 89.4103 o
104.017 86.0025 o
109.354 99.1809 o
88.7062 90.2731 o
114.778 107.069 o
99.7625 88.4701 o
94.1026 101.607 o
91.548 87.7898 o
96.5117 104.827 o
108.41 100.718 o
99.174 91.0254 o
101.505 109.078 o
81.2579 90.6197 o
97.3384 108.327 o
101.121 112.592 o
101.097 88.7794 o
111.151 116.069 o
82.5369 100.25 o
95.2081 104.382 o
101.594 101.774 o
102.852 96.7234 o
96.4457 99.9331 o
82.5463 94.6837 o
97.4329 98.4114 o
82.4129 105.965 o
109.388 87.1899 o
99.9682 102.953 o
82.2458 96.9493 o
104.112 105.505 o
96.5602 110.997 o
94.5163 91.3457 o
89.8262 108.125 o
82.463 91.0292 o
64.7817 120.783 o
86.0091 103.162 o
114.496 99.4298 o
75.6623 115.03 o
101.047 119.743 o
96.8566 87.9387 o
92.9454 100.672 o
101.23 114.092 o
44.659 107.759 o
103.913 91.3161 o
80.6287 96.3889 o
102.673 90.5849 o
114.652 114.426 o
90.0844 98.4661 o
102.071 104.788 o
86.5196 93.4595 o
71.5471 122.452 o
92.6888 98.1016 o
119.796 94.3194 o
83.6169 91.4145 o
95.9928 99.6032 o
108.738 113.568 o
121.434 92.6479 o
100.391 94.7775 o
95.3882 95.3524 o
89.1747 99.152 o
83.4882 89.5616 o
86.5984 82.7723 o
109.427 106.382 o
92.0209 112.493 o
81.8359 101.31 o
99.6764 88.6292 o
109.049 95.6803 o
101.211 100.114 o
89.5938 77.9644 o
101.053 94.3506 o
110.686 98.6335 o
83.5192 106.959 o
102.176 98.9963 o
103.133 102.391 o
88.684 87.6573 o
99.1993 94.3905 o
108.944 102.681 o
98.2288 97.1722 o
82.033 112.903 o
100.269 97.3286 o
96.1019 103.477 o
89.3136 90.515 o
87.2456 101.522 o
79.3535 101.86 o
96.2912 88.2398 o
84.0558 110.59 o
97.8962 96.1909 o
66.3313 97.9265 o
85.928 102.384 o
97.9647 102.546 o
58.3154 128.166 o
101.612 125.29 o
89.766 102.899 o
76.0396 100.114 o
91.5516 101.988 o
90.4089 91.2632 o
100.924 99.4025 o
94.185 98.0863 o
103.179 91.2599 o
109.25 108.257 o
90.2486 90.1775 o
95.9565 100.212 o
86.4349 98.0451 o
96.4217 97.9268 o
99.6523 102.397 o
98.1472 88.7663 o
94.0291 98.8772 o
82.2017 82.7729 o
110.061 86.3515 o
104.682 95.7713 o
88.9052 104.414 o
95.9105 113.192 o
103.512 102.025 o
100.891 96.1706 o
106.459 93.6576 o
110.058 99.4819 o
87.1059 114.017 o
92.9843 95.7416 o
110.523 94.4928 o
101.67 87.3738 o
87.958 95.4126 o
86.5713 83.7192 o
95.825 101.783 o
95.0618 97.5935 o
105.524 96.465 o
104.869 99.545 o
84.7125 160.084 o
107.441 100.401 o
101.057 95.3406 o
115.692 116.122 o
64.9225 103.353 o
67.3323 87.7147 o
91.9403 91.783 o
103.305 100.958 o
77.8468 96.7695 o
93.6711 95.7185 o
100.358 104.522 o
100.113 89.4056 o
82.5079 92.1806 o
111.654 90.2978 o
91.3481 88.6549 o
148.788 105.331 o
89.0944 101.047 o
86.8026 107.905 o
114.033 97.0369 o
84.3384 114.647 o
99.3743 97.9593 o
109.686 106.54 o
94.9322 99.9671 o
103.363 100.383 o
97.1347 95.866 o
95.1163 91.4245 o
81.1019 110.333 o
98.1242 92.3902 o
115.966 106.439 o
100.224 107.859 o
103.113 99.732 o
96.8109 95.2592 o
72.6814 103.069 o
90.9131 100.716 o
92.7109 93.6508 o
83.182 88.2715 o
99.3515 115.182 o
103.123 100.248 o
91.7197 105.429 o
123.473 106.296 o
80.3107 102.263 o
100.487 95.398 o
100.194 98.0292 o
143.811 76.7922 o
85.3567 101.111 o
100.31 100.824 o
94.8635 113.599 o
78.2603 98.0323 o
92.2483 95.7109 o
94.7346 101.779 o
115.332 81.7203 o
93.4659 101.129 o
97.1092 79.9744 o
103.975 101.168 o
97.3804 92.5628 o
100.097 107.031 o
109.605 94.981 o
86.4718 112.327 o
93.9036 97.0459 o
121.149 92.7956 o
101.428 97.6788 o
98.8645 107.245 o
91.5463 101.958 o
97.0245 111.049 o
98.7703 99.1547 o
92.3073 96.9547 o
89.7559 89.1315 o
93.2164 102.273 o
82.4164 96.2015 o
89.5129 112.664 o
94.729 100.153 o
99.613 99.7766 o
97.2207 100.261 o
90.3868 98.6297 o
107.289 96.6329 o
87.2939 87.9085 o
98.5482 103.506 o
115.699 99.422 o
104.053 95.9677 o
87.6644 92.2119 o
96.7758 101.784 o
106.113 111.505 o
91.447 109.028 o
95.1828 94.1191 o
83.7124 97.8842 o
65.2912 88.3935 o
89.0922 99.2654 o
89.2365 106.919 o
87.1733 91.6612 o
143.266 106.07 o
86.2923 96.999 o
87.8934 109.323 o
108.112 99.9723 o
107.845 122.73 o
96.1876 81.6099 o
107.375 95.4552 o
95.5547 101.033 o
106.877 94.0594 o
106.32 102.954 o
99.6511 115.447 o
104.1 94.4328 o
106.388 89.527 o
96.4365 108.939 o
102.795 98.8231 o
93.4199 115.505 o
93.7054 101.342 o
101.75 101.41 o
112.615 99.0659 o
111.104 86.9747 o
98.3883 102.488 o
108.463 88.1686 o
92.9441 98.415 o
100.824 94.5625 o
96.6441 103.413 o
89.6131 94.946 o
93.0572 99.3745 o
106.406 101.143 o
81.2248 81.0279 o
116.476 95.6186 o
79.5765 101.722 o
103.366 97.7274 o
112.32 102.062 o
105.921 99.2224 o
84.1655 115.854 o
104.384 92.9718 o
93.4384 105.159 o
101.988 101.861 o
113.696 102.8 o
86.3796 96.5229 o
97.8194 83.4586 o
105.308 99.1954 o
78.9642 106.348 o
93.3318 109.643 o
100.305 94.4717 o
122.695 114.12 o
96.2333 105.006 o
97.2516 102.842 o
84.6784 103.679 o
90.5769 84.4476 o
98.5113 104.205 o
95.2564 91.053 o
93.6015 100.259 o
77.9604 100.624 o
78.3976 92.9376 o
99.1122 96.1858 o
76.2178 94.144 o
96.8464 88.9459 o
96.4017 97.3048 o
95.1184 104.96 o
65.9764 121.957 o
99.5811 98.1718 o
98.3632 96.4356 o
89.1885 90.7145 o
102.852 99.1337 o
94.943 93.0428 o
87.4925 105.6 o
91.688 103.273 o
84.8897 88.5301 o
93.4451 100.279 o
89.6435 104.916 o
73.5613 103.145 o
87.7295 103.719 o
90.3411 98.0907 o
96.686 103.398 o
92.9226 97.2826 o
102.777 93.4172 o
85.9594 107.009 o
89.8723 94.3481 o
86.843 86.9156 o
117.348 94.7045 o
99.387 106.15 o
79.5317 104.589 o
94.8593 96.485 o
96.6637 89.4088 o
90.5558 97.8177 o
107.268 101.215 o
91.7312 103.383 o
88.3611 96.2046 o
96.5576 106.492 o
110.327 104.074 o
99.8095 98.3492 o
101.365 103.469 o
106.09 102.968 o
139.036 112.975 o
97.821 97.5816 o
93.6008 92.2468 o
97.7223 100.387 o
85.5235 107.894 o
100.953 92.6781 o
95.9195 102.434 o
99.4165 96.8972 o
95.617 89.0767 o
83.624 105.796 o
99.3489 77.4181 o
83.6569 94.7099 o
96.2038 101.25 o
104.494 110.707 o
116.746 101.105 o
105.248 105.034 o
91.2638 98.4674 o
50.8108 131.28 o
78.1986 97.4655 o
99.7833 98.6787 o
85.3065 98.7893 o
81.7879 95.0411 o
98.5503 108.409 o
113.511 95.2482 o
93.2964 70.078 o
112.511 92.4651 o
99.7928 94.4207 o
105.844 105.391 o
106.331 99.3961 o
90.9336 99.5362 o
81.1279 93.846 o
103.676 102.028 o
94.0123 111.652 o
94.627 97.4581 o
92.4921 105.633 o
80.9521 107.145 o
90.0292 101.314 o
103.732 96.106 o
93.4027 98.4194 o
94.5496 92.56 o
108.503 101.886 o
108.725 96.8741 o
105.725 97.7877 o
86.9524 105.011 o
80.6064 105.591 o
96.8807 98.9773 o
96.0855 103.857 o
50.1833 56.0516 o
96.6346 98.6889 o
83.7312 105.52 o
96.7816 103.55 o
95.5679 103.549 o
123.376 104.708 o
106.499 86.8158 o
86.8836 96.2252 o
53.2393 121.333 o
102.918 116.355 o
89.8126 93.1055 o
97.0064 120.048 o
85.1871 104.207 o
73.1063 94.9707 o
100.148 105.481 o
96.1412 99.35 o
93.2398 95.3859 o
91.9582 93.4649 o
89.4187 101.376 o
92.222 101.985 o
98.9871 94.017 o
96.4313 101.214 o
88.2896 93.0598 o
88.0328 107.719 o
83.5461 120.11 o
87.3346 107.071 o
97.7388 89.9529 o
145.004 87.6138 o
99.8586 109.216 o
110.504 80.4072 o
96.3635 97.6004 o
69.3028 88.6042 o
116.851 101.151 o
97.3505 98.0896 o
91.8676 106.558 o
102.568 88.253 o
102.959 101.263 o
111.351 108.389 o
107.388 104.7 o
84.4587 84.7163 o
99.8207 92.2665 o
96.2551 107.511 o
75.877 104.095 o
107.698 86.4856 o
94.8898 124.979 o
79.1082 117.55 o
103.706 97.541 o
86.1764 95.4944 o
96.4606 98.2939 o
113.036 92.0784 o
105.289 103.992 o
66.5805 108.738 o
109.179 94.5985 o
92.1215 103.173 o
111.676 104.799 o
107.189 105.803 o
95.4197 90.3897 o
106.101 100.589 o
91.3214 104.841 o
96.7435 98.1035 o
91.8752 89.1755 o
111.368 93.7014 o
70.2771 99.9253 o
102.058 103.85 o
91.8368 126.225 o
82.8065 98.2366 o
90.5568 100.895 o
109.287 104.328 o
103.423 98.5309 o
96.9801 87.5569 o
85.6656 95.5228 o
94.4682 106.834 o
104.122 90.2512 o
106.981 104.052 o
99.9681 98.5975 o
114.549 93.3402 o
93.4178 95.7095 o
85.4632 101.968 o
103.351 101.164 o
104.577 100.108 o
77.7539 87.9593 o
82.0827 108.088 o
71.2735 82.8168 o
105.847 104.756 o
109.895 100.349 o
100.261 104.541 o
102.363 96.4833 o
99.9565 100.536 o
95.8511 115.995 o
87.3166 100.772 o
92.4593 101.762 o
99.1855 100.398 o
84.2513 102.377 o
90.2377 94.9313 o
86.7951 98.2683 o
81.4086 107.409 o
103.856 106.335 o
89.2298 108.106 o
106.846 98.8484 o
94.0156 94.7744 o
93.611 96.6171 o
113.133 102.918 o
89.6973 94.4466 o
81.5969 98.0003 o
113.966 112.408 o
100.835 100.693 o
114.262 89.1766 o
91.3553 96.1471 o
100.561 98.9991 o
115.778 92.1922 o
100.345 104.11 o
119.114 101.986 o
97.0951 106.333 o
84.8421 100.365 o
95.3952 100.098 o
106.247 90.2146 o
81.1303 97.1368 o
114.797 95.9788 o
75.9376 97.3491 o
112.111 116.37 o
95.8229 101.697 o
107.006 98.3319 o
84.018 110.81 o
104.065 100.44 o
97.9825 93.1475 o
110.988 98.8702 o
101.815 98.1951 o
135.13 102.449 o
81.1124 80.7152 o
82.9614 101.348 o
92.9615 113.222 o
105.277 91.742 o
86.475 92.473 o
90.1313 109.071 o
92.5162 98.4044 o
99.1345 100.539 o
87.5331 97.4885 o
96.5946 102.35 o
121.66 95.6164 o
105.672 81.9393 o
90.683 98.2669 o
100.877 94.6209 o
114.403 100.22 o
100.309 93.9231 o
86.7672 106.83 o
93.5113 101.576 o
87.7739 96.3016 o
114.335 102.673 o
82.4516 114.234 o
107.344 95.8099 o
109.312 89.7755 o
85.8193 99.6244 o
98.3546 90.8726 o
103.26 107.918 o
87.0365 95.8722 o
91.8096 107.245 o
58.7127 95.1439 o
100.828 100.62 o
104.604 103.551 o
92.8437 91.3311 o
108.425 103.745 o
37.3178 72.5072 o
81.3191 96.7686 o
123.828 96.3272 o
110.066 112.44 o
100.735 108.147 o
107.938 91.6809 o
103.152 105.712 o
148.476 120.092 o
100.926 96.7891 o
82.4371 92.4618 o
82.8143 94.1398 o
98.8527 100.673 o
107.899 90.1382 o
78.3334 96.0185 o
104.028 99.7204 o
82.6479 108.955 o
90.1246 99.0343 o
104.67 102.6 o
98.1353 100.577 o
102.355 92.7713 o
72.07 89.5844 o
97.7394 99.9897 o
102.344 99.1121 o
96.1689 92.5863 o
128.239 157.559 o
118.362 103.645 o
98.2795 84.5523 o
100.781 107.286 o
75.8371 96.4357 o
102.084 90.5982 o
90.8857 109.134 o
93.3988 94.2253 o
100.968 109.792 o
97.6433 103.946 o
80.4643 106.068 o
42.4207 90.0642 o
102.132 104.336 o
104.52 107.063 o
101.957 103.951 o
94.6577 91.0635 o
96.4822 95.3435 o
84.9761 98.0213 o
91.1161 105.369 o
115.154 104.455 o
96.5115 93.4946 o
98.7193 102.199 o
99.2407 97.6087 o
103.605 101.566 o
89.5899 97.7321 o
86.5516 114.85 o
170.352 64.1802 o
83.0733 95.3104 o
87.0559 94.4285 o
96.366 101.116 o
97.7053 89.4826 o
89.5456 108.053 o
100.589 101.054 o
105.182 91.8837 o
83.963 97.1764 o
96.3089 94.6176 o
91.8462 104.394 o
114.789 93.6471 o
104.973 91.9265 o
102.058 98.0998 o
98.4996 101.581 o
98.3197 100.214 o
112.371 96.914 o
73.4223 108.564 o
77.2052 63.3585 o
66.804 102.578 o
83.9834 99.3549 o
107.297 95.9929 o
101.887 86.8768 o
97.0167 95.1813 o
93.2727 102.072 o
99.6641 100.15 o
89.1295 98.8331 o
123.149 111.216 o
99.5258 101.106 o
102.78 100.814 o
95.3412 104.075 o
133.063 110.022 o
96.6232 100.331 o
105.609 117.262 o
86.7092 90.553 o
108.531 100.198 o
91.4279 98.4715 o
81.7355 91.5296 o
90.8413 102.034 o
93.788 73.0627 o
91.8675 98.5447 o
97.926 101.93 o
91.3001 115.38 o
97.7302 115.736 o
98.9963 108.014 o
93.6946 106.799 o
121.207 90.8347 o
102.657 97.8847 o
89.3303 97.6907 o
106.595 93.6352 o
101.382 96.9834 o
96.0393 103.14 o
110.684 104.025 o
68.7785 92.9886 o
106.365 101.119 o
94.5449 103.287 o
116.065 87.6833 o
102.802 90.5201 o
108.964 98.543 o
108.462 96.254 o
88.2836 100.272 o
104.475 98.701 o
92.7212 99.7336 o
145.397 116.907 o
95.6706 99.3659 o
90.0209 102.332 o
111.22 108.362 o
120.957 98.2901 o
96.2843 110.488 o
111.014 95.3494 o
107.417 97.1784 o
87.94 92.1907 o
95.2831 100.28 o
93.7432 103.497 o
110.014 98.7613 o
101.433 96.8762 o
114.93 104.308 o
90.839 99.7009 o
120.181 124.102 o
101.685 89.016 o
124.242 98.5026 o
106.671 91.3721 o
88.3597 102.543 o
90.8236 114.876 o
116.35 97.1853 o
98.0012 82.9907 o
92.3942 94.8525 o
114.525 105.872 o
99.2435 99.22 o
71.6509 106.145 o
113.136 95.8105 o
91.8602 97.9384 o
97.4049 93.5862 o
92.5341 89.3886 o
88.5528 106.455 o
93.1061 94.6552 o
105.976 92.284 o
94.0837 91.8839 o
59.9345 68.8816 o
111.224 95.2265 o
113.523 89.2952 o
92.9909 91.2222 o
100.189 97.7672 o
104.874 74.3077 o
100.278 102.351 o
97.8603 100.838 o
95.3075 102.991 o
94.3267 93.5955 o
116.33 100.262 o
105.921 92.0975 o
94.2287 114.142 o
99.1671 99.3709 o
88.0882 92.7246 o
98.3539 101.791 o
95.2141 98.0535 o
94.4809 109.093 o
84.1577 116.864 o
97.8311 96.6738 o
105.708 111.653 o
72.6564 86.0328 o
99.4898 105.483 o
81.061 96.1758 o
83.3187 106.171 o
100.137 100.058 o
61.3966 129.657 o
75.9719 112.794 o
92.1991 101.958 o
77.7263 98.7845 o
91.3534 95.3186 o
85.0248 106.632 o
98.4456 86.2353 o
83.46 103.344 o
112.387 82.607 o
78.5738 102.428 o
97.6135 86.1678 o
83.0549 113.706 o
100.716 86.2905 o
93.2324 94.8678 o
110.733 106.187 o
88.8335 105.66 o
103.138 108.113 o
99.6589 101.492 o
99.0577 87.6643 o
90.3495 87.4795 o
124.817 87.7507 o
48.8051 69.786 o
100.158 110.126 o
97.7041 94.8995 o
104.925 104.557 o
93.0596 101.478 o
96.0963 95.8862 o
107.965 105.733 o
104.872 103.969 o
97.2654 98.7589 o
81.304 107.056 o
101.29 91.0748 o
90.1203 106.912 o
94.1654 98.6362 o
114.002 104.211 o
102.51 99.1764 o
103.353 95.0194 o
106.312 100.161 o
119.244 93.3238 o
84.2356 87.8972 o
99.7323 96.7999 o
129.476 90.1939 o
63.8005 100.069 o
83.4211 94.9665 o
123.045 99.6319 o
103.423 98.262 o
114.642 92.3855 o
110.8 105.881 o
118.233 96.1844 o
92.3798 85.0754 o
89.4611 96.8875 o
102.815 115.455 o
95.9856 102.021 o
120.371 106.987 o
109.143 117.735 o
92.6461 89.5418 o
99.5761 100.743 o
98.1615 98.7151 o
111.337 99.5477 o
102.694 95.7399 o
87.3242 101.52 o
133.434 104.736 o
79.9042 86.4894 o
91.8481 91.15 o
96.1692 98.5814 o
98.3497 88.6863 o
98.9596 101.972 o
44.0772 89.766 o
112.396 90.6184 o
97.4846 100.272 o
99.2607 98.8392 o
103.09 103.198 o
99.8804 104.155 o
84.2664 110.226 o
111.168 111.147 o
114.069 104.728 o
112.342 100.624 o
89.582 82.0992 o
91.7576 91.3544 o
112.881 87.9444 o
113.672 110.515 o
97.3655 95.445 o
100.828 102.825 o
98.5451 101.025 o
99.3805 85.1878 o
107.299 101.199 o
88.2 87.558 o
95.88 108.928 o
97.46 97.5335 o
106.901 105.811 o
100.969 86.8572 o
111.057 96.3684 o
99.623 104.151 o
93.0778 101.219 o
107.039 115.717 o
90.0459 99.0073 o
81.052 87.8375 o
92.7674 99.2188 o
108.157 92.3716 o
97.8088 101.412 o
78.5526 108.114 o
119.697 100.101 o
114.954 105.164 o
84.6766 107.563 o
92.9509 96.7691 o
107.731 94.5299 o
94.2583 107.641 o
96.7544 69.8004 o
101.589 100.103 o
95.8701 84.2043 o
112.727 95.9555 o
94.363 99.2616 o
96.5965 97.1991 o
91.8061 101.682 o
92.1273 97.3602 o
91.0656 94.2608 o
87.0642 102.784 o
110.492 82.8734 o
84.573 96.0379 o
82.8522 104.119 o
100.166 98.4134 o
93.596 101.636 o
108.194 106.378 o
71.0573 85.4793 o
99.0628 92.3174 o
94.2879 105.759 o
107.68 101.947 o
83.4213 105.147 o
98.1523 99.6722 o
92.4217 98.3669 o
112.357 104.519 o
97.6915 94.9833 o
80.037 112.087 o
90.8512 111.332 o
89.9283 98.2018 o
85.1361 103.718 o
103.181 103.045 o
104.563 95.3485 o
94.8928 92.881 o
104.227 94.5484 o
125.184 96.3065 o
82.3476 100.57 o
96.0095 102.078 o
76.916 94.8217 o
116.066 94.4923 o
91.4493 89.7552 o
103.197 101.657 o
99.2361 93.605 o
101.97 98.9698 o
93.1408 105.239 o
78.7382 100.528 o
83.4507 113.134 o
79.2512 84.5336 o
106.077 99.0631 o
87.0698 104.005 o
101.04 99.4343 o
90.9588 99.4783 o
104.591 104.026 o
84.0393 114.56 o
105.158 98.5861 o
83.9991 96.7115 o
74.3704 109.377 o
95.5334 87.3251 o
97.2116 87.1824 o
102.958 100.586 o
49.4632 61.586 o
92.3107 83.7084 o
98.5347 93.2585 o
77.6064 108.613 o
85.2851 89.8324 o
94.6882 96.684 o
94.821 95.5574 o
82.6585 84.518 o
89.9094 96.3263 o
79.6413 102.118 o
100.043 109.05 o
100.365 111.923 o
89.8544 102.546 o
115.329 101.284 o
96.4074 101.892 o
103.839 102.928 o
87.4464 94.3306 o
107.54 91.6416 o
101.38 94.7168 o
95.4326 104.759 o
85.1213 99.5794 o
90.4332 99.4935 o
91.6682 97.2518 o
97.7899 101.486 o
101.901 99.6009 o
111.824 104.278 o
99.9593 101.694 o
120.503 101.98 o
92.661 104.736 o
103.98 115.218 o
97.6311 102.714 o
107.111 90.193 o
79.169 113.752 o
103.537 113.689 o
89.2275 123.827 o
109.727 115.811 o
84.1834 105.425 o
91.7113 106.06 o
89.8327 92.8349 o
101.1 81.7365 o
87.7588 111.539 o
93.8218 99.6357 o
91.4872 89.5266 o
93.6349 99.1682 o
105.771 111.45 o
100.889 95.3768 o
102.748 101.192 o
92.9001 98.7051 o
104.103 109.913 o
105.555 92.959 o
61.5237 94.5137 o
59.7686 71.3154 o
97.0298 114.841 o
109.908 110.927 o
101.048 96.333 o
91.8112 98.4118 o
82.1668 98.5836 o
100.716 102.956 o
104.188 110.521 o
96.3627 92.0616 o
103.569 92.4637 o
98.6067 99.3848 o
92.0588 87.8845 o
102.448 97.9648 o
91.7269 101.656 o
84.5259 101.514 o
85.7436 90.9961 o
102.28 84.3626 o
96.6069 107.904 o
94.372 94.4971 o
104.646 100.839 o
107.218 109.828 o
88.345 115.051 o
98.0293 103.333 o
109.018 114.664 o
95.036 93.5686 o
92.8053 105.11 o
101.024 110.691 o
105.488 104.62 o
100.618 100.702 o
67.0333 112.83 o
102.187 93.0293 o
97.2063 91.0979 o
86.8417 106.419 o
112.29 90.644 o
91.6559 103.722 o
97.6177 104.787 o
91.0831 84.2206 o
101.447 90.7013 o
88.7384 99.3214 o
93.3621 85.7696 o
95.273 99.4444 o
98.7309 100.481 o
100.795 106.419 o
87.7652 87.6122 o
107.317 97.4905 o
108.704 101.792 o
108.47 100.514 o
105.67 79.8712 o
99.3093 97.3827 o
111.088 101.43 o
95.8259 110.328 o
120.114 105.587 o
88.4013 99.289 o
85.8469 105.049 o
94.5037 95.0122 o
109.904 97.946 o
98.1534 100.18 o
101.044 96.2481 o
93.0857 104.831 o
87.2517 91.0754 o
86.5217 85.7444 o
105.645 84.7406 o
118.836 101.915 o
99.5879 99.5559 o
89.0382 105.786 o
86.968 96.7531 o
83.6492 103.205 o
92.1273 93.8502 o
97.6903 104.364 o
89.2748 96.7735 o
88.6932 92.5766 o
101.747 100.409 o
88.5103 110.736 o
85.6111 124.274 o
115.359 73.1852 o
105.042 98.3281 o
94.9815 89.2359 o
96.5453 91.1697 o
85.617 95.9396 o
99.3575 87.007 o
114.668 103.929 o
101.116 111.882 o
114.657 100.929 o
75.3217 85.5095 o
81.3254 100.983 o
104.237 96.8044 o
102.295 89.2085 o
86.18 109.629 o
88.5992 105.403 o
101.769 101.982 o
103.276 110.162 o
81.6007 97.5386 o
99.9146 100.022 o
102.764 100.103 o
95.1487 95.5751 o
95.7302 99.4273 o
87.7127 110.786 o
104.207 85.5341 o
110.359 99.3955 o
103.114 93.2343 o
80.6738 98.848 o
96.65 102.838 o
113.242 96.3058 o
97.9126 88.4749 o
100.17 96.1378 o
99.5182 95.1687 o
90.0632 73.3608 o
84.2588 98.4241 o
76.4406 94.172 o
97.2068 100.977 o
89.464 83.4282 o
98.9521 80.899 o
103.193 97.4977 o
90.9999 101.031 o
98.5616 105.518 o
91.7694 113.324 o
80.3393 101.551 o
90.6866 98.507 o
92.9769 105.266 o
104.294 88.3735 o
94.5814 102.948 o
80.3968 104.908 o
92.965 107.036 o
125.639 107.064 o
97.7691 118.797 o
73.93 99.3037 o
103.255 88.5001 o
109.1 84.4709 o
106.454 91.7848 o
86.5519 101.259 o
102.883 98.5607 o
99.8548 111.629 o
110.053 84.6172 o
95.0339 95.5443 o
94.5991 104.474 o
65.1747 116.717 o
84.5139 102.674 o
95.1714 94.1972 o
99.3917 112.425 o
97.1285 107.198 o
101.77 114.605 o
82.1636 93.9477 o
103.47 97.7376 o
71.3829 104.459 o
106.213 100.075 o
101.306 106.081 o
99.656 97.0196 o
103.562 107.73 o
88.1995 94.9236 o
107.663 102.538 o
98.7189 88.9929 o
82.7972 95.5795 o
109.812 92.0596 o
108.294 94.9121 o
89.897 105.59 o
105.437 100.303 o
109.007 98.6865 o
95.3709 69.2395 o
97.8145 90.2707 o
91.94 101.951 o
112.23 99.641 o
104.963 96.0219 o
100.571 106.755 o
102.588 88.0723 o
87.6509 91.4239 o
88.429 96.3559 o
86.0664 103.018 o
96.8546 94.0883 o
113.011 100.734 o
105.706 95.1588 o
96.8234 89.2905 o
107.231 103.67 o
109.949 95.0861 o
91.2235 97.5689 o
109.126 77.2716 o
124.06 116.261 o
99.8005 76.0415 o
101.664 86.5622 o
97.3825 89.4889 o
103.461 90.1105 o
105.208 97.8459 o
106.252 107.84 o
92.0543 78.1909 o
80.2996 87.7387 o
99.6317 101.708 o
106.265 98.4067 o
93.0165 105.291 o
96.8298 98.6044 o
107.689 96.5577 o
87.1292 91.0255 o
88.5712 101.41 o
100.437 98.3303 o
81.759 107.456 o
65.7966 117.422 o
117.134 114.772 o
82.8659 90.5878 o
81.1826 88.0172 o
87.6226 109.841 o
79.3402 83.6474 o
105.281 99.3735 o
94.87 111.016 o
85.6354 90.1469 o
92.6638 84.7807 o
112.424 102.712 o
100.859 86.9362 o
104.42 98.6378 o
95.2266 113.199 o
98.181 101.195 o
105.865 105.784 o
81.4722 107.825 o
87.0405 100.348 o
94.2893 101.871 o
101.114 105.669 o
91.2773 103.968 o
93.4647 115.39 o
94.4908 94.0287 o
96.3657 99.6597 o
96.1924 96.7118 o
95.814 91.7955 o
92.8355 102.198 o
104.852 102.504 o
99.1186 91.7624 o
72.591 92.0894 o
117.254 98.2119 o
92.2365 102.999 o
88.8842 89.0788 o
108.419 100.172 o
103.901 93.63 o
79.4287 101.015 o
116.468 93.6434 o
95.1853 100.433 o
96.9926 77.472 o
110.486 97.0878 o
88.0288 91.4761 o
69.8901 109.048 o
105.048 103.223 o
95.3886 91.2617 o
103.161 119.641 o
125.545 101.346 o
78.4631 79.8889 o
89.8225 103.531 o
96.1716 93.697 o
94.3922 98.2935 o
98.8931 92.232 o
101.615 95.3663 o
99.4779 100.861 o
110.662 108.233 o
110.365 102.479 o
43.5791 137.801 o
85.1145 108.967 o
107.79 102.724 o
94.0523 100.33 o
100.945 109.341 o
98.9782 93.7795 o
100.801 89.7493 o
88.8435 81.77 o
86.8656 91.529 o
97.191 95.5765 o
96.0961 90.5325 o
91.0429 90.2572 o
96.1496 89.1698 o
104.019 82.1801 o
96.2991 96.0857 o
89.4927 95.1267 o
76.5722 84.0158 o
104.302 93.2201 o
99.6668 105.718 o
69.2322 80.2354 o
84.4753 95.2967 o
123.284 72.8772 o
91.8028 95.6213 o
101.119 102.54 o
96.3977 107.151 o
93.0588 112.048 o
100.573 83.3266 o
104.268 96.4289 o
97.0426 91.5583 o
96.579 100.821 o
96.7659 86.3596 o
83.0245 107.537 o
106.516 102.165 o
83.3459 89.1009 o
65.0995 144.858 o
87.746 100.351 o
84.1197 108.684 o
109.067 106.753 o
104.238 102.796 o
104.01 101.046 o
116.951 93.8611 o
97.842 98.7647 o
100.814 113.355 o
98.998 97.3293 o
98.347 96.705 o
101.562 97.3945 o
104.208 117.244 o
86.0371 102.48 o
91.9367 104.612 o
125.233 101.988 o
101.529 94.7654 o
88.2067 98.744 o
111.213 102.108 o
101.829 110.12 o
93.3276 109.743 o
100.952 79.4901 o
95.7796 75.063 o
99.8286 84.097 o
102.633 103.535 o
86.4785 102.627 o
98.2893 99.0331 o
79.6018 92.875 o
102.616 90.808 o
96.0761 100.46 o
100.179 124.61 o
93.3454 97.7285 o
87.778 85.1497 o
86.1283 93.6753 o
94.7534 100.204 o
111.835 102.034 o
92.1569 99.3432 o
76.7219 90.3877 o
85.651 93.7163 o
85.0933 95.4278 o
81.65 116.553 o
105.181 101.116 o
75.9929 74.2716 o
83.4694 85.7048 o
91.6511 86.3674 o
101.863 99.0986 o
94.7147 89.7138 o
105.44 98.1492 o
99.7804 100.832 o
107.149 87.5086 o
102.102 90.817 o
95.5603 103.967 o
93.7835 98.0501 o
87.0947 83.972 o
105.857 92.8795 o
114.965 92.8369 o
103.358 101.575 o
94.1669 85.6509 o
93.474 90.9357 o
84.3718 91.959 o
98.4355 101.017 o
122.804 101.124 o
99.0063 97.8719 o
101.014 94.4964 o
105.25 95.5084 o
100.872 94.4335 o
97.9879 96.9489 o
64.7112 95.4568 o
99.9753 117.676 o
99.9217 90.4596 o
80.0871 98.5412 o
110.818 89.6384 o
109.156 110.879 o
96.7151 100.291 o
92.9674 103.514 o
99.0725 120.39 o
64.6746 97.5202 o
114.873 109.699 o
106.795 104.83 o
96.109 97.4807 o
97.8381 91.2109 o
110.521 101.413 o
81.0299 102.849 o
106.407 101.52 o
102.694 92.4857 o
100.793 96.2446 o
97.1694 109.294 o
99.7523 111.625 o
114.115 103.89 o
100.71 105.659 o
100.945 108.908 o
107.821 89.4197 o
95.6836 124.771 o
114.626 96.6641 o
85.5285 89.7424 o
97.9069 106.739 o
107.286 73.844 o
84.8546 96.0945 o
100.89 101.143 o
114.153 87.16 o
94.6016 99.0812 o
114.365 116.406 o
97.6177 111.807 o
98.5523 96.0186 o
101.765 96.3909 o
84.3991 99.9347 o
94.0642 97.2458 o
93.4037 99.5314 o
96.9705 93.9662 o
89.2589 90.9082 o
100.496 91.4303 o
107.923 100.356 o
100.941 87.9406 o
90.3096 95.9387 o
77.1132 107.192 o
135.732 98.2021 o
67.4932 79.5132 o
83.077 83.5806 o
99.6815 89.5473 o
93.2821 105.359 o
109.112 100.955 o
86.7813 68.7274 o
87.2248 108.346 o
98.7255 95.2383 o
106.362 98.5086 o
112.586 86.6756 o
97.3571 99.0323 o
83.7063 127.091 o
101.925 107.45 o
105.622 89.1891 o
107.901 75.7665 o
104.481 102.955 o
86.9951 105.044 o
101.798 112.324 o
86.9337 104.504 o
117.451 83.1264 o
94.0648 103.811 o
94.9755 100.846 o
107.998 82.6332 o
98.9161 96.3671 o
97.2653 105.307 o
86.1942 95.9301 o
99.2905 96.1872 o
84.4219 87.5919 o
95.8071 81.1592 o
110.66 99.8188 o
93.4649 100.832 o
83.0013 102.326 o
94.5844 99.924 o
91.836 97.7747 o
96.3995 100.766 o
100.708 100.504 o
102.284 93.9428 o
94.5185 83.9105 o
96.4781 102.108 o
97.9993 101.431 o
92.6413 89.3211 o
100.401 94.0912 o
88.3146 102.186 o
105.469 117.998 o
87.7241 99.6231 o
97.2154 86.0928 o
102.292 98.2016 o
89.5041 101.851 o
81.1888 90.2534 o
98.6067 108.151 o
88.2863 99.595 o
91.2523 92.6848 o
95.6237 101.829 o
88.8824 85.2495 o
82.5944 99.1146 o
117.098 92.6321 o
90.5536 84.3083 o
99.3486 100.223 o
110.219 104.962 o
112.311 90.7115 o
118.487 94.7868 o
110.785 89.3061 o
104.122 81.5826 o
101.457 106.298 o
115.608 97.425 o
115.541 118.367 o
93.51 104.065 o
68.0289 91.7576 o
91.3261 78.646 o
85.8577 64.0818 o
92.7204 94.5081 o
61.3961 97.438 o
93.0015 99.5078 o
90.5687 89.3724 o
83.6663 96.5156 o
82.0261 101.938 o
91.0943 90.9733 o
100.359 103.452 o
86.2794 105.692 o
106.545 98.598 o
111.435 101.301 o
95.7477 97.8577 o
108.31 100.553 o
83.1072 108.809 o
114.116 104.597 o
88.8318 96.8434 o
83.142 92.3576 o
113.284 103.334 o
85.513 98.825 o
91.2118 103.564 o
101.705 81.529 o
90.1733 93.6569 o
102.898 91.7449 o
115.399 87.3071 o
79.535 108.609 o
93.2677 97.8117 o
99.1879 74.6196 o
86.3839 111.944 o
93.5161 102.027 o
95.5909 97.7119 o
122.159 101.841 o
86.2438 105.233 o
91.8087 116.335 o
96.5339 98.2213 o
87.0954 97.943 o
81.9646 111.122 o
98.653 102.006 o
101.229 99.9661 o
89.8703 100.689 o
89.8192 96.6196 o
93.8862 98.7711 o
108.103 107.132 o
99.8101 89.2915 o
112.657 87.2868 o
110.654 112.905 o
87.6638 84.0151 o
94.8957 91.3497 o
105.696 101.115 o
93.4427 114.788 o
100.096 83.8839 o
107.596 118.584 o
115.048 87.0502 o
93.7026 100.457 o
93.5732 106.317 o
88.075 98.4035 o
89.8517 101.597 o
95.7096 99.0876 o
102.389 96.4138 o
105.699 107.472 o
112.025 84.5406 o
72.4178 96.5426 o
74.5771 100.531 o
102.454 97.1849 o
88.4341 113.764 o
110.305 112.765 o
106.481 99.1518 o
97.6322 100.341 o
96.3528 97.9668 o
100.627 100.589 o
108.575 91.7317 o
82.1055 93.0819 o
103.165 99.6152 o
106.7 105.597 o
96.412 113.296 o
85.9132 89.0172 o
90.5502 104.146 o
98.8027 90.2011 o
109.599 107.988 o
107.016 103.262 o
122.621 100.51 o
91.8315 103.949 o
95.5322 97.9094 o
105.01 96.7334 o
105.646 97.7317 o
101.609 100.319 o
103.719 109.434 o
97.73 95.2512 o
99.783 107.354 o
89.2844 125.37 o
93.3639 102.597 o
94.6274 97.8586 o
107.877 98.4358 o
87.5167 110.624 o
99.5902 92.2138 o
77.4163 90.7339 o
113.552 95.3795 o
93.6614 115.233 o
96.0953 98.6666 o
98.0031 82.8091 o
85.1266 105.88 o
108.562 98.0533 o
94.6352 105.376 o
98.5178 103.686 o
86.7343 96.1376 o
93.1382 82.2837 o
114.955 114.668 o
105.89 117.908 o
98.0963 93.55 o
119.718 101.955 o
96.5694 93.3326 o
103.84 105.082 o
104.326 118.163 o
89.9372 96.1482 o
91.9874 101.893 o
74.1237 107.386 o
122.713 94.2831 o
93.7348 96.3722 o
102.405 99.2701 o
92.3868 92.8524 o
107.921 95.6726 o
104.189 107.391 o
81.5812 121.293 o
99.4964 92.2979 o
105.405 107.771 o
110.064 116.054 o
91.9304 101.077 o
97.2253 116.642 o
73.3308 82.9241 o
98.6274 99.8725 o
98.5363 85.6837 o
100.74 106.473 o
96.588 115.351 o
99.5148 100.73 o
115.055 113.143 o
89.4392 72.7296 o
100.27 98.5437 o
67.5062 127.012 o
94.3784 90.2761 o
99.6104 96.0526 o
96.6767 88.4406 o
95.754 100.394 o
78.4423 100.705 o
84.6433 97.265 o
66.0949 113.051 o
106.871 98.449 o
95.7468 98.1785 o
79.9911 86.9243 o
113.988 89.9746 o
81.1119 105.374 o
102.934 96.1067 o
109.357 98.8641 o
82.8368 120.274 o
83.801 92.4175 o
114.014 93.8741 o
99.069 101.3 o
111.194 99.2991 o
91.2374 104.004 o
95.7333 99.2925 o
106.196 98.1154 o
100.202 101.6 o
87.5568 101.501 o
75.7684 104.572 o
99.4132 88.5865 o
108.547 100.248 o
95.4179 107.587 o
78.5106 110.655 o
99.5387 93.8496 o
73.6265 108.389 o
90.5048 92.7031 o
84.0754 94.0727 o
87.9839 126.974 o
98.9837 96.0856 o
97.3356 110.471 o
123.921 98.8526 o
100.806 100.534 o
96.2633 101.073 o
98.235 99.0099 o
103.596 98.9995 o
79.1925 108.129 o
107.437 86.5453 o
96.852 96.1244 o
64.1262 92.2018 o
98.5933 99.295 o
100.891 93.5355 o
73.5841 113.584 o
91.1887 94.9809 o
126.573 102.305 o
79.2294 96.2248 o
82.1341 98.8469 o
85.0249 98.7033 o
95.1508 97.0258 o
84.1303 109.262 o
106.131 89.5115 o
109.063 100.851 o
97.556 102.093 o
84.0706 94.6917 o
80.115 121.738 o
83.2773 100.843 o
91.3687 101.054 o
110.789 97.932 o
113.63 103.506 o
103.717 104.089 o
89.6902 98.4726 o
106.539 98.4923 o
101.818 102.788 o
95.8697 101.639 o
116.803 105.764 o
40.5093 100.848 o
88.074 114.893 o
118.851 108.087 o
88.7792 96.8778 o
117.877 99.144 o
113.836 100.372 o
102.526 104.203 o
95.7894 112.494 o
97.9811 111.926 o
106.732 121.463 o
98.9682 92.733 o
103.175 99.5163 o
129.32 81.5609 o
92.0956 120.138 o
83.6817 106.159 o
78.5741 99.8329 o
92.173 93.2271 o
83.8383 111.474 o
86.0746 95.9723 o
grestore
0.000 1.000 1.000 setrgbcolor
gsave
140.4 126 34.2 36 clipbox
/o {
gsave
newpath
translate
0.5 setlinewidth
1 setlinejoin
0 setlinecap
0 -0.25 m
0.0663008 -0.25 0.129895 -0.223658 0.176777 -0.176777 c
0.223658 -0.129895 0.25 -0.0663008 0.25 0 c
0.25 0.0663008 0.223658 0.129895 0.176777 0.176777 c
0.129895 0.223658 0.0663008 0.25 0 0.25 c
-0.0663008 0.25 -0.129895 0.223658 -0.176777 0.176777 c
-0.223658 0.129895 -0.25 0.0663008 -0.25 0 c
-0.25 -0.0663008 -0.223658 -0.129895 -0.176777 -0.176777 c
-0.129895 -0.223658 -0.0663008 -0.25 0 -0.25 c
cl
gsave
0.000 1.000 1.000 setrgbcolor
fill
grestore
stroke
grestore
} bind def
110.397 86.287 o
110.312 82.9229 o
108.679 86.7008 o
113.938 84.8069 o
110.662 87.7884 o
107.326 85.7961 o
110.378 81.7616 o
108.438 84.6361 o
109.174 87.2678 o
114.241 84.6343 o
109.247 87.9403 o
111.911 84.0887 o
110.465 88.9496 o
108.488 81.9256 o
112.185 86.9692 o
111.003 86.0326 o
107.879 84.6852 o
109.92 83.9521 o
116.081 88.4722 o
114.034 88.3101 o
113.864 86.6536 o
112.05 87.1218 o
109.988 82.7654 o
112.629 86.5742 o
113.123 80.2165 o
113.205 80.7112 o
110.239 88.0449 o
111.605 84.7579 o
109.266 81.8235 o
107.505 81.787 o
107.287 83.32 o
113.04 85.0529 o
114.02 82.4129 o
115.327 86.7174 o
117.485 88.2054 o
115.44 85.949 o
111.77 86.5295 o
112.262 82.3377 o
111.604 83.085 o
113.568 85.5578 o
111.491 85.1543 o
112.402 83.8773 o
114.02 82.4129 o
115.27 86.9205 o
114.332 83.9904 o
110.623 82.0641 o
grestore
1.000 0.000 0.000 setrgbcolor
gsave
140.4 126 34.2 36 clipbox
/o {
gsave
newpath
translate
0.5 setlinewidth
1 setlinejoin
0 setlinecap
0 -0.25 m
0.0663008 -0.25 0.129895 -0.223658 0.176777 -0.176777 c
0.223658 -0.129895 0.25 -0.0663008 0.25 0 c
0.25 0.0663008 0.223658 0.129895 0.176777 0.176777 c
0.129895 0.223658 0.0663008 0.25 0 0.25 c
-0.0663008 0.25 -0.129895 0.223658 -0.176777 0.176777 c
-0.223658 0.129895 -0.25 0.0663008 -0.25 0 c
-0.25 -0.0663008 -0.223658 -0.129895 -0.176777 -0.176777 c
-0.129895 -0.223658 -0.0663008 -0.25 0 -0.25 c
cl
gsave
1.000 0.000 0.000 setrgbcolor
fill
grestore
stroke
grestore
} bind def
83.1435 121.86 o
79.1122 126.62 o
81.7959 125.548 o
82.4881 122.862 o
85.6101 123.597 o
82.1491 126.094 o
83.0675 125.948 o
81.0864 127.726 o
82.3701 127.053 o
85.5945 120.694 o
82.2735 125.594 o
83.8361 123.052 o
83.3679 129.28 o
79.6169 125.748 o
86.9353 126.604 o
84.4438 125.584 o
86.1787 124.321 o
86.5965 122.912 o
grestore
1.000 setlinewidth
0 setlinejoin
2 setlinecap
0.000 setgray
gsave
34.2 162 m
174.6 162 l
stroke
grestore
gsave
174.6 36 m
174.6 162 l
stroke
grestore
gsave
34.2 36 m
174.6 36 l
stroke
grestore
gsave
34.2 36 m
34.2 162 l
stroke
grestore
0.500 setlinewidth
1 setlinejoin
0 setlinecap
gsave
/o {
gsave
newpath
translate
0.5 setlinewidth
1 setlinejoin
0 setlinecap
0 0 m
0 4 l
gsave
0.000 setgray
fill
grestore
stroke
grestore
} bind def
34.2 36 o
grestore
gsave
/o {
gsave
newpath
translate
0.5 setlinewidth
1 setlinejoin
0 setlinecap
0 0 m
0 -4 l
gsave
0.000 setgray
fill
grestore
stroke
grestore
} bind def
34.2 162 o
grestore
/BitstreamVeraSans-Roman findfont
6.000 scalefont
setfont
gsave
28.387500 27.437500 translate
0.000000 rotate
0.000000 0.000000 m /minus glyphshow
5.027344 0.000000 m /four glyphshow
8.844727 0.000000 m /zero glyphshow
grestore
gsave
/o {
gsave
newpath
translate
0.5 setlinewidth
1 setlinejoin
0 setlinecap
0 0 m
0 4 l
gsave
0.000 setgray
fill
grestore
stroke
grestore
} bind def
49.8 36 o
grestore
gsave
/o {
gsave
newpath
translate
0.5 setlinewidth
1 setlinejoin
0 setlinecap
0 0 m
0 -4 l
gsave
0.000 setgray
fill
grestore
stroke
grestore
} bind def
49.8 162 o
grestore
gsave
43.987500 27.437500 translate
0.000000 rotate
0.000000 0.000000 m /minus glyphshow
5.027344 0.000000 m /three glyphshow
8.844727 0.000000 m /zero glyphshow
grestore
gsave
/o {
gsave
newpath
translate
0.5 setlinewidth
1 setlinejoin
0 setlinecap
0 0 m
0 4 l
gsave
0.000 setgray
fill
grestore
stroke
grestore
} bind def
65.4 36 o
grestore
gsave
/o {
gsave
newpath
translate
0.5 setlinewidth
1 setlinejoin
0 setlinecap
0 0 m
0 -4 l
gsave
0.000 setgray
fill
grestore
stroke
grestore
} bind def
65.4 162 o
grestore
gsave
59.587500 27.437500 translate
0.000000 rotate
0.000000 0.000000 m /minus glyphshow
5.027344 0.000000 m /two glyphshow
8.844727 0.000000 m /zero glyphshow
grestore
gsave
/o {
gsave
newpath
translate
0.5 setlinewidth
1 setlinejoin
0 setlinecap
0 0 m
0 4 l
gsave
0.000 setgray
fill
grestore
stroke
grestore
} bind def
81 36 o
grestore
gsave
/o {
gsave
newpath
translate
0.5 setlinewidth
1 setlinejoin
0 setlinecap
0 0 m
0 -4 l
gsave
0.000 setgray
fill
grestore
stroke
grestore
} bind def
81 162 o
grestore
gsave
75.187500 27.437500 translate
0.000000 rotate
0.000000 0.000000 m /minus glyphshow
5.027344 0.000000 m /one glyphshow
8.844727 0.000000 m /zero glyphshow
grestore
gsave
/o {
gsave
newpath
translate
0.5 setlinewidth
1 setlinejoin
0 setlinecap
0 0 m
0 4 l
gsave
0.000 setgray
fill
grestore
stroke
grestore
} bind def
96.6 36 o
grestore
gsave
/o {
gsave
newpath
translate
0.5 setlinewidth
1 setlinejoin
0 setlinecap
0 0 m
0 -4 l
gsave
0.000 setgray
fill
grestore
stroke
grestore
} bind def
96.6 162 o
grestore
gsave
95.084375 27.437500 translate
0.000000 rotate
0.000000 0.000000 m /zero glyphshow
grestore
gsave
/o {
gsave
newpath
translate
0.5 setlinewidth
1 setlinejoin
0 setlinecap
0 0 m
0 4 l
gsave
0.000 setgray
fill
grestore
stroke
grestore
} bind def
112.2 36 o
grestore
gsave
/o {
gsave
newpath
translate
0.5 setlinewidth
1 setlinejoin
0 setlinecap
0 0 m
0 -4 l
gsave
0.000 setgray
fill
grestore
stroke
grestore
} bind def
112.2 162 o
grestore
gsave
108.910937 27.437500 translate
0.000000 rotate
0.000000 0.000000 m /one glyphshow
3.817383 0.000000 m /zero glyphshow
grestore
gsave
/o {
gsave
newpath
translate
0.5 setlinewidth
1 setlinejoin
0 setlinecap
0 0 m
0 4 l
gsave
0.000 setgray
fill
grestore
stroke
grestore
} bind def
127.8 36 o
grestore
gsave
/o {
gsave
newpath
translate
0.5 setlinewidth
1 setlinejoin
0 setlinecap
0 0 m
0 -4 l
gsave
0.000 setgray
fill
grestore
stroke
grestore
} bind def
127.8 162 o
grestore
gsave
124.401562 27.437500 translate
0.000000 rotate
0.000000 0.000000 m /two glyphshow
3.817383 0.000000 m /zero glyphshow
grestore
gsave
/o {
gsave
newpath
translate
0.5 setlinewidth
1 setlinejoin
0 setlinecap
0 0 m
0 4 l
gsave
0.000 setgray
fill
grestore
stroke
grestore
} bind def
143.4 36 o
grestore
gsave
/o {
gsave
newpath
translate
0.5 setlinewidth
1 setlinejoin
0 setlinecap
0 0 m
0 -4 l
gsave
0.000 setgray
fill
grestore
stroke
grestore
} bind def
143.4 162 o
grestore
gsave
140.009375 27.437500 translate
0.000000 rotate
0.000000 0.000000 m /three glyphshow
3.817383 0.000000 m /zero glyphshow
grestore
gsave
/o {
gsave
newpath
translate
0.5 setlinewidth
1 setlinejoin
0 setlinecap
0 0 m
0 4 l
gsave
0.000 setgray
fill
grestore
stroke
grestore
} bind def
159 36 o
grestore
gsave
/o {
gsave
newpath
translate
0.5 setlinewidth
1 setlinejoin
0 setlinecap
0 0 m
0 -4 l
gsave
0.000 setgray
fill
grestore
stroke
grestore
} bind def
159 162 o
grestore
gsave
155.531250 27.437500 translate
0.000000 rotate
0.000000 0.000000 m /four glyphshow
3.817383 0.000000 m /zero glyphshow
grestore
gsave
/o {
gsave
newpath
translate
0.5 setlinewidth
1 setlinejoin
0 setlinecap
0 0 m
0 4 l
gsave
0.000 setgray
fill
grestore
stroke
grestore
} bind def
174.6 36 o
grestore
gsave
/o {
gsave
newpath
translate
0.5 setlinewidth
1 setlinejoin
0 setlinecap
0 0 m
0 -4 l
gsave
0.000 setgray
fill
grestore
stroke
grestore
} bind def
174.6 162 o
grestore
gsave
171.217187 27.437500 translate
0.000000 rotate
0.000000 0.000000 m /five glyphshow
3.817383 0.000000 m /zero glyphshow
grestore
gsave
90.900000 15.187500 translate
0.000000 rotate
/Cmr10 findfont
8.0 scalefont
setfont
0.000000 0.000000 moveto
/Y glyphshow

/BitstreamVeraSans-Roman findfont
8.0 scalefont
setfont
6.000000 0.000000 moveto
/space glyphshow

/Cmr10 findfont
8.0 scalefont
setfont
8.542969 0.000000 moveto
/parenleft glyphshow

11.648438 0.000000 moveto
/k glyphshow

15.863281 0.000000 moveto
/p glyphshow

20.304688 0.000000 moveto
/c glyphshow

23.855469 0.000000 moveto
/parenright glyphshow


grestore
gsave
/o {
gsave
newpath
translate
0.5 setlinewidth
1 setlinejoin
0 setlinecap
0 0 m
4 0 l
gsave
0.000 setgray
fill
grestore
stroke
grestore
} bind def
34.2 36 o
grestore
gsave
/o {
gsave
newpath
translate
0.5 setlinewidth
1 setlinejoin
0 setlinecap
0 0 m
-4 0 l
gsave
0.000 setgray
fill
grestore
stroke
grestore
} bind def
174.6 36 o
grestore
gsave
18.575000 34.343750 translate
0.000000 rotate
0.000000 0.000000 m /minus glyphshow
5.027344 0.000000 m /four glyphshow
8.844727 0.000000 m /zero glyphshow
grestore
gsave
/o {
gsave
newpath
translate
0.5 setlinewidth
1 setlinejoin
0 setlinecap
0 0 m
4 0 l
gsave
0.000 setgray
fill
grestore
stroke
grestore
} bind def
34.2 51.75 o
grestore
gsave
/o {
gsave
newpath
translate
0.5 setlinewidth
1 setlinejoin
0 setlinecap
0 0 m
-4 0 l
gsave
0.000 setgray
fill
grestore
stroke
grestore
} bind def
174.6 51.75 o
grestore
gsave
18.575000 50.093750 translate
0.000000 rotate
0.000000 0.000000 m /minus glyphshow
5.027344 0.000000 m /three glyphshow
8.844727 0.000000 m /zero glyphshow
grestore
gsave
/o {
gsave
newpath
translate
0.5 setlinewidth
1 setlinejoin
0 setlinecap
0 0 m
4 0 l
gsave
0.000 setgray
fill
grestore
stroke
grestore
} bind def
34.2 67.5 o
grestore
gsave
/o {
gsave
newpath
translate
0.5 setlinewidth
1 setlinejoin
0 setlinecap
0 0 m
-4 0 l
gsave
0.000 setgray
fill
grestore
stroke
grestore
} bind def
174.6 67.5 o
grestore
gsave
18.575000 65.843750 translate
0.000000 rotate
0.000000 0.000000 m /minus glyphshow
5.027344 0.000000 m /two glyphshow
8.844727 0.000000 m /zero glyphshow
grestore
gsave
/o {
gsave
newpath
translate
0.5 setlinewidth
1 setlinejoin
0 setlinecap
0 0 m
4 0 l
gsave
0.000 setgray
fill
grestore
stroke
grestore
} bind def
34.2 83.25 o
grestore
gsave
/o {
gsave
newpath
translate
0.5 setlinewidth
1 setlinejoin
0 setlinecap
0 0 m
-4 0 l
gsave
0.000 setgray
fill
grestore
stroke
grestore
} bind def
174.6 83.25 o
grestore
gsave
18.575000 81.593750 translate
0.000000 rotate
0.000000 0.000000 m /minus glyphshow
5.027344 0.000000 m /one glyphshow
8.844727 0.000000 m /zero glyphshow
grestore
gsave
/o {
gsave
newpath
translate
0.5 setlinewidth
1 setlinejoin
0 setlinecap
0 0 m
4 0 l
gsave
0.000 setgray
fill
grestore
stroke
grestore
} bind def
34.2 99 o
grestore
gsave
/o {
gsave
newpath
translate
0.5 setlinewidth
1 setlinejoin
0 setlinecap
0 0 m
-4 0 l
gsave
0.000 setgray
fill
grestore
stroke
grestore
} bind def
174.6 99 o
grestore
gsave
27.168750 97.343750 translate
0.000000 rotate
0.000000 0.000000 m /zero glyphshow
grestore
gsave
/o {
gsave
newpath
translate
0.5 setlinewidth
1 setlinejoin
0 setlinecap
0 0 m
4 0 l
gsave
0.000 setgray
fill
grestore
stroke
grestore
} bind def
34.2 114.75 o
grestore
gsave
/o {
gsave
newpath
translate
0.5 setlinewidth
1 setlinejoin
0 setlinecap
0 0 m
-4 0 l
gsave
0.000 setgray
fill
grestore
stroke
grestore
} bind def
174.6 114.75 o
grestore
gsave
23.621875 113.093750 translate
0.000000 rotate
0.000000 0.000000 m /one glyphshow
3.817383 0.000000 m /zero glyphshow
grestore
gsave
/o {
gsave
newpath
translate
0.5 setlinewidth
1 setlinejoin
0 setlinecap
0 0 m
4 0 l
gsave
0.000 setgray
fill
grestore
stroke
grestore
} bind def
34.2 130.5 o
grestore
gsave
/o {
gsave
newpath
translate
0.5 setlinewidth
1 setlinejoin
0 setlinecap
0 0 m
-4 0 l
gsave
0.000 setgray
fill
grestore
stroke
grestore
} bind def
174.6 130.5 o
grestore
gsave
23.403125 128.843750 translate
0.000000 rotate
0.000000 0.000000 m /two glyphshow
3.817383 0.000000 m /zero glyphshow
grestore
gsave
/o {
gsave
newpath
translate
0.5 setlinewidth
1 setlinejoin
0 setlinecap
0 0 m
4 0 l
gsave
0.000 setgray
fill
grestore
stroke
grestore
} bind def
34.2 146.25 o
grestore
gsave
/o {
gsave
newpath
translate
0.5 setlinewidth
1 setlinejoin
0 setlinecap
0 0 m
-4 0 l
gsave
0.000 setgray
fill
grestore
stroke
grestore
} bind def
174.6 146.25 o
grestore
gsave
23.418750 144.593750 translate
0.000000 rotate
0.000000 0.000000 m /three glyphshow
3.817383 0.000000 m /zero glyphshow
grestore
gsave
/o {
gsave
newpath
translate
0.5 setlinewidth
1 setlinejoin
0 setlinecap
0 0 m
4 0 l
gsave
0.000 setgray
fill
grestore
stroke
grestore
} bind def
34.2 162 o
grestore
gsave
/o {
gsave
newpath
translate
0.5 setlinewidth
1 setlinejoin
0 setlinecap
0 0 m
-4 0 l
gsave
0.000 setgray
fill
grestore
stroke
grestore
} bind def
174.6 162 o
grestore
gsave
23.262500 160.343750 translate
0.000000 rotate
0.000000 0.000000 m /four glyphshow
3.817383 0.000000 m /zero glyphshow
grestore
gsave
11.575000 86.000000 translate
90.000000 rotate
/Cmr10 findfont
8.0 scalefont
setfont
0.000000 0.000000 moveto
/Z glyphshow

/BitstreamVeraSans-Roman findfont
8.0 scalefont
setfont
4.886719 0.000000 moveto
/space glyphshow

/Cmr10 findfont
8.0 scalefont
setfont
7.429688 0.000000 moveto
/parenleft glyphshow

10.535156 0.000000 moveto
/k glyphshow

14.750000 0.000000 moveto
/p glyphshow

19.191406 0.000000 moveto
/c glyphshow

22.742188 0.000000 moveto
/parenright glyphshow


grestore

end
showpage
