%!PS-Adobe-3.0 EPSF-3.0
%%Title: /Users/iuliasimion/Observing2014/hac_spectra/allyson/reduced_plots/3pops_GM115.eps
%%Creator: matplotlib version 1.4.3, http://matplotlib.org/
%%CreationDate: Sat Aug 19 18:01:27 2017
%%Orientation: portrait
%%BoundingBox: -54 -108 666 900
%%EndComments
%%BeginProlog
/mpldict 11 dict def
mpldict begin
/m { moveto } bind def
/l { lineto } bind def
/r { rlineto } bind def
/c { curveto } bind def
/cl { closepath } bind def
/box {
m
1 index 0 r
0 exch r
neg 0 r
cl
} bind def
/clipbox {
box
clip
newpath
} bind def
%!PS-Adobe-3.0 Resource-Font
%%Title: Bitstream Vera Sans
%%Copyright: Copyright (c) 2003 by Bitstream, Inc. All Rights Reserved.
%%Creator: Converted from TrueType to type 3 by PPR
25 dict begin
/_d{bind def}bind def
/_m{moveto}_d
/_l{lineto}_d
/_cl{closepath eofill}_d
/_c{curveto}_d
/_sc{7 -1 roll{setcachedevice}{pop pop pop pop pop pop}ifelse}_d
/_e{exec}_d
/FontName /BitstreamVeraSans-Roman def
/PaintType 0 def
/FontMatrix[.001 0 0 .001 0 0]def
/FontBBox[-183 -236 1287 928]def
/FontType 3 def
/Encoding [ /space /parenleft /parenright /period /slash /zero /one /two /three /four /five /six /seven /k /m /p /s /minus ] def
/FontInfo 10 dict dup begin
/FamilyName (Bitstream Vera Sans) def
/FullName (Bitstream Vera Sans) def
/Notice (Copyright (c) 2003 by Bitstream, Inc. All Rights Reserved. Bitstream Vera is a trademark of Bitstream, Inc.) def
/Weight (Roman) def
/Version (Release 1.10) def
/ItalicAngle 0.0 def
/isFixedPitch false def
/UnderlinePosition -213 def
/UnderlineThickness 143 def
end readonly def
/CharStrings 18 dict dup begin
/space{318 0 0 0 0 0 _sc
}_d
/parenleft{390 0 86 -131 310 759 _sc
310 759 _m
266 683 234 609 213 536 _c
191 463 181 389 181 314 _c
181 238 191 164 213 91 _c
234 17 266 -56 310 -131 _c
232 -131 _l
183 -54 146 20 122 94 _c
98 168 86 241 86 314 _c
86 386 98 459 122 533 _c
146 607 182 682 232 759 _c
310 759 _l
_cl}_d
/parenright{390 0 80 -131 304 759 _sc
80 759 _m
158 759 _l
206 682 243 607 267 533 _c
291 459 304 386 304 314 _c
304 241 291 168 267 94 _c
243 20 206 -54 158 -131 _c
80 -131 _l
123 -56 155 17 177 91 _c
198 164 209 238 209 314 _c
209 389 198 463 177 536 _c
155 609 123 683 80 759 _c
_cl}_d
/period{318 0 107 0 210 124 _sc
107 124 _m
210 124 _l
210 0 _l
107 0 _l
107 124 _l
_cl}_d
/slash{337 0 0 -92 337 729 _sc
254 729 _m
337 729 _l
83 -92 _l
0 -92 _l
254 729 _l
_cl}_d
/zero{636 0 66 -13 570 742 _sc
318 664 _m
267 664 229 639 203 589 _c
177 539 165 464 165 364 _c
165 264 177 189 203 139 _c
229 89 267 64 318 64 _c
369 64 407 89 433 139 _c
458 189 471 264 471 364 _c
471 464 458 539 433 589 _c
407 639 369 664 318 664 _c
318 742 _m
399 742 461 709 505 645 _c
548 580 570 486 570 364 _c
570 241 548 147 505 83 _c
461 19 399 -13 318 -13 _c
236 -13 173 19 130 83 _c
87 147 66 241 66 364 _c
66 486 87 580 130 645 _c
173 709 236 742 318 742 _c
_cl}_d
/one{636 0 110 0 544 729 _sc
124 83 _m
285 83 _l
285 639 _l
110 604 _l
110 694 _l
284 729 _l
383 729 _l
383 83 _l
544 83 _l
544 0 _l
124 0 _l
124 83 _l
_cl}_d
/two{{636 0 73 0 536 742 _sc
192 83 _m
536 83 _l
536 0 _l
73 0 _l
73 83 _l
110 121 161 173 226 239 _c
290 304 331 346 348 365 _c
380 400 402 430 414 455 _c
426 479 433 504 433 528 _c
433 566 419 598 392 622 _c
365 646 330 659 286 659 _c
255 659 222 653 188 643 _c
154 632 117 616 78 594 _c
78 694 _l
118 710 155 722 189 730 _c
223 738 255 742 284 742 _c
}_e{359 742 419 723 464 685 _c
509 647 532 597 532 534 _c
532 504 526 475 515 449 _c
504 422 484 390 454 354 _c
446 344 420 317 376 272 _c
332 227 271 164 192 83 _c
_cl}_e}_d
/three{{636 0 76 -13 556 742 _sc
406 393 _m
453 383 490 362 516 330 _c
542 298 556 258 556 212 _c
556 140 531 84 482 45 _c
432 6 362 -13 271 -13 _c
240 -13 208 -10 176 -4 _c
144 1 110 10 76 22 _c
76 117 _l
103 101 133 89 166 81 _c
198 73 232 69 268 69 _c
330 69 377 81 409 105 _c
441 129 458 165 458 212 _c
458 254 443 288 413 312 _c
383 336 341 349 287 349 _c
}_e{202 349 _l
202 430 _l
291 430 _l
339 430 376 439 402 459 _c
428 478 441 506 441 543 _c
441 580 427 609 401 629 _c
374 649 336 659 287 659 _c
260 659 231 656 200 650 _c
169 644 135 635 98 623 _c
98 711 _l
135 721 170 729 203 734 _c
235 739 266 742 296 742 _c
370 742 429 725 473 691 _c
517 657 539 611 539 553 _c
539 513 527 479 504 451 _c
481 423 448 403 406 393 _c
_cl}_e}_d
/four{636 0 49 0 580 729 _sc
378 643 _m
129 254 _l
378 254 _l
378 643 _l
352 729 _m
476 729 _l
476 254 _l
580 254 _l
580 172 _l
476 172 _l
476 0 _l
378 0 _l
378 172 _l
49 172 _l
49 267 _l
352 729 _l
_cl}_d
/five{{636 0 77 -13 549 729 _sc
108 729 _m
495 729 _l
495 646 _l
198 646 _l
198 467 _l
212 472 227 476 241 478 _c
255 480 270 482 284 482 _c
365 482 429 459 477 415 _c
525 370 549 310 549 234 _c
549 155 524 94 475 51 _c
426 8 357 -13 269 -13 _c
238 -13 207 -10 175 -6 _c
143 -1 111 6 77 17 _c
77 116 _l
106 100 136 88 168 80 _c
199 72 232 69 267 69 _c
}_e{323 69 368 83 401 113 _c
433 143 450 183 450 234 _c
450 284 433 324 401 354 _c
368 384 323 399 267 399 _c
241 399 214 396 188 390 _c
162 384 135 375 108 363 _c
108 729 _l
_cl}_e}_d
/six{{636 0 70 -13 573 742 _sc
330 404 _m
286 404 251 388 225 358 _c
199 328 186 286 186 234 _c
186 181 199 139 225 109 _c
251 79 286 64 330 64 _c
374 64 409 79 435 109 _c
461 139 474 181 474 234 _c
474 286 461 328 435 358 _c
409 388 374 404 330 404 _c
526 713 _m
526 623 _l
501 635 476 644 451 650 _c
425 656 400 659 376 659 _c
310 659 260 637 226 593 _c
}_e{192 549 172 482 168 394 _c
187 422 211 444 240 459 _c
269 474 301 482 336 482 _c
409 482 467 459 509 415 _c
551 371 573 310 573 234 _c
573 159 550 99 506 54 _c
462 9 403 -13 330 -13 _c
246 -13 181 19 137 83 _c
92 147 70 241 70 364 _c
70 479 97 571 152 639 _c
206 707 280 742 372 742 _c
396 742 421 739 447 735 _c
472 730 498 723 526 713 _c
_cl}_e}_d
/seven{636 0 82 0 551 729 _sc
82 729 _m
551 729 _l
551 687 _l
286 0 _l
183 0 _l
432 646 _l
82 646 _l
82 729 _l
_cl}_d
/k{579 0 91 0 576 760 _sc
91 760 _m
181 760 _l
181 311 _l
449 547 _l
564 547 _l
274 291 _l
576 0 _l
459 0 _l
181 267 _l
181 0 _l
91 0 _l
91 760 _l
_cl}_d
/m{{974 0 91 0 889 560 _sc
520 442 _m
542 482 569 511 600 531 _c
631 550 668 560 711 560 _c
767 560 811 540 842 500 _c
873 460 889 403 889 330 _c
889 0 _l
799 0 _l
799 327 _l
799 379 789 418 771 444 _c
752 469 724 482 686 482 _c
639 482 602 466 575 435 _c
548 404 535 362 535 309 _c
535 0 _l
445 0 _l
445 327 _l
445 379 435 418 417 444 _c
398 469 369 482 331 482 _c
}_e{285 482 248 466 221 435 _c
194 404 181 362 181 309 _c
181 0 _l
91 0 _l
91 547 _l
181 547 _l
181 462 _l
201 495 226 520 255 536 _c
283 552 317 560 357 560 _c
397 560 430 550 458 530 _c
486 510 506 480 520 442 _c
_cl}_e}_d
/p{{635 0 91 -207 580 560 _sc
181 82 _m
181 -207 _l
91 -207 _l
91 547 _l
181 547 _l
181 464 _l
199 496 223 520 252 536 _c
281 552 316 560 356 560 _c
422 560 476 533 518 481 _c
559 428 580 359 580 273 _c
580 187 559 117 518 65 _c
476 13 422 -13 356 -13 _c
316 -13 281 -5 252 10 _c
223 25 199 49 181 82 _c
487 273 _m
487 339 473 390 446 428 _c
418 466 381 485 334 485 _c
}_e{286 485 249 466 222 428 _c
194 390 181 339 181 273 _c
181 207 194 155 222 117 _c
249 79 286 61 334 61 _c
381 61 418 79 446 117 _c
473 155 487 207 487 273 _c
_cl}_e}_d
/s{{521 0 54 -13 472 560 _sc
443 531 _m
443 446 _l
417 458 391 468 364 475 _c
336 481 308 485 279 485 _c
234 485 200 478 178 464 _c
156 450 145 430 145 403 _c
145 382 153 366 169 354 _c
185 342 217 330 265 320 _c
296 313 _l
360 299 405 279 432 255 _c
458 230 472 195 472 151 _c
472 100 452 60 412 31 _c
372 1 316 -13 246 -13 _c
216 -13 186 -10 154 -5 _c
}_e{122 0 89 8 54 20 _c
54 113 _l
87 95 120 82 152 74 _c
184 65 216 61 248 61 _c
290 61 323 68 346 82 _c
368 96 380 117 380 144 _c
380 168 371 187 355 200 _c
339 213 303 226 247 238 _c
216 245 _l
160 257 119 275 95 299 _c
70 323 58 356 58 399 _c
58 450 76 490 112 518 _c
148 546 200 560 268 560 _c
301 560 332 557 362 552 _c
391 547 418 540 443 531 _c
}_e{_cl}_e}_d
/minus{838 0 106 272 732 355 _sc
106 355 _m
732 355 _l
732 272 _l
106 272 _l
106 355 _l
_cl}_d
end readonly def

/BuildGlyph
 {exch begin
 CharStrings exch
 2 copy known not{pop /.notdef}if
 true 3 1 roll get exec
 end}_d

/BuildChar {
 1 index /Encoding get exch get
 1 index /BuildGlyph get exec
}_d

FontName currentdict end definefont pop
%!PS-Adobe-3.0 Resource-Font
%%Title: cmsy10
%%Copyright: Copyright (C) 1994, Basil K. Malyshev. All Rights Reserved.012BaKoMa Fonts Collection, Level-B.
%%Creator: Converted from TrueType to type 3 by PPR
25 dict begin
/_d{bind def}bind def
/_m{moveto}_d
/_l{lineto}_d
/_cl{closepath eofill}_d
/_c{curveto}_d
/_sc{7 -1 roll{setcachedevice}{pop pop pop pop pop pop}ifelse}_d
/_e{exec}_d
/FontName /Cmsy10 def
/PaintType 0 def
/FontMatrix[.001 0 0 .001 0 0]def
/FontBBox[-29 -960 1123 779]def
/FontType 3 def
/Encoding [ /minus ] def
/FontInfo 10 dict dup begin
/FamilyName (cmsy10) def
/FullName (cmsy10) def
/Notice (Copyright (C) 1994, Basil K. Malyshev. All Rights Reserved.012BaKoMa Fonts Collection, Level-B. ) def
/Weight (Regular) def
/Version (1.1/12-Nov-94) def
/ItalicAngle 0.0 def
/isFixedPitch false def
/UnderlinePosition -133 def
/UnderlineThickness 20 def
end readonly def
/CharStrings 1 dict dup begin
/minus{777 0 83 230 694 270 _sc
102 230 _m
96 230 92 232 88 236 _c
84 240 83 245 83 250 _c
83 254 84 259 88 263 _c
92 267 96 270 102 270 _c
676 270 _l
681 270 685 267 689 263 _c
692 259 694 254 694 250 _c
694 245 692 240 689 236 _c
685 232 681 230 676 230 _c
102 230 _l
_cl}_d
end readonly def

/BuildGlyph
 {exch begin
 CharStrings exch
 2 copy known not{pop /.notdef}if
 true 3 1 roll get exec
 end}_d

/BuildChar {
 1 index /Encoding get exch get
 1 index /BuildGlyph get exec
}_d

FontName currentdict end definefont pop
%!PS-Adobe-3.0 Resource-Font
%%Title: cmr10
%%Copyright: Copyright (C) 1994, Basil K. Malyshev. All Rights Reserved.012BaKoMa Fonts Collection, Level-B.
%%Creator: Converted from TrueType to type 3 by PPR
25 dict begin
/_d{bind def}bind def
/_m{moveto}_d
/_l{lineto}_d
/_cl{closepath eofill}_d
/_c{curveto}_d
/_sc{7 -1 roll{setcachedevice}{pop pop pop pop pop pop}ifelse}_d
/_e{exec}_d
/FontName /Cmr10 def
/PaintType 0 def
/FontMatrix[.001 0 0 .001 0 0]def
/FontBBox[-44 -250 1009 750]def
/FontType 3 def
/Encoding [ /g /t /B /i /S /H /parenright /L /s /R /G /a /n /parenleft /K ] def
/FontInfo 10 dict dup begin
/FamilyName (cmr10) def
/FullName (cmr10) def
/Notice (Copyright (C) 1994, Basil K. Malyshev. All Rights Reserved.012BaKoMa Fonts Collection, Level-B. ) def
/Weight (Regular) def
/Version (1.1/12-Nov-94) def
/ItalicAngle 0.0 def
/isFixedPitch false def
/UnderlinePosition -133 def
/UnderlineThickness 20 def
end readonly def
/CharStrings 15 dict dup begin
/g{{500 0 28 -205 485 453 _sc
28 -77 _m
28 -53 36 -32 54 -15 _c
71 2 91 14 115 22 _c
101 32 91 44 84 60 _c
77 75 74 91 74 109 _c
74 140 84 168 104 192 _c
73 222 58 256 58 295 _c
58 315 62 335 71 353 _c
80 371 93 387 109 401 _c
125 414 142 424 162 431 _c
181 438 201 442 222 442 _c
262 442 297 430 329 407 _c
343 421 359 433 378 441 _c
}_e{396 449 416 453 436 453 _c
450 453 462 447 471 437 _c
480 427 485 415 485 401 _c
485 393 481 385 475 379 _c
469 373 462 370 454 370 _c
445 370 438 373 432 379 _c
426 385 423 393 423 401 _c
423 413 427 421 435 427 _c
400 427 370 415 346 391 _c
358 379 367 364 375 347 _c
382 329 386 312 386 295 _c
386 266 378 240 362 218 _c
346 196 326 178 301 166 _c
}_e{275 153 249 147 222 147 _c
185 147 152 157 122 177 _c
112 163 108 149 108 133 _c
108 115 113 99 125 86 _c
137 73 151 67 169 67 _c
251 67 _l
291 67 326 63 358 56 _c
390 48 416 34 438 13 _c
460 -7 471 -37 471 -77 _c
471 -106 458 -130 434 -150 _c
409 -169 379 -183 345 -192 _c
311 -200 279 -205 250 -205 _c
220 -205 188 -200 154 -192 _c
119 -183 89 -169 65 -150 _c
}_e{40 -130 28 -106 28 -77 _c
84 -77 _m
84 -99 93 -118 111 -133 _c
129 -148 151 -159 177 -167 _c
203 -174 227 -178 250 -178 _c
272 -178 296 -174 322 -167 _c
348 -159 370 -148 388 -133 _c
406 -118 415 -99 415 -77 _c
415 -42 399 -20 367 -10 _c
335 0 296 5 251 5 _c
169 5 _l
153 5 139 1 126 -5 _c
113 -12 103 -22 95 -36 _c
87 -49 84 -63 84 -77 _c
222 174 _m
}_e{278 174 307 214 307 295 _c
307 329 301 358 289 381 _c
277 403 254 415 222 415 _c
189 415 167 403 155 381 _c
143 358 137 329 137 295 _c
137 273 139 253 144 235 _c
148 217 157 202 169 191 _c
181 179 199 174 222 174 _c
_cl}_e}_d
/t{{388 0 19 -10 332 615 _sc
102 120 _m
102 396 _l
19 396 _l
19 422 _l
62 422 94 442 115 483 _c
135 523 146 567 146 615 _c
175 615 _l
175 431 _l
316 431 _l
316 396 _l
175 396 _l
175 122 _l
175 94 179 70 189 49 _c
198 28 215 18 239 18 _c
261 18 278 29 288 51 _c
298 73 303 96 303 122 _c
303 181 _l
332 181 _l
332 120 _l
332 99 328 78 320 58 _c
}_e{312 38 301 21 286 9 _c
271 -3 253 -10 232 -10 _c
192 -10 160 1 137 25 _c
113 49 102 80 102 120 _c
_cl}_e}_d
/B{{708 0 34 0 651 683 _sc
34 0 _m
34 35 _l
102 35 137 45 137 67 _c
137 616 _l
137 637 102 648 34 648 _c
34 683 _l
402 683 _l
436 683 470 676 504 663 _c
538 650 567 631 590 605 _c
612 579 624 548 624 513 _c
624 472 607 438 574 411 _c
540 383 501 365 457 357 _c
485 357 515 349 546 333 _c
576 317 601 295 621 269 _c
641 242 651 214 651 184 _c
651 147 640 115 618 87 _c
}_e{596 59 568 37 534 22 _c
499 7 464 0 430 0 _c
34 0 _l
224 67 _m
224 52 228 43 236 40 _c
244 36 257 35 275 35 _c
402 35 _l
428 35 452 41 474 55 _c
496 69 514 87 527 110 _c
540 133 547 158 547 184 _c
547 209 541 234 531 258 _c
520 282 505 302 485 318 _c
465 334 442 342 416 342 _c
224 342 _l
224 67 _l
224 368 _m
374 368 _l
}_e{394 368 413 371 431 379 _c
449 386 465 397 479 411 _c
493 425 503 440 511 458 _c
519 475 523 493 523 513 _c
523 530 520 547 514 563 _c
508 579 500 593 489 606 _c
478 619 465 629 450 637 _c
435 644 419 648 402 648 _c
275 648 _l
263 648 253 647 247 646 _c
240 645 234 642 230 638 _c
226 633 224 626 224 616 _c
224 368 _l
_cl}_e}_d
/i{{277 0 31 0 249 669 _sc
31 0 _m
31 35 _l
53 35 72 36 87 40 _c
101 44 109 53 109 67 _c
109 340 _l
109 365 104 381 94 387 _c
84 393 64 396 35 396 _c
35 431 _l
179 442 _l
179 67 _l
179 53 185 44 198 40 _c
210 36 227 35 249 35 _c
249 0 _l
31 0 _l
73 614 _m
73 628 78 641 89 652 _c
100 663 113 669 128 669 _c
137 669 146 666 155 661 _c
}_e{163 656 170 649 175 641 _c
180 632 183 623 183 614 _c
183 599 177 586 166 575 _c
155 564 142 559 128 559 _c
113 559 100 564 89 575 _c
78 586 73 599 73 614 _c
_cl}_e}_d
/S{{555 0 56 -21 499 705 _sc
56 -13 _m
56 219 _l
56 224 59 227 65 227 _c
77 227 _l
79 227 80 226 82 224 _c
84 222 85 221 85 219 _c
85 153 105 103 146 67 _c
186 31 239 13 305 13 _c
328 13 349 19 369 33 _c
388 46 403 63 414 85 _c
425 107 431 129 431 153 _c
431 173 427 192 419 211 _c
411 230 399 247 384 261 _c
368 275 351 284 332 289 _c
202 321 _l
}_e{159 332 124 355 97 391 _c
69 426 56 466 56 510 _c
56 544 64 577 82 607 _c
100 637 123 660 153 678 _c
183 696 215 705 250 705 _c
316 705 369 682 409 637 _c
450 702 _l
452 704 454 705 457 705 _c
464 705 _l
466 705 467 704 469 703 _c
471 701 472 699 472 697 _c
472 465 _l
472 459 469 456 464 456 _c
452 456 _l
446 456 443 459 443 465 _c
443 481 440 500 434 520 _c
}_e{428 540 421 560 411 578 _c
401 596 390 612 378 624 _c
346 656 303 673 250 673 _c
227 673 206 667 187 655 _c
167 643 152 628 141 608 _c
129 588 124 568 124 546 _c
124 517 132 491 150 468 _c
168 444 191 429 220 422 _c
350 390 _l
371 384 391 375 410 362 _c
429 348 445 333 458 315 _c
471 297 481 277 488 255 _c
495 233 499 210 499 187 _c
499 151 490 117 474 85 _c
}_e{457 53 434 27 404 8 _c
374 -11 341 -21 305 -21 _c
283 -21 260 -18 237 -13 _c
214 -8 193 -1 173 8 _c
153 18 136 31 120 47 _c
78 -18 _l
76 -20 73 -21 71 -21 _c
65 -21 _l
59 -21 56 -18 56 -13 _c
_cl}_e}_d
/H{{750 0 31 0 718 683 _sc
31 0 _m
31 35 _l
99 35 134 45 134 67 _c
134 616 _l
134 637 99 648 31 648 _c
31 683 _l
330 683 _l
330 648 _l
261 648 227 637 227 616 _c
227 373 _l
522 373 _l
522 616 _l
522 637 487 648 419 648 _c
419 683 _l
718 683 _l
718 648 _l
649 648 615 637 615 616 _c
615 67 _l
615 45 649 35 718 35 _c
718 0 _l
419 0 _l
419 35 _l
}_e{487 35 522 45 522 67 _c
522 338 _l
227 338 _l
227 67 _l
227 45 261 35 330 35 _c
330 0 _l
31 0 _l
_cl}_e}_d
/parenright{{388 0 56 -249 291 750 _sc
65 -249 _m
59 -249 56 -246 56 -240 _c
56 -237 56 -235 58 -234 _c
172 -122 229 38 229 250 _c
229 462 172 623 60 733 _c
57 734 56 737 56 741 _c
56 743 57 745 59 747 _c
61 749 63 750 65 750 _c
74 750 _l
76 750 77 749 79 748 _c
127 710 167 664 199 610 _c
231 556 254 498 269 437 _c
283 376 291 314 291 250 _c
291 202 287 156 279 110 _c
}_e{271 64 258 20 241 -24 _c
223 -68 201 -108 175 -146 _c
148 -184 116 -217 79 -247 _c
77 -248 76 -249 74 -249 _c
65 -249 _l
_cl}_e}_d
/L{625 0 31 0 582 683 _sc
31 0 _m
31 35 _l
99 35 134 45 134 67 _c
134 616 _l
134 637 99 648 31 648 _c
31 683 _l
355 683 _l
355 648 _l
269 648 227 637 227 616 _c
227 67 _l
227 52 231 43 239 40 _c
247 36 260 35 278 35 _c
355 35 _l
405 35 443 44 470 62 _c
497 80 516 105 527 137 _c
538 168 547 210 553 262 _c
582 262 _l
554 0 _l
31 0 _l
_cl}_d
/s{{394 0 33 -10 360 448 _sc
33 -2 _m
33 160 _l
33 165 36 168 42 168 _c
54 168 _l
58 168 60 165 62 160 _c
80 63 125 15 197 15 _c
228 15 254 22 276 36 _c
297 50 308 73 308 103 _c
308 124 299 142 283 158 _c
266 173 246 183 224 189 _c
157 202 _l
135 206 114 214 96 224 _c
77 234 62 248 50 265 _c
38 281 33 301 33 323 _c
33 352 40 376 56 395 _c
}_e{72 413 92 427 117 435 _c
141 443 168 448 197 448 _c
231 448 260 439 286 421 _c
315 446 _l
315 447 316 448 320 448 _c
327 448 _l
329 448 330 447 332 445 _c
334 443 335 442 335 440 _c
335 309 _l
335 303 332 300 327 300 _c
315 300 _l
309 300 306 303 306 309 _c
306 343 296 371 277 393 _c
257 414 230 425 196 425 _c
166 425 140 419 118 408 _c
96 397 85 378 85 351 _c
}_e{85 332 92 317 108 305 _c
124 293 142 285 164 280 _c
232 267 _l
254 261 275 252 295 240 _c
315 228 330 212 342 194 _c
354 175 360 154 360 130 _c
360 106 355 85 347 67 _c
339 49 327 35 313 23 _c
298 11 280 2 260 -2 _c
240 -7 219 -10 197 -10 _c
155 -10 119 3 90 31 _c
53 -8 _l
53 -9 51 -10 48 -10 _c
42 -10 _l
36 -10 33 -7 33 -2 _c
_cl}_e}_d
/R{{736 0 33 -21 732 683 _sc
33 0 _m
33 35 _l
101 35 136 45 136 67 _c
136 616 _l
136 637 101 648 33 648 _c
33 683 _l
347 683 _l
384 683 423 676 465 663 _c
506 649 540 629 568 601 _c
596 573 610 540 610 502 _c
610 474 601 449 585 427 _c
568 405 546 386 520 372 _c
494 357 467 346 440 340 _c
470 329 496 312 518 290 _c
540 267 554 241 559 212 _c
573 123 _l
}_e{579 83 586 53 593 33 _c
600 13 616 4 641 4 _c
661 4 677 13 687 33 _c
697 52 703 73 703 96 _c
703 98 704 100 706 102 _c
708 104 710 105 713 105 _c
722 105 _l
728 105 732 100 732 92 _c
732 73 728 55 721 38 _c
713 20 703 6 690 -4 _c
676 -15 660 -21 642 -21 _c
594 -21 552 -9 518 14 _c
483 38 466 73 466 119 _c
466 208 _l
466 241 454 269 431 293 _c
}_e{407 317 379 329 346 329 _c
226 329 _l
226 67 _l
226 45 260 35 329 35 _c
329 0 _l
33 0 _l
226 355 _m
333 355 _l
388 355 430 366 459 388 _c
488 410 503 448 503 502 _c
503 555 488 593 460 615 _c
431 637 389 648 333 648 _c
277 648 _l
265 648 255 647 249 646 _c
242 645 236 642 232 638 _c
228 633 226 626 226 616 _c
226 355 _l
_cl}_e}_d
/G{{784 0 56 -21 735 705 _sc
230 107 _m
254 77 283 54 318 38 _c
352 21 389 13 427 13 _c
463 13 497 22 527 41 _c
557 60 573 87 573 122 _c
573 206 _l
573 227 531 238 448 238 _c
448 273 _l
735 273 _l
735 238 _l
713 238 696 236 684 232 _c
672 228 666 220 666 206 _c
666 9 _l
666 6 665 4 663 2 _c
661 0 659 0 657 0 _c
651 0 640 7 626 22 _c
}_e{611 36 600 49 592 61 _c
575 33 549 12 515 -1 _c
480 -14 444 -21 406 -21 _c
341 -21 282 -4 229 28 _c
175 61 133 106 102 162 _c
71 218 56 278 56 342 _c
56 389 65 435 83 479 _c
101 523 126 563 158 597 _c
190 631 227 657 270 676 _c
312 695 358 705 406 705 _c
440 705 473 697 504 683 _c
534 668 562 647 586 620 _c
644 702 _l
648 704 650 705 651 705 _c
658 705 _l
}_e{660 705 661 704 663 702 _c
665 700 666 699 666 697 _c
666 427 _l
666 421 663 418 658 418 _c
640 418 _l
634 418 631 421 631 427 _c
631 446 627 467 619 491 _c
611 515 602 537 590 559 _c
578 580 564 599 549 615 _c
511 651 468 670 420 670 _c
382 670 347 661 313 645 _c
279 628 251 605 228 576 _c
203 544 186 509 177 469 _c
167 429 163 387 163 342 _c
163 239 185 161 230 107 _c
}_e{_cl}_e}_d
/a{{500 0 40 -10 493 448 _sc
40 98 _m
40 138 55 170 87 195 _c
118 219 155 237 199 247 _c
243 257 284 263 324 263 _c
324 304 _l
324 323 319 342 311 360 _c
303 378 291 392 275 404 _c
259 416 241 422 222 422 _c
178 422 144 412 121 392 _c
133 392 144 387 152 377 _c
160 367 165 356 165 344 _c
165 330 160 319 151 310 _c
141 300 130 296 117 296 _c
103 296 92 300 83 310 _c
}_e{73 319 69 330 69 344 _c
69 379 85 405 117 422 _c
149 439 184 448 222 448 _c
249 448 276 442 304 431 _c
331 419 353 403 371 381 _c
388 359 397 334 397 306 _c
397 81 _l
397 68 399 56 405 45 _c
411 34 419 29 431 29 _c
442 29 450 34 456 45 _c
461 56 464 68 464 81 _c
464 145 _l
493 145 _l
493 81 _l
493 66 489 52 481 38 _c
473 24 463 14 450 6 _c
}_e{436 -1 422 -5 407 -5 _c
387 -5 370 2 356 17 _c
342 32 334 50 333 71 _c
320 45 302 25 278 11 _c
254 -3 228 -10 201 -10 _c
175 -10 150 -6 126 0 _c
101 7 80 19 64 35 _c
48 51 40 72 40 98 _c
121 98 _m
121 74 129 55 147 39 _c
164 23 184 15 208 15 _c
229 15 248 20 266 31 _c
284 41 298 56 308 75 _c
318 93 324 113 324 134 _c
324 238 _l
}_e{294 238 263 233 231 223 _c
199 213 173 197 152 176 _c
131 155 121 129 121 98 _c
_cl}_e}_d
/n{{555 0 30 0 537 442 _sc
30 0 _m
30 35 _l
52 35 71 36 86 40 _c
100 44 108 53 108 67 _c
108 340 _l
108 358 105 371 100 379 _c
94 387 87 391 77 393 _c
67 395 51 396 30 396 _c
30 431 _l
175 442 _l
175 344 _l
188 372 208 396 234 414 _c
260 432 288 442 320 442 _c
366 442 400 430 424 408 _c
447 386 459 352 459 307 _c
459 67 _l
459 53 466 44 481 40 _c
}_e{495 36 514 35 537 35 _c
537 0 _l
308 0 _l
308 35 _l
330 35 349 36 364 40 _c
378 44 386 53 386 67 _c
386 304 _l
386 336 381 363 372 384 _c
362 405 343 416 314 416 _c
275 416 243 400 218 369 _c
193 338 181 303 181 264 _c
181 67 _l
181 53 188 44 203 40 _c
217 36 236 35 259 35 _c
259 0 _l
30 0 _l
_cl}_e}_d
/parenleft{{388 0 97 -249 332 750 _sc
310 -247 _m
272 -217 240 -184 214 -146 _c
187 -108 165 -67 148 -25 _c
131 17 118 62 110 109 _c
101 155 97 202 97 250 _c
97 298 101 345 110 392 _c
118 438 131 483 149 527 _c
166 570 188 611 215 649 _c
242 687 274 720 310 748 _c
310 749 311 750 315 750 _c
324 750 _l
326 750 327 749 329 747 _c
331 745 332 743 332 741 _c
332 738 331 736 330 735 _c
}_e{297 703 270 668 248 632 _c
226 596 209 557 196 516 _c
183 474 174 432 168 388 _c
162 344 159 298 159 250 _c
159 38 215 -122 329 -232 _c
331 -234 332 -236 332 -240 _c
332 -242 331 -244 329 -246 _c
327 -248 326 -249 324 -249 _c
315 -249 _l
311 -249 310 -248 310 -247 _c
_cl}_e}_d
/K{{777 0 31 0 736 683 _sc
31 0 _m
31 35 _l
99 35 134 45 134 67 _c
134 616 _l
134 637 99 648 31 648 _c
31 683 _l
330 683 _l
330 648 _l
261 648 227 637 227 616 _c
227 292 _l
536 589 _l
544 598 549 607 549 616 _c
549 626 544 634 535 640 _c
526 645 516 648 505 648 _c
505 683 _l
722 683 _l
722 648 _l
667 648 619 628 578 589 _c
401 419 _l
620 94 _l
}_e{638 68 653 51 667 45 _c
681 38 704 35 736 35 _c
736 0 _l
474 0 _l
474 35 _l
490 35 503 36 514 40 _c
525 43 531 51 531 63 _c
531 71 526 81 518 94 _c
339 360 _l
227 252 _l
227 67 _l
227 45 261 35 330 35 _c
330 0 _l
31 0 _l
_cl}_e}_d
end readonly def

/BuildGlyph
 {exch begin
 CharStrings exch
 2 copy known not{pop /.notdef}if
 true 3 1 roll get exec
 end}_d

/BuildChar {
 1 index /Encoding get exch get
 1 index /BuildGlyph get exec
}_d

FontName currentdict end definefont pop
%!PS-Adobe-3.0 Resource-Font
%%Title: cmmi10
%%Copyright: Copyright (C) 1994, Basil K. Malyshev. All Rights Reserved.012BaKoMa Fonts Collection, Level-B.
%%Creator: Converted from TrueType to type 3 by PPR
25 dict begin
/_d{bind def}bind def
/_m{moveto}_d
/_l{lineto}_d
/_cl{closepath eofill}_d
/_c{curveto}_d
/_sc{7 -1 roll{setcachedevice}{pop pop pop pop pop pop}ifelse}_d
/_e{exec}_d
/FontName /Cmmi10 def
/PaintType 0 def
/FontMatrix[.001 0 0 .001 0 0]def
/FontBBox[-34 -250 1048 750]def
/FontType 3 def
/Encoding [ /v ] def
/FontInfo 10 dict dup begin
/FamilyName (cmmi10) def
/FullName (cmmi10) def
/Notice (Copyright (C) 1994, Basil K. Malyshev. All Rights Reserved.012BaKoMa Fonts Collection, Level-B. ) def
/Weight (Regular) def
/Version (1.1/12-Nov-94) def
/ItalicAngle 0.0 def
/isFixedPitch false def
/UnderlinePosition -133 def
/UnderlineThickness 20 def
end readonly def
/CharStrings 1 dict dup begin
/v{{484 0 27 -10 467 443 _sc
107 113 _m
107 127 108 144 112 162 _c
116 180 119 194 123 206 _c
126 218 134 240 147 274 _c
160 307 167 324 167 326 _c
175 350 180 370 180 386 _c
180 406 172 416 158 416 _c
132 416 110 402 93 375 _c
75 347 63 317 55 284 _c
53 280 51 278 47 278 _c
35 278 _l
29 278 27 281 27 287 _c
27 290 _l
37 330 54 365 76 396 _c
}_e{98 426 126 442 160 442 _c
184 442 204 434 220 418 _c
236 402 245 383 245 359 _c
245 346 242 333 237 320 _c
223 286 213 258 206 238 _c
198 218 191 195 185 170 _c
179 144 176 121 176 100 _c
176 75 181 55 193 39 _c
204 23 222 15 247 15 _c
293 15 334 50 372 122 _c
384 145 395 172 405 203 _c
415 234 421 260 421 280 _c
421 300 417 315 411 327 _c
}_e{404 338 395 350 385 362 _c
375 374 370 383 370 391 _c
370 404 375 416 386 427 _c
396 437 408 443 422 443 _c
438 443 449 435 456 421 _c
463 406 467 389 467 371 _c
467 349 463 322 457 292 _c
451 261 442 229 431 196 _c
419 163 409 137 400 119 _c
356 33 304 -10 246 -10 _c
204 -10 170 0 145 21 _c
119 41 107 72 107 113 _c
_cl}_e}_d
end readonly def

/BuildGlyph
 {exch begin
 CharStrings exch
 2 copy known not{pop /.notdef}if
 true 3 1 roll get exec
 end}_d

/BuildChar {
 1 index /Encoding get exch get
 1 index /BuildGlyph get exec
}_d

FontName currentdict end definefont pop
end
%%EndProlog
mpldict begin
-54 -108 translate
720 1008 0 0 clipbox
gsave
0 0 m
720 0 l
720 1008 l
0 1008 l
cl
1.000 setgray
fill
grestore
gsave
90 670.024 m
648 670.024 l
648 907.2 l
90 907.2 l
cl
1.000 setgray
fill
grestore
1.000 setlinewidth
0 setlinejoin
0 setlinecap
[] 0 setdash
0.000 setgray
gsave
558 237.2 90 670 clipbox
90 670.024 m
90 670.024 l
115.364 670.024 l
115.364 670.024 l
140.727 670.024 l
140.727 691.2 l
166.091 691.2 l
166.091 775.906 l
191.455 775.906 l
191.455 712.376 l
216.818 712.376 l
216.818 733.553 l
242.182 733.553 l
242.182 733.553 l
267.545 733.553 l
267.545 691.2 l
292.909 691.2 l
292.909 712.376 l
318.273 712.376 l
318.273 775.906 l
343.636 775.906 l
343.636 775.906 l
369 775.906 l
369 754.729 l
394.364 754.729 l
394.364 754.729 l
419.727 754.729 l
419.727 691.2 l
445.091 691.2 l
445.091 733.553 l
470.455 733.553 l
470.455 691.2 l
495.818 691.2 l
495.818 754.729 l
521.182 754.729 l
521.182 670.024 l
546.545 670.024 l
546.545 670.024 l
571.909 670.024 l
571.909 670.024 l
597.273 670.024 l
597.273 670.024 l
622.636 670.024 l
622.636 670.024 l
648 670.024 l
648 670.024 l
622.636 670.024 l
622.636 670.024 l
597.273 670.024 l
597.273 670.024 l
571.909 670.024 l
571.909 670.024 l
546.545 670.024 l
546.545 670.024 l
521.182 670.024 l
521.182 670.024 l
495.818 670.024 l
495.818 670.024 l
470.455 670.024 l
470.455 670.024 l
445.091 670.024 l
445.091 670.024 l
419.727 670.024 l
419.727 670.024 l
394.364 670.024 l
394.364 670.024 l
369 670.024 l
369 670.024 l
343.636 670.024 l
343.636 670.024 l
318.273 670.024 l
318.273 670.024 l
292.909 670.024 l
292.909 670.024 l
267.545 670.024 l
267.545 670.024 l
242.182 670.024 l
242.182 670.024 l
216.818 670.024 l
216.818 670.024 l
191.455 670.024 l
191.455 670.024 l
166.091 670.024 l
166.091 670.024 l
140.727 670.024 l
140.727 670.024 l
115.364 670.024 l
115.364 670.024 l
cl
gsave
0.000 0.749 1.000 setrgbcolor
fill
grestore
stroke
grestore
1 setlinejoin
[6 6] 0 setdash
0.502 setgray
gsave
558 237.2 90 670 clipbox
90 670.276 m
104.794 670.555 l
113.169 670.919 l
119.031 671.382 l
123.776 671.976 l
127.684 672.685 l
131.034 673.507 l
134.104 674.482 l
136.895 675.593 l
139.687 676.955 l
142.199 678.429 l
144.711 680.169 l
147.224 682.202 l
149.736 684.554 l
152.248 687.247 l
154.76 690.295 l
157.273 693.708 l
159.785 697.485 l
162.576 702.094 l
165.647 707.625 l
168.996 714.124 l
173.463 723.309 l
181.837 740.639 l
184.907 746.456 l
187.42 750.792 l
189.653 754.241 l
191.607 756.896 l
193.561 759.175 l
195.236 760.806 l
196.91 762.122 l
198.306 762.972 l
199.702 763.592 l
201.098 763.98 l
202.493 764.136 l
203.889 764.061 l
205.285 763.761 l
206.68 763.241 l
208.076 762.508 l
209.751 761.364 l
211.426 759.949 l
213.38 757.987 l
215.613 755.386 l
218.125 752.082 l
221.196 747.647 l
226.22 739.921 l
231.524 731.892 l
234.873 727.236 l
237.665 723.735 l
240.177 720.933 l
242.41 718.747 l
244.643 716.861 l
246.876 715.279 l
248.83 714.145 l
250.784 713.239 l
252.738 712.553 l
254.692 712.08 l
256.925 711.783 l
259.159 711.728 l
261.392 711.895 l
263.904 712.322 l
266.416 712.973 l
269.208 713.924 l
272.278 715.202 l
275.907 716.967 l
280.094 719.262 l
285.398 722.445 l
292.934 727.258 l
310.799 738.748 l
317.778 742.926 l
323.919 746.344 l
329.502 749.193 l
334.526 751.514 l
339.272 753.471 l
343.738 755.088 l
348.204 756.47 l
352.391 757.543 l
356.578 758.392 l
360.765 759.009 l
364.952 759.39 l
368.86 759.529 l
372.768 759.46 l
376.676 759.181 l
380.863 758.654 l
385.051 757.893 l
389.238 756.906 l
393.704 755.612 l
398.17 754.081 l
402.915 752.21 l
407.94 749.974 l
413.244 747.357 l
418.826 744.35 l
424.967 740.789 l
432.225 736.31 l
441.158 730.52 l
472.7 709.827 l
480.516 705.093 l
487.774 700.954 l
494.473 697.38 l
500.893 694.195 l
507.314 691.255 l
513.734 688.564 l
520.154 686.119 l
526.574 683.917 l
532.994 681.948 l
539.694 680.13 l
546.672 678.476 l
553.93 676.996 l
561.467 675.692 l
569.562 674.526 l
578.215 673.514 l
587.706 672.637 l
598.034 671.911 l
609.758 671.312 l
623.715 670.828 l
641.022 670.464 l
648 670.368 l
648 670.368 l
stroke
grestore
4.000 setlinewidth
2 setlinecap
[] 0 setdash
gsave
558 237.2 90 670 clipbox
90 670.062 m
158.668 670.25 l
203.889 670.59 l
244.922 671.124 l
297.68 672.059 l
347.088 672.867 l
376.955 673.131 l
404.311 673.151 l
432.504 672.944 l
466.001 672.463 l
582.123 670.592 l
624.831 670.264 l
648 670.164 l
648 670.164 l
stroke
grestore
gsave
558 237.2 90 670 clipbox
90 670.228 m
112.052 670.535 l
127.963 670.97 l
140.803 671.535 l
151.69 672.226 l
161.46 673.065 l
170.392 674.055 l
178.487 675.173 l
186.024 676.433 l
193.282 677.87 l
200.26 679.481 l
206.959 681.259 l
213.38 683.188 l
219.8 685.35 l
226.22 687.754 l
232.64 690.404 l
239.061 693.299 l
245.481 696.437 l
252.18 699.958 l
259.159 703.873 l
266.974 708.522 l
275.907 714.105 l
288.747 722.43 l
304.1 732.338 l
312.195 737.297 l
318.894 741.147 l
324.756 744.271 l
330.06 746.861 l
335.085 749.078 l
339.83 750.938 l
344.296 752.466 l
348.762 753.762 l
352.949 754.756 l
357.137 755.529 l
361.324 756.075 l
365.511 756.388 l
369.698 756.466 l
373.885 756.31 l
378.072 755.919 l
382.259 755.297 l
386.446 754.449 l
390.633 753.382 l
395.1 752.013 l
399.566 750.416 l
404.311 748.486 l
409.336 746.203 l
414.639 743.551 l
420.501 740.368 l
427.201 736.463 l
435.017 731.635 l
445.903 724.618 l
466.001 711.633 l
474.654 706.332 l
482.191 701.964 l
489.17 698.167 l
495.869 694.77 l
502.289 691.758 l
508.709 688.99 l
515.13 686.469 l
521.55 684.193 l
527.97 682.153 l
534.39 680.341 l
541.09 678.678 l
548.068 677.178 l
555.326 675.845 l
563.142 674.644 l
571.237 673.624 l
580.169 672.726 l
589.939 671.97 l
601.105 671.337 l
613.945 670.84 l
629.577 670.465 l
648 670.228 l
648 670.228 l
stroke
grestore
gsave
558 237.2 90 670 clipbox
90 670.033 m
108.144 670.17 l
115.96 670.434 l
121.543 670.832 l
126.009 671.37 l
129.638 672.017 l
132.987 672.837 l
136.058 673.827 l
138.849 674.965 l
141.362 676.217 l
143.874 677.714 l
146.386 679.482 l
148.898 681.549 l
151.411 683.936 l
153.923 686.661 l
156.435 689.733 l
158.947 693.155 l
161.739 697.356 l
164.809 702.427 l
168.159 708.419 l
172.346 716.389 l
181.558 734.082 l
184.628 739.397 l
187.141 743.304 l
189.374 746.358 l
191.328 748.655 l
193.003 750.315 l
194.677 751.669 l
196.073 752.551 l
197.469 753.201 l
198.864 753.615 l
200.26 753.787 l
201.656 753.717 l
203.052 753.405 l
204.447 752.854 l
205.843 752.069 l
207.239 751.056 l
208.913 749.553 l
210.588 747.753 l
212.542 745.306 l
214.775 742.101 l
217.288 738.053 l
220.079 733.123 l
223.987 725.72 l
234.036 706.432 l
237.386 700.584 l
240.456 695.675 l
243.248 691.635 l
245.76 688.363 l
248.272 685.442 l
250.784 682.864 l
253.297 680.618 l
255.809 678.683 l
258.321 677.035 l
260.833 675.648 l
263.625 674.378 l
266.416 673.356 l
269.487 672.473 l
272.836 671.747 l
276.744 671.143 l
281.211 670.689 l
286.793 670.356 l
294.33 670.145 l
307.171 670.041 l
353.508 670.024 l
648 670.024 l
648 670.024 l
stroke
grestore
1.000 setlinewidth
0 setlinejoin
0.000 setgray
gsave
90 907.2 m
648 907.2 l
stroke
grestore
gsave
648 670.024 m
648 907.2 l
stroke
grestore
gsave
90 670.024 m
648 670.024 l
stroke
grestore
gsave
90 670.024 m
90 907.2 l
stroke
grestore
0.500 setlinewidth
1 setlinejoin
0 setlinecap
gsave
/o {
gsave
newpath
translate
0.5 setlinewidth
1 setlinejoin
0 setlinecap
0 0 m
0 4 l
gsave
0.000 setgray
fill
grestore
stroke
grestore
} bind def
90 670.024 o
grestore
gsave
/o {
gsave
newpath
translate
0.5 setlinewidth
1 setlinejoin
0 setlinecap
0 0 m
0 -4 l
gsave
0.000 setgray
fill
grestore
stroke
grestore
} bind def
90 907.2 o
grestore
gsave
/o {
gsave
newpath
translate
0.5 setlinewidth
1 setlinejoin
0 setlinecap
0 0 m
0 4 l
gsave
0.000 setgray
fill
grestore
stroke
grestore
} bind def
159.75 670.024 o
grestore
gsave
/o {
gsave
newpath
translate
0.5 setlinewidth
1 setlinejoin
0 setlinecap
0 0 m
0 -4 l
gsave
0.000 setgray
fill
grestore
stroke
grestore
} bind def
159.75 907.2 o
grestore
gsave
/o {
gsave
newpath
translate
0.5 setlinewidth
1 setlinejoin
0 setlinecap
0 0 m
0 4 l
gsave
0.000 setgray
fill
grestore
stroke
grestore
} bind def
229.5 670.024 o
grestore
gsave
/o {
gsave
newpath
translate
0.5 setlinewidth
1 setlinejoin
0 setlinecap
0 0 m
0 -4 l
gsave
0.000 setgray
fill
grestore
stroke
grestore
} bind def
229.5 907.2 o
grestore
gsave
/o {
gsave
newpath
translate
0.5 setlinewidth
1 setlinejoin
0 setlinecap
0 0 m
0 4 l
gsave
0.000 setgray
fill
grestore
stroke
grestore
} bind def
299.25 670.024 o
grestore
gsave
/o {
gsave
newpath
translate
0.5 setlinewidth
1 setlinejoin
0 setlinecap
0 0 m
0 -4 l
gsave
0.000 setgray
fill
grestore
stroke
grestore
} bind def
299.25 907.2 o
grestore
gsave
/o {
gsave
newpath
translate
0.5 setlinewidth
1 setlinejoin
0 setlinecap
0 0 m
0 4 l
gsave
0.000 setgray
fill
grestore
stroke
grestore
} bind def
369 670.024 o
grestore
gsave
/o {
gsave
newpath
translate
0.5 setlinewidth
1 setlinejoin
0 setlinecap
0 0 m
0 -4 l
gsave
0.000 setgray
fill
grestore
stroke
grestore
} bind def
369 907.2 o
grestore
gsave
/o {
gsave
newpath
translate
0.5 setlinewidth
1 setlinejoin
0 setlinecap
0 0 m
0 4 l
gsave
0.000 setgray
fill
grestore
stroke
grestore
} bind def
438.75 670.024 o
grestore
gsave
/o {
gsave
newpath
translate
0.5 setlinewidth
1 setlinejoin
0 setlinecap
0 0 m
0 -4 l
gsave
0.000 setgray
fill
grestore
stroke
grestore
} bind def
438.75 907.2 o
grestore
gsave
/o {
gsave
newpath
translate
0.5 setlinewidth
1 setlinejoin
0 setlinecap
0 0 m
0 4 l
gsave
0.000 setgray
fill
grestore
stroke
grestore
} bind def
508.5 670.024 o
grestore
gsave
/o {
gsave
newpath
translate
0.5 setlinewidth
1 setlinejoin
0 setlinecap
0 0 m
0 -4 l
gsave
0.000 setgray
fill
grestore
stroke
grestore
} bind def
508.5 907.2 o
grestore
gsave
/o {
gsave
newpath
translate
0.5 setlinewidth
1 setlinejoin
0 setlinecap
0 0 m
0 4 l
gsave
0.000 setgray
fill
grestore
stroke
grestore
} bind def
578.25 670.024 o
grestore
gsave
/o {
gsave
newpath
translate
0.5 setlinewidth
1 setlinejoin
0 setlinecap
0 0 m
0 -4 l
gsave
0.000 setgray
fill
grestore
stroke
grestore
} bind def
578.25 907.2 o
grestore
gsave
/o {
gsave
newpath
translate
0.5 setlinewidth
1 setlinejoin
0 setlinecap
0 0 m
0 4 l
gsave
0.000 setgray
fill
grestore
stroke
grestore
} bind def
648 670.024 o
grestore
gsave
/o {
gsave
newpath
translate
0.5 setlinewidth
1 setlinejoin
0 setlinecap
0 0 m
0 -4 l
gsave
0.000 setgray
fill
grestore
stroke
grestore
} bind def
648 907.2 o
grestore
gsave
/o {
gsave
newpath
translate
0.5 setlinewidth
1 setlinejoin
0 setlinecap
0 0 m
4 0 l
gsave
0.000 setgray
fill
grestore
stroke
grestore
} bind def
90 670.024 o
grestore
gsave
/o {
gsave
newpath
translate
0.5 setlinewidth
1 setlinejoin
0 setlinecap
0 0 m
-4 0 l
gsave
0.000 setgray
fill
grestore
stroke
grestore
} bind def
648 670.024 o
grestore
/BitstreamVeraSans-Roman findfont
18.000 scalefont
setfont
gsave
36.843750 665.062592 translate
0.000000 rotate
0.000000 0.000000 m /zero glyphshow
11.452148 0.000000 m /period glyphshow
17.173828 0.000000 m /zero glyphshow
28.625977 0.000000 m /zero glyphshow
40.078125 0.000000 m /zero glyphshow
grestore
gsave
/o {
gsave
newpath
translate
0.5 setlinewidth
1 setlinejoin
0 setlinecap
0 0 m
4 0 l
gsave
0.000 setgray
fill
grestore
stroke
grestore
} bind def
90 703.906 o
grestore
gsave
/o {
gsave
newpath
translate
0.5 setlinewidth
1 setlinejoin
0 setlinecap
0 0 m
-4 0 l
gsave
0.000 setgray
fill
grestore
stroke
grestore
} bind def
648 703.906 o
grestore
gsave
37.312500 698.944945 translate
0.000000 rotate
0.000000 0.000000 m /zero glyphshow
11.452148 0.000000 m /period glyphshow
17.173828 0.000000 m /zero glyphshow
28.625977 0.000000 m /zero glyphshow
40.078125 0.000000 m /one glyphshow
grestore
gsave
/o {
gsave
newpath
translate
0.5 setlinewidth
1 setlinejoin
0 setlinecap
0 0 m
4 0 l
gsave
0.000 setgray
fill
grestore
stroke
grestore
} bind def
90 737.788 o
grestore
gsave
/o {
gsave
newpath
translate
0.5 setlinewidth
1 setlinejoin
0 setlinecap
0 0 m
-4 0 l
gsave
0.000 setgray
fill
grestore
stroke
grestore
} bind def
648 737.788 o
grestore
gsave
37.453125 732.827298 translate
0.000000 rotate
0.000000 0.000000 m /zero glyphshow
11.452148 0.000000 m /period glyphshow
17.173828 0.000000 m /zero glyphshow
28.625977 0.000000 m /zero glyphshow
40.078125 0.000000 m /two glyphshow
grestore
gsave
/o {
gsave
newpath
translate
0.5 setlinewidth
1 setlinejoin
0 setlinecap
0 0 m
4 0 l
gsave
0.000 setgray
fill
grestore
stroke
grestore
} bind def
90 771.671 o
grestore
gsave
/o {
gsave
newpath
translate
0.5 setlinewidth
1 setlinejoin
0 setlinecap
0 0 m
-4 0 l
gsave
0.000 setgray
fill
grestore
stroke
grestore
} bind def
648 771.671 o
grestore
gsave
37.093750 766.709651 translate
0.000000 rotate
0.000000 0.000000 m /zero glyphshow
11.452148 0.000000 m /period glyphshow
17.173828 0.000000 m /zero glyphshow
28.625977 0.000000 m /zero glyphshow
40.078125 0.000000 m /three glyphshow
grestore
gsave
/o {
gsave
newpath
translate
0.5 setlinewidth
1 setlinejoin
0 setlinecap
0 0 m
4 0 l
gsave
0.000 setgray
fill
grestore
stroke
grestore
} bind def
90 805.553 o
grestore
gsave
/o {
gsave
newpath
translate
0.5 setlinewidth
1 setlinejoin
0 setlinecap
0 0 m
-4 0 l
gsave
0.000 setgray
fill
grestore
stroke
grestore
} bind def
648 805.553 o
grestore
gsave
36.671875 800.592004 translate
0.000000 rotate
0.000000 0.000000 m /zero glyphshow
11.452148 0.000000 m /period glyphshow
17.173828 0.000000 m /zero glyphshow
28.625977 0.000000 m /zero glyphshow
40.078125 0.000000 m /four glyphshow
grestore
gsave
/o {
gsave
newpath
translate
0.5 setlinewidth
1 setlinejoin
0 setlinecap
0 0 m
4 0 l
gsave
0.000 setgray
fill
grestore
stroke
grestore
} bind def
90 839.435 o
grestore
gsave
/o {
gsave
newpath
translate
0.5 setlinewidth
1 setlinejoin
0 setlinecap
0 0 m
-4 0 l
gsave
0.000 setgray
fill
grestore
stroke
grestore
} bind def
648 839.435 o
grestore
gsave
37.234375 834.474357 translate
0.000000 rotate
0.000000 0.000000 m /zero glyphshow
11.452148 0.000000 m /period glyphshow
17.173828 0.000000 m /zero glyphshow
28.625977 0.000000 m /zero glyphshow
40.078125 0.000000 m /five glyphshow
grestore
gsave
/o {
gsave
newpath
translate
0.5 setlinewidth
1 setlinejoin
0 setlinecap
0 0 m
4 0 l
gsave
0.000 setgray
fill
grestore
stroke
grestore
} bind def
90 873.318 o
grestore
gsave
/o {
gsave
newpath
translate
0.5 setlinewidth
1 setlinejoin
0 setlinecap
0 0 m
-4 0 l
gsave
0.000 setgray
fill
grestore
stroke
grestore
} bind def
648 873.318 o
grestore
gsave
36.796875 868.356710 translate
0.000000 rotate
0.000000 0.000000 m /zero glyphshow
11.452148 0.000000 m /period glyphshow
17.173828 0.000000 m /zero glyphshow
28.625977 0.000000 m /zero glyphshow
40.078125 0.000000 m /six glyphshow
grestore
gsave
/o {
gsave
newpath
translate
0.5 setlinewidth
1 setlinejoin
0 setlinecap
0 0 m
4 0 l
gsave
0.000 setgray
fill
grestore
stroke
grestore
} bind def
90 907.2 o
grestore
gsave
/o {
gsave
newpath
translate
0.5 setlinewidth
1 setlinejoin
0 setlinecap
0 0 m
-4 0 l
gsave
0.000 setgray
fill
grestore
stroke
grestore
} bind def
648 907.2 o
grestore
gsave
37.187500 902.239063 translate
0.000000 rotate
0.000000 0.000000 m /zero glyphshow
11.452148 0.000000 m /period glyphshow
17.173828 0.000000 m /zero glyphshow
28.625977 0.000000 m /zero glyphshow
40.078125 0.000000 m /seven glyphshow
grestore
gsave
24.671875 748.111765 translate
90.000000 rotate
/BitstreamVeraSans-Roman findfont
24.0 scalefont
setfont
0.000000 0.000000 moveto
/p glyphshow

/Cmr10 findfont
24.0 scalefont
setfont
15.234375 0.000000 moveto
/parenleft glyphshow

/Cmmi10 findfont
24.0 scalefont
setfont
24.550781 0.000000 moveto
/v glyphshow

/Cmr10 findfont
16.8 scalefont
setfont
36.164062 -6.122250 moveto
/G glyphshow

49.338281 -6.122250 moveto
/S glyphshow

58.665234 -6.122250 moveto
/R glyphshow

/Cmr10 findfont
24.0 scalefont
setfont
71.027344 0.000000 moveto
/parenright glyphshow


grestore
gsave
348.000000 912.200000 translate
0.000000 rotate
/Cmr10 findfont
20.0 scalefont
setfont
0.000000 0.343750 moveto
/R glyphshow

14.716797 0.343750 moveto
/R glyphshow

29.433594 0.343750 moveto
/L glyphshow


grestore
gsave
90 385.412 m
648 385.412 l
648 622.588 l
90 622.588 l
cl
1.000 setgray
fill
grestore
1.000 setlinewidth
0 setlinejoin
gsave
558 237.2 90 385.4 clipbox
90 385.412 m
90 385.412 l
115.364 385.412 l
115.364 385.412 l
140.727 385.412 l
140.727 385.412 l
166.091 385.412 l
166.091 385.412 l
191.455 385.412 l
191.455 457.086 l
216.818 457.086 l
216.818 457.086 l
242.182 457.086 l
242.182 385.412 l
267.545 385.412 l
267.545 385.412 l
292.909 385.412 l
292.909 385.412 l
318.273 385.412 l
318.273 815.457 l
343.636 815.457 l
343.636 385.412 l
369 385.412 l
369 528.76 l
394.364 528.76 l
394.364 457.086 l
419.727 457.086 l
419.727 385.412 l
445.091 385.412 l
445.091 528.76 l
470.455 528.76 l
470.455 385.412 l
495.818 385.412 l
495.818 385.412 l
521.182 385.412 l
521.182 385.412 l
546.545 385.412 l
546.545 385.412 l
571.909 385.412 l
571.909 385.412 l
597.273 385.412 l
597.273 385.412 l
622.636 385.412 l
622.636 385.412 l
648 385.412 l
648 385.412 l
622.636 385.412 l
622.636 385.412 l
597.273 385.412 l
597.273 385.412 l
571.909 385.412 l
571.909 385.412 l
546.545 385.412 l
546.545 385.412 l
521.182 385.412 l
521.182 385.412 l
495.818 385.412 l
495.818 385.412 l
470.455 385.412 l
470.455 385.412 l
445.091 385.412 l
445.091 385.412 l
419.727 385.412 l
419.727 385.412 l
394.364 385.412 l
394.364 385.412 l
369 385.412 l
369 385.412 l
343.636 385.412 l
343.636 385.412 l
318.273 385.412 l
318.273 385.412 l
292.909 385.412 l
292.909 385.412 l
267.545 385.412 l
267.545 385.412 l
242.182 385.412 l
242.182 385.412 l
216.818 385.412 l
216.818 385.412 l
191.455 385.412 l
191.455 385.412 l
166.091 385.412 l
166.091 385.412 l
140.727 385.412 l
140.727 385.412 l
115.364 385.412 l
115.364 385.412 l
cl
gsave
1.000 1.000 0.000 setrgbcolor
fill
grestore
stroke
grestore
1 setlinejoin
[6 6] 0 setdash
0.502 setgray
gsave
558 237.2 90 385.4 clipbox
90 385.669 m
107.028 385.977 l
117.077 386.364 l
124.334 386.857 l
129.917 387.449 l
134.662 388.169 l
138.849 389.025 l
142.757 390.059 l
146.386 391.26 l
149.736 392.604 l
153.086 394.196 l
156.435 396.05 l
159.785 398.171 l
163.135 400.553 l
166.763 403.402 l
170.95 406.973 l
177.371 412.784 l
183.791 418.514 l
187.699 421.696 l
190.769 423.926 l
193.561 425.693 l
196.073 427.044 l
198.585 428.149 l
201.098 429.001 l
203.61 429.596 l
206.122 429.943 l
208.634 430.056 l
211.147 429.957 l
213.938 429.633 l
217.288 429.012 l
221.754 427.938 l
230.128 425.882 l
233.757 425.24 l
236.827 424.906 l
239.898 424.798 l
242.689 424.918 l
245.481 425.252 l
248.272 425.804 l
251.064 426.569 l
254.134 427.646 l
257.205 428.954 l
260.554 430.618 l
264.183 432.669 l
268.37 435.305 l
273.116 438.573 l
278.698 442.699 l
286.235 448.572 l
309.962 467.275 l
316.661 472.159 l
322.523 476.152 l
327.827 479.49 l
332.572 482.221 l
337.039 484.546 l
341.226 486.492 l
345.413 488.195 l
349.321 489.555 l
353.229 490.682 l
357.137 491.569 l
360.765 492.172 l
364.394 492.56 l
368.023 492.728 l
371.652 492.678 l
375.281 492.408 l
378.909 491.921 l
382.538 491.219 l
386.446 490.228 l
390.354 489 l
394.262 487.544 l
398.449 485.742 l
402.636 483.703 l
407.103 481.286 l
411.848 478.466 l
416.872 475.228 l
422.455 471.365 l
428.875 466.64 l
436.412 460.804 l
447.299 452.06 l
464.605 438.161 l
472.979 431.736 l
480.237 426.441 l
486.936 421.826 l
493.357 417.68 l
499.498 413.985 l
505.36 410.714 l
511.222 407.698 l
517.084 404.938 l
522.945 402.428 l
528.807 400.162 l
534.669 398.129 l
540.81 396.237 l
546.951 394.573 l
553.372 393.058 l
560.071 391.7 l
567.329 390.46 l
575.145 389.361 l
583.519 388.415 l
592.73 387.606 l
603.059 386.932 l
614.782 386.393 l
629.019 385.973 l
647.163 385.674 l
648 385.665 l
648 385.665 l
stroke
grestore
4.000 setlinewidth
2 setlinecap
[] 0 setdash
gsave
558 237.2 90 385.4 clipbox
90 385.412 m
648 385.412 l
648 385.412 l
stroke
grestore
gsave
558 237.2 90 385.4 clipbox
90 385.665 m
109.819 385.992 l
124.613 386.447 l
136.895 387.043 l
147.224 387.76 l
156.435 388.616 l
164.809 389.615 l
172.625 390.772 l
179.883 392.074 l
186.582 393.496 l
193.003 395.079 l
199.144 396.814 l
205.285 398.781 l
211.147 400.89 l
217.009 403.237 l
222.87 405.83 l
228.732 408.675 l
234.594 411.776 l
240.456 415.131 l
246.597 418.912 l
252.738 422.953 l
259.438 427.637 l
266.695 432.996 l
274.79 439.258 l
285.677 447.984 l
304.1 462.777 l
311.637 468.52 l
318.057 473.135 l
323.64 476.877 l
328.664 479.99 l
333.41 482.675 l
337.876 484.954 l
342.063 486.852 l
346.25 488.505 l
350.158 489.816 l
354.066 490.892 l
357.974 491.727 l
361.603 492.281 l
365.232 492.618 l
368.86 492.736 l
372.489 492.635 l
376.118 492.315 l
379.747 491.777 l
383.376 491.027 l
387.284 489.984 l
391.192 488.707 l
395.1 487.203 l
399.287 485.352 l
403.753 483.122 l
408.219 480.645 l
412.964 477.768 l
418.268 474.286 l
424.13 470.159 l
430.829 465.152 l
438.924 458.81 l
452.881 447.532 l
465.164 437.724 l
473.538 431.319 l
480.795 426.046 l
487.495 421.455 l
493.636 417.506 l
499.777 413.823 l
505.639 410.565 l
511.501 407.561 l
517.363 404.812 l
523.225 402.314 l
529.087 400.06 l
534.948 398.038 l
541.09 396.157 l
547.51 394.432 l
553.93 392.936 l
560.908 391.546 l
568.166 390.332 l
575.982 389.256 l
584.356 388.332 l
593.568 387.543 l
603.896 386.886 l
615.899 386.352 l
630.414 385.942 l
648 385.665 l
648 385.665 l
stroke
grestore
gsave
558 237.2 90 385.4 clipbox
90 385.415 m
114.285 385.537 l
123.497 385.794 l
129.917 386.186 l
134.941 386.699 l
139.408 387.373 l
143.316 388.178 l
146.944 389.142 l
150.573 390.345 l
153.923 391.687 l
157.273 393.261 l
160.901 395.229 l
164.53 397.452 l
168.717 400.284 l
174.858 404.751 l
181.558 409.572 l
185.187 411.918 l
188.257 413.646 l
191.049 414.953 l
193.561 415.877 l
195.794 416.478 l
198.027 416.856 l
200.26 417.004 l
202.493 416.917 l
204.726 416.6 l
206.959 416.057 l
209.193 415.301 l
211.705 414.217 l
214.496 412.756 l
217.567 410.89 l
221.475 408.232 l
228.174 403.332 l
234.315 398.953 l
238.502 396.244 l
242.131 394.153 l
245.76 392.329 l
249.11 390.889 l
252.459 389.676 l
256.088 388.604 l
259.996 387.697 l
264.183 386.97 l
268.928 386.39 l
274.232 385.97 l
280.931 385.671 l
290.422 385.49 l
308.287 385.417 l
439.762 385.412 l
648 385.412 l
648 385.412 l
stroke
grestore
1.000 setlinewidth
0 setlinejoin
0.000 setgray
gsave
90 622.588 m
648 622.588 l
stroke
grestore
gsave
648 385.412 m
648 622.588 l
stroke
grestore
gsave
90 385.412 m
648 385.412 l
stroke
grestore
gsave
90 385.412 m
90 622.588 l
stroke
grestore
0.500 setlinewidth
1 setlinejoin
0 setlinecap
gsave
/o {
gsave
newpath
translate
0.5 setlinewidth
1 setlinejoin
0 setlinecap
0 0 m
0 4 l
gsave
0.000 setgray
fill
grestore
stroke
grestore
} bind def
90 385.412 o
grestore
gsave
/o {
gsave
newpath
translate
0.5 setlinewidth
1 setlinejoin
0 setlinecap
0 0 m
0 -4 l
gsave
0.000 setgray
fill
grestore
stroke
grestore
} bind def
90 622.588 o
grestore
gsave
/o {
gsave
newpath
translate
0.5 setlinewidth
1 setlinejoin
0 setlinecap
0 0 m
0 4 l
gsave
0.000 setgray
fill
grestore
stroke
grestore
} bind def
159.75 385.412 o
grestore
gsave
/o {
gsave
newpath
translate
0.5 setlinewidth
1 setlinejoin
0 setlinecap
0 0 m
0 -4 l
gsave
0.000 setgray
fill
grestore
stroke
grestore
} bind def
159.75 622.588 o
grestore
gsave
/o {
gsave
newpath
translate
0.5 setlinewidth
1 setlinejoin
0 setlinecap
0 0 m
0 4 l
gsave
0.000 setgray
fill
grestore
stroke
grestore
} bind def
229.5 385.412 o
grestore
gsave
/o {
gsave
newpath
translate
0.5 setlinewidth
1 setlinejoin
0 setlinecap
0 0 m
0 -4 l
gsave
0.000 setgray
fill
grestore
stroke
grestore
} bind def
229.5 622.588 o
grestore
gsave
/o {
gsave
newpath
translate
0.5 setlinewidth
1 setlinejoin
0 setlinecap
0 0 m
0 4 l
gsave
0.000 setgray
fill
grestore
stroke
grestore
} bind def
299.25 385.412 o
grestore
gsave
/o {
gsave
newpath
translate
0.5 setlinewidth
1 setlinejoin
0 setlinecap
0 0 m
0 -4 l
gsave
0.000 setgray
fill
grestore
stroke
grestore
} bind def
299.25 622.588 o
grestore
gsave
/o {
gsave
newpath
translate
0.5 setlinewidth
1 setlinejoin
0 setlinecap
0 0 m
0 4 l
gsave
0.000 setgray
fill
grestore
stroke
grestore
} bind def
369 385.412 o
grestore
gsave
/o {
gsave
newpath
translate
0.5 setlinewidth
1 setlinejoin
0 setlinecap
0 0 m
0 -4 l
gsave
0.000 setgray
fill
grestore
stroke
grestore
} bind def
369 622.588 o
grestore
gsave
/o {
gsave
newpath
translate
0.5 setlinewidth
1 setlinejoin
0 setlinecap
0 0 m
0 4 l
gsave
0.000 setgray
fill
grestore
stroke
grestore
} bind def
438.75 385.412 o
grestore
gsave
/o {
gsave
newpath
translate
0.5 setlinewidth
1 setlinejoin
0 setlinecap
0 0 m
0 -4 l
gsave
0.000 setgray
fill
grestore
stroke
grestore
} bind def
438.75 622.588 o
grestore
gsave
/o {
gsave
newpath
translate
0.5 setlinewidth
1 setlinejoin
0 setlinecap
0 0 m
0 4 l
gsave
0.000 setgray
fill
grestore
stroke
grestore
} bind def
508.5 385.412 o
grestore
gsave
/o {
gsave
newpath
translate
0.5 setlinewidth
1 setlinejoin
0 setlinecap
0 0 m
0 -4 l
gsave
0.000 setgray
fill
grestore
stroke
grestore
} bind def
508.5 622.588 o
grestore
gsave
/o {
gsave
newpath
translate
0.5 setlinewidth
1 setlinejoin
0 setlinecap
0 0 m
0 4 l
gsave
0.000 setgray
fill
grestore
stroke
grestore
} bind def
578.25 385.412 o
grestore
gsave
/o {
gsave
newpath
translate
0.5 setlinewidth
1 setlinejoin
0 setlinecap
0 0 m
0 -4 l
gsave
0.000 setgray
fill
grestore
stroke
grestore
} bind def
578.25 622.588 o
grestore
gsave
/o {
gsave
newpath
translate
0.5 setlinewidth
1 setlinejoin
0 setlinecap
0 0 m
0 4 l
gsave
0.000 setgray
fill
grestore
stroke
grestore
} bind def
648 385.412 o
grestore
gsave
/o {
gsave
newpath
translate
0.5 setlinewidth
1 setlinejoin
0 setlinecap
0 0 m
0 -4 l
gsave
0.000 setgray
fill
grestore
stroke
grestore
} bind def
648 622.588 o
grestore
gsave
/o {
gsave
newpath
translate
0.5 setlinewidth
1 setlinejoin
0 setlinecap
0 0 m
4 0 l
gsave
0.000 setgray
fill
grestore
stroke
grestore
} bind def
90 385.412 o
grestore
gsave
/o {
gsave
newpath
translate
0.5 setlinewidth
1 setlinejoin
0 setlinecap
0 0 m
-4 0 l
gsave
0.000 setgray
fill
grestore
stroke
grestore
} bind def
648 385.412 o
grestore
gsave
36.843750 380.450827 translate
0.000000 rotate
0.000000 0.000000 m /zero glyphshow
11.452148 0.000000 m /period glyphshow
17.173828 0.000000 m /zero glyphshow
28.625977 0.000000 m /zero glyphshow
40.078125 0.000000 m /zero glyphshow
grestore
gsave
/o {
gsave
newpath
translate
0.5 setlinewidth
1 setlinejoin
0 setlinecap
0 0 m
4 0 l
gsave
0.000 setgray
fill
grestore
stroke
grestore
} bind def
90 419.294 o
grestore
gsave
/o {
gsave
newpath
translate
0.5 setlinewidth
1 setlinejoin
0 setlinecap
0 0 m
-4 0 l
gsave
0.000 setgray
fill
grestore
stroke
grestore
} bind def
648 419.294 o
grestore
gsave
37.312500 414.333180 translate
0.000000 rotate
0.000000 0.000000 m /zero glyphshow
11.452148 0.000000 m /period glyphshow
17.173828 0.000000 m /zero glyphshow
28.625977 0.000000 m /zero glyphshow
40.078125 0.000000 m /one glyphshow
grestore
gsave
/o {
gsave
newpath
translate
0.5 setlinewidth
1 setlinejoin
0 setlinecap
0 0 m
4 0 l
gsave
0.000 setgray
fill
grestore
stroke
grestore
} bind def
90 453.176 o
grestore
gsave
/o {
gsave
newpath
translate
0.5 setlinewidth
1 setlinejoin
0 setlinecap
0 0 m
-4 0 l
gsave
0.000 setgray
fill
grestore
stroke
grestore
} bind def
648 453.176 o
grestore
gsave
37.453125 448.215533 translate
0.000000 rotate
0.000000 0.000000 m /zero glyphshow
11.452148 0.000000 m /period glyphshow
17.173828 0.000000 m /zero glyphshow
28.625977 0.000000 m /zero glyphshow
40.078125 0.000000 m /two glyphshow
grestore
gsave
/o {
gsave
newpath
translate
0.5 setlinewidth
1 setlinejoin
0 setlinecap
0 0 m
4 0 l
gsave
0.000 setgray
fill
grestore
stroke
grestore
} bind def
90 487.059 o
grestore
gsave
/o {
gsave
newpath
translate
0.5 setlinewidth
1 setlinejoin
0 setlinecap
0 0 m
-4 0 l
gsave
0.000 setgray
fill
grestore
stroke
grestore
} bind def
648 487.059 o
grestore
gsave
37.093750 482.097886 translate
0.000000 rotate
0.000000 0.000000 m /zero glyphshow
11.452148 0.000000 m /period glyphshow
17.173828 0.000000 m /zero glyphshow
28.625977 0.000000 m /zero glyphshow
40.078125 0.000000 m /three glyphshow
grestore
gsave
/o {
gsave
newpath
translate
0.5 setlinewidth
1 setlinejoin
0 setlinecap
0 0 m
4 0 l
gsave
0.000 setgray
fill
grestore
stroke
grestore
} bind def
90 520.941 o
grestore
gsave
/o {
gsave
newpath
translate
0.5 setlinewidth
1 setlinejoin
0 setlinecap
0 0 m
-4 0 l
gsave
0.000 setgray
fill
grestore
stroke
grestore
} bind def
648 520.941 o
grestore
gsave
36.671875 515.980239 translate
0.000000 rotate
0.000000 0.000000 m /zero glyphshow
11.452148 0.000000 m /period glyphshow
17.173828 0.000000 m /zero glyphshow
28.625977 0.000000 m /zero glyphshow
40.078125 0.000000 m /four glyphshow
grestore
gsave
/o {
gsave
newpath
translate
0.5 setlinewidth
1 setlinejoin
0 setlinecap
0 0 m
4 0 l
gsave
0.000 setgray
fill
grestore
stroke
grestore
} bind def
90 554.824 o
grestore
gsave
/o {
gsave
newpath
translate
0.5 setlinewidth
1 setlinejoin
0 setlinecap
0 0 m
-4 0 l
gsave
0.000 setgray
fill
grestore
stroke
grestore
} bind def
648 554.824 o
grestore
gsave
37.234375 549.862592 translate
0.000000 rotate
0.000000 0.000000 m /zero glyphshow
11.452148 0.000000 m /period glyphshow
17.173828 0.000000 m /zero glyphshow
28.625977 0.000000 m /zero glyphshow
40.078125 0.000000 m /five glyphshow
grestore
gsave
/o {
gsave
newpath
translate
0.5 setlinewidth
1 setlinejoin
0 setlinecap
0 0 m
4 0 l
gsave
0.000 setgray
fill
grestore
stroke
grestore
} bind def
90 588.706 o
grestore
gsave
/o {
gsave
newpath
translate
0.5 setlinewidth
1 setlinejoin
0 setlinecap
0 0 m
-4 0 l
gsave
0.000 setgray
fill
grestore
stroke
grestore
} bind def
648 588.706 o
grestore
gsave
36.796875 583.744945 translate
0.000000 rotate
0.000000 0.000000 m /zero glyphshow
11.452148 0.000000 m /period glyphshow
17.173828 0.000000 m /zero glyphshow
28.625977 0.000000 m /zero glyphshow
40.078125 0.000000 m /six glyphshow
grestore
gsave
/o {
gsave
newpath
translate
0.5 setlinewidth
1 setlinejoin
0 setlinecap
0 0 m
4 0 l
gsave
0.000 setgray
fill
grestore
stroke
grestore
} bind def
90 622.588 o
grestore
gsave
/o {
gsave
newpath
translate
0.5 setlinewidth
1 setlinejoin
0 setlinecap
0 0 m
-4 0 l
gsave
0.000 setgray
fill
grestore
stroke
grestore
} bind def
648 622.588 o
grestore
gsave
37.187500 617.627298 translate
0.000000 rotate
0.000000 0.000000 m /zero glyphshow
11.452148 0.000000 m /period glyphshow
17.173828 0.000000 m /zero glyphshow
28.625977 0.000000 m /zero glyphshow
40.078125 0.000000 m /seven glyphshow
grestore
gsave
24.671875 463.500000 translate
90.000000 rotate
/BitstreamVeraSans-Roman findfont
24.0 scalefont
setfont
0.000000 0.000000 moveto
/p glyphshow

/Cmr10 findfont
24.0 scalefont
setfont
15.234375 0.000000 moveto
/parenleft glyphshow

/Cmmi10 findfont
24.0 scalefont
setfont
24.550781 0.000000 moveto
/v glyphshow

/Cmr10 findfont
16.8 scalefont
setfont
36.164062 -6.122250 moveto
/G glyphshow

49.338281 -6.122250 moveto
/S glyphshow

58.665234 -6.122250 moveto
/R glyphshow

/Cmr10 findfont
24.0 scalefont
setfont
71.027344 0.000000 moveto
/parenright glyphshow


grestore
gsave
343.000000 627.588235 translate
0.000000 rotate
/Cmr10 findfont
20.0 scalefont
setfont
0.000000 0.343750 moveto
/B glyphshow

14.160156 0.343750 moveto
/H glyphshow

29.160156 0.343750 moveto
/B glyphshow

43.320312 0.343750 moveto
/s glyphshow


grestore
gsave
90 100.8 m
648 100.8 l
648 337.976 l
90 337.976 l
cl
1.000 setgray
fill
grestore
1.000 setlinewidth
0 setlinejoin
gsave
558 237.2 90 100.8 clipbox
90 100.8 m
90 100.8 l
115.364 100.8 l
115.364 100.8 l
140.727 100.8 l
140.727 100.8 l
166.091 100.8 l
166.091 100.8 l
191.455 100.8 l
191.455 100.8 l
216.818 100.8 l
216.818 185.506 l
242.182 185.506 l
242.182 100.8 l
267.545 100.8 l
267.545 270.212 l
292.909 270.212 l
292.909 100.8 l
318.273 100.8 l
318.273 270.212 l
343.636 270.212 l
343.636 100.8 l
369 100.8 l
369 100.8 l
394.364 100.8 l
394.364 100.8 l
419.727 100.8 l
419.727 270.212 l
445.091 270.212 l
445.091 185.506 l
470.455 185.506 l
470.455 185.506 l
495.818 185.506 l
495.818 185.506 l
521.182 185.506 l
521.182 100.8 l
546.545 100.8 l
546.545 185.506 l
571.909 185.506 l
571.909 100.8 l
597.273 100.8 l
597.273 100.8 l
622.636 100.8 l
622.636 100.8 l
648 100.8 l
648 100.8 l
622.636 100.8 l
622.636 100.8 l
597.273 100.8 l
597.273 100.8 l
571.909 100.8 l
571.909 100.8 l
546.545 100.8 l
546.545 100.8 l
521.182 100.8 l
521.182 100.8 l
495.818 100.8 l
495.818 100.8 l
470.455 100.8 l
470.455 100.8 l
445.091 100.8 l
445.091 100.8 l
419.727 100.8 l
419.727 100.8 l
394.364 100.8 l
394.364 100.8 l
369 100.8 l
369 100.8 l
343.636 100.8 l
343.636 100.8 l
318.273 100.8 l
318.273 100.8 l
292.909 100.8 l
292.909 100.8 l
267.545 100.8 l
267.545 100.8 l
242.182 100.8 l
242.182 100.8 l
216.818 100.8 l
216.818 100.8 l
191.455 100.8 l
191.455 100.8 l
166.091 100.8 l
166.091 100.8 l
140.727 100.8 l
140.727 100.8 l
115.364 100.8 l
115.364 100.8 l
cl
gsave
0.000 1.000 0.000 setrgbcolor
fill
grestore
stroke
grestore
1 setlinejoin
[6 6] 0 setdash
0.502 setgray
gsave
558 237.2 90 100.8 clipbox
90 101.935 m
105.353 102.552 l
118.472 103.294 l
130.196 104.172 l
141.083 105.211 l
151.132 106.394 l
160.343 107.697 l
169.276 109.184 l
177.65 110.799 l
185.745 112.58 l
193.84 114.59 l
201.656 116.762 l
209.472 119.167 l
217.288 121.811 l
225.104 124.696 l
232.919 127.818 l
241.015 131.294 l
249.389 135.134 l
258.321 139.477 l
268.37 144.62 l
280.373 151.026 l
316.103 170.28 l
324.756 174.591 l
332.293 178.111 l
339.272 181.128 l
345.692 183.666 l
351.833 185.854 l
357.695 187.702 l
363.278 189.23 l
368.581 190.457 l
373.885 191.457 l
378.909 192.187 l
383.934 192.701 l
388.958 192.994 l
393.983 193.065 l
399.008 192.913 l
404.032 192.539 l
409.057 191.946 l
414.081 191.138 l
419.385 190.059 l
424.688 188.755 l
430.271 187.151 l
436.133 185.227 l
442.274 182.967 l
448.694 180.361 l
455.673 177.279 l
463.21 173.701 l
471.863 169.338 l
482.47 163.725 l
501.731 153.218 l
516.804 145.123 l
527.412 139.677 l
536.623 135.192 l
545.277 131.225 l
553.372 127.754 l
561.188 124.636 l
569.004 121.756 l
576.819 119.116 l
584.635 116.716 l
592.451 114.549 l
600.267 112.608 l
608.362 110.824 l
616.736 109.206 l
625.39 107.759 l
634.601 106.446 l
644.371 105.284 l
648 104.906 l
648 104.906 l
stroke
grestore
4.000 setlinewidth
2 setlinecap
[] 0 setdash
gsave
558 237.2 90 100.8 clipbox
90 101.935 m
105.353 102.552 l
118.472 103.294 l
130.196 104.172 l
141.083 105.211 l
151.132 106.394 l
160.343 107.697 l
169.276 109.184 l
177.65 110.799 l
185.745 112.58 l
193.84 114.59 l
201.656 116.762 l
209.472 119.167 l
217.288 121.811 l
225.104 124.696 l
232.919 127.818 l
241.015 131.294 l
249.389 135.134 l
258.321 139.477 l
268.37 144.62 l
280.373 151.026 l
316.103 170.28 l
324.756 174.591 l
332.293 178.111 l
339.272 181.128 l
345.692 183.666 l
351.833 185.854 l
357.695 187.702 l
363.278 189.23 l
368.581 190.457 l
373.885 191.457 l
378.909 192.187 l
383.934 192.701 l
388.958 192.994 l
393.983 193.065 l
399.008 192.913 l
404.032 192.539 l
409.057 191.946 l
414.081 191.138 l
419.385 190.059 l
424.688 188.755 l
430.271 187.151 l
436.133 185.227 l
442.274 182.967 l
448.694 180.361 l
455.673 177.279 l
463.21 173.701 l
471.863 169.338 l
482.47 163.725 l
501.731 153.218 l
516.804 145.123 l
527.412 139.677 l
536.623 135.192 l
545.277 131.225 l
553.372 127.754 l
561.188 124.636 l
569.004 121.756 l
576.819 119.116 l
584.635 116.716 l
592.451 114.549 l
600.267 112.608 l
608.362 110.824 l
616.736 109.206 l
625.39 107.759 l
634.601 106.446 l
644.371 105.284 l
648 104.906 l
648 104.906 l
stroke
grestore
gsave
558 237.2 90 100.8 clipbox
90 100.8 m
648 100.8 l
648 100.8 l
stroke
grestore
gsave
558 237.2 90 100.8 clipbox
90 100.8 m
648 100.8 l
648 100.8 l
stroke
grestore
1.000 setlinewidth
0 setlinejoin
0.000 setgray
gsave
90 337.976 m
648 337.976 l
stroke
grestore
gsave
648 100.8 m
648 337.976 l
stroke
grestore
gsave
90 100.8 m
648 100.8 l
stroke
grestore
gsave
90 100.8 m
90 337.976 l
stroke
grestore
0.500 setlinewidth
1 setlinejoin
0 setlinecap
gsave
/o {
gsave
newpath
translate
0.5 setlinewidth
1 setlinejoin
0 setlinecap
0 0 m
0 4 l
gsave
0.000 setgray
fill
grestore
stroke
grestore
} bind def
90 100.8 o
grestore
gsave
/o {
gsave
newpath
translate
0.5 setlinewidth
1 setlinejoin
0 setlinecap
0 0 m
0 -4 l
gsave
0.000 setgray
fill
grestore
stroke
grestore
} bind def
90 337.976 o
grestore
gsave
66.828125 83.128125 translate
0.000000 rotate
0.000000 0.000000 m /minus glyphshow
15.082031 0.000000 m /four glyphshow
26.534180 0.000000 m /zero glyphshow
37.986328 0.000000 m /zero glyphshow
grestore
gsave
/o {
gsave
newpath
translate
0.5 setlinewidth
1 setlinejoin
0 setlinecap
0 0 m
0 4 l
gsave
0.000 setgray
fill
grestore
stroke
grestore
} bind def
159.75 100.8 o
grestore
gsave
/o {
gsave
newpath
translate
0.5 setlinewidth
1 setlinejoin
0 setlinecap
0 0 m
0 -4 l
gsave
0.000 setgray
fill
grestore
stroke
grestore
} bind def
159.75 337.976 o
grestore
gsave
136.578125 83.128125 translate
0.000000 rotate
0.000000 0.000000 m /minus glyphshow
15.082031 0.000000 m /three glyphshow
26.534180 0.000000 m /zero glyphshow
37.986328 0.000000 m /zero glyphshow
grestore
gsave
/o {
gsave
newpath
translate
0.5 setlinewidth
1 setlinejoin
0 setlinecap
0 0 m
0 4 l
gsave
0.000 setgray
fill
grestore
stroke
grestore
} bind def
229.5 100.8 o
grestore
gsave
/o {
gsave
newpath
translate
0.5 setlinewidth
1 setlinejoin
0 setlinecap
0 0 m
0 -4 l
gsave
0.000 setgray
fill
grestore
stroke
grestore
} bind def
229.5 337.976 o
grestore
gsave
206.328125 83.128125 translate
0.000000 rotate
0.000000 0.000000 m /minus glyphshow
15.082031 0.000000 m /two glyphshow
26.534180 0.000000 m /zero glyphshow
37.986328 0.000000 m /zero glyphshow
grestore
gsave
/o {
gsave
newpath
translate
0.5 setlinewidth
1 setlinejoin
0 setlinecap
0 0 m
0 4 l
gsave
0.000 setgray
fill
grestore
stroke
grestore
} bind def
299.25 100.8 o
grestore
gsave
/o {
gsave
newpath
translate
0.5 setlinewidth
1 setlinejoin
0 setlinecap
0 0 m
0 -4 l
gsave
0.000 setgray
fill
grestore
stroke
grestore
} bind def
299.25 337.976 o
grestore
gsave
276.078125 83.128125 translate
0.000000 rotate
0.000000 0.000000 m /minus glyphshow
15.082031 0.000000 m /one glyphshow
26.534180 0.000000 m /zero glyphshow
37.986328 0.000000 m /zero glyphshow
grestore
gsave
/o {
gsave
newpath
translate
0.5 setlinewidth
1 setlinejoin
0 setlinecap
0 0 m
0 4 l
gsave
0.000 setgray
fill
grestore
stroke
grestore
} bind def
369 100.8 o
grestore
gsave
/o {
gsave
newpath
translate
0.5 setlinewidth
1 setlinejoin
0 setlinecap
0 0 m
0 -4 l
gsave
0.000 setgray
fill
grestore
stroke
grestore
} bind def
369 337.976 o
grestore
gsave
364.460938 83.128125 translate
0.000000 rotate
0.000000 0.000000 m /zero glyphshow
grestore
gsave
/o {
gsave
newpath
translate
0.5 setlinewidth
1 setlinejoin
0 setlinecap
0 0 m
0 4 l
gsave
0.000 setgray
fill
grestore
stroke
grestore
} bind def
438.75 100.8 o
grestore
gsave
/o {
gsave
newpath
translate
0.5 setlinewidth
1 setlinejoin
0 setlinecap
0 0 m
0 -4 l
gsave
0.000 setgray
fill
grestore
stroke
grestore
} bind def
438.75 337.976 o
grestore
gsave
423.156250 83.128125 translate
0.000000 rotate
0.000000 0.000000 m /one glyphshow
11.452148 0.000000 m /zero glyphshow
22.904297 0.000000 m /zero glyphshow
grestore
gsave
/o {
gsave
newpath
translate
0.5 setlinewidth
1 setlinejoin
0 setlinecap
0 0 m
0 4 l
gsave
0.000 setgray
fill
grestore
stroke
grestore
} bind def
508.5 100.8 o
grestore
gsave
/o {
gsave
newpath
translate
0.5 setlinewidth
1 setlinejoin
0 setlinecap
0 0 m
0 -4 l
gsave
0.000 setgray
fill
grestore
stroke
grestore
} bind def
508.5 337.976 o
grestore
gsave
492.570312 83.128125 translate
0.000000 rotate
0.000000 0.000000 m /two glyphshow
11.452148 0.000000 m /zero glyphshow
22.904297 0.000000 m /zero glyphshow
grestore
gsave
/o {
gsave
newpath
translate
0.5 setlinewidth
1 setlinejoin
0 setlinecap
0 0 m
0 4 l
gsave
0.000 setgray
fill
grestore
stroke
grestore
} bind def
578.25 100.8 o
grestore
gsave
/o {
gsave
newpath
translate
0.5 setlinewidth
1 setlinejoin
0 setlinecap
0 0 m
0 -4 l
gsave
0.000 setgray
fill
grestore
stroke
grestore
} bind def
578.25 337.976 o
grestore
gsave
562.351562 83.128125 translate
0.000000 rotate
0.000000 0.000000 m /three glyphshow
11.452148 0.000000 m /zero glyphshow
22.904297 0.000000 m /zero glyphshow
grestore
gsave
/o {
gsave
newpath
translate
0.5 setlinewidth
1 setlinejoin
0 setlinecap
0 0 m
0 4 l
gsave
0.000 setgray
fill
grestore
stroke
grestore
} bind def
648 100.8 o
grestore
gsave
/o {
gsave
newpath
translate
0.5 setlinewidth
1 setlinejoin
0 setlinecap
0 0 m
0 -4 l
gsave
0.000 setgray
fill
grestore
stroke
grestore
} bind def
648 337.976 o
grestore
gsave
631.851562 83.128125 translate
0.000000 rotate
0.000000 0.000000 m /four glyphshow
11.452148 0.000000 m /zero glyphshow
22.904297 0.000000 m /zero glyphshow
grestore
gsave
303.500000 55.378125 translate
0.000000 rotate
/Cmmi10 findfont
24.0 scalefont
setfont
0.000000 0.765625 moveto
/v glyphshow

/Cmr10 findfont
16.8 scalefont
setfont
11.613281 -5.356625 moveto
/G glyphshow

24.787500 -5.356625 moveto
/S glyphshow

34.114453 -5.356625 moveto
/R glyphshow

/BitstreamVeraSans-Roman findfont
24.0 scalefont
setfont
46.476562 0.765625 moveto
/space glyphshow

54.105469 0.765625 moveto
/parenleft glyphshow

63.468750 0.765625 moveto
/k glyphshow

77.367188 0.765625 moveto
/m glyphshow

100.746094 0.765625 moveto
/slash glyphshow

108.457031 0.765625 moveto
/s glyphshow

120.960938 0.765625 moveto
/parenright glyphshow


grestore
gsave
/o {
gsave
newpath
translate
0.5 setlinewidth
1 setlinejoin
0 setlinecap
0 0 m
4 0 l
gsave
0.000 setgray
fill
grestore
stroke
grestore
} bind def
90 100.8 o
grestore
gsave
/o {
gsave
newpath
translate
0.5 setlinewidth
1 setlinejoin
0 setlinecap
0 0 m
-4 0 l
gsave
0.000 setgray
fill
grestore
stroke
grestore
} bind def
648 100.8 o
grestore
gsave
36.843750 95.839062 translate
0.000000 rotate
0.000000 0.000000 m /zero glyphshow
11.452148 0.000000 m /period glyphshow
17.173828 0.000000 m /zero glyphshow
28.625977 0.000000 m /zero glyphshow
40.078125 0.000000 m /zero glyphshow
grestore
gsave
/o {
gsave
newpath
translate
0.5 setlinewidth
1 setlinejoin
0 setlinecap
0 0 m
4 0 l
gsave
0.000 setgray
fill
grestore
stroke
grestore
} bind def
90 134.682 o
grestore
gsave
/o {
gsave
newpath
translate
0.5 setlinewidth
1 setlinejoin
0 setlinecap
0 0 m
-4 0 l
gsave
0.000 setgray
fill
grestore
stroke
grestore
} bind def
648 134.682 o
grestore
gsave
37.312500 129.721415 translate
0.000000 rotate
0.000000 0.000000 m /zero glyphshow
11.452148 0.000000 m /period glyphshow
17.173828 0.000000 m /zero glyphshow
28.625977 0.000000 m /zero glyphshow
40.078125 0.000000 m /one glyphshow
grestore
gsave
/o {
gsave
newpath
translate
0.5 setlinewidth
1 setlinejoin
0 setlinecap
0 0 m
4 0 l
gsave
0.000 setgray
fill
grestore
stroke
grestore
} bind def
90 168.565 o
grestore
gsave
/o {
gsave
newpath
translate
0.5 setlinewidth
1 setlinejoin
0 setlinecap
0 0 m
-4 0 l
gsave
0.000 setgray
fill
grestore
stroke
grestore
} bind def
648 168.565 o
grestore
gsave
37.453125 163.603768 translate
0.000000 rotate
0.000000 0.000000 m /zero glyphshow
11.452148 0.000000 m /period glyphshow
17.173828 0.000000 m /zero glyphshow
28.625977 0.000000 m /zero glyphshow
40.078125 0.000000 m /two glyphshow
grestore
gsave
/o {
gsave
newpath
translate
0.5 setlinewidth
1 setlinejoin
0 setlinecap
0 0 m
4 0 l
gsave
0.000 setgray
fill
grestore
stroke
grestore
} bind def
90 202.447 o
grestore
gsave
/o {
gsave
newpath
translate
0.5 setlinewidth
1 setlinejoin
0 setlinecap
0 0 m
-4 0 l
gsave
0.000 setgray
fill
grestore
stroke
grestore
} bind def
648 202.447 o
grestore
gsave
37.093750 197.486121 translate
0.000000 rotate
0.000000 0.000000 m /zero glyphshow
11.452148 0.000000 m /period glyphshow
17.173828 0.000000 m /zero glyphshow
28.625977 0.000000 m /zero glyphshow
40.078125 0.000000 m /three glyphshow
grestore
gsave
/o {
gsave
newpath
translate
0.5 setlinewidth
1 setlinejoin
0 setlinecap
0 0 m
4 0 l
gsave
0.000 setgray
fill
grestore
stroke
grestore
} bind def
90 236.329 o
grestore
gsave
/o {
gsave
newpath
translate
0.5 setlinewidth
1 setlinejoin
0 setlinecap
0 0 m
-4 0 l
gsave
0.000 setgray
fill
grestore
stroke
grestore
} bind def
648 236.329 o
grestore
gsave
36.671875 231.368474 translate
0.000000 rotate
0.000000 0.000000 m /zero glyphshow
11.452148 0.000000 m /period glyphshow
17.173828 0.000000 m /zero glyphshow
28.625977 0.000000 m /zero glyphshow
40.078125 0.000000 m /four glyphshow
grestore
gsave
/o {
gsave
newpath
translate
0.5 setlinewidth
1 setlinejoin
0 setlinecap
0 0 m
4 0 l
gsave
0.000 setgray
fill
grestore
stroke
grestore
} bind def
90 270.212 o
grestore
gsave
/o {
gsave
newpath
translate
0.5 setlinewidth
1 setlinejoin
0 setlinecap
0 0 m
-4 0 l
gsave
0.000 setgray
fill
grestore
stroke
grestore
} bind def
648 270.212 o
grestore
gsave
37.234375 265.250827 translate
0.000000 rotate
0.000000 0.000000 m /zero glyphshow
11.452148 0.000000 m /period glyphshow
17.173828 0.000000 m /zero glyphshow
28.625977 0.000000 m /zero glyphshow
40.078125 0.000000 m /five glyphshow
grestore
gsave
/o {
gsave
newpath
translate
0.5 setlinewidth
1 setlinejoin
0 setlinecap
0 0 m
4 0 l
gsave
0.000 setgray
fill
grestore
stroke
grestore
} bind def
90 304.094 o
grestore
gsave
/o {
gsave
newpath
translate
0.5 setlinewidth
1 setlinejoin
0 setlinecap
0 0 m
-4 0 l
gsave
0.000 setgray
fill
grestore
stroke
grestore
} bind def
648 304.094 o
grestore
gsave
36.796875 299.133180 translate
0.000000 rotate
0.000000 0.000000 m /zero glyphshow
11.452148 0.000000 m /period glyphshow
17.173828 0.000000 m /zero glyphshow
28.625977 0.000000 m /zero glyphshow
40.078125 0.000000 m /six glyphshow
grestore
gsave
/o {
gsave
newpath
translate
0.5 setlinewidth
1 setlinejoin
0 setlinecap
0 0 m
4 0 l
gsave
0.000 setgray
fill
grestore
stroke
grestore
} bind def
90 337.976 o
grestore
gsave
/o {
gsave
newpath
translate
0.5 setlinewidth
1 setlinejoin
0 setlinecap
0 0 m
-4 0 l
gsave
0.000 setgray
fill
grestore
stroke
grestore
} bind def
648 337.976 o
grestore
gsave
37.187500 333.015533 translate
0.000000 rotate
0.000000 0.000000 m /zero glyphshow
11.452148 0.000000 m /period glyphshow
17.173828 0.000000 m /zero glyphshow
28.625977 0.000000 m /zero glyphshow
40.078125 0.000000 m /seven glyphshow
grestore
gsave
24.671875 178.888235 translate
90.000000 rotate
/BitstreamVeraSans-Roman findfont
24.0 scalefont
setfont
0.000000 0.000000 moveto
/p glyphshow

/Cmr10 findfont
24.0 scalefont
setfont
15.234375 0.000000 moveto
/parenleft glyphshow

/Cmmi10 findfont
24.0 scalefont
setfont
24.550781 0.000000 moveto
/v glyphshow

/Cmr10 findfont
16.8 scalefont
setfont
36.164062 -6.122250 moveto
/G glyphshow

49.338281 -6.122250 moveto
/S glyphshow

58.665234 -6.122250 moveto
/R glyphshow

/Cmr10 findfont
24.0 scalefont
setfont
71.027344 0.000000 moveto
/parenright glyphshow


grestore
gsave
327.000000 342.976471 translate
0.000000 rotate
/Cmr10 findfont
20.0 scalefont
setfont
0.000000 0.343750 moveto
/K glyphshow

/Cmsy10 findfont
20.0 scalefont
setfont
15.537109 0.343750 moveto
/minus glyphshow

/Cmr10 findfont
20.0 scalefont
setfont
31.074219 0.343750 moveto
/g glyphshow

41.074219 0.343750 moveto
/i glyphshow

46.611328 0.343750 moveto
/a glyphshow

56.611328 0.343750 moveto
/n glyphshow

67.714844 0.343750 moveto
/t glyphshow

75.478516 0.343750 moveto
/s glyphshow


grestore

end
showpage
