%!PS-Adobe-3.0 EPSF-3.0
%%Title: /Users/iuliasimion/bullock_johnston/denis_erkal/vasily/Figures/4498_3103313_lb.eps
%%Creator: matplotlib version 1.4.3, http://matplotlib.org/
%%CreationDate: Sat Aug 19 15:00:39 2017
%%Orientation: portrait
%%BoundingBox: 180 306 432 486
%%EndComments
%%BeginProlog
/mpldict 10 dict def
mpldict begin
/m { moveto } bind def
/l { lineto } bind def
/r { rlineto } bind def
/c { curveto } bind def
/cl { closepath } bind def
/box {
m
1 index 0 r
0 exch r
neg 0 r
cl
} bind def
/clipbox {
box
clip
newpath
} bind def
%!PS-Adobe-3.0 Resource-Font
%%Title: Bitstream Vera Sans
%%Copyright: Copyright (c) 2003 by Bitstream, Inc. All Rights Reserved.
%%Creator: Converted from TrueType to type 3 by PPR
25 dict begin
/_d{bind def}bind def
/_m{moveto}_d
/_l{lineto}_d
/_cl{closepath eofill}_d
/_c{curveto}_d
/_sc{7 -1 roll{setcachedevice}{pop pop pop pop pop pop}ifelse}_d
/_e{exec}_d
/FontName /BitstreamVeraSans-Roman def
/PaintType 0 def
/FontMatrix[.001 0 0 .001 0 0]def
/FontBBox[-183 -236 1287 928]def
/FontType 3 def
/Encoding [ /space /zero /one /three /four /five /eight /equal /N /minus ] def
/FontInfo 10 dict dup begin
/FamilyName (Bitstream Vera Sans) def
/FullName (Bitstream Vera Sans) def
/Notice (Copyright (c) 2003 by Bitstream, Inc. All Rights Reserved. Bitstream Vera is a trademark of Bitstream, Inc.) def
/Weight (Roman) def
/Version (Release 1.10) def
/ItalicAngle 0.0 def
/isFixedPitch false def
/UnderlinePosition -213 def
/UnderlineThickness 143 def
end readonly def
/CharStrings 10 dict dup begin
/space{318 0 0 0 0 0 _sc
}_d
/zero{636 0 66 -13 570 742 _sc
318 664 _m
267 664 229 639 203 589 _c
177 539 165 464 165 364 _c
165 264 177 189 203 139 _c
229 89 267 64 318 64 _c
369 64 407 89 433 139 _c
458 189 471 264 471 364 _c
471 464 458 539 433 589 _c
407 639 369 664 318 664 _c
318 742 _m
399 742 461 709 505 645 _c
548 580 570 486 570 364 _c
570 241 548 147 505 83 _c
461 19 399 -13 318 -13 _c
236 -13 173 19 130 83 _c
87 147 66 241 66 364 _c
66 486 87 580 130 645 _c
173 709 236 742 318 742 _c
_cl}_d
/one{636 0 110 0 544 729 _sc
124 83 _m
285 83 _l
285 639 _l
110 604 _l
110 694 _l
284 729 _l
383 729 _l
383 83 _l
544 83 _l
544 0 _l
124 0 _l
124 83 _l
_cl}_d
/three{{636 0 76 -13 556 742 _sc
406 393 _m
453 383 490 362 516 330 _c
542 298 556 258 556 212 _c
556 140 531 84 482 45 _c
432 6 362 -13 271 -13 _c
240 -13 208 -10 176 -4 _c
144 1 110 10 76 22 _c
76 117 _l
103 101 133 89 166 81 _c
198 73 232 69 268 69 _c
330 69 377 81 409 105 _c
441 129 458 165 458 212 _c
458 254 443 288 413 312 _c
383 336 341 349 287 349 _c
}_e{202 349 _l
202 430 _l
291 430 _l
339 430 376 439 402 459 _c
428 478 441 506 441 543 _c
441 580 427 609 401 629 _c
374 649 336 659 287 659 _c
260 659 231 656 200 650 _c
169 644 135 635 98 623 _c
98 711 _l
135 721 170 729 203 734 _c
235 739 266 742 296 742 _c
370 742 429 725 473 691 _c
517 657 539 611 539 553 _c
539 513 527 479 504 451 _c
481 423 448 403 406 393 _c
_cl}_e}_d
/four{636 0 49 0 580 729 _sc
378 643 _m
129 254 _l
378 254 _l
378 643 _l
352 729 _m
476 729 _l
476 254 _l
580 254 _l
580 172 _l
476 172 _l
476 0 _l
378 0 _l
378 172 _l
49 172 _l
49 267 _l
352 729 _l
_cl}_d
/five{{636 0 77 -13 549 729 _sc
108 729 _m
495 729 _l
495 646 _l
198 646 _l
198 467 _l
212 472 227 476 241 478 _c
255 480 270 482 284 482 _c
365 482 429 459 477 415 _c
525 370 549 310 549 234 _c
549 155 524 94 475 51 _c
426 8 357 -13 269 -13 _c
238 -13 207 -10 175 -6 _c
143 -1 111 6 77 17 _c
77 116 _l
106 100 136 88 168 80 _c
199 72 232 69 267 69 _c
}_e{323 69 368 83 401 113 _c
433 143 450 183 450 234 _c
450 284 433 324 401 354 _c
368 384 323 399 267 399 _c
241 399 214 396 188 390 _c
162 384 135 375 108 363 _c
108 729 _l
_cl}_e}_d
/eight{{636 0 68 -13 568 742 _sc
318 346 _m
271 346 234 333 207 308 _c
180 283 167 249 167 205 _c
167 161 180 126 207 101 _c
234 76 271 64 318 64 _c
364 64 401 76 428 102 _c
455 127 469 161 469 205 _c
469 249 455 283 429 308 _c
402 333 365 346 318 346 _c
219 388 _m
177 398 144 418 120 447 _c
96 476 85 511 85 553 _c
85 611 105 657 147 691 _c
188 725 245 742 318 742 _c
}_e{390 742 447 725 489 691 _c
530 657 551 611 551 553 _c
551 511 539 476 515 447 _c
491 418 459 398 417 388 _c
464 377 501 355 528 323 _c
554 291 568 251 568 205 _c
568 134 546 80 503 43 _c
459 5 398 -13 318 -13 _c
237 -13 175 5 132 43 _c
89 80 68 134 68 205 _c
68 251 81 291 108 323 _c
134 355 171 377 219 388 _c
183 544 _m
183 506 194 476 218 455 _c
}_e{242 434 275 424 318 424 _c
360 424 393 434 417 455 _c
441 476 453 506 453 544 _c
453 582 441 611 417 632 _c
393 653 360 664 318 664 _c
275 664 242 653 218 632 _c
194 611 183 582 183 544 _c
_cl}_e}_d
/equal{838 0 106 172 732 454 _sc
106 454 _m
732 454 _l
732 372 _l
106 372 _l
106 454 _l
106 255 _m
732 255 _l
732 172 _l
106 172 _l
106 255 _l
_cl}_d
/N{748 0 98 0 650 729 _sc
98 729 _m
231 729 _l
554 119 _l
554 729 _l
650 729 _l
650 0 _l
517 0 _l
194 610 _l
194 0 _l
98 0 _l
98 729 _l
_cl}_d
/minus{838 0 106 272 732 355 _sc
106 355 _m
732 355 _l
732 272 _l
106 272 _l
106 355 _l
_cl}_d
end readonly def

/BuildGlyph
 {exch begin
 CharStrings exch
 2 copy known not{pop /.notdef}if
 true 3 1 roll get exec
 end}_d

/BuildChar {
 1 index /Encoding get exch get
 1 index /BuildGlyph get exec
}_d

FontName currentdict end definefont pop
%!PS-Adobe-3.0 Resource-Font
%%Title: cmsy10
%%Copyright: Copyright (C) 1994, Basil K. Malyshev. All Rights Reserved.012BaKoMa Fonts Collection, Level-B.
%%Creator: Converted from TrueType to type 3 by PPR
25 dict begin
/_d{bind def}bind def
/_m{moveto}_d
/_l{lineto}_d
/_cl{closepath eofill}_d
/_c{curveto}_d
/_sc{7 -1 roll{setcachedevice}{pop pop pop pop pop pop}ifelse}_d
/_e{exec}_d
/FontName /Cmsy10 def
/PaintType 0 def
/FontMatrix[.001 0 0 .001 0 0]def
/FontBBox[-29 -960 1123 779]def
/FontType 3 def
/Encoding [ /openbullet ] def
/FontInfo 10 dict dup begin
/FamilyName (cmsy10) def
/FullName (cmsy10) def
/Notice (Copyright (C) 1994, Basil K. Malyshev. All Rights Reserved.012BaKoMa Fonts Collection, Level-B. ) def
/Weight (Regular) def
/Version (1.1/12-Nov-94) def
/ItalicAngle 0.0 def
/isFixedPitch false def
/UnderlinePosition -133 def
/UnderlineThickness 20 def
end readonly def
/CharStrings 1 dict dup begin
/openbullet{{500 0 56 56 443 444 _sc
250 56 _m
215 56 183 64 153 82 _c
123 99 100 123 82 153 _c
64 183 56 216 56 250 _c
56 284 64 316 82 346 _c
100 376 123 400 153 418 _c
183 435 215 444 250 444 _c
284 444 316 435 346 417 _c
376 399 399 376 417 346 _c
434 316 443 284 443 250 _c
443 216 434 184 417 154 _c
399 124 376 100 346 82 _c
316 64 284 56 250 56 _c
250 96 _m
}_e{292 96 328 111 358 142 _c
388 172 403 208 403 250 _c
403 276 396 302 382 326 _c
368 350 349 369 326 383 _c
302 397 277 404 250 404 _c
229 404 209 400 191 392 _c
173 384 156 372 142 358 _c
127 343 116 326 108 308 _c
100 290 96 270 96 250 _c
96 208 111 172 141 142 _c
171 111 208 96 250 96 _c
_cl}_e}_d
end readonly def

/BuildGlyph
 {exch begin
 CharStrings exch
 2 copy known not{pop /.notdef}if
 true 3 1 roll get exec
 end}_d

/BuildChar {
 1 index /Encoding get exch get
 1 index /BuildGlyph get exec
}_d

FontName currentdict end definefont pop
%!PS-Adobe-3.0 Resource-Font
%%Title: cmr10
%%Copyright: Copyright (C) 1994, Basil K. Malyshev. All Rights Reserved.012BaKoMa Fonts Collection, Level-B.
%%Creator: Converted from TrueType to type 3 by PPR
25 dict begin
/_d{bind def}bind def
/_m{moveto}_d
/_l{lineto}_d
/_cl{closepath eofill}_d
/_c{curveto}_d
/_sc{7 -1 roll{setcachedevice}{pop pop pop pop pop pop}ifelse}_d
/_e{exec}_d
/FontName /Cmr10 def
/PaintType 0 def
/FontMatrix[.001 0 0 .001 0 0]def
/FontBBox[-44 -250 1009 750]def
/FontType 3 def
/Encoding [ /b /parenright /l /parenleft ] def
/FontInfo 10 dict dup begin
/FamilyName (cmr10) def
/FullName (cmr10) def
/Notice (Copyright (C) 1994, Basil K. Malyshev. All Rights Reserved.012BaKoMa Fonts Collection, Level-B. ) def
/Weight (Regular) def
/Version (1.1/12-Nov-94) def
/ItalicAngle 0.0 def
/isFixedPitch false def
/UnderlinePosition -133 def
/UnderlineThickness 20 def
end readonly def
/CharStrings 4 dict dup begin
/b{{555 0 26 -10 522 694 _sc
104 0 _m
104 592 _l
104 610 101 623 96 631 _c
90 639 83 643 73 645 _c
63 647 47 648 26 648 _c
26 683 _l
174 694 _l
174 381 _l
184 393 197 403 212 413 _c
227 422 243 429 260 434 _c
277 439 294 442 312 442 _c
342 442 369 436 395 424 _c
421 412 443 395 462 374 _c
480 352 495 328 506 301 _c
516 273 522 245 522 216 _c
522 175 512 137 492 103 _c
}_e{472 68 446 40 412 20 _c
378 0 340 -10 300 -10 _c
274 -10 250 -3 226 9 _c
202 21 182 38 167 60 _c
133 0 _l
104 0 _l
177 98 _m
187 74 203 54 224 38 _c
245 22 268 15 294 15 _c
328 15 356 25 378 45 _c
399 65 414 90 422 120 _c
430 150 435 182 435 216 _c
435 272 427 314 413 344 _c
406 357 397 369 386 380 _c
375 391 363 400 349 406 _c
}_e{335 412 320 416 305 416 _c
278 416 253 409 231 395 _c
208 381 190 362 177 338 _c
177 98 _l
_cl}_e}_d
/parenright{{388 0 56 -249 291 750 _sc
65 -249 _m
59 -249 56 -246 56 -240 _c
56 -237 56 -235 58 -234 _c
172 -122 229 38 229 250 _c
229 462 172 623 60 733 _c
57 734 56 737 56 741 _c
56 743 57 745 59 747 _c
61 749 63 750 65 750 _c
74 750 _l
76 750 77 749 79 748 _c
127 710 167 664 199 610 _c
231 556 254 498 269 437 _c
283 376 291 314 291 250 _c
291 202 287 156 279 110 _c
}_e{271 64 258 20 241 -24 _c
223 -68 201 -108 175 -146 _c
148 -184 116 -217 79 -247 _c
77 -248 76 -249 74 -249 _c
65 -249 _l
_cl}_e}_d
/l{277 0 31 0 257 694 _sc
31 0 _m
31 35 _l
53 35 72 36 87 40 _c
101 44 109 53 109 67 _c
109 592 _l
109 610 106 623 101 631 _c
95 639 88 643 78 645 _c
68 647 52 648 31 648 _c
31 683 _l
179 694 _l
179 67 _l
179 53 186 44 201 40 _c
215 36 234 35 257 35 _c
257 0 _l
31 0 _l
_cl}_d
/parenleft{{388 0 97 -249 332 750 _sc
310 -247 _m
272 -217 240 -184 214 -146 _c
187 -108 165 -67 148 -25 _c
131 17 118 62 110 109 _c
101 155 97 202 97 250 _c
97 298 101 345 110 392 _c
118 438 131 483 149 527 _c
166 570 188 611 215 649 _c
242 687 274 720 310 748 _c
310 749 311 750 315 750 _c
324 750 _l
326 750 327 749 329 747 _c
331 745 332 743 332 741 _c
332 738 331 736 330 735 _c
}_e{297 703 270 668 248 632 _c
226 596 209 557 196 516 _c
183 474 174 432 168 388 _c
162 344 159 298 159 250 _c
159 38 215 -122 329 -232 _c
331 -234 332 -236 332 -240 _c
332 -242 331 -244 329 -246 _c
327 -248 326 -249 324 -249 _c
315 -249 _l
311 -249 310 -248 310 -247 _c
_cl}_e}_d
end readonly def

/BuildGlyph
 {exch begin
 CharStrings exch
 2 copy known not{pop /.notdef}if
 true 3 1 roll get exec
 end}_d

/BuildChar {
 1 index /Encoding get exch get
 1 index /BuildGlyph get exec
}_d

FontName currentdict end definefont pop
end
%%EndProlog
mpldict begin
180 306 translate
252 180 0 0 clipbox
gsave
0 0 m
252 0 l
252 180 l
0 180 l
cl
1.000 setgray
fill
grestore
gsave
47.88 37.8 m
244.44 37.8 l
244.44 162 l
47.88 162 l
cl
1.000 setgray
fill
grestore
0.500 setlinewidth
1 setlinejoin
0 setlinecap
[] 0 setdash
0.000 setgray
gsave
196.6 124.2 47.88 37.8 clipbox
/o {
gsave
newpath
translate
0.5 setlinewidth
1 setlinejoin
0 setlinecap
0 -0.25 m
0.0663008 -0.25 0.129895 -0.223658 0.176777 -0.176777 c
0.223658 -0.129895 0.25 -0.0663008 0.25 0 c
0.25 0.0663008 0.223658 0.129895 0.176777 0.176777 c
0.129895 0.223658 0.0663008 0.25 0 0.25 c
-0.0663008 0.25 -0.129895 0.223658 -0.176777 0.176777 c
-0.223658 0.129895 -0.25 0.0663008 -0.25 0 c
-0.25 -0.0663008 -0.223658 -0.129895 -0.176777 -0.176777 c
-0.129895 -0.223658 -0.0663008 -0.25 0 -0.25 c
cl
gsave
0.000 setgray
fill
grestore
stroke
grestore
} bind def
65.1218 132.902 o
197.391 157.243 o
149.969 88.8396 o
93.1281 127.957 o
144.502 97.7857 o
77.4393 128.04 o
239.951 149.993 o
96.1795 120.721 o
88.4589 143.592 o
162.807 103.29 o
146.174 68.2883 o
90.5617 136.32 o
145.352 70.1007 o
97.1033 141.283 o
122.717 122.392 o
162.206 93.0446 o
71.7783 136.423 o
94.0045 132.534 o
118.524 108.676 o
152.401 79.5685 o
147.254 78.3067 o
100.943 131.568 o
64.6918 137.293 o
81.4445 139.549 o
85.9071 135.353 o
150.077 82.9461 o
151.371 82.7256 o
131.18 133.748 o
101.463 145.138 o
152.987 90.9525 o
148.027 82.867 o
100.932 127.112 o
104.564 134.949 o
100.149 128.827 o
156.702 76.8407 o
92.7075 130.57 o
144.503 85.3688 o
160.281 89.9097 o
101.871 125.119 o
77.9757 141.402 o
161.119 78.2232 o
63.9 147.799 o
81.7891 126.207 o
109.974 132.083 o
157.214 78.5315 o
54.7679 140.369 o
144.815 72.0273 o
96.1973 140.472 o
151.127 113.459 o
125.039 125.606 o
134.39 91.2321 o
79.1207 132.133 o
152.323 81.1864 o
91.4634 130.567 o
141.085 84.6013 o
114.284 129.901 o
142.56 107.455 o
146.653 84.6501 o
158.988 89.5869 o
156.331 73.7135 o
153.11 86.1905 o
168.054 83.2844 o
144.448 75.741 o
176.985 73.3993 o
59.0245 152.82 o
160.477 85.5775 o
70.8717 142.752 o
167.99 81.39 o
166.937 84.1212 o
63.712 136.662 o
146.316 75.9527 o
77.382 122.432 o
159.944 83.4832 o
87.8773 127.35 o
86.4071 130.704 o
67.4319 138.1 o
82.7866 131.929 o
143.824 77.6552 o
146.767 75.1412 o
170.15 78.6292 o
84.4177 137.256 o
83.0188 139.147 o
94.1383 123.821 o
85.5801 130.861 o
169.311 78.0875 o
96.1974 129.45 o
164.256 83.7637 o
69.6093 133.773 o
143.187 67.2638 o
90.2024 135.26 o
157.815 79.5503 o
114.21 126.752 o
68.9536 125.479 o
66.9238 144.624 o
82.1379 135.518 o
97.7876 128.325 o
152.327 66.0349 o
76.6659 134.705 o
117.309 135.934 o
75.7007 126.377 o
158.839 65.6637 o
98.6753 145.355 o
88.3092 126.658 o
158.458 87.4092 o
137.932 134.371 o
178.081 144.269 o
92.8439 135.386 o
154.226 94.8232 o
166.604 73.1411 o
113.513 122.056 o
161.949 67.1156 o
56.3586 125.361 o
107.519 143.238 o
107.347 135.827 o
96.4936 136.871 o
145.861 73.5355 o
120.549 148.202 o
142.579 85.8464 o
163.114 94.6304 o
133.722 94.5001 o
93.514 146.262 o
146.803 85.7031 o
141.502 107.762 o
169.927 92.5709 o
59.351 145.327 o
162.458 90.4198 o
97.9936 131.182 o
149.996 82.7056 o
155.066 85.6046 o
152.422 80.2276 o
61.4939 148.22 o
165.929 117.196 o
166.657 79.5064 o
78.3962 123.394 o
76.7561 132.107 o
157.92 88.8877 o
80.2164 144.079 o
110.844 129.72 o
77.534 129.929 o
148.955 102.342 o
144.204 70.4897 o
80.6148 123.26 o
168.356 81.4434 o
147.054 92.9655 o
51.0406 145.753 o
80.9262 125.015 o
162.113 77.7099 o
161.952 86.0336 o
73.6156 130.048 o
173.307 65.7337 o
149.048 88.2269 o
66.1734 128.773 o
62.1906 149.376 o
135.587 117.328 o
161.648 73.5485 o
85.0479 145.063 o
159.638 80.3335 o
75.4598 132.331 o
144.325 100.141 o
164.992 77.1545 o
168.328 94.1233 o
152.667 80.1974 o
79.8894 130.458 o
138.719 124.86 o
152.721 84.6588 o
101.438 147.43 o
144.671 73.8162 o
102.136 158.23 o
154.588 84.4057 o
72.7773 124.685 o
162.891 81.9988 o
78.5442 137.625 o
146.457 69.8288 o
171.423 83.4343 o
156.133 89.7146 o
158.198 76.6053 o
161.541 71.8769 o
164.877 67.5106 o
101.883 135.646 o
69.8769 129.12 o
81.9292 152.874 o
74.2249 126.657 o
155.947 81.5515 o
156.691 81.9725 o
147.091 87.4782 o
152.382 144.638 o
173.492 110.819 o
156.165 76.1243 o
150.22 71.4267 o
167.675 72.6268 o
154.084 98.4357 o
75.0968 140.597 o
65.7259 143.951 o
148.588 73.7713 o
111.751 143.834 o
150.412 96.4571 o
93.7229 123.668 o
156.029 79.1135 o
136.709 119.828 o
162.268 74.9415 o
60.3675 151.545 o
151.233 83.2928 o
157.172 92.837 o
155.007 82.5688 o
93.7419 148.242 o
79.4702 135.631 o
90.9296 148.491 o
145.447 75.0487 o
105.306 132.092 o
116.466 130.269 o
148.604 75.5059 o
96.1985 109.227 o
155.614 89.2297 o
176.202 69.7248 o
144.584 69.9959 o
160.679 73.2447 o
156.127 68.8906 o
77.5661 133.853 o
171.296 88.9212 o
167.905 85.2284 o
77.5781 137.853 o
106.021 137.679 o
96.4891 116.444 o
110.552 134.579 o
159.391 70.6882 o
143.991 80.5689 o
89.5822 136.698 o
158.033 99.0067 o
141.24 89.7108 o
152.797 76.9208 o
165.24 91.2325 o
168.487 92.9049 o
142.127 103.456 o
163.727 90.1011 o
166.366 81.646 o
158.241 78.3734 o
148.531 76.6078 o
108.339 132.838 o
77.9143 133.422 o
132.66 147.097 o
58.729 154.964 o
127.195 141.422 o
166.866 69.2024 o
147.221 69.4951 o
148.932 70.1293 o
164.724 77.6593 o
55.3017 134.79 o
71.7077 129.713 o
160.028 74.3273 o
144.476 77.9799 o
162.352 97.4515 o
72.3543 135.056 o
147.113 71.7715 o
67.2763 128.577 o
168.785 99.4361 o
152.19 82.5457 o
162.451 89.8996 o
93.5966 148.878 o
185.109 160.435 o
156.66 86.143 o
165.99 86.229 o
150.643 85.7416 o
84.9374 139.247 o
149.76 92.2143 o
151.803 89.7154 o
93.7031 142.804 o
115.792 135.179 o
86.1414 126.634 o
157.345 92.6827 o
128.331 126.582 o
149.28 71.2338 o
101.022 133.983 o
155.689 75.6879 o
86.8263 131.561 o
147.531 76.5746 o
147.1 76.7452 o
149.716 79.1987 o
65.1881 122.424 o
163.445 71.8468 o
165.597 71.2607 o
171.333 97.2625 o
154.084 85.5341 o
82.4102 144.657 o
89.006 132.203 o
166.531 95.2401 o
168.204 83.7324 o
170.145 65.1822 o
76.2196 124.01 o
157.063 109.392 o
130.169 110.069 o
108.528 125.701 o
143.351 72.0533 o
78.779 143.847 o
100.506 142.022 o
141.516 113.583 o
65.9427 134.121 o
148.759 86.1762 o
64.6106 142.111 o
164.656 71.4859 o
220.696 139.661 o
149.949 89.6019 o
86.3013 124.258 o
170.059 79.7963 o
137.332 133.312 o
97.9358 150.354 o
158.745 75.0598 o
162.9 81.911 o
74.692 123.139 o
110.015 135.337 o
139.466 131.673 o
170.415 78.2986 o
92.6031 125.148 o
156.156 98.6021 o
83.1476 141.183 o
147.317 71.0636 o
139.275 114.707 o
90.0394 111.982 o
159.682 81.9082 o
166.913 75.4407 o
189.511 87.4772 o
157.763 58.7931 o
152.193 100.098 o
72.1322 129.713 o
69.2811 114.248 o
153.319 80.4295 o
153.532 75.3417 o
119.01 146.452 o
79.0994 127.86 o
149.522 83.2622 o
58.6698 147.563 o
115.646 126.442 o
162.595 74.4137 o
145.417 87.5574 o
159.18 77.5016 o
116.959 140.056 o
150.916 80.2343 o
69.3024 143.405 o
88.8892 129.396 o
108.179 135.701 o
158.485 87.9579 o
89.5203 127.979 o
167.105 80.2041 o
115.714 154.029 o
166.934 111.163 o
80.6467 147.856 o
138.476 103.226 o
163.492 76.8794 o
124.574 117.459 o
144.752 79.6249 o
95.5525 139.853 o
136.887 96.5355 o
166.421 82.8209 o
103.265 130.171 o
148.251 81.0881 o
148.743 125.353 o
166.896 99.4251 o
107.185 140.149 o
79.9705 153.249 o
67.2454 128.123 o
160.341 83.5188 o
163.417 100.317 o
77.331 121.476 o
62.186 127.83 o
111.303 142.484 o
107.431 107.08 o
164.783 104.486 o
225.882 143.688 o
156.094 86.292 o
82.3422 135.007 o
147.973 78.6461 o
172.227 80.8794 o
167.913 77.4045 o
70.872 127.49 o
118.246 113.457 o
165.542 72.6508 o
170.001 73.5229 o
72.5718 128.234 o
70.3483 146.363 o
169.4 85.0996 o
162.094 102.97 o
136.708 142.17 o
61.5068 137.277 o
69.3235 136.978 o
126.209 140.408 o
149.412 76.964 o
76.5511 126.631 o
142.821 69.8263 o
79.4947 139.583 o
152.719 71.2877 o
144.054 74.0822 o
57.1666 138.989 o
151.677 98.2999 o
128.497 109.554 o
156.712 97.1473 o
62.6718 139.816 o
97.0293 112.953 o
168.372 96.9292 o
153.296 89.494 o
92.2626 123.742 o
79.0443 151.709 o
79.7077 129.588 o
159.815 91.5051 o
158.953 135.923 o
103.208 126.816 o
227.594 138.351 o
133.44 96.6835 o
171.411 61.2015 o
128.79 147.804 o
102.383 84.6484 o
150.578 82.4586 o
90.4361 148.113 o
62.7653 131.782 o
144.392 80.9213 o
101.908 134.936 o
63.9493 137.1 o
163.786 82.0467 o
123.229 136.125 o
136.001 116.48 o
85.2469 128.708 o
67.3778 117.962 o
128.095 134.126 o
243.283 132.741 o
172.254 79.4476 o
163.3 94.8275 o
90.7093 143.642 o
146.087 87.5189 o
162.823 66.8305 o
169.08 96.9498 o
144.637 78.7556 o
152.457 89.4506 o
166.662 72.3002 o
95.7349 118.559 o
153.296 79.4 o
82.6223 125.073 o
169.56 99.6897 o
156.022 81.9954 o
182.679 105.062 o
101.067 144.571 o
156.109 75.9614 o
138.344 121.006 o
71.284 151.192 o
73.2375 146.506 o
109.604 114.468 o
121.078 121.202 o
154.624 87.4342 o
171.258 90.1568 o
98.2098 124.294 o
165.141 92.6903 o
89.3862 151.031 o
136.233 120.422 o
163.868 87.0749 o
174.386 74.5297 o
169.155 99.9597 o
161.316 73.2992 o
149.219 71.8921 o
148.032 83.0364 o
182.42 84.1403 o
143.445 127.699 o
69.1324 127.884 o
163.352 92.5181 o
119.489 141.196 o
146.54 71.7827 o
79.3621 119.978 o
162.13 90.7682 o
166.268 77.552 o
162.086 64.626 o
143.995 71.0819 o
144.202 76.8813 o
162.288 90.5894 o
154.031 74.4702 o
66.272 146.247 o
79.8067 141.397 o
162.357 81.6958 o
127.014 160.352 o
150.878 69.5498 o
154.847 95.2091 o
162.571 76.1754 o
89.2836 148.872 o
133.787 69.4168 o
159.009 66.2577 o
131.629 129.718 o
161.242 89.2244 o
153.653 87.3046 o
69.9597 132.907 o
168.276 67.1173 o
113.123 141.728 o
155.655 78.7021 o
154.281 83.2877 o
163.183 76.9855 o
159.843 86.9513 o
106.06 144.561 o
113.086 127.395 o
156.992 85.9728 o
87.4383 117.306 o
149.611 79.9058 o
157.594 101.764 o
151.079 89.9555 o
164.713 76.8239 o
81.195 111.775 o
157.262 82.315 o
151.256 73.896 o
168.039 92.3114 o
170.347 89.6322 o
154.372 80.374 o
73.6813 146.756 o
163.423 86.2029 o
170.25 71.6167 o
138.997 109.575 o
148.315 104.863 o
150.578 79.9695 o
107.327 104.085 o
148.323 73.7281 o
98.9272 120.165 o
93.8008 135.485 o
167.747 68.0982 o
93.8115 131.924 o
149.106 83.7867 o
166.107 120.823 o
54.0103 132.542 o
147.172 88.8975 o
166.988 80.3764 o
146.09 80.7783 o
133.32 120.526 o
162.658 89.3666 o
153.329 87.4263 o
162.158 91.8216 o
152.857 77.241 o
148.567 80.563 o
149.897 80.0052 o
163.348 94.5023 o
79.0586 47.9021 o
76.9211 139.114 o
66.1686 127.001 o
154.881 86.8791 o
99.8926 121.099 o
160.822 81.9153 o
110.661 114.316 o
89.3442 135.161 o
153.616 87.1572 o
171.515 79.2436 o
66.6496 137.442 o
118.587 143.278 o
153.755 69.6081 o
164.56 59.9291 o
173.04 69.0821 o
77.7819 129.042 o
138.017 109.71 o
68.9543 119.11 o
146.923 90.0847 o
121.752 123.281 o
154.627 88.7847 o
107.568 104.976 o
128.302 121.674 o
175.553 161.733 o
150.595 74.3037 o
168.199 80.5123 o
135.887 101.548 o
151.417 84.0663 o
157.339 81.6448 o
146.974 80.7664 o
158.213 77.7351 o
80.6814 132.745 o
145.105 67.8633 o
242.413 158.69 o
129.889 121.936 o
93.309 132.387 o
76.611 132.935 o
153.535 85.9774 o
62.5657 147.929 o
141.266 101.857 o
169.615 76.112 o
103.502 120.734 o
122.17 134.532 o
155.168 83.7389 o
119.867 136.582 o
71.4702 127.565 o
78.3769 114.193 o
78.5108 139.041 o
102.475 130.904 o
173.046 94.8152 o
156.37 88.7673 o
137.909 97.4447 o
168.222 80.4922 o
97.5486 132.648 o
168.403 88.1698 o
153.47 95.4476 o
164.232 73.3314 o
102.747 138.707 o
173.614 79.1428 o
151.76 101.497 o
166.873 78.2945 o
107.127 139.736 o
147.401 83.8255 o
144.518 92.4598 o
156.476 89.0803 o
158.307 92.2867 o
153.353 98.2558 o
167.737 87.9127 o
154.984 80.9324 o
123.037 101.643 o
88.7375 124.429 o
162.462 77.2471 o
146.596 86.4197 o
117.219 130.372 o
177.181 82.1372 o
165.107 71.3188 o
76.3357 146.252 o
161.738 80.6366 o
172.908 87.4455 o
61.2795 132.985 o
168.044 85.3342 o
156.222 77.9364 o
87.4489 118.295 o
92.6368 118.81 o
162.068 90.2626 o
71.4359 130.428 o
154.527 81.4595 o
169.54 83.6856 o
150.284 85.7843 o
90.1335 111.156 o
141.354 91.0395 o
155.619 89.1709 o
169.578 74.4614 o
161.665 86.3605 o
149.046 86.8329 o
134.158 98.5806 o
164.43 139.058 o
146.676 89.5825 o
90.1847 116.056 o
106.544 120.16 o
164.873 70.676 o
76.2883 115.52 o
144.299 76.632 o
84.3026 138.674 o
171.032 151.593 o
148.058 82.5945 o
165.1 94.8621 o
103.038 141.396 o
161.784 93.5836 o
149.876 83.5674 o
158.541 70.7232 o
188.651 83.5637 o
165.673 94.7528 o
165.928 75.6652 o
144.67 107.09 o
189.634 77.1593 o
101.11 134.019 o
102.989 125.491 o
90.3718 111.034 o
160.953 91.7079 o
153.002 90.4428 o
153.883 59.4532 o
154.136 71.5149 o
181.238 138.571 o
162.871 69.7131 o
159.908 96.9739 o
152.526 125.278 o
149.286 96.0017 o
150.527 87.2864 o
139.37 75.8526 o
154.837 75.8434 o
148.398 105.394 o
156.966 73.9312 o
67.8131 117.053 o
169.407 80.7556 o
173.951 66.2364 o
156.903 79.5869 o
161.703 103.289 o
86.6189 139.947 o
132.676 99.4743 o
116.397 102.62 o
152.492 87.887 o
69.304 123.732 o
127.763 128.798 o
169.79 86.7161 o
164.713 67.9998 o
163.292 98.3588 o
92.9991 123.48 o
161.007 84.0369 o
167.81 82.0651 o
149.579 94.7062 o
160.977 84.1714 o
167.834 59.9665 o
173.675 69.5748 o
164.799 76.1383 o
166.063 88.903 o
158.623 86.2583 o
167.87 98.82 o
79.8973 125.203 o
160.895 80.0778 o
127.9 94.2214 o
147.692 76.8485 o
78.7876 135.593 o
165.702 76.593 o
82.2846 125.698 o
143.835 80.7632 o
111.028 133.679 o
244.422 149.489 o
92.1568 156.254 o
136.872 95.9528 o
158.046 83.1879 o
193.004 138.742 o
166.334 83.8197 o
147.337 92.3153 o
114.534 134.531 o
88.8709 130.143 o
152.842 85.0419 o
159.627 74.5891 o
158.24 111.152 o
93.494 127.614 o
168.723 97.2233 o
47.8941 129.406 o
103.702 118.794 o
98.3106 127.15 o
165.006 68.7316 o
132.163 111.767 o
173.727 76.672 o
84.2242 129.891 o
164.729 89.7865 o
141.935 98.3192 o
89.5465 142.4 o
154.7 87.7984 o
131.58 90.221 o
162.233 88.3027 o
76.1987 123.667 o
151.342 84.3895 o
174.115 74.2457 o
75.9331 106.889 o
157.688 95.5021 o
168.512 89.5806 o
168.091 82.5114 o
83.8829 127.505 o
133.851 132.913 o
169.991 97.3812 o
160.107 85.3471 o
154.666 72.2243 o
153.219 79.3771 o
90.4308 102.946 o
162.163 85.9226 o
171.835 74.8618 o
155.875 92.5384 o
101.898 112.391 o
139.671 122.126 o
137.756 79.5299 o
101.813 125.777 o
151.247 81.6766 o
143.034 84.9439 o
75.6535 139.042 o
142.392 70.1109 o
153.512 95.8214 o
72.8528 113.101 o
158.306 78.9897 o
154.331 147.916 o
149.035 104.508 o
153.724 103.589 o
152.585 83.595 o
52.6221 142.478 o
151.679 91.047 o
100.768 116.691 o
146.98 95.7034 o
165.913 96.2117 o
82.0387 155.687 o
90.7423 115.726 o
202.135 157.38 o
148.886 55.9318 o
168.929 66.1051 o
151.794 91.8478 o
229.63 145.535 o
166.289 75.4888 o
152.306 86.5259 o
146.226 72.9759 o
147.694 79.1882 o
124.439 99.8583 o
149.288 78.0288 o
153.184 79.5121 o
66.749 145.509 o
129.37 122.46 o
75.1566 136.208 o
158.877 71.1259 o
94.1087 124.683 o
163.858 87.6831 o
74.8159 140.494 o
173.898 80.2296 o
162.599 93.1788 o
164.996 108.121 o
169.628 77.4134 o
109.048 94.7133 o
165.037 79.6107 o
117.352 152.578 o
164.065 89.2491 o
152.337 123.572 o
154.214 91.7236 o
173.116 94.469 o
92.0144 158.733 o
136.869 81.4226 o
67.385 148.765 o
144.413 108.087 o
173.799 83.6559 o
106.596 137.563 o
92.7421 137.357 o
74.0348 125.987 o
171.516 85.5672 o
151.43 87.0641 o
155.282 82.8002 o
124.334 136.574 o
189.662 57.7163 o
97.1096 109.274 o
188.925 66.1695 o
153.588 77.1959 o
98.2764 126.573 o
175.017 71.375 o
142.465 79.8995 o
146.654 80.4814 o
126.158 114.719 o
174.639 89.4358 o
144.774 87.8343 o
168.989 75.1698 o
113.034 151.34 o
170.914 76.3799 o
79.4643 128.019 o
159.133 61.9976 o
115.028 106.232 o
140.828 72.1873 o
151.989 93.7403 o
73.4782 143.929 o
146.076 82.6514 o
163.304 92.2319 o
148.038 78.8715 o
174.401 91.0897 o
61.1871 149.889 o
93.2889 147.501 o
163.346 96.2164 o
163.965 76.95 o
123.243 96.4408 o
154.76 84.6427 o
87.8069 128.811 o
139.397 84.2716 o
171.008 82.9891 o
165.673 83.1053 o
154.99 82.5433 o
158.129 126.621 o
160.922 74.543 o
163.604 71.3542 o
66.2518 118.659 o
168.725 78.9449 o
51.2248 134.802 o
89.9457 153.579 o
157.314 83.6234 o
161.27 88.6088 o
159.572 100.82 o
159.433 86.6145 o
91.137 151.923 o
162.481 81.0574 o
129.337 121.936 o
154.749 92.094 o
149.409 82.0981 o
87.8354 131.721 o
154.216 90.1117 o
113.475 134.041 o
167.99 80.7863 o
90.5446 113.505 o
171.872 84.3353 o
162.059 92.0849 o
80.3199 118.48 o
163.729 86.0953 o
64.3807 142.357 o
98.6035 111.705 o
166.471 98.2517 o
127.817 126.405 o
159.705 68.0828 o
76.4487 122.074 o
56.4977 147.243 o
149.605 80.1088 o
174.748 96.0075 o
142.178 115.489 o
172.441 154.249 o
167.186 83.3222 o
97.5234 146.405 o
73.2077 114.047 o
150.778 77.3298 o
169.498 96.9588 o
113.033 132.709 o
154.31 101.871 o
154.493 84.9922 o
141.026 147.796 o
218.694 145.01 o
110.746 110.59 o
81.9194 141.303 o
143.775 71.1832 o
186.478 92.3723 o
172.886 69.9063 o
156.269 87.2165 o
106.138 118.896 o
144.912 92.8119 o
152.752 82.7217 o
152.113 91.133 o
83.6187 119.564 o
105.365 131.431 o
155.289 92.5593 o
160.765 80.6244 o
158.061 95.746 o
162.786 80.0502 o
157.568 94.4583 o
88.779 150.095 o
173.928 95.8664 o
161.565 77.4669 o
125.106 78.0844 o
82.095 118.085 o
77.5049 129.242 o
163.436 94.4143 o
105.266 121.122 o
163.224 67.8517 o
171.348 85.7379 o
130.802 92.6705 o
100.654 115.412 o
156.481 86.8099 o
69.6811 126.727 o
60.3467 124.61 o
98.3793 129.533 o
164.521 71.6941 o
79.88 122.792 o
161.058 87.6746 o
158.715 80.1498 o
108.714 142.68 o
167.33 69.4575 o
61.4621 132.046 o
147.012 94.2354 o
154.71 90.228 o
52.1796 127.987 o
162.379 80.6188 o
146.837 86.1892 o
167.385 83.9141 o
83.3525 118.453 o
141.233 98.6684 o
170.75 79.4611 o
150.001 75.3717 o
154.002 95.8282 o
147.08 85.3305 o
161.224 79.7732 o
54.408 125.443 o
161.115 83.6432 o
171.474 85.1549 o
147.913 80.4317 o
164.751 76.5965 o
108.048 121.72 o
166.287 85.4529 o
55.3692 130.582 o
75.0364 151.303 o
160.5 81.1805 o
78.0703 124.675 o
96.357 131.653 o
106.05 116.923 o
126.022 107.315 o
166.687 93.9977 o
160.322 71.2737 o
81.9955 135.23 o
159.968 76.5117 o
159.698 78.3109 o
154.53 90.2377 o
112.229 149.724 o
164.672 63.5847 o
166.612 86.4531 o
117.354 114.002 o
184.324 85.8266 o
71.2598 130.422 o
119.647 80.8112 o
52.5178 151.629 o
147.219 82.6413 o
156.107 75.7488 o
145.757 83.4796 o
95.7163 118.983 o
155.605 76.1676 o
142.285 80.2495 o
167.849 91.9154 o
152.282 87.9307 o
166.07 84.6893 o
169.694 74.233 o
135.134 150.402 o
168.274 97.7487 o
104.158 140.713 o
168.804 95.6672 o
180.421 58.2658 o
110.034 152.824 o
149.457 75.5636 o
121.477 150.452 o
170.14 82.2719 o
141.455 139.45 o
115.464 98.9776 o
159.525 87.1766 o
56.9361 145.828 o
156.898 88.1667 o
89.3694 116.218 o
166.812 75.2296 o
159.581 79.7489 o
100.875 106.932 o
168.516 75.3747 o
142.012 121.583 o
129.287 102.12 o
158.302 79.7233 o
156.77 83.5096 o
155.452 95.2917 o
151.076 76.1645 o
114.314 156.632 o
89.8892 159.452 o
93.2453 137.887 o
74.7287 60.7016 o
151.78 98.9456 o
163.621 75.3645 o
130.654 92.519 o
177.992 113.715 o
151.203 74.2692 o
193.295 52.1911 o
146.298 76.2672 o
157.065 91.4159 o
167.448 80.2576 o
151.744 85.0108 o
163.416 87.7156 o
164.115 81.6285 o
163.683 65.5617 o
163.504 93.9812 o
104.878 111.879 o
91.6089 149.976 o
111.928 147.871 o
156.37 91.3474 o
161.466 80.5476 o
153.877 91.3934 o
118.93 149.272 o
158.611 77.8233 o
157.88 115.641 o
151.266 85.9589 o
166.741 80.4896 o
162.428 63.7674 o
171.234 86.1095 o
149.721 76.0449 o
169.91 70.0587 o
161.409 76.7714 o
151.62 85.8885 o
68.2059 118.782 o
158.72 64.0346 o
155.417 83.2558 o
142.135 70.6265 o
169.213 81.2217 o
97.1582 140.514 o
170.87 72.1597 o
156.697 98.4827 o
109.538 130.769 o
135.643 101.997 o
158.231 88.9038 o
61.0054 120.933 o
167.828 99.1799 o
155.884 88.9617 o
75.4129 144.264 o
163.203 87.411 o
151.514 68.0986 o
164.475 72.5454 o
159.094 82.5762 o
86.8264 133.546 o
159.708 79.7821 o
96.7002 117.758 o
152.892 139.458 o
164.458 80.59 o
149.722 82.6174 o
155.366 85.3952 o
112.342 143.644 o
240.921 128.656 o
167.889 73.8283 o
148.832 69.5717 o
156.86 83.2814 o
167.648 80.5912 o
57.559 136.307 o
109.9 141.673 o
155.28 86.2849 o
155.722 84.4609 o
174.191 77.83 o
165.868 75.0788 o
174.046 78.2741 o
171.854 86.1922 o
86.9773 127.849 o
98.7784 127.047 o
240.877 132.204 o
89.6303 119.378 o
56.2144 111.418 o
171.753 85.7874 o
171.023 77.8193 o
153.897 63.8897 o
158.462 86.7645 o
161.561 68.0752 o
80.4596 137.796 o
144.773 93.4728 o
73.0362 126.201 o
69.0694 115.052 o
87.8813 139.121 o
159.022 93.8781 o
149.632 83.3702 o
229.721 158.779 o
154.17 79.5325 o
62.9652 109.947 o
160.528 82.1624 o
158.591 65.5116 o
145.567 106.667 o
152.147 98.2618 o
164.582 72.4866 o
151.835 97.6587 o
179.413 81.747 o
157.643 61.0684 o
139.118 114.919 o
146.381 102.099 o
163.163 92.232 o
145.23 80.8791 o
102.83 114.49 o
71.3456 136.066 o
201.675 74.1959 o
163.937 125.644 o
159.684 79.8856 o
217.124 147.991 o
164.341 63.2747 o
60.3409 131.446 o
107.222 139.649 o
164.232 79.544 o
108.843 132.722 o
86.1326 143.025 o
126.591 140.75 o
153.091 84.8207 o
179.739 70.0427 o
98.8474 134.591 o
144.846 65.274 o
80.0433 110.762 o
147.293 77.5169 o
167.375 64.6353 o
135.17 89.1491 o
158.237 74.8591 o
159.506 150.85 o
236.125 102.865 o
159.278 156.341 o
161.934 63.2013 o
93.4213 122.082 o
161.631 125.083 o
154.227 96.2113 o
159.717 94.6484 o
159.598 88.0171 o
78.8891 120.199 o
163.095 84.6151 o
137.516 108.633 o
75.461 129.2 o
163.545 68.8225 o
160.24 89.3471 o
163.619 97.957 o
144.9 95.6133 o
164.863 87.785 o
166.284 76.1477 o
143.649 100.909 o
69.4118 105.563 o
160.011 103.743 o
168.652 59.9836 o
102.031 126.243 o
179.276 73.351 o
166.004 81.398 o
166.14 82.4079 o
171.006 85.7575 o
169.995 97.2317 o
60.7585 120.748 o
175.548 61.5985 o
101.298 144.553 o
172.256 107.367 o
153.821 88.7946 o
149.931 88.0334 o
164.17 84.1993 o
171.711 61.7894 o
147.932 100.185 o
158.886 98.8933 o
162.444 89.7846 o
96.455 117.742 o
114.175 135.275 o
165.483 71.465 o
161.522 83.3684 o
98.1079 121.61 o
120.251 115.329 o
170.901 88.691 o
76.8003 133.709 o
173.703 78.7387 o
152.779 78.0118 o
168.267 61.8981 o
157.711 86.5364 o
154.807 75.7566 o
145.809 71.5575 o
69.9512 109.683 o
156.849 88.897 o
121.136 141.555 o
84.1097 153.273 o
99.7327 95.4473 o
149.894 88.4681 o
154.852 82.2481 o
230.373 148.655 o
150.323 85.8593 o
161.013 67.8783 o
145.295 85.6252 o
152.174 70.4294 o
162.11 81.5574 o
50.3674 127.545 o
65.2448 131.468 o
92.849 133.726 o
153.772 92.7392 o
165.029 80.5107 o
242.524 148.609 o
97.7932 128.539 o
148.136 95.0497 o
175.402 91.7598 o
125.631 123.548 o
150.417 89.6671 o
188.789 83.3434 o
187.137 86.6443 o
187.728 75.7635 o
79.8461 117.163 o
99.5172 132.536 o
94.1925 121.234 o
166.687 77.7688 o
96.9209 107.675 o
163.133 87.0045 o
93.4846 117.065 o
234.192 127.335 o
152.406 88.2447 o
140.945 111.238 o
161.21 72.6557 o
91.3206 117.613 o
56.1752 107.289 o
220.574 38.9871 o
96.4649 138.106 o
84.7415 117.914 o
234.017 130.095 o
154.36 80.2351 o
165.618 81.5663 o
159.311 91.0375 o
146.7 67.3137 o
170.31 144.919 o
169.013 84.6021 o
239.041 128.389 o
80.6829 94.2258 o
87.0949 134.496 o
67.6787 118.841 o
162.353 80.1443 o
160.478 63.6318 o
155.74 73.1433 o
140.541 88.4924 o
80.7417 135.947 o
65.8422 107.481 o
92.9114 115.503 o
148.241 98.3599 o
140.876 127.367 o
150.482 57.2004 o
100.549 96.5625 o
65.654 133.523 o
172.065 79.3871 o
164.81 70.2671 o
96.7522 129.983 o
162.274 75.4125 o
143.368 63.7647 o
169.823 84.0784 o
149.386 66.5258 o
76.4735 128.288 o
167.26 89.2396 o
146.836 78.9384 o
161.624 79.6679 o
164.742 73.7994 o
92.3594 150.176 o
158.364 93.4178 o
155.356 91.3762 o
170.151 76.287 o
166.335 94.1159 o
114.195 141.758 o
170.324 96.2825 o
162.537 75.3098 o
214.807 144.228 o
81.6507 125.693 o
152.617 94.7642 o
167.913 71.6432 o
105.961 107.31 o
157.024 70.952 o
67.1836 113.435 o
158.557 66.1738 o
175.004 72.4792 o
142.255 97.5561 o
145.778 81.5723 o
155.776 82.0924 o
92.2006 143.38 o
164.72 95.2892 o
179.463 72.6786 o
155.6 90.2402 o
62.1084 105.955 o
105.984 141.306 o
144.005 78.354 o
175.266 75.8598 o
155.216 89.8735 o
125.354 121.494 o
166.367 83.3565 o
142.826 68.4605 o
165.544 82.9995 o
236.941 135.236 o
64.9062 126.724 o
164.12 58.3 o
234.38 88.5824 o
116.754 118.897 o
163.72 81.2369 o
143.138 81.8748 o
124.087 113.317 o
79.6512 125.212 o
157.598 74.7757 o
81.515 134.885 o
162.427 80.0309 o
145.621 118.849 o
162.598 99.0846 o
166.931 82.691 o
142.763 88.9888 o
101.752 92.5694 o
58.6625 146.666 o
152.958 98.4873 o
147.738 84.3497 o
140.794 113.116 o
89.8196 141.926 o
154.032 84.3996 o
162.245 101.314 o
164.875 93.5039 o
133.552 111.749 o
160.681 125.271 o
164.91 44.7992 o
64.8136 108.885 o
142.393 93.9665 o
106.302 149.147 o
81.9469 101.74 o
79.7087 102.502 o
99.9164 143.061 o
106.152 128.014 o
167.449 96.0507 o
150.798 79.2593 o
160.58 92.9229 o
158.852 83.1216 o
139.863 78.9664 o
132.325 157.194 o
58.1726 152.222 o
147.268 73.5475 o
182.828 118.786 o
164.878 81.3522 o
92.2118 116.468 o
159.152 87.5723 o
211.824 57.7265 o
88.8243 150.19 o
152.938 84.8813 o
132.429 75.2672 o
146.859 73.2033 o
144.933 85.0239 o
149.501 70.8638 o
169.342 67.4702 o
150.17 86.3812 o
68.834 131.794 o
136.717 102.305 o
185.76 72.6823 o
157.494 89.3306 o
144.292 74.749 o
141.194 81.9716 o
112.737 124.84 o
147.299 91.117 o
136.628 77.4585 o
146.746 82.7295 o
142.394 66.4649 o
148.774 104.907 o
161.311 82.2701 o
80.3936 143.371 o
140.15 82.9656 o
150.389 97.611 o
158.495 92.7942 o
97.5278 133.781 o
78.9262 141.716 o
131.899 73.2894 o
171.354 76.2479 o
108.047 115.641 o
140.218 154.013 o
143.877 73.9901 o
107.453 141.603 o
93.5384 147.194 o
169.88 79.1967 o
83.4728 127.484 o
163.884 83.5213 o
94.1862 110.389 o
217.347 52.5006 o
123.016 122.267 o
159.702 104.415 o
186.852 74.5895 o
162.422 65.5712 o
235.332 54.6866 o
81.5107 124.245 o
172.401 93.2468 o
162.184 68.3343 o
70.2724 124.493 o
153.288 75.2637 o
153.217 92.1987 o
162.09 93.3775 o
146.795 92.1033 o
170.15 79.7386 o
69.1652 153.175 o
170.095 77.2264 o
82.44 147.977 o
157.454 79.0619 o
166.806 81.6786 o
169.304 81.8006 o
135.243 62.2505 o
231.174 142.712 o
81.6699 129.162 o
151.42 83.9921 o
183.062 68.162 o
67.2491 140.932 o
166.28 86.0756 o
156.677 92.4805 o
164.638 82.0903 o
163.098 73.1653 o
175.331 103.181 o
71.8553 113.488 o
133.758 154.492 o
86.1469 124.626 o
188.548 74.4035 o
162.04 95.6725 o
90.508 127.505 o
155.774 62.5729 o
98.9637 134.813 o
142.404 114.38 o
149.301 65.8575 o
200.177 156.665 o
87.1011 102.344 o
121.882 108.618 o
161.309 79.3626 o
167.785 80.3342 o
89.7923 123.626 o
167.85 89.2096 o
53.1667 113.759 o
202.286 156.631 o
59.0029 116.043 o
151.94 93.3402 o
173.891 109.767 o
155.675 91.691 o
142.112 93.6873 o
49.7475 156.547 o
165.932 92.5072 o
71.2141 130.962 o
124.989 127.501 o
178.524 63.3797 o
159.712 90.5357 o
151.375 86.0694 o
174.976 86.3229 o
162.937 90.0389 o
141.549 75.7606 o
150.205 88.4952 o
75.8315 149.078 o
70.3016 133.236 o
50.7303 118.91 o
184.763 99.8226 o
234.627 150.61 o
52.0499 130.815 o
177.834 73.79 o
81.2253 135.084 o
135.322 111.816 o
146.564 89.3332 o
152.916 88.5691 o
87.0825 116.796 o
75.4165 134.667 o
158.671 75.6157 o
152.472 72.5595 o
93.3921 143.441 o
149.577 85.8817 o
85.1664 123.449 o
146.567 88.642 o
169.174 138.374 o
151.111 96.8268 o
148.556 93.0052 o
75.9783 140.853 o
140.664 146.134 o
173.231 69.6252 o
103.257 131.275 o
137.616 69.6984 o
169.48 76.9818 o
167.193 79.2838 o
228.773 56.2512 o
91.6228 141.486 o
150.648 83.869 o
79.3593 125.964 o
126.16 110.399 o
117.543 150.814 o
163.441 106.304 o
69.7916 129.371 o
167.106 89.3757 o
159.685 86.1239 o
178.725 65.0397 o
183.331 109.378 o
84.5546 110.325 o
165.996 94.0741 o
199.27 67.0836 o
99.6638 87.1626 o
148.43 84.5031 o
168.263 88.0125 o
150.544 77.598 o
172.785 74.5418 o
164.813 84.7813 o
238.217 86.3149 o
95.9827 123.967 o
161.92 78.8668 o
128.61 118.154 o
162.399 84.4559 o
83.921 114.365 o
128.722 132.056 o
172.837 70.6637 o
133.93 121.701 o
155.274 87.8445 o
159.849 79.6136 o
164.022 79.8595 o
130.85 110.872 o
161.89 92.2373 o
188.121 109.805 o
102.195 108.552 o
157.672 80.1166 o
82.2289 117.747 o
154.19 93.6709 o
167.406 79.7476 o
121.335 136.398 o
136.853 72.1687 o
171.502 93.5904 o
165.578 106.024 o
176.319 94.9043 o
168.025 63.415 o
159.06 80.0575 o
177.711 104.087 o
98.0899 126.472 o
148.256 78.0414 o
88.3743 150.664 o
131.428 93.8448 o
158.703 82.8287 o
88.0702 157.571 o
142.279 95.3301 o
238.96 130.42 o
150.576 131.542 o
97.5627 90.115 o
175.811 43.4977 o
145.231 93.1634 o
94.0994 128.88 o
154.557 84.9738 o
175.348 70.8082 o
110.967 148.904 o
168.946 65.8185 o
159.154 75.8395 o
152.326 69.8436 o
144.312 154.742 o
181.497 70.1303 o
141.83 82.7261 o
148.251 62.0036 o
72.6951 121.581 o
163.326 73.9913 o
156.429 62.5326 o
91.463 127.349 o
60.3844 134.59 o
103.625 111.73 o
163.971 89.583 o
59.4376 140.849 o
173.171 77.5736 o
86.0684 109.863 o
139.723 90.2918 o
166.982 91.2596 o
148.857 82.8803 o
160.88 91.0289 o
64.6269 126.626 o
119.861 122.276 o
97.6252 145.152 o
97.5551 122.148 o
65.729 114.023 o
155.207 65.4755 o
178.656 99.9513 o
143.509 71.6435 o
150.144 58.0874 o
108.418 91.4218 o
77.6066 122.554 o
158.871 67.0003 o
148.004 85.041 o
174.752 66.6243 o
111.221 123.994 o
154.796 92.7425 o
59.0828 123.784 o
166.171 77.7276 o
172.794 83.8216 o
80.0547 131.79 o
144.957 96.3666 o
136.047 95.427 o
149.49 78.1838 o
139.032 85.5195 o
191.175 71.5852 o
153.729 89.1317 o
142.026 82.0876 o
125.052 124.972 o
83.5785 109.508 o
107.026 92.3364 o
145.245 79.9301 o
165.223 63.0614 o
152.308 105.597 o
191.206 67.7481 o
157.962 84.0082 o
153.764 94.0744 o
162.05 102.989 o
74.5498 136.796 o
107.167 116.882 o
145.499 86.6071 o
160.236 79.8327 o
98.5426 120.437 o
200.484 73.8138 o
154.336 95.8128 o
55.2771 111.662 o
53.0776 120.491 o
96.5926 115.678 o
169.083 68.2729 o
62.3375 134.873 o
51.5321 133.079 o
166.923 88.8258 o
89.0707 147.408 o
150.001 82.7932 o
147.203 76.345 o
152.038 97.0879 o
145.347 120.11 o
59.3926 129.886 o
145.353 82.5019 o
86.0428 150.278 o
143.428 104.1 o
156.466 82.1797 o
150.048 87.332 o
170.966 84.8866 o
169.1 88.8663 o
148.773 103.331 o
80.4551 136.117 o
176.675 70.0674 o
56.2961 108.626 o
144.396 68.1195 o
150.268 85.1728 o
160.038 91.6271 o
150.56 58.864 o
166.003 87.6291 o
83.0622 121.678 o
110.184 131.194 o
113.32 108.254 o
155.271 86.569 o
156.055 78.2062 o
155.829 83.2816 o
75.097 91.961 o
110.363 139.085 o
100.782 143.554 o
192.428 51.2523 o
147 136.888 o
141.387 100.045 o
236.965 104.82 o
164.407 70.8667 o
150.565 97.7196 o
97.6402 130.74 o
173.058 87.8223 o
169.515 60.752 o
57.6822 108.835 o
48.8804 55.2501 o
163.106 79.6898 o
170.799 66.7756 o
58.7178 92.0603 o
65.7235 124.996 o
153.783 65.7898 o
156.326 76.2749 o
153.248 68.0263 o
158.183 80.5023 o
174.898 81.5139 o
173.829 70.7311 o
82.7732 142.782 o
155.373 74.5814 o
152.981 109.247 o
164.187 89.255 o
72.6339 111.825 o
159.954 75.7631 o
151.01 72.1901 o
107.254 78.1791 o
238.763 54.0431 o
159.392 91.223 o
172.596 83.2874 o
164.883 61.8343 o
92.4031 148.315 o
98.1979 130.784 o
114.824 124.354 o
146.719 71.1113 o
166.102 81.7276 o
54.6126 90.6973 o
105.074 114.978 o
60.7031 140.165 o
168.777 68.1222 o
137.908 138.82 o
165.554 80.5407 o
130.71 126.511 o
168.542 80.3514 o
152.794 86.8687 o
160.808 70.2189 o
156.804 96.7569 o
154.088 93.1024 o
148.205 134.18 o
175.789 104.003 o
141.796 69.7622 o
162.542 102.522 o
232.825 92.4192 o
65.7777 122.499 o
164.685 78.0613 o
157.069 102.787 o
144.365 96.1551 o
152.901 88.8327 o
109.671 114.715 o
178.365 147.594 o
155.589 93.2577 o
76.9453 78.2434 o
148.423 108.31 o
225.796 152.643 o
59.3182 117.756 o
141.254 100.346 o
157.624 77.8827 o
170.899 78.0486 o
176.185 83.9638 o
127.41 101.834 o
156.225 86.5958 o
144.359 85.6579 o
163.199 70.0059 o
151.591 80.7163 o
181.838 107.798 o
142.483 130.437 o
55.7686 147.159 o
148.6 87.572 o
146.56 110.63 o
160.488 71.7184 o
165.094 57.2608 o
166.621 78.2117 o
128.223 90.7728 o
148.699 85.474 o
170.285 83.1861 o
223.099 154.526 o
239.097 130.309 o
101.811 108.434 o
49.4444 154.009 o
152.051 61.9903 o
55.2879 127.459 o
143.106 97.3489 o
159.748 73.6012 o
55.9499 135.308 o
155.76 67.4732 o
93.8187 138.789 o
59.6981 110.442 o
83.1901 112.469 o
110.016 148.64 o
164.59 83.1774 o
69.3884 108.13 o
118.636 140.594 o
165.118 106.55 o
175.897 69.7515 o
73.0102 128.54 o
134.842 110.636 o
164.977 66.5093 o
145.284 67.572 o
104.305 127.226 o
172.669 79.9883 o
155.354 89.8865 o
173.902 75.3816 o
110.382 141.578 o
59.3553 83.5086 o
158.637 81.8636 o
79.9793 127.315 o
149.199 94.5462 o
180.156 144.016 o
150.222 73.1508 o
69.5409 134.208 o
152.744 82.1747 o
142.895 153.613 o
117.01 155.123 o
77.2662 136.992 o
126.31 106.013 o
158.145 86.9969 o
154.111 84.0666 o
63.8785 147.924 o
150.696 84.9808 o
64.6854 135.948 o
85.3954 113.569 o
170.645 78.2441 o
138.953 85.5351 o
143.58 127.267 o
155.538 87.6048 o
180.345 143.871 o
131.519 91.2494 o
152.003 84.9894 o
155.172 82.1446 o
67.6746 75.6059 o
61.8491 127.91 o
125.899 51.1823 o
135.008 81.6865 o
60.6198 88.2463 o
149.271 85.6496 o
91.3949 110.36 o
50.1465 149.385 o
75.6325 114.02 o
132.142 135.047 o
80.6214 101.092 o
145.348 72.1394 o
109.752 122.137 o
157.946 98.8793 o
240.082 127.36 o
167.439 76.5701 o
230.354 58.3223 o
157.079 109.266 o
163.784 75.0006 o
111.692 149.315 o
102.557 145.51 o
162.227 89.3727 o
167.039 59.8488 o
146.711 73.0457 o
197.403 78.6334 o
170.035 95.8941 o
170.44 61.6778 o
118.562 109.312 o
159.323 72.2633 o
136.1 116.407 o
158.075 119.181 o
124.209 137.031 o
206.259 73.6601 o
167.947 95.9384 o
164.957 101.363 o
101.817 122.747 o
167.79 91.9619 o
238.595 150.864 o
166.735 90.1606 o
104.351 116.124 o
107.774 154.643 o
48.4245 136.36 o
86.6827 112.399 o
161.059 87.5275 o
167.792 90.0916 o
143.504 57.5769 o
161.184 86.6678 o
111.498 75.6192 o
97.972 109.736 o
186.488 70.5228 o
177.491 75.8182 o
236.025 82.961 o
166.515 80.8796 o
165.152 95.5309 o
160.567 80.0958 o
68.1005 139.021 o
155.928 97.6153 o
177.518 76.9695 o
160.129 89.125 o
164.88 137.841 o
155.584 87.371 o
88.0467 131.347 o
92.2997 119.85 o
147.652 78.5992 o
146.25 72.3608 o
117.168 114.478 o
151.418 93.6324 o
151.724 95.1543 o
157.506 82.4623 o
150.861 76.4565 o
163.624 58.0558 o
105.664 79.6877 o
150.597 117.338 o
144.741 83.1782 o
133.699 129.665 o
83.535 103.532 o
66.7824 120.635 o
173.736 92.549 o
156.527 152.643 o
158.113 85.2327 o
158.763 61.4027 o
141.401 96.6818 o
49.7675 86.4359 o
135.469 78.4997 o
124.351 111.591 o
50.2874 121.996 o
170.201 81.0994 o
169.632 69.5489 o
90.6925 97.0756 o
167.826 82.7309 o
164.062 71.5776 o
159.633 77.1195 o
145.878 126.509 o
123.515 148.265 o
161.876 81.1102 o
143.351 145.058 o
159.934 74.0749 o
135.336 90.0146 o
153.649 93.3625 o
92.6676 136.122 o
150.78 89.5994 o
163.14 73.069 o
157.586 61.8949 o
108.27 133.377 o
150.721 75.1751 o
146.703 102.438 o
51.4522 89.8063 o
212.588 145.108 o
173.006 103.563 o
75.6039 124.446 o
165.674 74.2789 o
153.601 67.5976 o
177.695 68.1084 o
188.359 65.0133 o
151.466 78.8958 o
152.253 88.5967 o
136.073 151.287 o
147.594 82.0856 o
179.737 76.9259 o
188.023 140.523 o
153.779 76.2581 o
84.6694 119.314 o
163.74 99.5731 o
74.5064 134.386 o
178.891 134.115 o
89.816 115.862 o
64.7627 129.792 o
162.628 95.2076 o
141.576 101.972 o
160.314 92.6173 o
203.166 75.9908 o
212.371 69.9476 o
154.762 74.2644 o
177.34 140.127 o
169.87 61.2844 o
137.754 100.132 o
114.984 118.084 o
91.739 142.707 o
134.898 114.413 o
178.527 130.154 o
138.15 113.768 o
160.38 74.0119 o
125.917 142.201 o
163.208 72.9939 o
165.804 91.3073 o
177.872 102.584 o
173.047 92.0837 o
136.956 112.253 o
161.836 71.0355 o
67.3958 135.499 o
242.965 127.529 o
133.402 116.041 o
73.4485 110.506 o
207.077 50.6555 o
170.379 81.9034 o
73.2475 153.11 o
177.479 73.2994 o
174.668 77.9925 o
123.682 131.076 o
150.126 91.1363 o
120.792 62.4234 o
113.349 125.623 o
99.6463 143.71 o
77.6238 130.702 o
158.158 95.0636 o
156.842 90.5948 o
150.471 80.115 o
85.2798 123.195 o
155.316 69.9193 o
133.494 157.303 o
170.181 91.8289 o
151.985 89.4312 o
150.506 71.6712 o
171.331 81.4058 o
103.977 93.4895 o
183.146 67.4231 o
154.004 90.9174 o
158.155 88.9772 o
156.7 86.07 o
139.248 121.117 o
161.338 71.777 o
157.771 81.9964 o
132.242 85.3263 o
170.511 82.5669 o
128.458 55.2578 o
66.699 129.641 o
168.493 66.9625 o
171.211 95.3588 o
143.078 109.151 o
169.664 88.8151 o
169.327 76.3836 o
156.78 76.8847 o
55.1895 134.988 o
165.791 57.5989 o
86.4091 103.026 o
132.044 149.508 o
159.828 82.5909 o
84.7821 129.171 o
147.938 105.499 o
147.051 90.8717 o
157.862 78.6195 o
160.107 85.4827 o
98.9917 122.237 o
153.643 96.6709 o
151.093 69.4478 o
60.6656 130.46 o
104.848 139.828 o
141.972 84.3097 o
148.287 81.5846 o
153.951 77.5787 o
151.413 80.9364 o
71.748 137.37 o
94.6721 108.618 o
125.824 94.9558 o
169.705 82.7065 o
104.993 127.405 o
152.653 89.1148 o
167.152 133.936 o
173.844 82.2432 o
125.363 115.655 o
124.812 136.976 o
136.2 74.7537 o
71.236 148.515 o
120.886 143.31 o
157.071 77.6004 o
212.122 154.75 o
151.109 78.8835 o
182.811 83.8056 o
153.2 62.5077 o
81.4867 115.875 o
138.839 126.802 o
108.86 120.721 o
139.616 72.6612 o
149.891 82.9927 o
85.3974 127.916 o
158.97 77.8926 o
163.517 65.4344 o
144.972 89.7746 o
164.903 74.4473 o
163.798 78.1787 o
168.779 83.9633 o
161.838 92.3074 o
134.42 75.8962 o
150.116 82.086 o
147.131 126.972 o
75.0445 124.765 o
152.599 81.9585 o
136.725 115.183 o
150.379 64.9472 o
158.203 123.818 o
183.629 77.4668 o
143.535 81.5437 o
150.654 86.0401 o
160.044 90.5099 o
85.4047 74.9024 o
142.242 77.1434 o
135.471 119.118 o
234.753 127.249 o
171.25 114.608 o
147.077 80.809 o
121.284 121.267 o
138.133 121.739 o
139.543 87.3453 o
170.169 87.1075 o
190.997 157.396 o
175.733 146.577 o
146.742 106.014 o
93.2195 120.008 o
75.0302 122.216 o
67.4604 146.264 o
156.022 92.6592 o
57.5302 101.099 o
164.123 90.5589 o
165.179 58.1323 o
164.339 88.2742 o
231.621 121.363 o
134.49 105.175 o
93.9393 134.419 o
94.4319 146.673 o
76.7663 111.124 o
185.271 140.353 o
164.548 72.0537 o
60.1703 151.741 o
136.6 79.5805 o
164.478 90.9636 o
74.1877 140.211 o
145.31 72.9701 o
173.944 105.605 o
150.944 83.8196 o
61.9807 125.18 o
153.668 80.084 o
86.0239 91.535 o
173.313 94.3185 o
148.321 62.3759 o
150.831 78.4387 o
158.507 81.6041 o
149.553 78.0508 o
146.434 76.065 o
100.043 112.001 o
173.831 84.0848 o
159.119 78.2579 o
211.245 140.363 o
169.699 81.9506 o
66.1651 136.001 o
94.4402 149.522 o
203.989 137.948 o
77.9211 128.943 o
150.122 78.8012 o
131.517 79.0613 o
61.9458 136.812 o
171.043 63.3353 o
205.934 70.7279 o
180.211 76.3803 o
175.979 89.7917 o
142.514 88.1658 o
97.5739 70.5331 o
121.022 130.811 o
215.631 125.224 o
54.237 141.329 o
163.673 148.706 o
126.45 114.968 o
68.3686 112.6 o
83.7866 151.333 o
158.306 85.6025 o
185.716 59.3969 o
164.062 90.5292 o
83.4511 109.644 o
144.943 92.1249 o
85.1022 117.378 o
147.568 65.6142 o
221.553 140.266 o
147.992 113.344 o
145.706 86.5589 o
131.523 110.648 o
227.994 79.8333 o
166.498 86.6806 o
209.488 71.9803 o
241.779 135.374 o
147.777 72.9102 o
239.153 144.64 o
103.124 127.237 o
69.598 104.394 o
147.082 80.2558 o
164.553 90.5692 o
147.057 87.6938 o
160.898 80.1308 o
54.0104 144.651 o
137.054 116.929 o
172.352 81.3648 o
166.777 89.4724 o
236.968 122.239 o
79.1109 92.6457 o
68.6561 123.257 o
163.762 73.1498 o
167.733 131.304 o
109.934 93.7504 o
69.7543 131.001 o
171.739 84.3172 o
244.143 144.181 o
91.5164 99.5928 o
215.781 148.833 o
83.4341 153.666 o
130.699 93.1506 o
192.379 61.0921 o
70.8337 135.92 o
148.328 66.2233 o
144.82 90.0373 o
169.309 88.6501 o
163.904 97.5916 o
149.105 58.827 o
130.809 128.162 o
160.469 93.9405 o
167.491 80.6844 o
72.2145 139.665 o
162.277 84.2452 o
103.117 116.571 o
174.924 86.7387 o
161.245 67.5215 o
100.923 142.958 o
138.637 114.983 o
172.309 90.2151 o
136.321 126.127 o
145.789 97.0537 o
156.098 91.259 o
136.134 115.143 o
166.82 90.6233 o
88.625 134.524 o
59.1384 124.235 o
165.901 83.2737 o
180.045 65.4912 o
198.916 131.378 o
109.986 139.591 o
150.154 102.869 o
133.385 96.3516 o
65.0057 63.3936 o
97.1837 142.31 o
88.1535 142.577 o
157.58 80.5599 o
192.506 65.8865 o
153.517 61.6666 o
96.2554 92.1502 o
95.1084 132.463 o
138.671 116.318 o
148.85 66.0792 o
106.201 144.109 o
92.3721 121.287 o
79.5237 146.189 o
177.335 71.1565 o
170.286 80.2887 o
96.5711 94.8833 o
152.254 67.1565 o
137.433 134.082 o
160.853 89.9846 o
74.5055 160.408 o
167.671 80.596 o
171.576 65.5376 o
79.9609 117.855 o
61.6142 99.4538 o
143.518 91.9042 o
164.348 85.0308 o
108.695 128.691 o
157.398 142.321 o
165.49 75.818 o
154.661 73.8008 o
75.9856 65.6469 o
156.152 87.3258 o
135.287 131.166 o
146.898 80.0365 o
58.8976 142.439 o
164.158 131.409 o
157.212 60.0044 o
77.7637 74.5675 o
155.322 124.158 o
152.261 159.32 o
83.5028 99.396 o
148.379 88.0801 o
63.5565 140.152 o
113.069 51.3122 o
99.8885 122.465 o
231.882 92.1648 o
136.763 66.889 o
177.816 113.564 o
129.556 119.016 o
147.201 64.1269 o
123.294 136.683 o
160.494 95.6109 o
59.248 130.257 o
125.319 103.946 o
113.891 132.156 o
170.045 70.2349 o
178.531 149.681 o
159.225 95.1305 o
63.9268 155.605 o
193.823 151.43 o
172.705 86.6746 o
55.0222 145.044 o
105.852 72.8101 o
85.1305 122.2 o
92.0192 132.79 o
122.474 126.104 o
66.9411 125.402 o
71.5954 126.41 o
225.214 89.4351 o
53.1317 54.241 o
169.804 84.6022 o
149.574 121.764 o
189.523 69.678 o
131.894 126.589 o
124.729 108.023 o
49.1468 131.834 o
168.364 84.9956 o
170.34 73.236 o
176.944 96.2066 o
75.4326 114.28 o
128.82 153.111 o
155.098 57.2414 o
81.3961 87.5516 o
158.987 88.8284 o
103.862 137.09 o
62.563 135.278 o
166.739 88.8789 o
210.166 68.5088 o
150.235 108.808 o
153.589 86.8266 o
159.158 72.7819 o
187.794 77.6536 o
141.431 93.9332 o
111.839 133.672 o
101.235 142.302 o
89.1153 127.629 o
126.735 127.254 o
175.751 67.3592 o
156.7 77.6761 o
63.8445 135.899 o
142.388 95.5168 o
166.374 96.7765 o
86.218 84.6772 o
141.343 76.9273 o
149.992 76.6909 o
162.292 77.5451 o
175.171 95.7739 o
82.1462 150.763 o
169.23 85.0197 o
159.581 79.7382 o
60.7101 136.322 o
223.192 139.206 o
114.48 107.704 o
153.82 93.8793 o
158.021 153.807 o
222.141 127.959 o
147.619 90.0405 o
132.125 81.6298 o
167.876 68.6028 o
151.73 94.8396 o
84.8918 124.828 o
167.618 84.0262 o
161.511 95.7145 o
120.408 49.2216 o
123.422 123.046 o
138.559 118.884 o
169.281 82.5298 o
150.341 84.5434 o
146.564 83.6285 o
84.7979 144.426 o
119.02 144.767 o
62.0966 124.021 o
157.663 65.1293 o
136.472 138.67 o
101.546 138.178 o
137.072 101.468 o
163.777 98.2678 o
179.735 83.5554 o
144.293 117.135 o
151.723 65.1474 o
140.952 103.384 o
168.675 79.6859 o
174.407 82.6452 o
176.474 85.6931 o
153.681 84.5389 o
94.2369 104.994 o
112.064 59.4258 o
154.194 89.7583 o
196.052 153.345 o
153.708 87.8799 o
80.6685 60.016 o
148.89 85.34 o
177.633 101.403 o
78.1475 149.277 o
175.451 63.3834 o
162.248 98.869 o
147.191 57.8865 o
151.21 129.061 o
92.555 106.097 o
94.0443 108.011 o
101.484 114.924 o
149.754 120.045 o
148.807 112.716 o
101.365 74.3879 o
116.127 108.863 o
161.541 95.0525 o
60.7357 145.518 o
123.715 142.679 o
78.8713 53.9903 o
146.369 87.9632 o
150.776 114.873 o
152.566 85.1064 o
113.186 138.93 o
93.9002 111.316 o
171.506 137.955 o
88.8852 117.512 o
153.959 69.2779 o
176.002 106.928 o
161.507 103.86 o
168.194 100.087 o
145.186 88.4136 o
77.2764 138.782 o
76.1493 146.949 o
232.941 130.238 o
171.969 87.5322 o
151.899 70.6502 o
145.737 82.2595 o
105.449 137.423 o
161.182 85.2504 o
185.847 79.3947 o
160.249 85.2477 o
167.167 76.9328 o
169.447 121.742 o
218.184 63.3163 o
82.6536 128.454 o
144.554 67.9409 o
173.142 125.422 o
75.9708 133.575 o
147.536 90.623 o
68.1575 137.999 o
135.716 68.6931 o
181.259 63.2916 o
171.09 78.5412 o
84.4044 124.609 o
94.9374 119.75 o
149.889 55.9468 o
235.416 107.444 o
57.7198 105.002 o
175.203 96.428 o
159.558 99.985 o
155.846 89.7009 o
152.759 75.5081 o
239.272 131.819 o
67.3628 116.803 o
89.2026 102.308 o
162.069 83.844 o
141.506 55.9669 o
148.853 78.8289 o
179.395 73.133 o
145.215 97.8496 o
128.699 79.5566 o
154.124 79.9717 o
167.719 55.4217 o
173.455 81.1438 o
143.085 125.595 o
164.879 81.5729 o
93.6154 79.7635 o
130.005 121.291 o
176.287 75.9539 o
166.698 83.7257 o
95.1141 139.713 o
153.122 111.318 o
146.672 62.5 o
145.603 82.4636 o
140.541 71.7939 o
166.357 122.205 o
87.0499 78.5433 o
121.031 134.335 o
109.347 71.6564 o
156.375 71.0953 o
231.648 86.7859 o
138.375 106.841 o
222.801 134.999 o
183.524 81.7704 o
160.555 56.1618 o
172.483 70.5844 o
53.1915 148.475 o
149.753 113.436 o
101.797 147.175 o
68.2618 127.377 o
135.693 150.57 o
140.292 127.19 o
52.2359 141.026 o
143.397 78.9009 o
239.837 138.435 o
75.1667 117.734 o
125.568 95.2305 o
167.214 68.0886 o
151.819 112.877 o
181.796 73.5582 o
148.707 83.0377 o
84.3938 90.0023 o
147.077 88.5307 o
68.5984 107.223 o
161.34 84.4392 o
117.402 79.6421 o
160.668 94.2527 o
148.943 99.6317 o
148.445 99.0193 o
201.747 144.924 o
198.629 75.609 o
73.2398 102.324 o
142.908 87.0849 o
165.85 87.1774 o
101.431 132.866 o
159.449 82.8215 o
115.258 112.616 o
166.637 106.327 o
143.506 92.7483 o
98.3409 153.666 o
157.537 98.7749 o
107.234 108.345 o
149.449 77.4707 o
102.118 115.061 o
154.675 102.647 o
110.839 142.239 o
84.9392 131.647 o
85.7547 127.266 o
200.783 155.44 o
88.6476 133.892 o
82.1656 144.109 o
90.0216 73.5819 o
152.358 67.1965 o
72.4465 121.401 o
62.0889 142.186 o
133.242 136.535 o
131.908 61.8253 o
70.8214 116.191 o
77.7661 115.249 o
161.196 79.3055 o
171.405 62.7993 o
142.274 86.5579 o
63.9803 98.2869 o
79.5944 129.09 o
208.894 120.875 o
169.611 114.663 o
144.602 134.283 o
160.856 75.6079 o
101.049 98.584 o
74.0437 117.139 o
138.038 95.7729 o
228.975 55.5833 o
132.457 102.48 o
142.567 84.906 o
206.423 68.3168 o
217.834 66.0596 o
139.614 87.345 o
151.492 83.416 o
138.068 105.29 o
99.1283 142.188 o
158.082 131.263 o
88.3022 119.744 o
121.866 124.005 o
61.4135 138.474 o
157.192 86.9542 o
53.3389 111.216 o
118.359 134.252 o
163.39 91.4879 o
189.426 151.789 o
187.16 151.185 o
74.8469 69.2649 o
186.656 156.985 o
143.294 108.758 o
149.508 144.582 o
63.0916 128.313 o
95.3482 116.195 o
207.353 77.0365 o
149.23 65.0109 o
156.908 68.8343 o
149.06 88.2998 o
146.866 129.586 o
144.107 97.4167 o
69.9921 121.845 o
132.661 134.753 o
155.55 64.4619 o
140.166 89.345 o
163.71 86.8824 o
89.7086 135.636 o
168.67 58.0895 o
141.55 59.9981 o
176.148 131.166 o
166.215 112.175 o
57.0594 83.729 o
149.449 72.416 o
155.023 84.4209 o
160.669 107.099 o
80.9663 118.43 o
143.252 70.734 o
87.2264 108.713 o
152.785 66.8123 o
173.352 81.6698 o
173.262 89.4713 o
165.568 68.7406 o
157.49 82.4954 o
98.3581 81.5603 o
146.605 87.7981 o
152.866 81.2138 o
210.912 55.3907 o
151.327 92.4031 o
171.977 85.109 o
160.078 87.2373 o
150.413 127.123 o
157.094 71.6898 o
151.777 82.4848 o
162.362 96.0361 o
94.3533 148.535 o
167.96 90.5774 o
171.295 136.071 o
56.4871 99.4655 o
77.6031 130.347 o
157.091 80.3958 o
156.106 71.7452 o
139.247 99.4613 o
75.7187 153.921 o
150.499 57.1853 o
238.193 118.401 o
240.345 87.7477 o
162.087 97.7784 o
157.78 78.2589 o
169.542 97.9118 o
213.163 52.4141 o
136.609 108.208 o
194.098 43.2252 o
151.191 72.9696 o
167.153 79.3923 o
82.4653 107.516 o
135.352 63.2732 o
177.032 87.8808 o
152.933 83.543 o
101.473 135.807 o
162.677 97.5991 o
173.269 99.1167 o
65.576 148.949 o
145.307 106.496 o
160.146 72.5395 o
150.737 89.4676 o
152.83 133.12 o
168.394 62.0729 o
169.789 66.8161 o
243.388 88.3172 o
152.489 70.7815 o
148.342 57.3188 o
97.7841 112.419 o
155.91 58.6257 o
74.6296 65.1688 o
127.599 120.16 o
188.581 67.1628 o
162.233 96.8556 o
160.721 97.0497 o
78.1952 135.865 o
163.043 76.5935 o
154.227 72.9129 o
169.781 91.1446 o
135.212 92.2486 o
190.904 63.0954 o
73.3566 140.395 o
97.1561 126.003 o
183.622 145.963 o
71.1955 120.196 o
155.43 89.6685 o
154.466 96.9666 o
157.409 119.515 o
183.865 63.6637 o
76.2963 129.568 o
156.685 71.7875 o
145.556 91.701 o
133.981 100.9 o
60.3305 119.761 o
185.214 51.1787 o
239.061 75.7956 o
155.315 62.089 o
77.3469 124.098 o
58.5726 148.075 o
162.053 74.5721 o
172.657 126.02 o
56.5544 144.49 o
164.042 63.4893 o
241.536 123.146 o
109.051 131.968 o
152.863 84.1482 o
156.94 81.9064 o
146.745 94.189 o
145.333 122.002 o
81.236 135.577 o
98.813 124.437 o
162.514 90.4969 o
135.491 112.912 o
160.694 64.7387 o
168.508 62.6604 o
161.227 61.9217 o
149.18 124.436 o
66.4597 139.489 o
74.1561 143.108 o
147.608 111.315 o
148.044 83.4829 o
86.8037 147.68 o
160.185 108.714 o
115.392 98.7888 o
161.505 88.5318 o
220.804 61.5876 o
80.6394 128.413 o
115.559 79.0916 o
196.435 79.366 o
166.795 61.3982 o
57.5476 88.6162 o
150.079 84.6502 o
142.638 149.091 o
147.7 68.1326 o
72.708 139.067 o
68.3857 118.506 o
167.837 102.873 o
148.459 91.3441 o
153.071 57.3174 o
138.725 98.657 o
172.277 61.6911 o
129.068 117.013 o
158.612 105.413 o
176.57 97.6368 o
48.5495 113.623 o
149.896 77.1714 o
164.323 99.2873 o
174.519 76.3211 o
164.474 106.802 o
158.66 68.8593 o
161.965 94.8266 o
185.847 86.1615 o
91.3635 154.065 o
112.604 131.132 o
87.2425 67.5182 o
157.206 77.3915 o
131.741 129.776 o
121.488 138.739 o
157.554 106.005 o
160.143 114.089 o
132.766 115.825 o
142.479 69.8958 o
171.873 85.5118 o
73.4914 137.91 o
150.131 103.715 o
88.3541 118.98 o
163.243 92.3594 o
150.28 81.9692 o
94.4397 116.565 o
107.341 61.5118 o
142.984 122.437 o
162.94 91.2749 o
168.737 69.6657 o
90.5213 113.878 o
151.501 73.7801 o
57.8279 55.1922 o
145.838 86.7322 o
160.689 79.4838 o
147.898 86.7323 o
84.0464 97.6128 o
151.076 91.3734 o
163.01 82.6592 o
141.761 91.5483 o
64.1161 134.75 o
81.7536 142.914 o
168.089 68.3359 o
148.105 100.241 o
199.604 149.611 o
166.399 75.4528 o
154.705 78.017 o
145.143 136.685 o
166.204 98.7561 o
163.099 96.717 o
177.773 95.595 o
170.243 67.9614 o
160.397 68.6666 o
167.939 62.568 o
168.549 95.9783 o
169.743 89.4098 o
161.118 72.4028 o
156.833 93.6028 o
186.259 68.9115 o
79.3608 134.595 o
170.273 111.783 o
57.2569 74.3697 o
90.4833 144.926 o
149.867 88.8814 o
100.716 110.978 o
72.9453 122.69 o
144.398 82.5374 o
134.347 72.2784 o
171.195 69.9103 o
151.946 60.3242 o
169.715 61.0009 o
126.892 78.8055 o
136.998 49.1592 o
151.327 81.1247 o
153.063 81.211 o
67.435 139.18 o
150.887 68.446 o
149.077 72.6266 o
187.245 62.0852 o
69.6726 126.69 o
217.628 134.831 o
175.533 84.2631 o
158.049 81.7313 o
95.1777 137.796 o
176.693 73.1245 o
146.555 120.485 o
167.89 91.824 o
165.822 140.998 o
151.979 76.0646 o
132.883 69.905 o
86.0534 120.056 o
171.097 94.1356 o
121.173 129.015 o
173.853 69.6002 o
76.1639 96.838 o
154.446 92.821 o
161.956 91.9139 o
88.4964 139.64 o
165.617 92.7518 o
144.506 50.8215 o
155.189 88.1814 o
103.003 140.951 o
99.6435 134.352 o
160.302 58 o
89.0013 126.463 o
157.514 83.8245 o
154.128 85.3236 o
70.5593 113.754 o
141.767 91.9385 o
152.215 87.9323 o
164.044 94.2695 o
142.482 144.523 o
136.572 146.27 o
54.4537 125.28 o
139.427 93.1626 o
143.665 146.82 o
167.655 107.21 o
169.828 84.0816 o
153.87 117.397 o
88.514 132.371 o
172.772 124.964 o
123.228 98.2699 o
72.2504 125.776 o
167.458 66.35 o
146.726 68.8628 o
152.547 66.8726 o
169.828 105.207 o
112.215 144.508 o
233.854 92.9802 o
165.216 73.9002 o
157.152 70.3346 o
156.015 75.2446 o
166.207 85.7483 o
99.3844 139.276 o
137.162 121.577 o
200.827 149.858 o
173.574 63.5945 o
149.416 66.4319 o
64.2602 137.714 o
134.156 130.708 o
103.987 145.242 o
125.682 154.564 o
171.208 111.739 o
99.3074 121.001 o
140.104 126.102 o
108.621 119.486 o
244.365 71.5141 o
102.782 120.209 o
126.906 152.711 o
153.388 92.1646 o
147.624 130.57 o
148.752 69.5299 o
155.921 81.3391 o
147.405 96.966 o
147.49 109.452 o
155.933 91.665 o
153.789 84.9219 o
148.29 96.1873 o
194.3 69.8606 o
149.589 101.821 o
146.388 69.5436 o
145.917 89.5684 o
151.395 111.481 o
140.616 74.2171 o
66.7062 123.204 o
108.291 137.403 o
193.373 54.0626 o
177.016 98.5784 o
152.064 94.1639 o
108.985 150.933 o
157.275 59.3655 o
165.837 85.6851 o
146.541 70.8024 o
136.164 103.525 o
165.228 91.4516 o
67.6206 119.869 o
151.947 81.3444 o
138.945 95.1435 o
77.5047 152.12 o
224.144 66.9086 o
91.1022 123.407 o
187.024 89.8147 o
96.9744 135.834 o
166.124 101.985 o
177.741 87.0598 o
164.042 70.541 o
217.206 102.679 o
89.5422 118.209 o
164.043 87.3339 o
164.638 80.8427 o
175.381 85.9797 o
170.985 101.744 o
229.559 145.512 o
130.32 112.97 o
168.334 52.8036 o
160.957 73.4403 o
153.334 93.9784 o
172.533 70.1167 o
158.992 86.9453 o
134.31 116.33 o
165.221 73.3257 o
84.2217 115.743 o
133.385 116.787 o
177.657 60.8832 o
149.979 128.743 o
159.648 65.4139 o
156.97 77.7216 o
136.942 71.5862 o
92.0662 130.161 o
141.238 91.806 o
148.83 93.2428 o
167.949 76.9761 o
171.536 82.1745 o
75.6883 116.176 o
99.7922 131.881 o
169.431 71.166 o
169.626 68.4542 o
168.213 81.2171 o
164.141 73.0262 o
119.205 145.513 o
69.6695 142.865 o
219.26 89.9611 o
153.942 137.954 o
157.94 72.4984 o
175.322 107.216 o
163.508 75.8961 o
99.5599 106.788 o
139.74 80.042 o
151.25 70.652 o
179.552 149.177 o
155.483 91.317 o
50.7788 147.42 o
143.48 74.2258 o
155.84 83.3881 o
145.383 78.8149 o
178.622 87.4621 o
157.847 128.998 o
141.413 93.1112 o
123.429 147.458 o
149.375 71.7054 o
173.451 91.175 o
52.8298 140.845 o
97.488 65.7647 o
156.253 99.2471 o
65.6481 135.258 o
162.076 66.6642 o
62.3609 132.963 o
215.336 133.013 o
62.9174 113.411 o
144.437 112.072 o
118.004 78.3097 o
158.996 84.18 o
95.7891 139.067 o
159.743 67.9598 o
58.8801 123.755 o
54.3513 129.386 o
50.5199 92.4901 o
118.386 126.584 o
188.327 51.4372 o
127.045 106.68 o
83.0732 91.7505 o
173.963 84.8684 o
68.0206 121.204 o
145.816 86.4407 o
219.796 69.3451 o
117.264 90.8775 o
173.387 73.4082 o
71.9329 145.198 o
162.05 124.193 o
176.116 59.0347 o
140.975 134.832 o
156.387 77.0684 o
64.2352 156.583 o
171.904 148.462 o
93.3158 122.063 o
127.265 127.674 o
147.693 104.745 o
51.7332 49.4764 o
152.317 94.6205 o
189.303 73.4559 o
147.698 79.9122 o
58.1049 92.0267 o
94.9987 103.485 o
96.9223 113.785 o
186.618 83.397 o
167.291 80.3964 o
55.3786 64.8135 o
145.186 69.5887 o
163.74 109.226 o
111.013 124.212 o
67.4127 120.094 o
168.29 69.2093 o
191.069 82.3643 o
140.682 114.39 o
164.228 92.1791 o
158.245 108.058 o
147.718 101.625 o
138.564 78.7453 o
170.204 87.5426 o
156.504 125.679 o
90.1804 131.076 o
125.678 127.42 o
102.727 141.93 o
107.988 139.933 o
76.2365 105.565 o
108.445 145.204 o
153.843 66.5774 o
147.264 102.355 o
168.237 82.7514 o
124.887 107.386 o
145.983 74.6347 o
166.528 96.1982 o
195.857 62.0037 o
124.134 125.722 o
104.163 120.877 o
161.955 74.7918 o
69.7194 125.891 o
153.054 90.1808 o
50.2365 126.76 o
156.013 73.5839 o
109.807 118.711 o
158.14 61.993 o
128.814 125.227 o
180.246 130.197 o
162.315 59.3809 o
155.219 74.8699 o
87.4371 113.341 o
91.7851 126.741 o
156.423 54.2036 o
134.702 93.4562 o
133.256 117.005 o
161.444 59.0597 o
126.258 59.5032 o
139.2 135.417 o
151.527 63.5238 o
181.824 88.4266 o
93.2706 131.797 o
155.962 79.4678 o
188.35 77.7788 o
98.1729 109.63 o
146.537 137.436 o
146.233 65.3945 o
156.401 65.2608 o
187.156 91.6572 o
146.942 128.428 o
159.989 100.683 o
138.502 82.6832 o
93.2323 117.731 o
152.621 126.523 o
156.932 102.027 o
161.287 80.3248 o
170.694 61.4241 o
158.09 82.4168 o
176.345 105.972 o
122.714 127.594 o
240.734 128.57 o
150.327 85.0494 o
168.398 55.0315 o
86.7427 67.4523 o
168.204 61.5022 o
111.308 118.558 o
97.2503 120.038 o
177.283 70.9061 o
89.611 126.934 o
164.324 81.542 o
162.025 94.5941 o
160.134 87.9409 o
80.3174 72.4817 o
232.299 144.825 o
153.718 136.716 o
49.9381 78.5646 o
175.903 85.3851 o
138.959 111.282 o
139.43 129.168 o
161.796 91.9914 o
64.2508 125.784 o
187.761 77.5405 o
214.421 140.116 o
160.85 79.6778 o
97.0044 111.072 o
119.224 106.454 o
191.833 93.6841 o
155.314 122.237 o
233.642 102.311 o
177.375 69.6383 o
151.2 55.8335 o
136.982 92.4634 o
70.8188 114.103 o
231.873 153.109 o
163.546 68.031 o
122.856 96.5648 o
67.5211 50.9239 o
161.081 68.666 o
66.3479 69.0845 o
172.928 69.876 o
71.3733 140.778 o
146.092 128.318 o
149.585 84.6311 o
92.3609 130.951 o
83.5768 110.121 o
194.812 81.9805 o
103.075 64.9683 o
172.624 72.6378 o
89.158 76.0575 o
148.526 109.59 o
157.579 108.879 o
152.999 64.0507 o
80.2494 142.512 o
146.777 159.438 o
164.893 91.3672 o
166.085 90.2097 o
173.148 60.1423 o
139.098 61.5655 o
144.467 74.6369 o
154.174 73.515 o
141.037 98.5219 o
151.579 85.7184 o
140.612 88.2192 o
109.924 149.471 o
144.581 83.3915 o
167.539 126.06 o
95.6608 130.753 o
74.5976 89.4518 o
162.826 100.135 o
131.872 78.8175 o
138.261 106.016 o
184.083 117.065 o
126.735 148.262 o
159.233 90.452 o
171.114 73.7021 o
126.352 107.048 o
160.264 82.6164 o
148.862 80.6749 o
150.769 142.092 o
159.579 99.5382 o
142.688 91.5833 o
170.835 80.4712 o
106.347 121.337 o
164.399 94.371 o
91.9264 81.6752 o
161.89 68.6808 o
145.694 65.9943 o
94.7836 69.2554 o
149.947 138.237 o
121.216 94.8903 o
158.334 136.483 o
146.404 97.2216 o
168.705 78.1443 o
238.027 68.3267 o
172.901 111.196 o
186.693 68.0578 o
150.361 74.4285 o
186.842 61.0591 o
141.704 104.615 o
85.725 114.143 o
158.08 67.6581 o
144.677 122.225 o
177.974 68.2157 o
49.1318 144.824 o
145.175 102.218 o
146.641 76.888 o
146.53 101.084 o
169.753 82.5171 o
105.955 136.919 o
153.467 95.4694 o
167.81 117.084 o
183.886 54.4717 o
174.503 76.0198 o
173.462 71.287 o
131.277 113.368 o
160.485 121.177 o
84.9351 130.696 o
93.0564 147.399 o
152.946 84.6289 o
146.485 62.5539 o
82.5772 138.654 o
159.166 68.4135 o
162.323 55.148 o
157.999 96.6751 o
147.052 94.2835 o
166.411 103.384 o
131.577 76.7622 o
85.1231 124.482 o
199.445 102.842 o
118.357 130.206 o
69.0243 124.564 o
88.8944 113.119 o
217.899 120.588 o
146.908 82.124 o
183.897 60.553 o
150.304 102.694 o
130.572 140.596 o
89.1495 140.543 o
71.5852 127.464 o
117.793 146.009 o
164.2 86.319 o
167.495 93.4066 o
158.245 80.0642 o
120.638 122.253 o
161.872 93.9329 o
121.35 104.696 o
156.051 69.2153 o
136.916 97.8408 o
126.091 149.315 o
217.773 135.449 o
81.6918 139.19 o
67.2961 140.484 o
171.525 49.7815 o
49.3565 72.4242 o
134.529 114.096 o
85.5259 100.653 o
155.285 84.1931 o
144.721 99.0008 o
147.803 64.5786 o
154.726 61.9701 o
155.496 87.9166 o
80.6892 140.049 o
164.321 69.4673 o
153.335 80.3738 o
174.075 62.6087 o
160.388 88.5505 o
135.642 72.1337 o
159.784 79.6216 o
147.144 77.3649 o
114.274 129.213 o
113.876 139.601 o
146.698 75.7629 o
135.513 98.3755 o
128.68 132.743 o
91.6722 127.835 o
130.027 125.839 o
144.166 75.5319 o
135.564 113.736 o
169.283 64.0099 o
169.909 72.1605 o
148.145 79.3993 o
55.6945 120.891 o
75.9802 126.587 o
155.316 76.4117 o
82.1915 133.995 o
164.531 133.751 o
156.523 102.788 o
142.589 126.413 o
100.036 127.186 o
137.417 80.9553 o
164.203 86.5954 o
147.334 65.2577 o
159.25 87.1611 o
96.6494 70.2268 o
197.265 154.992 o
142.808 76.7992 o
72.7001 155.99 o
121.249 122.016 o
59.9262 134.413 o
133.607 140.758 o
154.041 66.2988 o
48.7385 118.308 o
185.509 61.2969 o
165.192 87.847 o
145.629 105.861 o
136.282 115.668 o
160.358 84.9032 o
202.591 56.5324 o
65.3738 137.697 o
151.358 84.2583 o
152.78 80.111 o
231.267 61.4218 o
138.3 90.1893 o
164.026 83.4291 o
155.962 60.037 o
161.93 101.66 o
149.498 82.7751 o
167.615 143.206 o
119.694 126.827 o
177.582 83.4616 o
166.818 76.8956 o
158.903 64.1946 o
112.352 144.861 o
172.49 93.2722 o
179.251 86.3817 o
135.195 86.9704 o
106.293 141.204 o
91.903 124.737 o
186.788 51.1079 o
148.25 83.5346 o
87.1477 109.559 o
233.191 117.008 o
148.613 108.176 o
141.485 108.118 o
69.3109 117.251 o
146.142 92.8175 o
166.281 72.2554 o
159.372 68.0601 o
177.523 134.254 o
88.4116 104.04 o
165.451 100.447 o
160.328 83.4622 o
176.233 122.705 o
155.416 71.2977 o
125.888 53.2673 o
154.16 75.4548 o
129.829 113.854 o
94.1917 125.838 o
66.2865 138.032 o
152.352 76.3312 o
172.251 121.657 o
142.727 130.177 o
71.0616 143.808 o
147.306 114.348 o
143.319 123.284 o
66.5848 134.102 o
149.041 78.0146 o
162.492 77.1019 o
114.753 113.658 o
177.348 84.4385 o
157.216 90.2059 o
50.4027 148.879 o
98.7415 103.068 o
153.918 85.7424 o
159.704 103.141 o
150.489 110.868 o
93.1713 85.4271 o
121.423 127.318 o
181.311 84.1895 o
152.728 63.5323 o
183.212 82.8607 o
188.467 89.5341 o
144.151 64.0488 o
127.267 81.6492 o
87.111 128.857 o
175.525 88.4978 o
168.879 91.5996 o
150.397 104.667 o
154.54 58.446 o
170.214 87.0933 o
161.575 67.775 o
170.943 99.25 o
151.588 89.7408 o
170.56 82.5293 o
80.139 147.947 o
144.276 105.58 o
111.443 86.7923 o
107.334 135.706 o
148.019 62.9047 o
170.416 65.9695 o
158.757 102.121 o
148.697 54.9198 o
155.602 126.034 o
117.152 157.813 o
147.51 104.612 o
121.231 147.689 o
153.066 133.259 o
73.1878 65.4781 o
72.7722 134.369 o
55.0157 120.251 o
80.5081 105.284 o
164.067 96.0664 o
94.4854 111.55 o
188.606 68.3846 o
88.3107 146.821 o
149.47 58.1147 o
243.226 112.34 o
147.377 48.1726 o
158.331 109.347 o
73.2367 140.99 o
176.673 63.2933 o
135.452 111.851 o
141.429 86.3579 o
130.213 117.774 o
135.665 128.49 o
95.1414 137.702 o
225.478 141.099 o
172.056 93.2588 o
181.454 99.2908 o
217.725 152.458 o
161.84 63.9893 o
157.136 88.2631 o
169.396 127.79 o
154.641 93.6935 o
134.726 129.613 o
65.0164 137.83 o
94.4554 139.823 o
152.213 78.0365 o
166.071 71.9537 o
157.396 155.224 o
228.194 114.885 o
77.0739 69.9685 o
164.123 87.696 o
91.0867 119.285 o
55.6282 60.482 o
165.68 132.56 o
152.752 96.5319 o
156.287 117.852 o
155.679 83.6502 o
145.149 91.2359 o
48.4239 117.585 o
153.715 84.7216 o
162.633 77.6851 o
180.533 80.7815 o
78.1677 127.613 o
175.796 90.0508 o
174.264 86.2566 o
190.67 143.698 o
156.042 95.3643 o
80.3851 148.981 o
110.114 108.316 o
142.588 96.6352 o
182.624 47.4364 o
95.5276 109.806 o
148.679 69.7915 o
200.776 72.2269 o
128.456 125.062 o
64.975 95.9913 o
153.692 79.9355 o
160.193 80.6853 o
156.791 98.7121 o
171.848 56.7671 o
228.696 153.112 o
163.695 104.775 o
145.088 67.6553 o
161.991 88.8352 o
91.7369 108.989 o
169.4 68.1223 o
173.364 83.4622 o
173.366 84.6647 o
142.564 123.57 o
84.1064 81.8887 o
93.559 121.014 o
150.728 79.0307 o
86.6731 136.771 o
50.7609 110.229 o
74.3113 136.545 o
163.602 109.564 o
132.062 125.286 o
72.2216 111.465 o
140.093 64.5187 o
144.664 67.2767 o
164.857 114.032 o
159.471 73.1776 o
84.1568 84.8872 o
158.339 91.523 o
211.447 74.6089 o
220.362 48.3926 o
118.772 127.283 o
203.102 112.919 o
167.241 70.8505 o
165.374 95.4543 o
69.1932 113.557 o
145.718 119.365 o
166.591 84.9879 o
132.988 127.483 o
162.304 97.9229 o
162.463 72.1334 o
169.686 85.0312 o
157.365 80.9624 o
173.346 85.3695 o
65.8396 93.6429 o
215.093 141.085 o
162.277 63.9618 o
87.26 101.069 o
165.575 71.5878 o
164.517 64.92 o
139.118 72.7812 o
141.302 58.878 o
108.681 129.386 o
80.8617 130.26 o
154.36 77.7866 o
163.135 101.488 o
162.724 63.4089 o
197.955 77.519 o
173.02 92.0772 o
146.755 78.467 o
154.35 87.357 o
96.843 115.773 o
92.1848 144.224 o
228.254 68.6247 o
149.384 78.8448 o
117.386 57.6951 o
145.589 64.5972 o
189.427 73.2764 o
100.095 103.798 o
169.268 83.7885 o
167.14 76.5939 o
107.974 67.6536 o
145.09 93.9389 o
176.269 152.928 o
144.76 78.2472 o
116.414 118.187 o
144.501 77.2597 o
147.233 66.2376 o
130.085 90.076 o
103.389 108.007 o
99.6743 132.915 o
101.431 133.612 o
164.473 72.6301 o
137.681 123.127 o
49.4096 114.706 o
151.86 124.172 o
155.511 77.7014 o
150.883 75.1146 o
158.137 108.32 o
156.258 75.8766 o
144.637 148.876 o
137.639 72.4228 o
157.038 96.9231 o
158.615 83.6976 o
103.854 129.619 o
141.086 95.3842 o
162.621 110.736 o
188.061 141.651 o
153.644 68.1454 o
107.137 94.499 o
151.261 117.74 o
155.366 108.299 o
125.793 124.313 o
166.759 113.468 o
159.365 103.999 o
179.998 139.515 o
155.402 76.7784 o
174.126 74.3349 o
139.782 68.1543 o
167.196 71.8812 o
54.3097 122.931 o
222.017 139.215 o
160.871 131.396 o
65.3275 147.668 o
81.2258 140.451 o
167.192 89.0085 o
169.544 101.95 o
148.837 146.73 o
155.118 90.8749 o
79.6719 107.168 o
49.7008 91.6719 o
157.516 97.1638 o
166.97 80.9306 o
126.409 121.744 o
86.6636 117.307 o
147.903 85.3627 o
150.257 74.2204 o
128.484 124.175 o
132.629 87.6406 o
228.33 53.9769 o
72.8629 104.395 o
154.157 65.177 o
183.031 107.765 o
173.115 154.357 o
137.611 125.655 o
102.209 52.2414 o
49.1636 117.866 o
106.271 94.0352 o
175.361 102.766 o
129.22 84.4421 o
83.6672 67.6199 o
110.809 112.311 o
154.718 91.8706 o
139.223 81.7771 o
165.677 91.1849 o
184.494 76.4583 o
121.653 42.6395 o
98.0369 150.703 o
164.605 81.4025 o
97.6578 138.791 o
115.172 58.1605 o
159.455 130.903 o
148 125.132 o
131.389 109.869 o
167.786 130.954 o
175.146 92.4732 o
165.961 89.5345 o
128.885 116.929 o
90.489 115.844 o
75.7715 87.5959 o
48.5812 139.068 o
90.5543 120.455 o
158.938 61.8919 o
92.871 99.7906 o
65.8907 120.001 o
236.137 114.049 o
169.562 83.1194 o
153.398 87.3504 o
156.796 114.164 o
134.929 146.181 o
49.6577 83.0632 o
125.761 105.333 o
214.097 150.557 o
144.669 86.228 o
69.1304 113.18 o
152.355 98.2231 o
127.614 102.704 o
157.552 81.6074 o
191.748 144.409 o
73.6005 134.746 o
107.025 140.356 o
160.648 84.1402 o
105.521 123.859 o
186.541 67.2096 o
177.203 68.3311 o
174.59 107.809 o
113.144 136.783 o
162.554 90.2535 o
161.709 90.4317 o
126.976 90.1528 o
173.854 115.261 o
162.812 74.4694 o
154.603 95.8824 o
84.4121 110.286 o
160.42 59.9268 o
155.933 85.5278 o
159.512 62.2291 o
132.926 96.5701 o
161.25 81.6504 o
135.185 66.1663 o
164.063 75.9954 o
164.216 94.8682 o
99.4618 109.179 o
138.473 65.298 o
grestore
0.000 0.000 1.000 setrgbcolor
gsave
196.6 124.2 47.88 37.8 clipbox
/o {
gsave
newpath
translate
0.5 setlinewidth
1 setlinejoin
0 setlinecap
0 -0.25 m
0.0663008 -0.25 0.129895 -0.223658 0.176777 -0.176777 c
0.223658 -0.129895 0.25 -0.0663008 0.25 0 c
0.25 0.0663008 0.223658 0.129895 0.176777 0.176777 c
0.129895 0.223658 0.0663008 0.25 0 0.25 c
-0.0663008 0.25 -0.129895 0.223658 -0.176777 0.176777 c
-0.223658 0.129895 -0.25 0.0663008 -0.25 0 c
-0.25 -0.0663008 -0.223658 -0.129895 -0.176777 -0.176777 c
-0.129895 -0.223658 -0.0663008 -0.25 0 -0.25 c
cl
gsave
0.000 0.000 1.000 setrgbcolor
fill
grestore
stroke
grestore
} bind def
168.054 83.2844 o
167.99 81.39 o
166.937 84.1212 o
166.604 73.1411 o
166.657 79.5064 o
162.891 81.9988 o
162.268 74.9415 o
166.866 69.2024 o
164.724 77.6593 o
168.204 83.7324 o
166.913 75.4407 o
167.105 80.2041 o
174.386 74.5297 o
166.268 77.552 o
173.614 79.1428 o
166.873 78.2945 o
162.462 77.2471 o
161.738 80.6366 o
162.871 69.7131 o
166.334 83.8197 o
165.006 68.7316 o
162.163 85.9226 o
166.289 75.4888 o
167.186 83.3222 o
164.458 80.59 o
165.868 75.0788 o
165.618 81.5663 o
164.742 73.7994 o
162.537 75.3098 o
165.544 82.9995 o
163.72 81.2369 o
169.88 79.1967 o
163.884 83.5213 o
167.785 80.3342 o
172.596 83.2874 o
165.554 80.5407 o
170.285 83.1861 o
166.515 80.8796 o
167.826 82.7309 o
161.876 81.1102 o
163.14 73.069 o
171.331 81.4058 o
168.493 66.9625 o
163.517 65.4344 o
163.798 78.1787 o
164.548 72.0537 o
162.277 84.2452 o
164.348 85.0308 o
169.804 84.6022 o
176.287 75.9539 o
172.483 70.5844 o
171.873 85.5118 o
168.089 68.3359 o
171.195 69.9103 o
164.042 70.541 o
164.141 73.0262 o
168.237 82.7514 o
170.416 65.9695 o
164.605 81.4025 o
162.812 74.4694 o
grestore
0.000 1.000 1.000 setrgbcolor
gsave
196.6 124.2 47.88 37.8 clipbox
/o {
gsave
newpath
translate
0.5 setlinewidth
1 setlinejoin
0 setlinecap
0 -1 m
0.265203 -1 0.51958 -0.894634 0.707107 -0.707107 c
0.894634 -0.51958 1 -0.265203 1 0 c
1 0.265203 0.894634 0.51958 0.707107 0.707107 c
0.51958 0.894634 0.265203 1 0 1 c
-0.265203 1 -0.51958 0.894634 -0.707107 0.707107 c
-0.894634 0.51958 -1 0.265203 -1 0 c
-1 -0.265203 -0.894634 -0.51958 -0.707107 -0.707107 c
-0.51958 -0.894634 -0.265203 -1 0 -1 c
cl
gsave
0.000 1.000 1.000 setrgbcolor
fill
grestore
stroke
grestore
} bind def
168.815 78.4 o
174.455 70.6484 o
165.823 78.7393 o
176.102 76.7577 o
168.078 81.2832 o
162.719 78.0818 o
171.852 70.7732 o
165.744 75.6447 o
166.273 79.8974 o
174.208 77.6723 o
165.485 81.5174 o
174.901 74.0406 o
167.77 82.9388 o
170.512 68.8723 o
173.083 79.1291 o
171.093 77.4528 o
165.78 74.7727 o
170.241 73.7422 o
175.466 83.8038 o
173.238 82.7753 o
171.677 81.0732 o
169.921 80.807 o
169.81 72.655 o
172.992 79.1 o
174.275 71.3457 o
175.252 71.4939 o
167.971 81.229 o
166.785 79.2439 o
168.302 71.5206 o
165.367 70.9136 o
164.541 73.0917 o
173.051 77.4885 o
174.607 74.6067 o
171.714 82.4141 o
175.847 84.3111 o
175.822 79.7973 o
169.874 79.7253 o
172.013 73.8345 o
169.021 75.7231 o
171.186 79.6323 o
167.514 79.0932 o
171.426 76.1558 o
174.607 74.6067 o
174.535 81.4195 o
174.884 76.6687 o
172.347 71.1829 o
grestore
1.000 0.000 0.000 setrgbcolor
gsave
196.6 124.2 47.88 37.8 clipbox
/o {
gsave
newpath
translate
0.5 setlinewidth
1 setlinejoin
0 setlinecap
0 -1 m
0.265203 -1 0.51958 -0.894634 0.707107 -0.707107 c
0.894634 -0.51958 1 -0.265203 1 0 c
1 0.265203 0.894634 0.51958 0.707107 0.707107 c
0.51958 0.894634 0.265203 1 0 1 c
-0.265203 1 -0.51958 0.894634 -0.707107 0.707107 c
-0.894634 0.51958 -1 0.265203 -1 0 c
-1 -0.265203 -0.894634 -0.51958 -0.707107 -0.707107 c
-0.51958 -0.894634 -0.265203 -1 0 -1 c
cl
gsave
1.000 0.000 0.000 setrgbcolor
fill
grestore
stroke
grestore
} bind def
99.6532 140.74 o
102.274 139.259 o
101.862 141.524 o
104.932 140.153 o
103.686 144.905 o
107.457 141.521 o
107.085 142.597 o
108.154 141.171 o
108.212 142.219 o
108.238 142.213 o
109.395 140.944 o
110.07 141.043 o
109.203 144.408 o
111.575 137.401 o
110.328 147.365 o
111.613 143.139 o
114.452 144.001 o
116.359 143.096 o
grestore
1.000 setlinewidth
0 setlinejoin
2 setlinecap
0.000 setgray
gsave
47.88 162 m
244.44 162 l
stroke
grestore
gsave
244.44 37.8 m
244.44 162 l
stroke
grestore
gsave
47.88 37.8 m
244.44 37.8 l
stroke
grestore
gsave
47.88 37.8 m
47.88 162 l
stroke
grestore
0.500 setlinewidth
1 setlinejoin
0 setlinecap
gsave
/o {
gsave
newpath
translate
0.5 setlinewidth
1 setlinejoin
0 setlinecap
0 0 m
0 4 l
gsave
0.000 setgray
fill
grestore
stroke
grestore
} bind def
64.26 37.8 o
grestore
gsave
/o {
gsave
newpath
translate
0.5 setlinewidth
1 setlinejoin
0 setlinecap
0 0 m
0 -4 l
gsave
0.000 setgray
fill
grestore
stroke
grestore
} bind def
64.26 162 o
grestore
/BitstreamVeraSans-Roman findfont
6.000 scalefont
setfont
gsave
56.541250 29.237500 translate
0.000000 rotate
0.000000 0.000000 m /minus glyphshow
5.027344 0.000000 m /one glyphshow
8.844727 0.000000 m /five glyphshow
12.662109 0.000000 m /zero glyphshow
grestore
gsave
/o {
gsave
newpath
translate
0.5 setlinewidth
1 setlinejoin
0 setlinecap
0 0 m
0 4 l
gsave
0.000 setgray
fill
grestore
stroke
grestore
} bind def
91.56 37.8 o
grestore
gsave
/o {
gsave
newpath
translate
0.5 setlinewidth
1 setlinejoin
0 setlinecap
0 0 m
0 -4 l
gsave
0.000 setgray
fill
grestore
stroke
grestore
} bind def
91.56 162 o
grestore
gsave
83.841250 29.237500 translate
0.000000 rotate
0.000000 0.000000 m /minus glyphshow
5.027344 0.000000 m /one glyphshow
8.844727 0.000000 m /zero glyphshow
12.662109 0.000000 m /zero glyphshow
grestore
gsave
/o {
gsave
newpath
translate
0.5 setlinewidth
1 setlinejoin
0 setlinecap
0 0 m
0 4 l
gsave
0.000 setgray
fill
grestore
stroke
grestore
} bind def
118.86 37.8 o
grestore
gsave
/o {
gsave
newpath
translate
0.5 setlinewidth
1 setlinejoin
0 setlinecap
0 0 m
0 -4 l
gsave
0.000 setgray
fill
grestore
stroke
grestore
} bind def
118.86 162 o
grestore
gsave
113.047500 29.237500 translate
0.000000 rotate
0.000000 0.000000 m /minus glyphshow
5.027344 0.000000 m /five glyphshow
8.844727 0.000000 m /zero glyphshow
grestore
gsave
/o {
gsave
newpath
translate
0.5 setlinewidth
1 setlinejoin
0 setlinecap
0 0 m
0 4 l
gsave
0.000 setgray
fill
grestore
stroke
grestore
} bind def
146.16 37.8 o
grestore
gsave
/o {
gsave
newpath
translate
0.5 setlinewidth
1 setlinejoin
0 setlinecap
0 0 m
0 -4 l
gsave
0.000 setgray
fill
grestore
stroke
grestore
} bind def
146.16 162 o
grestore
gsave
144.644375 29.237500 translate
0.000000 rotate
0.000000 0.000000 m /zero glyphshow
grestore
gsave
/o {
gsave
newpath
translate
0.5 setlinewidth
1 setlinejoin
0 setlinecap
0 0 m
0 4 l
gsave
0.000 setgray
fill
grestore
stroke
grestore
} bind def
173.46 37.8 o
grestore
gsave
/o {
gsave
newpath
translate
0.5 setlinewidth
1 setlinejoin
0 setlinecap
0 0 m
0 -4 l
gsave
0.000 setgray
fill
grestore
stroke
grestore
} bind def
173.46 162 o
grestore
gsave
170.077188 29.237500 translate
0.000000 rotate
0.000000 0.000000 m /five glyphshow
3.817383 0.000000 m /zero glyphshow
grestore
gsave
/o {
gsave
newpath
translate
0.5 setlinewidth
1 setlinejoin
0 setlinecap
0 0 m
0 4 l
gsave
0.000 setgray
fill
grestore
stroke
grestore
} bind def
200.76 37.8 o
grestore
gsave
/o {
gsave
newpath
translate
0.5 setlinewidth
1 setlinejoin
0 setlinecap
0 0 m
0 -4 l
gsave
0.000 setgray
fill
grestore
stroke
grestore
} bind def
200.76 162 o
grestore
gsave
195.564687 29.237500 translate
0.000000 rotate
0.000000 0.000000 m /one glyphshow
3.817383 0.000000 m /zero glyphshow
7.634766 0.000000 m /zero glyphshow
grestore
gsave
/o {
gsave
newpath
translate
0.5 setlinewidth
1 setlinejoin
0 setlinecap
0 0 m
0 4 l
gsave
0.000 setgray
fill
grestore
stroke
grestore
} bind def
228.06 37.8 o
grestore
gsave
/o {
gsave
newpath
translate
0.5 setlinewidth
1 setlinejoin
0 setlinecap
0 0 m
0 -4 l
gsave
0.000 setgray
fill
grestore
stroke
grestore
} bind def
228.06 162 o
grestore
gsave
222.864688 29.237500 translate
0.000000 rotate
0.000000 0.000000 m /one glyphshow
3.817383 0.000000 m /five glyphshow
7.634766 0.000000 m /zero glyphshow
grestore
gsave
136.160000 15.987500 translate
0.000000 rotate
/Cmr10 findfont
8.0 scalefont
setfont
0.000000 0.557937 moveto
/l glyphshow

/BitstreamVeraSans-Roman findfont
8.0 scalefont
setfont
2.214844 0.557937 moveto
/space glyphshow

4.757812 0.557937 moveto
/space glyphshow

/Cmr10 findfont
8.0 scalefont
setfont
7.300781 0.557937 moveto
/parenleft glyphshow

/Cmsy10 findfont
5.6 scalefont
setfont
11.389531 4.517188 moveto
/openbullet glyphshow

/Cmr10 findfont
8.0 scalefont
setfont
15.898937 0.557937 moveto
/parenright glyphshow


grestore
gsave
/o {
gsave
newpath
translate
0.5 setlinewidth
1 setlinejoin
0 setlinecap
0 0 m
4 0 l
gsave
0.000 setgray
fill
grestore
stroke
grestore
} bind def
47.88 65.4 o
grestore
gsave
/o {
gsave
newpath
translate
0.5 setlinewidth
1 setlinejoin
0 setlinecap
0 0 m
-4 0 l
gsave
0.000 setgray
fill
grestore
stroke
grestore
} bind def
244.44 65.4 o
grestore
gsave
32.255000 63.743750 translate
0.000000 rotate
0.000000 0.000000 m /minus glyphshow
5.027344 0.000000 m /five glyphshow
8.844727 0.000000 m /zero glyphshow
grestore
gsave
/o {
gsave
newpath
translate
0.5 setlinewidth
1 setlinejoin
0 setlinecap
0 0 m
4 0 l
gsave
0.000 setgray
fill
grestore
stroke
grestore
} bind def
47.88 99.9 o
grestore
gsave
/o {
gsave
newpath
translate
0.5 setlinewidth
1 setlinejoin
0 setlinecap
0 0 m
-4 0 l
gsave
0.000 setgray
fill
grestore
stroke
grestore
} bind def
244.44 99.9 o
grestore
gsave
40.848750 98.243750 translate
0.000000 rotate
0.000000 0.000000 m /zero glyphshow
grestore
gsave
/o {
gsave
newpath
translate
0.5 setlinewidth
1 setlinejoin
0 setlinecap
0 0 m
4 0 l
gsave
0.000 setgray
fill
grestore
stroke
grestore
} bind def
47.88 134.4 o
grestore
gsave
/o {
gsave
newpath
translate
0.5 setlinewidth
1 setlinejoin
0 setlinecap
0 0 m
-4 0 l
gsave
0.000 setgray
fill
grestore
stroke
grestore
} bind def
244.44 134.4 o
grestore
gsave
37.114375 132.743750 translate
0.000000 rotate
0.000000 0.000000 m /five glyphshow
3.817383 0.000000 m /zero glyphshow
grestore
gsave
25.255000 88.900000 translate
90.000000 rotate
/Cmr10 findfont
8.0 scalefont
setfont
0.000000 0.557937 moveto
/b glyphshow

/BitstreamVeraSans-Roman findfont
8.0 scalefont
setfont
4.441406 0.557937 moveto
/space glyphshow

6.984375 0.557937 moveto
/space glyphshow

/Cmr10 findfont
8.0 scalefont
setfont
9.527344 0.557937 moveto
/parenleft glyphshow

/Cmsy10 findfont
5.6 scalefont
setfont
13.616094 4.517188 moveto
/openbullet glyphshow

/Cmr10 findfont
8.0 scalefont
setfont
18.125500 0.557937 moveto
/parenright glyphshow


grestore
/BitstreamVeraSans-Roman findfont
14.400 scalefont
setfont
gsave
112.300625 167.000000 translate
0.000000 rotate
0.000000 0.000000 m /N glyphshow
10.753174 0.000000 m /space glyphshow
15.322571 0.000000 m /equal glyphshow
27.367249 0.000000 m /space glyphshow
31.936646 0.000000 m /three glyphshow
41.082458 0.000000 m /five glyphshow
50.228271 0.000000 m /eight glyphshow
59.374084 0.000000 m /four glyphshow
grestore

end
showpage
