%!PS-Adobe-3.0 EPSF-3.0
%%Title: /Users/iuliasimion/bullock_johnston/denis_erkal/vasily/Figures/4498_3103313_xy.eps
%%Creator: matplotlib version 1.4.3, http://matplotlib.org/
%%CreationDate: Sat Aug 19 15:00:39 2017
%%Orientation: portrait
%%BoundingBox: 216 306 396 486
%%EndComments
%%BeginProlog
/mpldict 9 dict def
mpldict begin
/m { moveto } bind def
/l { lineto } bind def
/r { rlineto } bind def
/c { curveto } bind def
/cl { closepath } bind def
/box {
m
1 index 0 r
0 exch r
neg 0 r
cl
} bind def
/clipbox {
box
clip
newpath
} bind def
%!PS-Adobe-3.0 Resource-Font
%%Title: Bitstream Vera Sans
%%Copyright: Copyright (c) 2003 by Bitstream, Inc. All Rights Reserved.
%%Creator: Converted from TrueType to type 3 by PPR
25 dict begin
/_d{bind def}bind def
/_m{moveto}_d
/_l{lineto}_d
/_cl{closepath eofill}_d
/_c{curveto}_d
/_sc{7 -1 roll{setcachedevice}{pop pop pop pop pop pop}ifelse}_d
/_e{exec}_d
/FontName /BitstreamVeraSans-Roman def
/PaintType 0 def
/FontMatrix[.001 0 0 .001 0 0]def
/FontBBox[-183 -236 1287 928]def
/FontType 3 def
/Encoding [ /space /zero /two /four /six /minus ] def
/FontInfo 10 dict dup begin
/FamilyName (Bitstream Vera Sans) def
/FullName (Bitstream Vera Sans) def
/Notice (Copyright (c) 2003 by Bitstream, Inc. All Rights Reserved. Bitstream Vera is a trademark of Bitstream, Inc.) def
/Weight (Roman) def
/Version (Release 1.10) def
/ItalicAngle 0.0 def
/isFixedPitch false def
/UnderlinePosition -213 def
/UnderlineThickness 143 def
end readonly def
/CharStrings 6 dict dup begin
/space{318 0 0 0 0 0 _sc
}_d
/zero{636 0 66 -13 570 742 _sc
318 664 _m
267 664 229 639 203 589 _c
177 539 165 464 165 364 _c
165 264 177 189 203 139 _c
229 89 267 64 318 64 _c
369 64 407 89 433 139 _c
458 189 471 264 471 364 _c
471 464 458 539 433 589 _c
407 639 369 664 318 664 _c
318 742 _m
399 742 461 709 505 645 _c
548 580 570 486 570 364 _c
570 241 548 147 505 83 _c
461 19 399 -13 318 -13 _c
236 -13 173 19 130 83 _c
87 147 66 241 66 364 _c
66 486 87 580 130 645 _c
173 709 236 742 318 742 _c
_cl}_d
/two{{636 0 73 0 536 742 _sc
192 83 _m
536 83 _l
536 0 _l
73 0 _l
73 83 _l
110 121 161 173 226 239 _c
290 304 331 346 348 365 _c
380 400 402 430 414 455 _c
426 479 433 504 433 528 _c
433 566 419 598 392 622 _c
365 646 330 659 286 659 _c
255 659 222 653 188 643 _c
154 632 117 616 78 594 _c
78 694 _l
118 710 155 722 189 730 _c
223 738 255 742 284 742 _c
}_e{359 742 419 723 464 685 _c
509 647 532 597 532 534 _c
532 504 526 475 515 449 _c
504 422 484 390 454 354 _c
446 344 420 317 376 272 _c
332 227 271 164 192 83 _c
_cl}_e}_d
/four{636 0 49 0 580 729 _sc
378 643 _m
129 254 _l
378 254 _l
378 643 _l
352 729 _m
476 729 _l
476 254 _l
580 254 _l
580 172 _l
476 172 _l
476 0 _l
378 0 _l
378 172 _l
49 172 _l
49 267 _l
352 729 _l
_cl}_d
/six{{636 0 70 -13 573 742 _sc
330 404 _m
286 404 251 388 225 358 _c
199 328 186 286 186 234 _c
186 181 199 139 225 109 _c
251 79 286 64 330 64 _c
374 64 409 79 435 109 _c
461 139 474 181 474 234 _c
474 286 461 328 435 358 _c
409 388 374 404 330 404 _c
526 713 _m
526 623 _l
501 635 476 644 451 650 _c
425 656 400 659 376 659 _c
310 659 260 637 226 593 _c
}_e{192 549 172 482 168 394 _c
187 422 211 444 240 459 _c
269 474 301 482 336 482 _c
409 482 467 459 509 415 _c
551 371 573 310 573 234 _c
573 159 550 99 506 54 _c
462 9 403 -13 330 -13 _c
246 -13 181 19 137 83 _c
92 147 70 241 70 364 _c
70 479 97 571 152 639 _c
206 707 280 742 372 742 _c
396 742 421 739 447 735 _c
472 730 498 723 526 713 _c
_cl}_e}_d
/minus{838 0 106 272 732 355 _sc
106 355 _m
732 355 _l
732 272 _l
106 272 _l
106 355 _l
_cl}_d
end readonly def

/BuildGlyph
 {exch begin
 CharStrings exch
 2 copy known not{pop /.notdef}if
 true 3 1 roll get exec
 end}_d

/BuildChar {
 1 index /Encoding get exch get
 1 index /BuildGlyph get exec
}_d

FontName currentdict end definefont pop
%!PS-Adobe-3.0 Resource-Font
%%Title: cmr10
%%Copyright: Copyright (C) 1994, Basil K. Malyshev. All Rights Reserved.012BaKoMa Fonts Collection, Level-B.
%%Creator: Converted from TrueType to type 3 by PPR
25 dict begin
/_d{bind def}bind def
/_m{moveto}_d
/_l{lineto}_d
/_cl{closepath eofill}_d
/_c{curveto}_d
/_sc{7 -1 roll{setcachedevice}{pop pop pop pop pop pop}ifelse}_d
/_e{exec}_d
/FontName /Cmr10 def
/PaintType 0 def
/FontMatrix[.001 0 0 .001 0 0]def
/FontBBox[-44 -250 1009 750]def
/FontType 3 def
/Encoding [ /k /parenright /Y /parenleft /c /p /X ] def
/FontInfo 10 dict dup begin
/FamilyName (cmr10) def
/FullName (cmr10) def
/Notice (Copyright (C) 1994, Basil K. Malyshev. All Rights Reserved.012BaKoMa Fonts Collection, Level-B. ) def
/Weight (Regular) def
/Version (1.1/12-Nov-94) def
/ItalicAngle 0.0 def
/isFixedPitch false def
/UnderlinePosition -133 def
/UnderlineThickness 20 def
end readonly def
/CharStrings 7 dict dup begin
/k{{527 0 26 0 511 694 _sc
26 0 _m
26 35 _l
48 35 67 36 82 40 _c
96 44 104 53 104 67 _c
104 592 _l
104 610 101 623 96 631 _c
90 639 83 643 73 645 _c
63 647 47 648 26 648 _c
26 683 _l
174 694 _l
174 219 _l
308 337 _l
321 349 328 361 328 372 _c
328 380 325 386 320 390 _c
314 394 308 396 300 396 _c
300 431 _l
488 431 _l
488 396 _l
}_e{442 396 397 376 352 337 _c
281 275 _l
408 94 _l
426 69 440 53 452 46 _c
464 38 483 35 511 35 _c
511 0 _l
312 0 _l
312 35 _l
334 35 346 42 346 56 _c
346 66 340 78 328 94 _c
232 231 _l
171 178 _l
171 67 _l
171 53 178 44 193 40 _c
207 36 226 35 249 35 _c
249 0 _l
26 0 _l
_cl}_e}_d
/parenright{{388 0 56 -249 291 750 _sc
65 -249 _m
59 -249 56 -246 56 -240 _c
56 -237 56 -235 58 -234 _c
172 -122 229 38 229 250 _c
229 462 172 623 60 733 _c
57 734 56 737 56 741 _c
56 743 57 745 59 747 _c
61 749 63 750 65 750 _c
74 750 _l
76 750 77 749 79 748 _c
127 710 167 664 199 610 _c
231 556 254 498 269 437 _c
283 376 291 314 291 250 _c
291 202 287 156 279 110 _c
}_e{271 64 258 20 241 -24 _c
223 -68 201 -108 175 -146 _c
148 -184 116 -217 79 -247 _c
77 -248 76 -249 74 -249 _c
65 -249 _l
_cl}_e}_d
/Y{{750 0 11 0 738 683 _sc
226 0 _m
226 35 _l
294 35 329 45 329 67 _c
329 273 _l
119 618 _l
109 631 95 639 78 643 _c
60 646 38 648 11 648 _c
11 683 _l
293 683 _l
293 648 _l
246 648 223 640 223 625 _c
223 623 223 621 225 617 _c
406 319 _l
571 590 _l
575 596 577 602 577 610 _c
577 623 571 633 559 639 _c
547 645 535 648 521 648 _c
521 683 _l
738 683 _l
738 648 _l
}_e{712 648 687 643 665 634 _c
643 624 625 610 613 591 _c
419 273 _l
419 67 _l
419 45 453 35 522 35 _c
522 0 _l
226 0 _l
_cl}_e}_d
/parenleft{{388 0 97 -249 332 750 _sc
310 -247 _m
272 -217 240 -184 214 -146 _c
187 -108 165 -67 148 -25 _c
131 17 118 62 110 109 _c
101 155 97 202 97 250 _c
97 298 101 345 110 392 _c
118 438 131 483 149 527 _c
166 570 188 611 215 649 _c
242 687 274 720 310 748 _c
310 749 311 750 315 750 _c
324 750 _l
326 750 327 749 329 747 _c
331 745 332 743 332 741 _c
332 738 331 736 330 735 _c
}_e{297 703 270 668 248 632 _c
226 596 209 557 196 516 _c
183 474 174 432 168 388 _c
162 344 159 298 159 250 _c
159 38 215 -122 329 -232 _c
331 -234 332 -236 332 -240 _c
332 -242 331 -244 329 -246 _c
327 -248 326 -249 324 -249 _c
315 -249 _l
311 -249 310 -248 310 -247 _c
_cl}_e}_d
/c{{444 0 33 -10 415 448 _sc
249 -10 _m
208 -10 171 0 139 21 _c
106 41 80 69 61 104 _c
42 139 33 176 33 216 _c
33 255 42 293 61 329 _c
79 365 105 393 138 415 _c
171 437 208 448 249 448 _c
288 448 324 440 356 425 _c
388 409 404 384 404 350 _c
404 337 399 326 390 316 _c
380 306 369 302 356 302 _c
342 302 331 306 322 316 _c
312 326 308 337 308 350 _c
}_e{308 362 311 372 319 381 _c
327 389 336 395 347 397 _c
324 411 292 419 250 419 _c
218 419 192 408 173 387 _c
153 365 140 339 132 308 _c
124 277 120 246 120 216 _c
120 183 124 152 134 122 _c
144 92 159 67 181 47 _c
202 27 229 18 261 18 _c
293 18 320 27 342 47 _c
364 66 379 91 387 123 _c
387 127 389 129 395 129 _c
407 129 _l
409 129 410 128 412 126 _c
}_e{414 124 415 122 415 120 _c
415 117 _l
405 77 385 46 355 24 _c
325 1 289 -10 249 -10 _c
_cl}_e}_d
/p{{555 0 26 -193 522 442 _sc
26 -193 _m
26 -158 _l
48 -158 67 -156 82 -152 _c
96 -148 104 -139 104 -126 _c
104 355 _l
104 373 97 384 84 389 _c
71 393 52 396 26 396 _c
26 431 _l
174 442 _l
174 380 _l
192 400 213 415 237 426 _c
261 436 287 442 315 442 _c
354 442 389 431 421 410 _c
453 388 477 360 495 326 _c
513 291 522 254 522 216 _c
522 175 512 137 492 103 _c
}_e{472 68 446 40 412 20 _c
378 0 340 -10 300 -10 _c
251 -10 210 9 177 48 _c
177 -126 _l
177 -139 184 -148 199 -152 _c
213 -156 232 -158 255 -158 _c
255 -193 _l
26 -193 _l
177 97 _m
188 73 204 54 225 38 _c
246 22 269 15 294 15 _c
317 15 337 21 355 33 _c
373 45 388 62 400 83 _c
412 104 420 126 426 149 _c
432 172 435 194 435 216 _c
435 242 430 271 420 302 _c
}_e{410 333 396 359 376 381 _c
356 402 333 413 305 413 _c
278 413 253 406 231 392 _c
208 378 190 360 177 336 _c
177 97 _l
_cl}_e}_d
/X{{750 0 23 0 726 683 _sc
23 0 _m
23 35 _l
91 35 138 54 165 92 _c
331 339 _l
147 619 _l
136 631 122 639 104 643 _c
86 646 64 648 37 648 _c
37 683 _l
317 683 _l
317 648 _l
305 648 291 645 275 641 _c
259 636 252 629 252 621 _c
252 619 252 618 253 617 _c
384 418 _l
499 590 _l
501 596 503 600 503 604 _c
503 618 496 628 482 636 _c
468 644 454 648 440 648 _c
}_e{440 683 _l
684 683 _l
684 648 _l
616 648 569 629 542 591 _c
405 386 _l
616 64 _l
627 51 641 43 659 40 _c
677 36 699 35 726 35 _c
726 0 _l
446 0 _l
446 35 _l
456 35 470 37 486 42 _c
502 46 511 53 511 62 _c
511 64 510 65 510 66 _c
352 307 _l
208 93 _l
206 89 205 84 205 79 _c
205 65 211 55 225 47 _c
238 39 252 35 267 35 _c
267 0 _l
}_e{23 0 _l
_cl}_e}_d
end readonly def

/BuildGlyph
 {exch begin
 CharStrings exch
 2 copy known not{pop /.notdef}if
 true 3 1 roll get exec
 end}_d

/BuildChar {
 1 index /Encoding get exch get
 1 index /BuildGlyph get exec
}_d

FontName currentdict end definefont pop
end
%%EndProlog
mpldict begin
216 306 translate
180 180 0 0 clipbox
gsave
0 0 m
180 0 l
180 180 l
0 180 l
cl
1.000 setgray
fill
grestore
gsave
34.2 37.8 m
174.6 37.8 l
174.6 162 l
34.2 162 l
cl
1.000 setgray
fill
grestore
0.500 setlinewidth
1 setlinejoin
0 setlinecap
[] 0 setdash
0.000 setgray
gsave
140.4 124.2 34.2 37.8 clipbox
/o {
gsave
newpath
translate
0.5 setlinewidth
1 setlinejoin
0 setlinecap
0 -0.25 m
0.0663008 -0.25 0.129895 -0.223658 0.176777 -0.176777 c
0.223658 -0.129895 0.25 -0.0663008 0.25 0 c
0.25 0.0663008 0.223658 0.129895 0.176777 0.176777 c
0.129895 0.223658 0.0663008 0.25 0 0.25 c
-0.0663008 0.25 -0.129895 0.223658 -0.176777 0.176777 c
-0.223658 0.129895 -0.25 0.0663008 -0.25 0 c
-0.25 -0.0663008 -0.223658 -0.129895 -0.176777 -0.176777 c
-0.129895 -0.223658 -0.0663008 -0.25 0 -0.25 c
cl
gsave
0.000 setgray
fill
grestore
stroke
grestore
} bind def
86.6629 95.3449 o
94.9551 101.021 o
112.259 101.764 o
92.914 84.8609 o
110.784 99.1611 o
85.6903 88.4584 o
90.4474 100.487 o
94.502 82.1909 o
92.5732 92.126 o
104.559 104.858 o
119.697 99.91 o
93.4488 93.179 o
120.382 99.3211 o
95.0628 92.3232 o
101.424 94.6454 o
104.441 104.584 o
88.7665 94.5837 o
93.5228 86.0199 o
100.967 93.5137 o
109.585 102.501 o
124.601 100.815 o
96.8902 86.9172 o
87.5867 95.971 o
89.9075 91.547 o
90.1718 88.2912 o
121.773 102.877 o
113.668 102.671 o
99.4243 97.8866 o
95.9602 94.207 o
109.046 102.647 o
106.172 100.488 o
97.2706 84.2018 o
98.341 88.027 o
96.7711 84.6414 o
110.13 104.577 o
92.7349 85.2015 o
103.955 99.4819 o
104.918 104.136 o
97.1292 88.0762 o
87.8449 90.7692 o
104.012 104.013 o
89.6465 97.2181 o
86.9665 86.4086 o
99.0781 91.7722 o
115.48 106.569 o
86.3182 98.1733 o
116.678 99.0767 o
94.8072 92.0723 o
104.444 101.232 o
99.1365 96.9986 o
103.754 96.8549 o
90.3417 93.4466 o
127.069 105.555 o
92.2704 86.2517 o
110.49 97.6631 o
100.807 91.6138 o
105.652 98.8149 o
110.457 100.115 o
142.412 118.116 o
106.878 103.43 o
116.027 104.094 o
110.339 111.296 o
123.189 98.5363 o
105.717 114.146 o
92.6101 99.1001 o
113.287 107.851 o
90.6053 96.3541 o
110.274 111.201 o
107.953 108.842 o
86.9822 95.9495 o
124.607 100.03 o
84.6916 87.2848 o
108.233 105.403 o
90.2821 85.9109 o
91.5605 91.1777 o
85.8233 94.0177 o
89.8416 90.5 o
125.851 97.8608 o
114.195 100.229 o
121.298 122.282 o
89.2324 87.8444 o
84.8849 81.1864 o
93.5313 85.4524 o
89.4661 87.0228 o
121.546 121.312 o
94.5391 83.0534 o
115.077 111.474 o
84.5577 92.1749 o
123.254 97.5205 o
92.0057 87.7787 o
119.029 108.193 o
99.7909 93.0375 o
83.0213 91.4138 o
90.5082 97.1056 o
87.1159 86.2936 o
95.811 72.1087 o
117.915 103.941 o
87.5757 91.2256 o
103.229 90.3429 o
86.1912 90.2495 o
116.04 107.87 o
95.2761 95.9559 o
90.4251 85.6194 o
121.1 109.46 o
100.208 98.6691 o
96.425 101.896 o
93.6714 90.8844 o
143.111 111.114 o
106.054 107.361 o
99.5933 92.9813 o
123.338 113.728 o
74.5897 94.8733 o
97.002 94.9241 o
97.7628 92.8705 o
94.927 93.9616 o
123.646 99.6582 o
105.204 90.2901 o
111.828 98.1926 o
119.029 112.677 o
109.006 94.7115 o
94.4585 95.3289 o
112.673 100.22 o
106.289 98.4072 o
131.769 130.765 o
87.3217 97.2778 o
104.978 104.945 o
95.4054 89.5181 o
120.891 102.719 o
123.472 107.26 o
125.015 105.28 o
88.8702 97.3626 o
100.241 103.268 o
108.299 108.913 o
86.2438 88.4113 o
88.4251 92.1665 o
110.623 105.341 o
92.5862 96.2552 o
103.633 83.8334 o
84.7556 87.2339 o
107.689 100.902 o
125.075 98.2361 o
87.0394 87.6643 o
135.904 130.942 o
111.048 100.305 o
87.5082 99.2246 o
85.6925 85.2703 o
115.99 110.266 o
109.165 106.804 o
85.5774 90.881 o
110.815 116.366 o
110.903 101.199 o
88.3801 95.9999 o
89.3952 97.4418 o
100.589 98.1746 o
113.357 108.649 o
88.4544 85.4278 o
121.478 110.65 o
86.2641 90.4782 o
104.96 99.3847 o
112.667 110.613 o
103.832 106.567 o
120.466 104.647 o
87.6993 89.2511 o
102.924 98.2091 o
109.715 102.663 o
95.632 96.2162 o
125.673 98.609 o
95.6075 96.8575 o
127.289 107.777 o
83.6566 89.6172 o
110.035 107.758 o
86.2056 88.243 o
121.31 100.121 o
117.757 120.906 o
118.806 106.839 o
121.332 109.32 o
104.856 104.55 o
114.791 111.809 o
96.4016 92.2143 o
81.918 90.0602 o
93.2049 96.7999 o
84.3725 89.3268 o
117.487 106.323 o
114.2 105.831 o
109.51 100.281 o
102.33 101.2 o
100.519 105.689 o
120.9 107.476 o
116.293 102.354 o
119.531 117.699 o
104.91 102.16 o
89.9026 94.5131 o
92.0226 98.1874 o
119.861 101.608 o
97.2143 96.1218 o
136.305 104.892 o
93.0702 83.4285 o
106.724 103.273 o
103.769 97.4934 o
106.749 105.761 o
90.094 98.0544 o
127.086 104.538 o
105.806 103.398 o
117.32 105.627 o
94.4412 94.8635 o
88.3526 90.4849 o
92.5256 88.6195 o
118.036 99.4361 o
98.0937 89.941 o
105.644 86.8048 o
120.666 101.675 o
94.6012 85.1228 o
112.609 104.745 o
107.557 115.726 o
124.854 98.5699 o
120.749 111.284 o
103.649 102.412 o
90.7712 94.6312 o
129.35 131.369 o
123.748 121.078 o
88.9579 92.387 o
98.0977 90.7602 o
94.578 75.8192 o
101.812 86.9247 o
121.531 110.448 o
124.459 98.0926 o
92.4594 90.4799 o
126.673 111.061 o
106.677 98.2674 o
121.738 104.987 o
109.28 108.702 o
136.678 131.797 o
103.129 98.9723 o
144.546 127.451 o
138.59 128.938 o
104.691 103.371 o
114.347 101.197 o
99.6281 89.1768 o
86.0133 88.4927 o
97.1082 99.0575 o
90.8094 98.5475 o
105.188 93.6761 o
105.524 107.126 o
119.281 100.628 o
114.363 101.419 o
107.308 107.22 o
80.739 96.8411 o
85.2968 91.6806 o
122.397 111.391 o
129.02 98.28 o
111.246 108.063 o
86.4166 92.3182 o
122.611 100.643 o
82.3092 91.8598 o
130.896 127.902 o
126.713 105.369 o
125.939 115.577 o
94.2704 93.7035 o
95.1993 100.317 o
126.455 109.594 o
117.978 114.816 o
149.026 106.79 o
86.7152 81.7905 o
112.618 101.697 o
125.55 104.822 o
93.9283 90.6595 o
103.994 88.3234 o
89.2367 85.737 o
121.609 108.68 o
104.462 94.5583 o
122.576 102.337 o
96.7185 88.3566 o
113.485 105.03 o
89.3278 84.9453 o
123.829 101.017 o
116.729 100.477 o
106.048 101.012 o
87.811 95.9505 o
121.177 114.156 o
121.691 116.778 o
102.165 106.451 o
121.687 106.002 o
91.8982 94.3878 o
91.2475 87.0914 o
99.1427 102.666 o
107.488 109.263 o
108.099 111.028 o
82.176 85.3848 o
105.674 103.318 o
102.53 96.1837 o
101.214 85.7288 o
111.376 98.5992 o
92.3187 96.2502 o
96.3081 89.8733 o
103.458 98.7862 o
87.9834 95.8334 o
125.562 102.149 o
84.6776 94.4697 o
128.553 119.803 o
81.2938 111.435 o
106.809 101.167 o
88.2456 83.0499 o
119.289 120.451 o
104.876 97.3771 o
95.1317 97.1288 o
126.582 111.772 o
125.285 115.76 o
83.6399 88.2554 o
102.484 84.9689 o
100.593 98.8325 o
114.527 116.795 o
92.5888 84.6446 o
109.48 104.127 o
88.7822 88.2455 o
122.414 100.796 o
104.49 98.0297 o
89.6561 78.9113 o
136.136 116.672 o
105.059 106.827 o
102.254 133.987 o
110.242 105.13 o
101.649 101.042 o
85.7359 91.835 o
72.2787 83.4805 o
120.378 105.12 o
121.607 105.543 o
106.421 88.0178 o
90.8814 94.1965 o
103.828 100.739 o
87.1424 97.3901 o
100.903 92.2432 o
114.539 109.899 o
121.458 99.3448 o
123.691 111.103 o
100.681 93.161 o
115.981 102.739 o
91.8875 97.6227 o
89.5897 81.769 o
104.456 77.5473 o
147.713 119.27 o
91.3299 86.4732 o
108.142 109.073 o
100.109 93.3109 o
101.875 104.632 o
86.3218 86.5354 o
108.085 97.0069 o
118.172 112.559 o
101.085 95.4862 o
114.344 99.1308 o
94.677 93.0586 o
106.85 96.7093 o
113.66 112.361 o
101.251 72.7426 o
110.121 100.793 o
98.7325 100.17 o
100.97 103.996 o
98.6509 90.4182 o
92.3821 96.0217 o
83.5735 92.6733 o
107.733 105.37 o
102.54 103.983 o
88.0831 91.4483 o
79.6301 93.1919 o
102.28 86.8611 o
98.2443 91.6989 o
100.874 103.395 o
82.015 107.669 o
147.185 115.061 o
89.325 89.9274 o
117.503 101.053 o
117.998 122.252 o
117.226 116.275 o
69.9371 79.8281 o
101.047 93.3088 o
120.183 115.763 o
111.339 113.662 o
84.1382 90.1807 o
88.4024 94.7686 o
115.676 116.666 o
101.609 103.146 o
99.3878 98.7012 o
81.0634 94.1458 o
82.451 90.7934 o
101.297 95.7981 o
112.234 101.487 o
83.3187 86.3817 o
106.427 98.8209 o
89.2887 91.7887 o
118.572 104.33 o
122.397 98.2685 o
75.5504 94.6262 o
110.599 102.353 o
106.792 93.3152 o
121.325 108.054 o
81.7669 93.8938 o
95.0435 89.5125 o
132.175 128.137 o
112.397 103.464 o
92.6164 85.9107 o
92.8401 96.8944 o
73.7367 69.3959 o
116.539 108.772 o
99.1581 101.479 o
99.0851 82.0448 o
79.852 107.926 o
101.758 97.3411 o
105.785 109.828 o
100.596 96.8511 o
96.1841 94.0543 o
116.01 102.537 o
93.6487 94.1387 o
61.4973 84.6096 o
106.443 99.3292 o
98.2375 81.9446 o
82.6256 93.7042 o
116.054 111.644 o
101.854 94.4733 o
100.697 98.2152 o
85.4619 78.4587 o
79.1794 89.8142 o
100.239 96.9033 o
86.5979 100.176 o
126.513 130.594 o
115.069 110.712 o
93.1537 91.7406 o
113.466 99.8622 o
118.095 111.923 o
130.484 128.109 o
118.947 98.8697 o
108.355 102.303 o
125.464 120.588 o
94.2399 82.6794 o
113.016 103.592 o
87.7471 86.8862 o
130.282 128.826 o
120.719 107.308 o
98.3719 106.805 o
96.1119 92.6119 o
109.688 104.166 o
103.031 98.0963 o
92.6676 97.9522 o
89.0968 94.371 o
99.5036 90.6195 o
101.174 94.2932 o
149.947 113.371 o
113.561 116.847 o
95.8348 81.4215 o
136.609 125.423 o
93.8231 95.5765 o
103.581 97.4187 o
110.996 108.869 o
104.734 110.758 o
101.064 104.718 o
130.028 116.19 o
106.382 100.884 o
111.165 100.754 o
107.187 124.508 o
99.1936 99.5803 o
78.8086 88.3042 o
109.242 107.595 o
109.335 85.4309 o
112.4 100.087 o
79.5458 78.2524 o
116.98 110.769 o
106.637 107.582 o
99.912 102.306 o
109.998 98.9827 o
123.885 98.3011 o
105.081 104.933 o
120.965 105.795 o
79.7805 90.9025 o
91.1937 94.3534 o
143.803 124.47 o
96.3109 99.1109 o
115.669 102.673 o
104.211 102.212 o
121.818 113.608 o
93.6136 94.9022 o
115.169 92.4657 o
115.225 107.676 o
105.05 95.4631 o
109.524 106.605 o
112.935 103.766 o
87.1129 93.9237 o
116.002 115.74 o
105.96 82.8205 o
104.287 102.462 o
122.474 106.345 o
113.652 109.863 o
147.641 121.659 o
96.4853 95.5996 o
100.811 90.8482 o
122.315 108.605 o
89.6509 84.8249 o
126.68 103 o
107.61 104.155 o
111.921 102.268 o
128.576 119.895 o
86.3506 86.0232 o
124.947 109.704 o
109.982 102.072 o
130.99 126.653 o
123.268 124.267 o
139.295 110.419 o
90.7551 95.7988 o
116.808 111.754 o
120.124 121.419 o
107.059 97.4221 o
105.072 100.512 o
123.844 103.522 o
97.9132 92.4666 o
118.526 101.339 o
96.2899 81.7859 o
93.7514 88.8617 o
117.78 116.504 o
94.212 92.7832 o
115.1 101.576 o
101.091 103.866 o
81.2693 97.4818 o
113.327 100.423 o
118.411 116.138 o
143.181 99.8043 o
104.27 96.347 o
136.187 121.098 o
110.631 103.117 o
124.307 114.429 o
116.036 103.938 o
114.068 101.198 o
144.786 105.182 o
121.467 114.214 o
93.8877 98.3241 o
88.8612 92.5965 o
66.6899 83.3034 o
107.627 103.087 o
96.8613 82.4036 o
142.973 121.369 o
99.8471 90.7742 o
92.3412 90.3661 o
103.863 101.796 o
115.231 118.681 o
84.5608 93.5582 o
96.1688 98.6887 o
121.358 105.666 o
114.813 111.565 o
117.296 122.734 o
87.4601 90.4068 o
104.959 97.5629 o
68.01 80.8136 o
110.45 100.232 o
102.759 93.1416 o
130.11 108.507 o
98.5896 90.9428 o
103.824 94.9104 o
95.1411 100.022 o
116.724 102.638 o
127.99 124.676 o
100.191 98.3476 o
139.28 106.54 o
109.532 104.687 o
109.157 100.225 o
121.844 109.516 o
88.0331 89.1312 o
117.959 99.216 o
94.5389 99.9288 o
110.754 91.9389 o
93.5696 88.9865 o
84.7401 87.9738 o
141.564 109.787 o
90.8711 98.0293 o
103.788 98.6794 o
128.045 127.087 o
96.9018 92.0649 o
105.428 91.045 o
125.559 107.896 o
103.104 91.9339 o
71.1434 80.0451 o
85.6022 87.5896 o
92.1509 96.0966 o
97.322 88.4403 o
125.718 131.386 o
148.042 115.77 o
106.908 97.0651 o
113.453 113.766 o
95.3945 81.3451 o
110.09 111.367 o
114.922 104.086 o
135.207 123.063 o
97.1179 89.9711 o
103.41 108.813 o
136.718 106.571 o
106.886 108.068 o
99.3802 88.4321 o
107.743 100.346 o
147.711 97.4525 o
151.28 116.927 o
107.723 104.49 o
112.887 103.595 o
128.191 124.089 o
117.783 105.73 o
101.657 94.5645 o
89.9371 83.25 o
112.123 108.575 o
115.14 100.148 o
101.437 92.3889 o
123.24 138.042 o
125.594 118.616 o
90.989 95.294 o
109.517 106.862 o
126.202 131.598 o
68.8036 89.3029 o
122.278 120.176 o
140.627 113.338 o
91.0193 88.6395 o
92.5015 83.9778 o
147.088 125.564 o
85.9778 92.387 o
131.418 108.718 o
132.273 130.423 o
113.623 102.08 o
90.7399 82.8999 o
118.032 96.7507 o
150.002 115.066 o
127.627 126.678 o
126.406 114.901 o
151.19 104.496 o
105.443 96.1854 o
100.714 103.217 o
124.444 100.329 o
91.4715 85.6829 o
97.13 94.016 o
113.151 110.818 o
77.1188 79.5868 o
139.217 97.5724 o
90.3933 90.3518 o
96.6785 101.378 o
109.263 100.664 o
137.261 125.751 o
97.2632 89.8033 o
110.184 107.209 o
121.479 102.691 o
115.5 107.462 o
102.426 130.176 o
118.896 115.085 o
116.933 114.077 o
106.453 99.4188 o
102.503 135.948 o
96.5737 89.5831 o
98.8454 82.4725 o
91.6359 85.9441 o
112.66 107.874 o
151.045 110.912 o
108.523 102.906 o
110.26 103.409 o
97.4645 104.346 o
108.495 106.941 o
104.555 103.857 o
99.06 100.634 o
141.37 104.008 o
109.613 101.712 o
115.673 95.875 o
122.01 106.693 o
105.428 100.559 o
112.924 105.593 o
63.7199 79.3929 o
114.856 116.007 o
110.217 116.42 o
126.622 109.89 o
143.128 122.966 o
90.155 87.3851 o
104.19 96.1779 o
101.959 91.3155 o
149.461 109.779 o
60.897 75.2332 o
101.472 96.1061 o
126.955 126.484 o
123.633 116.948 o
113.68 109.956 o
93.1494 86.9592 o
107.118 105.389 o
137.444 130.989 o
111.71 101.518 o
125.82 113.856 o
110.041 110.916 o
107.503 113.224 o
118.134 113.751 o
136.349 126.894 o
122.589 110.158 o
132.406 127.403 o
84.5706 84.7037 o
118.071 110.275 o
102.048 95.8057 o
125.795 101.234 o
76.5633 75.1049 o
115.305 112.825 o
87.7264 87.1958 o
121.767 98.1396 o
100.594 89.6701 o
89.9809 99.9026 o
94.7193 98.0901 o
106.572 96.7787 o
103.156 102.767 o
95.5551 106.098 o
109.743 109.683 o
107.276 100.308 o
109.987 78.8036 o
91.6438 88.6289 o
150.112 110.467 o
124.267 111.773 o
101.466 102.211 o
92.9758 83.7677 o
131.305 128.107 o
78.2415 99.8933 o
96.4701 94.0673 o
95.7677 84.3057 o
105.007 105.963 o
110.377 93.3892 o
116.525 122.947 o
92.0987 93.8975 o
120.422 115.05 o
109.002 98.2218 o
91.3074 86.3423 o
128.451 108.175 o
103.649 96.0691 o
146.538 125.61 o
88.3367 92.3467 o
151.052 108.183 o
110.834 117.277 o
78.4022 81.4766 o
106.92 103.958 o
119.818 118.912 o
137.959 131.948 o
87.0608 84.0913 o
96.5327 99.3519 o
130.204 129.571 o
147.318 122.002 o
112.523 104.212 o
144.836 110.012 o
93.1766 92.1898 o
111.732 108.189 o
109.214 113.357 o
110.119 104.181 o
96.7894 90.0566 o
105.616 97.9309 o
116.202 94.7464 o
99.7805 72.7433 o
146.277 107.336 o
109.351 98.6308 o
86.4818 90.5951 o
103.309 99.0146 o
123.006 105.824 o
82.5402 88.554 o
118.435 108.365 o
99.4631 100.946 o
132.762 102.975 o
119.851 105.313 o
112.222 103.066 o
79.7304 97.8312 o
142.935 107.454 o
96.4777 89.3338 o
146.454 101.093 o
102.889 104.977 o
94.2094 98.4849 o
88.4566 71.2693 o
94.7722 100.967 o
106.62 100.795 o
111.53 112.898 o
105.066 101.515 o
88.4767 102.874 o
106.072 107.218 o
148.352 109.286 o
118.175 99.9433 o
114.645 100.751 o
103.818 93.4346 o
125.548 102.608 o
125.465 106.047 o
81.5071 91.6543 o
103.502 95.4464 o
79.0903 83.1107 o
122.169 110.232 o
93.6665 86.8815 o
130.695 119.927 o
88.9578 93.6373 o
123.316 130.572 o
125.58 115.566 o
102.348 104.343 o
123.614 123.456 o
97.103 95.3898 o
129.145 120.692 o
97.505 97.0312 o
120.894 114.636 o
100.769 100.914 o
149.436 112.569 o
127.589 133.458 o
94.5404 97.1613 o
128.681 90.792 o
88.9689 96.0375 o
100.158 99.6469 o
120.01 126.812 o
97.7361 92.353 o
93.3262 88.8828 o
79.0906 84.2838 o
133.139 135.341 o
149.11 108.035 o
102.775 101.954 o
101.488 95.1185 o
97.8534 113.56 o
95.158 63.4442 o
101.67 128.281 o
119.485 105.133 o
96.2655 72.9207 o
116.394 124.833 o
113.695 97.9419 o
118.75 100.231 o
100.076 96.5877 o
103.246 109.245 o
117.305 99.0269 o
109.3 111.183 o
97.114 96.6347 o
118.101 120.542 o
77.595 75.3499 o
111.557 106.332 o
102.494 89.7387 o
121.146 95.9256 o
102.282 101.108 o
88.1897 93.4281 o
115.598 99.8513 o
103.094 104.249 o
116.72 101.053 o
114.517 121.735 o
88.5057 97.2813 o
93.9916 92.1608 o
99.8833 102.523 o
116.253 111.905 o
101.926 94.4207 o
149.157 113.403 o
90.5833 86.9024 o
106.543 97.6653 o
125.361 127.204 o
139.803 128.394 o
148.686 113.662 o
125.146 110.618 o
107.027 105.312 o
112.131 109.329 o
79.2655 90.6119 o
117.336 117.244 o
85.9075 99.0329 o
94.4231 97.5279 o
110.942 105.14 o
138.586 120.103 o
107.599 104.978 o
149.72 121.751 o
93.8865 94.538 o
105.674 105.307 o
102.804 95.8039 o
117.241 105.432 o
142.35 104.262 o
91.2283 88.747 o
152.273 113.234 o
97.2917 96.469 o
112.259 112.672 o
92.0574 87.3359 o
132.819 135.853 o
104.1 104.364 o
83.6319 82.8263 o
105.157 105.531 o
85.3005 94.8813 o
97.1311 63.3874 o
110.453 110.249 o
103.551 94.8984 o
105.712 104.264 o
85.3222 88.768 o
76.7723 95.3323 o
118.934 102.237 o
102.872 108.883 o
102.07 99.1042 o
96.5482 101.389 o
110.876 111.047 o
95.273 87.0931 o
59.8102 67.1877 o
121.904 103.434 o
130.332 128.752 o
102.662 87.8987 o
125.59 107.105 o
143.573 111.614 o
98.3453 99.4158 o
88.2929 106.335 o
98.9303 92.5667 o
90.0966 91.5554 o
124.943 97.8796 o
106.212 134.012 o
115.704 120.891 o
119.591 107.173 o
97.1078 93.8026 o
132.347 98.5831 o
117.99 104.242 o
147.289 108.804 o
89.8846 89.9134 o
99.1556 86.5764 o
129.122 108.956 o
123.941 112.786 o
108.448 104.643 o
119.96 112.86 o
145.083 116.799 o
93.8537 96.0089 o
114.733 121.303 o
118.752 111.154 o
102.981 94.3002 o
83.2117 79.6578 o
80.3706 81.8688 o
127.455 117.569 o
96.1091 96.3956 o
112.247 109.138 o
133.599 135.386 o
102.829 96.2165 o
96.3181 90.2093 o
119.536 107.321 o
85.4901 92.8291 o
88.4435 97.4431 o
95.3962 92.6525 o
120.049 114.614 o
89.5087 91.8813 o
123.185 112.742 o
119.285 109.002 o
102.056 84.0783 o
118.733 116.736 o
89.1864 97.4991 o
125.148 100.626 o
117.953 105.582 o
80.812 98.1592 o
123.857 114.444 o
109.641 100.18 o
119.888 117.62 o
87.2655 85.1729 o
107.63 98.1314 o
114.469 117.109 o
121.899 102.832 o
109.892 103.264 o
113.682 100.385 o
116.423 109.785 o
88.2775 98.6332 o
140.982 120.958 o
124.565 127.291 o
115.542 100.917 o
130.102 120.86 o
99.0907 90.1598 o
134.176 125.859 o
73.6244 95.276 o
92.6333 97.3862 o
128.508 114.51 o
79.4854 80.033 o
94.6843 85.0553 o
105.843 67.7185 o
102.631 94.8614 o
129.483 123.359 o
110.114 106.386 o
85.38 83.4966 o
120.013 110.338 o
108.704 105.484 o
105.735 102.494 o
95.7408 98.727 o
110.404 109.034 o
123.805 119.396 o
102.838 90.8251 o
105.513 125.213 o
86.7249 93.0838 o
99.6768 95.2543 o
85.5128 98.6413 o
103.959 100.167 o
111.731 104.76 o
109.365 99.7369 o
93.9626 77.0427 o
108.28 103.548 o
103.603 98.9568 o
140.631 133.412 o
147.516 109.102 o
115.096 113.012 o
120.326 120.834 o
101.408 97.828 o
130.221 126.483 o
97.2732 91.3924 o
111.333 112.639 o
103.068 113.688 o
96.2519 97.4735 o
113.03 101.584 o
98.4594 96.8532 o
131.029 130.557 o
98.5672 99.4271 o
101.493 91.3665 o
150.497 122.235 o
75.3617 94.715 o
146.916 116.302 o
89.9836 81.9761 o
110.752 110.69 o
114.248 107.673 o
99.937 64.9207 o
126.263 123.864 o
100.339 99.2748 o
102.635 95.8784 o
125.747 111.006 o
127.069 109.895 o
122.582 107.357 o
113.492 102.486 o
96.6654 97.5697 o
94.9099 99.4038 o
92.9239 84.4615 o
80.0486 84.5506 o
127.593 105.13 o
116.462 111.732 o
105.931 94.6907 o
103.087 111.426 o
123.716 104.025 o
95.7866 110.19 o
121.368 100.003 o
105.55 103.279 o
116.81 115.488 o
125.091 104.696 o
106.321 106.04 o
142.392 126.982 o
110.034 108.218 o
135.62 122.128 o
96.3682 95.3212 o
93.2429 90.801 o
100.226 91.0128 o
116.916 106.45 o
141.188 121.635 o
143.723 110.744 o
100.005 94.6899 o
139.6 116.473 o
104.447 103.172 o
109.641 102.027 o
128.294 122.631 o
112.312 108.648 o
116.483 119.49 o
114.79 101.897 o
112.46 114.522 o
115.95 109.705 o
139.913 106.9 o
56.7651 74.1748 o
123.547 110.606 o
124.025 107.717 o
98.7778 99.4723 o
114.69 115.674 o
95.0844 91.0135 o
110.238 113.465 o
125.126 109.219 o
101.699 85.9735 o
112.162 94.607 o
119.814 108.803 o
82.6305 95.0035 o
132.796 127.614 o
119.258 106.782 o
90.6787 95.232 o
124.424 115.652 o
119.808 103.687 o
117.705 113.193 o
108.703 105.202 o
90.4221 87.8102 o
120.745 110.413 o
94.6342 64.7885 o
98.0334 100.479 o
112.692 110.241 o
124.337 102.864 o
128.468 108.862 o
103.381 86.0592 o
85.0172 100.902 o
114.29 114.086 o
119.85 101.779 o
111.14 104.971 o
119.513 117.654 o
89.009 98.1946 o
97.337 95.247 o
129.494 109.046 o
122.832 107.657 o
112.255 118.935 o
109.127 108.986 o
125.675 133.453 o
115.35 119.207 o
90.9418 88.9976 o
95.7467 88.7896 o
79.4053 101.482 o
90.5959 83.5677 o
60.2298 91.4963 o
129.105 132.071 o
120.412 122.769 o
117.092 104.825 o
122.649 110.032 o
114.564 109.163 o
87.7054 88.8101 o
136.995 98.2532 o
80.2137 86.2834 o
80.1452 89.3029 o
90.6729 87.054 o
119.609 109.376 o
111.802 101.552 o
93.6556 100.523 o
132.797 108.644 o
62.1519 84.6719 o
127.703 114.19 o
118.228 108.509 o
105.817 99.7193 o
104.088 101.451 o
119.098 114.115 o
130.594 105.669 o
106.962 118.851 o
109.695 104.885 o
123.823 94.0693 o
104.934 99.9618 o
114.628 110.369 o
139.498 98.7311 o
97.9741 86.0855 o
75.0151 83.3943 o
90.4621 119.495 o
123.777 116.131 o
127.704 113.232 o
90.322 104.879 o
119.94 114.368 o
77.2073 93.2616 o
97.7283 92.8685 o
113.089 110.308 o
99.4865 89.9927 o
90.9419 89.9075 o
104.005 94.1718 o
110.855 103.051 o
108.161 121.278 o
95.6324 90.9381 o
128.018 98.674 o
76.2356 72.3166 o
126.157 100.897 o
119.337 117.216 o
108.29 95.6042 o
118.245 108.243 o
105.198 103.984 o
41.8188 112.717 o
97.0592 100.696 o
113.63 108.974 o
93.6082 88.9383 o
98.3323 101.47 o
118.125 105.286 o
121.758 110.835 o
114.44 107.761 o
85.991 87.6704 o
122.727 114.626 o
135.035 89.8669 o
86.0041 90.1984 o
123.221 115.382 o
147.312 122.242 o
125.67 116.816 o
131.104 98.6143 o
132.522 122.48 o
125.678 120.217 o
109.105 98.8992 o
84.0854 91.93 o
122.635 111.474 o
112.198 113.184 o
98.8895 78.8244 o
103.962 113.936 o
139.089 128.57 o
135.876 126.721 o
133.114 134.179 o
129.638 129.101 o
70.3714 90.372 o
103.287 109.877 o
96.8848 88.042 o
117.848 122.148 o
145.11 110.969 o
153.289 106.141 o
131.976 121.107 o
108.391 112.475 o
105.723 100.436 o
132.213 114.067 o
113.29 109.155 o
94.7703 86.6901 o
101.836 90.058 o
115.533 112.778 o
141.076 121.678 o
95.9615 76.4698 o
100.612 94.5301 o
105.843 109.562 o
84.2215 87.2149 o
126.16 133.23 o
141.035 108.639 o
113.406 113.771 o
149.303 118.477 o
124.153 107.206 o
126.716 99.5856 o
82.7702 90.6548 o
121.357 108.179 o
104.555 91.235 o
92.1886 94.1389 o
96.3407 86.6635 o
119.304 102.474 o
127.648 108.128 o
87.7993 102.991 o
118.589 102.688 o
118.846 110.724 o
112.316 99.4774 o
114.466 103.245 o
106.618 105.627 o
74.0581 98.4211 o
74.9708 88.8908 o
94.1755 94.1979 o
143.59 110.562 o
102.537 104.468 o
82.4305 100.584 o
95.5456 81.8069 o
123.96 101.518 o
108.577 116.118 o
112.193 88.2148 o
151.423 106.73 o
103.531 135.465 o
97.943 109.517 o
99.5631 116.106 o
82.4609 81.7086 o
96.2352 86.6829 o
93.1445 81.3984 o
129.69 123.501 o
95.004 89.8331 o
141.388 124.619 o
90.5405 64.8295 o
78.3279 104.924 o
150.885 109.897 o
106.059 98.2598 o
121 111.888 o
92.1329 85.941 o
77.5921 95.7086 o
94.4166 100.427 o
94.9233 94.0851 o
85.5115 79.5385 o
93.4373 100.391 o
139.267 110.397 o
112.709 111.106 o
128.597 113.17 o
124.711 100.353 o
106.915 110.127 o
129.422 127.146 o
65.6134 104.437 o
92.7185 96.3317 o
84.5668 71.6843 o
85.4901 93.7031 o
116.865 110.894 o
113.56 107.97 o
130.773 109.894 o
108.617 97.7192 o
88.5869 89.9379 o
82.334 92.6292 o
92.4509 82.5614 o
120.916 101.425 o
117.615 96.4941 o
110.177 101.762 o
96.6203 87.5613 o
88.8672 96.4141 o
128.627 132.262 o
119.636 114.663 o
94.8803 83.4029 o
137.368 121.095 o
104.746 99.1316 o
133.651 132.13 o
114.947 101.722 o
77.5746 79.8599 o
121.067 118.309 o
121.321 100.403 o
123.018 113.239 o
105.953 106.419 o
93.8857 93.0968 o
122.832 110.009 o
151.74 115.084 o
114.217 116.248 o
126.261 120.675 o
101.494 90.5672 o
128.884 129.072 o
106.899 105.956 o
85.1557 112.056 o
79.5528 74.2943 o
133.706 107.062 o
113.097 113.229 o
98.6703 88.9713 o
119.176 107.628 o
81.8514 91.6227 o
131.004 113.211 o
120.453 129.547 o
120.005 97.1287 o
127.7 99.5472 o
114.509 105.367 o
94.3646 96.0526 o
136.229 124.469 o
105.085 115.927 o
126.19 108.477 o
73.4736 90.5706 o
99.6005 86.2078 o
115.11 98.6753 o
111.139 119.011 o
118.047 105.962 o
107.988 90.9174 o
121.609 117.616 o
103.568 99.093 o
112.948 111.2 o
71.3955 105.013 o
62.5276 82.4931 o
114.746 111.175 o
79.9983 104.333 o
98.441 95.7808 o
113.315 110.065 o
143.769 95.7229 o
102.383 94.3664 o
83.1483 82.9409 o
117.351 107.456 o
86.9927 86.7327 o
140.087 122.715 o
104.277 99.7593 o
115.509 110.399 o
116.511 114.761 o
114.109 98.0608 o
96.116 93.6551 o
88.9304 97.9597 o
133.146 107.342 o
150.95 102.396 o
115.303 96.7946 o
94.163 96.5889 o
126.297 107.008 o
119.977 112.36 o
144.719 129.851 o
104.88 96.1887 o
117.956 110.049 o
98.0751 101.734 o
65.3353 84.1024 o
107.994 98.5133 o
97.623 92.4258 o
87.5833 87.2858 o
70.7706 65.1462 o
96.5904 85.1296 o
102.763 77.1653 o
122.365 119.468 o
128.383 104.305 o
110.866 106.853 o
126.847 111.986 o
109.418 97.3044 o
95.9641 99.5129 o
92.7704 99.2145 o
125.914 100.868 o
96.0554 102.032 o
117.477 113.43 o
91.0482 77.106 o
104.623 103.638 o
88.0387 110.514 o
93.0848 93.4498 o
149.544 110.513 o
128.258 86.1052 o
134.242 100.675 o
123.796 98.902 o
115.684 101.858 o
111.717 113.399 o
119.249 102.66 o
82.5901 91.178 o
114.029 94.6694 o
101.8 118.897 o
132.018 112.298 o
121.916 98.4786 o
104.458 98.5661 o
102.456 87.9598 o
109.57 100.368 o
123.32 92.0326 o
115.492 100.239 o
115.731 97.6856 o
104.117 100.572 o
133.242 117.679 o
82.1834 80.5546 o
132.378 93.4755 o
105.814 101.196 o
113.587 106.727 o
95.2041 90.9575 o
90.2781 93.4477 o
119.62 89.2385 o
113.017 116.45 o
109.612 64.8566 o
98.5369 99.3053 o
119.182 98.3391 o
100.117 86.9361 o
94.2377 93.5495 o
108.777 111.408 o
88.0164 86.4606 o
113.311 110.181 o
93.4542 84.4561 o
92.8763 102.151 o
126.431 74.554 o
127.662 113.235 o
99.0683 112.774 o
108.022 106.473 o
90.1801 101.188 o
81.811 78.2613 o
126.435 130.81 o
114.242 109.451 o
60.3407 73.2057 o
122.825 105.599 o
115.554 104.064 o
136.195 120.227 o
128.19 100.496 o
116.916 118.547 o
92.9708 98.4186 o
130.763 130.242 o
93.9255 97.9401 o
111.049 105.247 o
119.427 116.641 o
119.113 119.337 o
123.903 90.6101 o
81.5938 105.27 o
88.6713 89.3548 o
126.767 104.664 o
100.713 112.068 o
85.8642 94.1156 o
102.311 104.721 o
118.296 107.089 o
138.043 125.407 o
132.097 119.614 o
120.997 130.849 o
81.7833 88.6105 o
98.887 98.4755 o
84.5404 74.2615 o
99.0921 116.248 o
137.14 120.615 o
93.5196 93.5325 o
115.633 105.682 o
95.9214 87.3672 o
102.475 99.1066 o
121.183 102.23 o
94.9558 100.374 o
84.3415 71.0583 o
103.36 92.6761 o
105.882 104.945 o
107.9 109.313 o
90.047 81.1239 o
127.538 123.789 o
74.932 96.865 o
94.3754 102.489 o
77.3981 94.1049 o
139.104 107.185 o
102.014 107.462 o
149.233 114.948 o
137.408 95.0233 o
91.9769 99.7381 o
122.943 117.973 o
76.1474 84.4582 o
121.778 80.8995 o
109.459 121.361 o
109.816 105.945 o
112.329 102.473 o
125.547 135.423 o
126.463 116.423 o
123.191 96.2026 o
151.83 106.433 o
89.9847 94.3393 o
82.0805 89.9114 o
93.881 99.8063 o
99.8517 112.056 o
84.4724 102.932 o
72.7112 97.2514 o
111.316 122.951 o
85.8734 85.2277 o
116.715 92.9784 o
102.793 99.9885 o
116.593 104.083 o
88.3951 82.0219 o
86.5912 90.8549 o
123.461 110.528 o
101.557 101.079 o
93.6804 89.5751 o
131.816 103.467 o
87.7838 83.778 o
136.254 100.374 o
105.724 108.454 o
138.438 106.027 o
133.726 102.526 o
84.2421 87.9079 o
115.783 96.6429 o
111.531 117.03 o
98.9358 82.8448 o
118.976 93.9687 o
116.12 117.114 o
114.454 113.572 o
83.8788 105.304 o
92.6041 87.5341 o
150.98 107.048 o
87.8544 89.8628 o
103.546 94.306 o
98.5906 95.8198 o
120.62 113.848 o
67.0211 79.0053 o
119.879 117.293 o
122.873 111.262 o
100.249 107.768 o
98.9738 108.547 o
84.9359 78.6683 o
121.128 116.871 o
92.476 117.679 o
96.8263 81.2463 o
115.858 101.239 o
139.717 133.633 o
121.193 103.164 o
113.415 118.444 o
124.741 117.731 o
85.7444 101.558 o
93.7952 66.7044 o
104.299 104.415 o
115.245 88.6692 o
106.295 105.589 o
82.6031 75.1787 o
101.086 96.5658 o
120.176 125.352 o
133.968 85.7069 o
117.478 105.852 o
123.04 111.488 o
129.156 119.285 o
105.07 95.174 o
122.242 113.134 o
98.1249 111.583 o
99.6194 75.634 o
111.438 105.493 o
88.9858 89.4296 o
108.021 102.914 o
133.13 127.101 o
105.51 90.4854 o
135.897 88.8187 o
120.674 123.724 o
125.395 119.099 o
109.821 118.739 o
116.1 115.557 o
144.959 119.217 o
103.874 112.303 o
95.4286 89.8526 o
115.535 101.117 o
94.308 97.6168 o
109.69 93.3023 o
123.166 110.447 o
94.2889 97.6412 o
117.474 97.4251 o
67.0838 104.277 o
99.6244 100.476 o
95.0966 97.012 o
97.2044 102.565 o
99.7951 99.7751 o
93.39 84.3116 o
126.864 107.643 o
116.943 126.045 o
96.6376 96.9429 o
113.239 114.26 o
118.752 109.151 o
117.984 103.953 o
100.287 99.6254 o
103.587 115.91 o
115.824 97.3387 o
112.361 100.926 o
68.6272 76.1657 o
127.6 117.509 o
115.512 106.067 o
91.509 82.5012 o
70.3744 90.6822 o
97.4777 89.8388 o
119.227 113.594 o
91.0605 98.5368 o
113.483 118.982 o
86.2415 78.5825 o
132.943 92.9016 o
118.629 116.283 o
140.188 103.352 o
147.122 123.335 o
90.7401 97.644 o
100.948 94.0613 o
95.2136 91.963 o
95.2742 87.7904 o
85.7207 94.6094 o
108.759 103.511 o
119.172 136.165 o
105.38 99.1229 o
110.495 101.651 o
99.7472 88.9817 o
87.7992 90.9385 o
118.068 108.665 o
111.301 100.749 o
111.964 119.316 o
112.718 67.8505 o
114.381 104.747 o
89.0045 97.9019 o
125.808 120.151 o
130.422 135.629 o
82.4555 81.4251 o
110.244 99.3825 o
104.452 97.1107 o
125.025 102.734 o
110.145 96.8016 o
98.3931 122.264 o
121.889 105.761 o
105.926 98.62 o
101.351 95.434 o
77.4783 65.9962 o
96.4202 96.2138 o
120.154 99.2504 o
102.933 104.773 o
120.818 104.44 o
97.7914 118.391 o
122.896 109.664 o
117.527 104.833 o
119.209 111.801 o
91.368 96.1835 o
99.0393 89.3779 o
110.7 99.6071 o
110.638 106.565 o
95.8586 85.0344 o
90.9946 121.297 o
121.685 106.204 o
85.978 97.9684 o
78.3023 97.4171 o
94.6738 76.189 o
113.867 114.887 o
78.311 92.5284 o
72.1999 97.5305 o
121.554 118.242 o
92.6325 91.7001 o
114.408 102.014 o
114.037 100.46 o
113.794 103.055 o
99.9186 99.7878 o
58.9544 87.5918 o
104.345 99.6876 o
94.1406 97.7264 o
135.974 96.7293 o
137.181 112.646 o
127.827 103.523 o
132.826 133.834 o
138.19 134.288 o
109.166 100.946 o
88.1089 89.4236 o
107.114 115.668 o
76.7648 95.4427 o
110.662 99.1198 o
111.877 101.867 o
122.761 111.554 o
109.732 101.74 o
117.957 114.815 o
86.1398 83.4406 o
99.7175 90.654 o
98.188 95.0482 o
148.031 113.953 o
114.271 105.468 o
122.262 107.59 o
75.5171 79.4286 o
101.507 87.3107 o
95.8019 94.3228 o
96.8378 117.173 o
100.981 100.041 o
102.883 98.8331 o
44.1469 110.868 o
113.792 110.846 o
115.77 102.5 o
95.3253 87.1725 o
129.775 135.577 o
106.58 109.345 o
81.7048 96.0778 o
83.4783 99.5728 o
119.23 112.777 o
110.977 114.06 o
73.0886 92.8899 o
84.222 93.7609 o
121.54 105.728 o
110.086 104.384 o
133.914 107.828 o
126.039 110.99 o
122.044 131.182 o
110.3 116.379 o
90.3135 91.3626 o
116.803 105.74 o
104.526 101.759 o
124.275 116.705 o
71.104 78.4754 o
128.668 113.939 o
120.257 103.386 o
100.648 85.2808 o
84.1756 101.663 o
126.403 112.389 o
104.619 109.45 o
118.992 114.349 o
92.7822 86.4648 o
95.623 86.2098 o
99.2198 94.12 o
104.141 100.044 o
138.367 128.286 o
72.3011 95.5029 o
100.496 81.5693 o
78.2107 93.4312 o
119.992 119.376 o
101.67 98.3161 o
110.013 109.355 o
105.46 94.9374 o
116.821 116.645 o
148.837 110.147 o
105.059 104.383 o
149.992 117.108 o
144.027 111.123 o
100.559 100.22 o
116.336 126.084 o
124.008 96.3018 o
121.412 113.371 o
76.2846 106.36 o
73.8647 87.8375 o
117.684 113.375 o
103.961 102.769 o
136.885 97.7743 o
147.55 110.066 o
99.0856 91.5379 o
102.181 110.406 o
119.723 106.688 o
81.0744 83.3659 o
121.306 101.584 o
87.6794 104.316 o
78.7979 94.3993 o
127.784 95.32 o
113.729 106.245 o
118.387 120.777 o
115.302 125.49 o
105.615 93.5087 o
125.237 108.804 o
113.915 98.9376 o
111.81 108.887 o
142.669 107.29 o
97.1483 103.963 o
104.352 98.9274 o
77.6054 95.9263 o
113.345 101.166 o
105.026 100.013 o
136.323 117.903 o
105.485 106.293 o
102.502 104.961 o
104.678 94.3945 o
150.693 103.905 o
106.247 109.536 o
92.2542 101.902 o
83.4101 101.674 o
101.617 62.2061 o
92.9621 99.808 o
118.995 103.938 o
66.6092 93.8305 o
111.085 98.5099 o
112.291 106.979 o
90.2396 98.7796 o
130.07 109.72 o
94.2323 92.9425 o
77.4488 93.7247 o
76.8095 65.8286 o
96.8136 96.3432 o
125.423 117.862 o
85.4982 92.9684 o
103.04 91.3429 o
101.225 103.692 o
111.235 119.957 o
63.8661 71.3173 o
112.739 93.9751 o
117.294 113.411 o
115.634 99.3897 o
97.8258 89.5095 o
113.6 118.491 o
118.671 106.227 o
111.77 118.053 o
100.005 90.2493 o
79.7594 94.7065 o
108.137 104.783 o
89.1759 91.3378 o
119.104 101.975 o
106.023 118.378 o
111.745 101.83 o
76.5705 86.3491 o
121.196 104.843 o
97.6046 99.6624 o
98.3634 95.943 o
89.5505 93.2599 o
104.79 93.5516 o
125.284 110.683 o
124.586 106.689 o
83.2724 94.058 o
109.625 101.784 o
77.296 90.5507 o
82.2127 70.7815 o
115.05 117.505 o
107.966 97.2182 o
122.216 97.913 o
123.804 107.765 o
97.0111 103.265 o
106.152 94.9317 o
112.547 102.827 o
119.441 106.296 o
69.8771 83.5764 o
58.5155 84.4304 o
114.358 86.972 o
123.564 90.5033 o
81.2946 94.655 o
109.525 101.178 o
91.3982 82.1769 o
91.4771 99.6712 o
89.9632 94.3878 o
103.465 96.3173 o
76.7475 71.9106 o
134.499 98.9936 o
97.5205 94.8096 o
110.668 105.37 o
66.3631 103.457 o
110.939 111.278 o
82.7419 105.159 o
130.601 111.348 o
133.934 121.633 o
96.8649 96.714 o
96.5295 92.5327 o
118.432 111.573 o
111.283 111.224 o
127.395 100.404 o
94.4153 108.108 o
118.346 119.62 o
107.886 111.055 o
99.1356 95.4977 o
123.908 111.328 o
106.255 96.5951 o
98.9755 101.294 o
103.382 93.6627 o
88.2339 116.378 o
135.606 129.908 o
135.98 124.722 o
96.3514 92.3933 o
108.496 109.753 o
91.5776 100.479 o
126.386 121.318 o
99.789 82.3033 o
96.451 96.4134 o
81.1542 99.6862 o
86.1182 76.8913 o
135.506 118.367 o
130.25 125.684 o
109.948 98.7775 o
127.601 114.905 o
100.193 90.7644 o
95.2304 94.3673 o
103.268 125.051 o
108.065 117.905 o
64.2183 107.416 o
110.241 110.137 o
142.015 128.764 o
116.252 109.209 o
71.4134 84.131 o
111.829 104.694 o
98.6934 104.96 o
118.076 109.656 o
108.788 108.192 o
116.7 105.853 o
91.3195 88.7424 o
91.056 76.7204 o
118.45 100.888 o
115.054 99.9511 o
107.96 84.6783 o
118.142 103.368 o
111.32 102.489 o
148.8 117.946 o
100.052 100.571 o
115.888 111.417 o
97.4277 92.4511 o
119.387 102.975 o
133.469 98.3566 o
104.036 96.5509 o
87.3931 85.1914 o
78.0086 89.4988 o
134.515 142.269 o
106.55 103.403 o
126.807 111.192 o
110.394 105.688 o
118.963 96.6559 o
71.6887 98.6522 o
102.653 97.5044 o
101.187 95.3464 o
77.2604 98.6873 o
117.169 118.824 o
108.184 110.739 o
89.9348 77.8771 o
110.825 111.485 o
123.925 116.36 o
106.29 104.472 o
98.9018 99.8692 o
100.522 95.6132 o
108.767 106.571 o
122.138 97.7415 o
121.451 110.908 o
106.304 96.3082 o
119.862 105.26 o
92.9829 86.9047 o
137.545 105.494 o
110.062 107.916 o
108.537 104.466 o
101.425 84.8776 o
110.857 101.955 o
114.089 100.193 o
79.7833 98.3521 o
82.8028 117.453 o
121.648 127.139 o
80.8791 84.5534 o
114.79 112.473 o
105.067 102.051 o
106.734 116.3 o
98.7802 114.567 o
146.641 107.717 o
124.537 105.048 o
97.4903 99.1758 o
149.578 102.113 o
110.166 124.54 o
98.1552 111.532 o
123.424 106.139 o
83.1348 74.6245 o
130.11 119.434 o
87.3666 92.1553 o
114.565 129.752 o
91.1102 85.0717 o
73.1432 88.2976 o
111.41 108.315 o
121.307 96.4705 o
111.903 107.151 o
89.6448 118.48 o
91.2278 105.454 o
109.5 103.508 o
106.435 115.486 o
106.493 109.489 o
108.666 96.5809 o
106.032 84.8703 o
89.8235 72.8243 o
115.791 92.9905 o
102.405 110.864 o
112.955 95.7513 o
108.774 105.837 o
99.0296 97.2333 o
128.604 117.898 o
118.241 114.799 o
111.115 122.728 o
121.826 127.393 o
119.894 93.2383 o
116.918 110.5 o
83.0846 92.2883 o
65.0873 101.15 o
126.356 87.9316 o
71.1288 77.3525 o
91.7578 107.245 o
114.771 116.967 o
86.6985 92.1349 o
107.428 117.01 o
118.957 127.188 o
104.092 92.8977 o
115.969 102.26 o
98.5421 96.6399 o
105.055 84.4975 o
95.499 95.0746 o
73.9332 73.7469 o
118.895 108.415 o
107.02 103.666 o
105.156 101.141 o
91.6261 92.2342 o
114.585 105.11 o
97.0972 99.1201 o
127.609 127.716 o
121.001 104.226 o
117.777 102.712 o
109.05 112.779 o
97.2209 91.3688 o
100.242 111.141 o
147.65 111.82 o
114.243 106.753 o
147.659 116.204 o
108.345 97.2563 o
122.742 112.82 o
147.781 118.058 o
99.738 97.9185 o
117.315 119.331 o
104.985 94.3125 o
68.4678 83.7645 o
104.643 107.259 o
116.676 119.637 o
162.315 94.0184 o
130.635 129.313 o
135.647 132.736 o
114.568 106.001 o
85.3179 97.8531 o
115.959 113.323 o
87.6917 81.4758 o
97.3359 98.9158 o
114.946 108.123 o
84.6424 77.5996 o
133.267 101.824 o
111.569 100.317 o
143.847 116.849 o
110.023 106.234 o
96.6345 77.5497 o
126.992 106.793 o
114.959 102.702 o
63.4188 87.7854 o
98.25 88.7892 o
108.414 98.3068 o
119.054 101.347 o
104.742 102.083 o
130.559 105.226 o
85.1082 91.4999 o
92.7001 72.3721 o
101.944 95.2566 o
121.299 121.655 o
97.637 91.0823 o
118.972 104.358 o
99.7181 103.185 o
111.076 117.234 o
104.406 93.4055 o
106.285 91.8165 o
122.855 91.7902 o
91.7611 97.2163 o
99.1719 96.0765 o
144.248 115.729 o
92.7604 103.282 o
144.745 106.915 o
102.103 114.71 o
123.68 105.7 o
77.1413 70.6767 o
124.102 93.771 o
103.712 80.6081 o
106.337 97.7784 o
113.236 101.829 o
89.3582 86.9996 o
107.443 104.662 o
105.198 105.469 o
108.776 99.4383 o
135.297 124.218 o
111.153 108.912 o
136.526 132.285 o
122.999 113.449 o
127.482 88.5946 o
116.864 102.354 o
103.874 100.143 o
85.1212 89.5348 o
123.642 105.183 o
111.903 95.2597 o
111.745 101.905 o
119.75 108.756 o
104.057 120.28 o
112.759 98.5816 o
111.656 102.026 o
107.065 104.958 o
89.9362 88.304 o
121.515 96.9514 o
116.462 93.1606 o
75.7384 105.363 o
138.742 139.867 o
147.394 101.258 o
117.784 79.382 o
108.789 96.709 o
108.673 97.3105 o
113.076 115.293 o
95.3259 101.727 o
105.909 113.214 o
132.429 100.515 o
90.6547 68.1251 o
74.2932 78.2393 o
87.8952 95.3313 o
109.968 104.207 o
59.3133 89.8293 o
135.009 122.774 o
110.759 109.576 o
135.062 123.152 o
68.0239 110.281 o
108.377 95.2829 o
93.7815 88.6313 o
94.6261 95.4846 o
80.5384 82.9346 o
100.015 113.154 o
109.341 108.33 o
86.4167 96.7387 o
129.364 90.3209 o
120.116 114.61 o
91.2198 96.1227 o
118.236 99.3426 o
121.004 128.149 o
149.822 107.369 o
79.5616 93.2733 o
147.968 111.357 o
82.9798 70.8084 o
131.746 138.231 o
109.749 100.8 o
118.651 103.042 o
126.046 111.325 o
139.186 104.153 o
109.228 100.01 o
96.9899 82.1062 o
120.428 127.319 o
133.415 114.826 o
81.5624 121.23 o
114.4 115.933 o
78.4487 90.1896 o
94.0358 89.1518 o
84.5419 132.472 o
84.482 86.5513 o
112.653 101.884 o
112.566 92.0616 o
83.0451 94.7793 o
107.596 111.232 o
88.0037 117.501 o
99.81 107.959 o
114.695 124.378 o
116.401 97.6875 o
95.0811 97.8458 o
104.782 90.9636 o
90.7551 104.887 o
72.4553 95.7834 o
100.794 103.09 o
99.5352 97.0004 o
82.5013 91.3812 o
94.1754 98.2011 o
115.517 107.309 o
100.273 114.534 o
103.482 104.711 o
80.0878 71.3418 o
131.911 98.6303 o
93.8543 97.2812 o
104.724 100.286 o
86.8896 106.373 o
133.399 101.89 o
113.949 99.6575 o
107.243 94.4452 o
73.6942 110.856 o
105.451 106.903 o
86.6115 115.197 o
87.9003 100.439 o
123.49 101.202 o
85.3463 101.363 o
98.3899 84.9058 o
82.943 90.9915 o
112.475 100.355 o
118.159 113.533 o
117.303 100.465 o
122.23 112.151 o
85.3255 98.1941 o
114.959 94.6211 o
131.052 135.243 o
127.842 122.376 o
82.4105 102.62 o
87.6001 89.6878 o
76.6879 87.1927 o
117.338 112.34 o
113.133 113.099 o
100.878 88.1076 o
84.9904 92.4238 o
119.141 122.641 o
86.8906 99.9685 o
90.0737 75.1863 o
85.0178 111.449 o
93.2618 96.5085 o
110.74 92.4168 o
96.2693 111.513 o
74.3443 83.3926 o
119.304 101.39 o
106.327 99.4719 o
115.149 116.141 o
133.719 121.696 o
123.254 102.256 o
102.884 96.1922 o
147.032 122.538 o
135.176 128.722 o
73.0874 80.7706 o
110.638 107.712 o
97.2046 90.2005 o
122.619 131.903 o
113.347 108.376 o
96.0296 92.9195 o
124.883 93.4259 o
107.819 112.407 o
98.4009 98.9328 o
148.227 99.3418 o
116.125 106.033 o
115.416 93.9172 o
101.93 104.634 o
88.0895 77.5406 o
71.1251 91.9398 o
126.871 120.475 o
103.313 113.698 o
94.3638 105.052 o
100.423 89.0752 o
162.626 107.575 o
102.456 97.0614 o
86.1677 95.1157 o
95.1002 89.722 o
91.8839 90.3146 o
117.607 107.529 o
96.7307 116.601 o
111.376 103.362 o
94.6183 84.6377 o
93.9348 83.9203 o
123.7 93.7122 o
109.642 101.013 o
96.3206 96.1515 o
91.9467 81.618 o
93.3981 97.5797 o
110.952 121.656 o
116.007 117.929 o
94.4814 65.4671 o
102.116 101.135 o
107.533 96.7344 o
119.089 110.698 o
94.3175 99.1708 o
126.375 122.667 o
119.232 122.49 o
77.5327 74.3716 o
85.0449 95.748 o
106.537 99.039 o
114.473 111.197 o
101.7 84.8526 o
113.766 106.12 o
116.849 113.612 o
113.425 104.432 o
85.7921 89.6243 o
115.09 105.766 o
101.778 97.7405 o
121.557 100.454 o
78.8881 94.649 o
108.103 107.394 o
112.951 105.743 o
83.447 85.3988 o
102.724 101.95 o
96.6827 100.187 o
85.4073 81.4218 o
114.971 101.153 o
83.4032 94.2614 o
99.3212 93.177 o
99.1901 59.9742 o
46.5052 118.125 o
128.063 90.8515 o
123.787 140.562 o
120.758 86.5469 o
105.065 100.195 o
97.4625 97.9786 o
113.093 107.776 o
85.1869 96.5855 o
103.208 94.2204 o
107.717 81.1627 o
124.133 124.534 o
99.8387 107.046 o
127.593 112.678 o
87.507 96.1467 o
95.2448 103.733 o
108.469 113.383 o
85.9625 98.0342 o
101.868 79.079 o
85.1548 78.01 o
92.1005 83.7719 o
98.8984 96.6744 o
80.0269 90.6316 o
70.5646 79.4004 o
82.3929 107.796 o
83.1627 98.1194 o
109.366 111.844 o
132.065 103.489 o
98.0621 114.212 o
111.395 92.8033 o
104.276 93.2244 o
58.1826 98.579 o
118.773 117.937 o
114.044 116.298 o
111.104 121.272 o
88.3215 92.6997 o
95.76 99.5058 o
111.521 104.182 o
83.0197 80.4094 o
151.4 121.572 o
99.1397 83.5824 o
85.4258 95.5867 o
122.457 118.638 o
87.5563 112.767 o
127.294 103.637 o
107.382 102.543 o
120.02 109.649 o
97.7947 109.86 o
141.06 93.6989 o
105.884 81.1879 o
96.5573 89.999 o
89.4541 80.7619 o
102.198 95.3706 o
108.418 116.306 o
116.259 106.475 o
87.5457 96.1889 o
105.653 98.7623 o
133.909 125.832 o
87.8863 82.3068 o
137.267 94.1017 o
126.671 103.344 o
121.66 113.247 o
111.516 119.337 o
93.4961 97.2473 o
105.942 108.661 o
143.241 119.404 o
75.816 92.5062 o
90.4256 103.196 o
105.642 84.8781 o
118.217 105.023 o
96.8972 100.555 o
75.2581 115.027 o
117.935 100.845 o
114.9 91.4426 o
106.99 108.699 o
110.637 102.383 o
85.4755 79.1805 o
103.704 106.173 o
126.677 114.853 o
101.662 93.5816 o
100.82 95.353 o
109.451 96.7403 o
116.064 116.85 o
109.137 101.577 o
115.713 100.136 o
90.5766 90.3132 o
98.9324 95.8389 o
64.5277 86.7133 o
109.901 104.964 o
100.967 98.2223 o
96.9104 88.544 o
108.722 96.2818 o
134.268 121.809 o
117.378 136.282 o
99.3979 99.6696 o
106.325 101.694 o
111.474 97.4573 o
132.882 129.244 o
108.161 114.615 o
120.848 133.143 o
128.913 107.246 o
93.2822 82.4671 o
106.459 80.54 o
148.227 112.256 o
94.932 103.875 o
107.544 102.622 o
86.9455 87.4715 o
101.706 100.416 o
109.105 119.538 o
86.3274 88.713 o
109.104 116.803 o
103.777 104.267 o
108.245 100.285 o
107.897 101.752 o
92.3697 83.4623 o
93.9467 89.7632 o
96.0004 93.987 o
113.162 101.75 o
129.868 102.514 o
98.6755 76.8951 o
101.213 92.1002 o
110.285 107.122 o
92.2055 98.8074 o
98.3734 97.3269 o
86.5656 88.4612 o
115.721 100.022 o
140.713 105.905 o
103.196 101.399 o
97.6879 95.778 o
92.407 76.6213 o
108.844 112.733 o
90.9678 86.3603 o
117.278 104.909 o
119.221 130.063 o
129.46 116.164 o
123.105 120.997 o
103.603 99.6641 o
89.1421 92.761 o
91.7032 96.1523 o
68.9607 108.784 o
122.693 126.381 o
119.814 103.966 o
138.177 99.3837 o
98.6511 88.3331 o
114.381 108.811 o
108.371 137.731 o
113.187 107.662 o
122.013 118.862 o
100.058 103.989 o
83.3184 111.452 o
87.1788 85.8369 o
114 99.0381 o
103.09 108.213 o
78.7385 81.8043 o
118.121 100.799 o
85.2909 93.3685 o
131.435 88.7337 o
98.3151 105.915 o
113.307 116.435 o
89.3709 88.1456 o
93.207 75.578 o
125.939 103.173 o
72.2745 105.876 o
71.6072 93.1561 o
119.475 128.786 o
126.189 112.479 o
114.595 105.434 o
115.133 103.706 o
84.7076 101.424 o
83.9261 92.8398 o
86.015 68.6188 o
144.322 124.202 o
108.976 98.0523 o
123.257 102.054 o
108.78 121.71 o
115.819 99.3448 o
107.496 93.0199 o
122.276 106.17 o
107.57 109.032 o
127.056 133.641 o
132.586 96.6243 o
117.368 113.366 o
92.984 83.2543 o
105.178 94.8075 o
103.218 110.3 o
128.427 122.658 o
94.4663 91.5797 o
109.631 102.821 o
127.444 100.37 o
109.43 99.6735 o
126.039 94.9211 o
110.085 109.926 o
81.231 62.8769 o
118.652 78.2518 o
96.5638 96.6581 o
107.607 103.665 o
77.4683 106.636 o
117.796 94.7844 o
91.2515 102.676 o
101.322 113.96 o
117.727 109.847 o
105.303 110.058 o
90.7299 99.2464 o
110.547 101.482 o
97.5114 85.6951 o
90.0883 96.5595 o
102.397 97.6373 o
101.712 98.7797 o
88.8499 99.1326 o
112.425 98.538 o
71.9319 102.929 o
71.0321 74.6116 o
104.159 93.6622 o
113.154 112.674 o
125.972 104.904 o
100.036 109.495 o
114.323 101.292 o
92.4403 94.5149 o
139.696 101.059 o
64.003 78.491 o
139.339 120.563 o
100.664 93.3767 o
132.211 116.345 o
151.755 104.375 o
116.537 101.292 o
92.0824 112.415 o
93.7695 110.422 o
86.7144 92.1535 o
107.215 98.7765 o
111.721 110.646 o
96.8245 88.7787 o
123.013 111.093 o
105.061 86.4575 o
124.832 120.125 o
110.391 98.7454 o
95.1229 98.1637 o
111.119 105.314 o
109.332 62.5617 o
125.406 102.734 o
97.9509 84.2384 o
105.902 102.582 o
100.328 90.0079 o
93.6434 96.8614 o
92.6015 94.1708 o
93.8835 105.678 o
90.7939 86.2018 o
87.5479 87.0072 o
88.719 75.3231 o
118.569 104.079 o
61.5757 70.3036 o
85.2516 95.6723 o
108.032 94.8647 o
112.448 92.3549 o
71.314 80.9905 o
85.5687 88.0507 o
113.124 108.241 o
106.603 110.58 o
106.791 98.6022 o
72.715 88.7321 o
80.0649 78.6298 o
91.4772 106.69 o
109.823 112.074 o
103.795 99.5139 o
123.182 112.539 o
95.8919 94.0804 o
92.4355 97.3485 o
107.647 96.9377 o
92.1833 101.262 o
104.659 95.9148 o
140.393 95.2715 o
89.7428 112.519 o
84.4626 110.562 o
126.366 94.0149 o
147.002 107.812 o
107.314 97.0271 o
95.8355 89.4739 o
99.5772 101.508 o
88.8014 80.6116 o
111.227 85.8314 o
68.4927 89.0555 o
121.914 108.649 o
85.8114 98.4608 o
107.942 85.8469 o
118.483 112.636 o
97.2977 110.412 o
96.0132 103.134 o
75.5033 79.7434 o
95.6028 101.656 o
128.567 97.1748 o
101.145 100.48 o
89.6319 97.3712 o
93.4297 73.2694 o
78.0376 136.988 o
113.179 101.48 o
117.486 107.004 o
140.027 103.599 o
99.6649 99.9924 o
115.485 98.7115 o
72.718 83.036 o
105.854 95.4953 o
129.459 109.323 o
108.686 97.5585 o
142.967 126.539 o
92.2494 89.5304 o
115.089 115.441 o
107.192 98.3042 o
116.528 126.969 o
120.889 116.964 o
64.9519 91.8579 o
121.112 102.334 o
150.23 114.114 o
104.53 104.099 o
87.6293 88.2668 o
116.31 98.1457 o
87.5747 79.4988 o
128.08 106.184 o
128.653 135.089 o
100.979 106.082 o
116.941 113.743 o
135.438 113.44 o
95.5658 89.0337 o
102.363 99.9922 o
114.495 103.647 o
92.6262 103.818 o
133.98 105.641 o
128.98 132.419 o
146.573 121.635 o
105.259 101.137 o
117.127 107.021 o
120.537 103.993 o
120.901 112.935 o
94.118 90.3557 o
103.967 106.509 o
105.2 109.218 o
56.3918 90.2488 o
84.0309 86.2779 o
119.05 107.639 o
121.839 107.702 o
113.785 96.1746 o
92.9789 97.6495 o
109.706 101.711 o
61.9011 105.833 o
70.6766 102.737 o
138.034 121.13 o
125.362 110.348 o
108.183 110.675 o
85.1504 113.519 o
106.282 96.766 o
95.2177 103.987 o
139.446 106.273 o
135.748 128.492 o
85.7617 83.5501 o
99.9759 98.3284 o
114.376 125.785 o
108.94 102.605 o
97.603 84.0791 o
107.06 106.101 o
109.238 114.684 o
90.3851 97.2857 o
154.808 98.4581 o
135.883 117.223 o
128.981 104.325 o
97.3526 100.343 o
112.352 113.082 o
108.944 111.481 o
74.5992 100.508 o
115.218 103.561 o
106.576 100.613 o
96.0666 62.7281 o
121.488 107.437 o
90.944 95.733 o
118.507 85.9004 o
99.8775 119.516 o
124.697 114.705 o
121.07 111.466 o
87.5521 90.2541 o
127.371 117.031 o
111.287 103.69 o
127.68 127.073 o
102.151 97.6039 o
97.0637 112.556 o
85.3485 90.8149 o
95.1458 78.3804 o
100.344 111.881 o
87.9075 94.0773 o
131.571 109.766 o
123.652 106.782 o
115.309 106.64 o
100.267 111.981 o
80.4661 83.3721 o
124.705 109.078 o
108.205 99.6753 o
104.232 96.5641 o
76.306 92.9326 o
100.724 114.952 o
68.17 104.028 o
122.11 107.115 o
85.3307 88.0918 o
87.1512 97.4173 o
119.388 111.892 o
107.598 112.469 o
84.7978 97.3213 o
123.031 115.828 o
74.5467 101.588 o
106.925 73.923 o
117.802 104.281 o
118.622 107.387 o
128.989 100.462 o
137.518 98.9066 o
88.0588 88.7166 o
95.846 87.4736 o
125.457 115.405 o
106.528 96.2932 o
105.222 104.414 o
112.9 113.601 o
122.062 112.394 o
106.548 100.886 o
90.2469 97.037 o
85.101 90.0924 o
118.504 100.861 o
114.866 100.957 o
90.3394 87.6229 o
142.35 120.029 o
105.861 85.5183 o
106.105 105.128 o
83.4947 109.521 o
87.3363 88.097 o
104.789 87.0918 o
94.7612 106.692 o
100.362 103.551 o
67.1041 92.0102 o
150.024 106.025 o
102.839 99.1199 o
133.741 101.586 o
84.4404 90.3675 o
68.1285 81.5956 o
120.087 118.296 o
150.041 103.482 o
103.799 101.64 o
107.781 97.1698 o
106.477 111.071 o
109.631 92.0509 o
124.033 110.684 o
131.727 147.467 o
50.3401 99.0536 o
126.244 103.213 o
121.582 115.304 o
118.775 126.716 o
103.178 104.672 o
121.035 109.611 o
134.386 119.152 o
95.783 102.009 o
94.9713 99.5674 o
98.779 93.8188 o
91.5989 90.4797 o
132.806 112.212 o
100.648 97.4362 o
102.979 92.8309 o
124.393 109.799 o
103.252 103.382 o
122.532 88.8012 o
112.28 98.0971 o
106.454 110.763 o
81.7972 87.3781 o
125.447 103.333 o
86.2332 72.4993 o
124.102 115.523 o
120.789 102.918 o
93.7551 86.1507 o
100.299 86.3147 o
104.688 99.0306 o
125.157 115.74 o
120.568 119.774 o
89.8987 78.3222 o
107.19 101.753 o
77.1448 94.6893 o
117.223 99.6983 o
142.179 120.791 o
113.065 100.787 o
88.5645 86.8882 o
113.748 102.522 o
114.786 110.338 o
113.48 97.5908 o
89.403 97.0515 o
88.7169 89.3626 o
104.313 106.823 o
124.214 101.506 o
94.2189 105.146 o
134.289 126.129 o
118.567 105.73 o
105.185 99.6082 o
125.187 119.785 o
124.978 115.828 o
118.845 133.468 o
113.576 115.794 o
111.943 107.217 o
111.254 111.888 o
111.305 112.409 o
131.008 129.771 o
111.381 107.392 o
142.893 114.93 o
97.5991 107.514 o
81.3596 80.7884 o
109.524 112.343 o
64.6708 91.5973 o
92.8643 90.8233 o
105.357 100.987 o
96.3774 89.9316 o
78.7687 85.043 o
108.885 99.2095 o
113.842 93.3027 o
105.716 109.63 o
116.206 103.403 o
115.929 117.218 o
117.67 85.7313 o
107.844 96.4846 o
145.3 107.311 o
126.15 106.073 o
83.3651 92.4472 o
124.852 103.916 o
128.164 102.641 o
98.9082 112.895 o
68.9586 80.5998 o
75.8504 119.502 o
126.678 138.136 o
136.508 114.554 o
94.5174 92.0591 o
106.906 115.417 o
116.114 100.135 o
114.422 114.184 o
102.59 104.754 o
119.205 103.923 o
106.966 95.133 o
90.478 88.8634 o
119.32 121.889 o
102.712 92.9303 o
109.829 115.894 o
85.1452 88.776 o
128.389 107.902 o
124.801 114.451 o
90.8313 86.5752 o
114.423 112.192 o
111.128 99.1469 o
122.445 107.098 o
99.2444 80.6898 o
98.0906 67.7961 o
113.015 107.621 o
90.3103 83.936 o
126.449 110.452 o
135.492 109.217 o
84.1469 91.3635 o
104.743 98.6869 o
140.798 107.833 o
137.718 124.189 o
101.74 99.1998 o
113.914 94.6166 o
50.6148 91.5182 o
135.334 92.1078 o
120.243 98.1182 o
120.445 118.34 o
135.59 133.759 o
126.15 106.824 o
88.6445 79.6078 o
123.68 128.779 o
103.379 93.2578 o
64.8156 73.502 o
119.474 117.407 o
122.669 100.342 o
127.42 105.83 o
100.734 104.654 o
98.0879 94.7926 o
61.4653 110.352 o
117.514 113.769 o
124.499 109.453 o
119.441 106.934 o
141.479 130.538 o
96.5729 81.9925 o
120.11 93.3392 o
94.3197 103.469 o
106.055 111.598 o
121.91 102.383 o
81.323 92.8942 o
114.421 92.9785 o
97.4151 90.6217 o
98.913 97.2706 o
137.725 138.832 o
97.3018 72.5845 o
108.322 97.5965 o
103.533 80.5768 o
80.5653 99.9305 o
98.0232 85.7345 o
98.8309 97.5288 o
132.789 107.756 o
102.06 100.191 o
102.859 100.475 o
116.553 106.038 o
134.001 101.273 o
127.314 101.115 o
126.469 108.88 o
129.883 107.569 o
110.02 100.804 o
95.7692 120.076 o
126.552 102.968 o
117.32 100.043 o
132.608 99.6414 o
153.06 108.569 o
138.12 93.0752 o
71.3249 85.4923 o
103.15 80.8576 o
96.1612 115.983 o
114.588 126.038 o
111.08 102.61 o
96.649 96.362 o
113.617 105.997 o
134.955 125.59 o
118.058 100.148 o
114.971 94.0661 o
138.761 126.904 o
79.37 89.7714 o
109.844 102.351 o
112.045 96.3679 o
87.5496 90.6931 o
77.9927 111.335 o
91.2813 82.5331 o
99.8105 115.477 o
95.0293 93.4181 o
134.293 125.654 o
109.732 120.571 o
108.744 107.698 o
89.493 105.723 o
85.878 66.6415 o
124.844 116.861 o
123.877 117.005 o
102.146 108.401 o
116.084 118.822 o
86.5361 103.775 o
140.831 77.4366 o
104.415 107.011 o
110.584 106.937 o
124.603 106.005 o
109.194 113.954 o
140.884 117.535 o
109.135 94.9371 o
125.779 118.877 o
79.2135 67.609 o
123.335 89.0696 o
110.787 121.924 o
130.466 103.745 o
129.486 113.917 o
125.107 109.475 o
106.854 96.7282 o
93.0389 88.8145 o
103.112 98.7672 o
108.526 100.921 o
98.9127 102.765 o
117.188 120.529 o
74.7942 77.8378 o
95.5571 94.752 o
122.436 122.202 o
116.746 117.791 o
114.942 114.879 o
109.497 108.184 o
103.981 90.6828 o
83.3208 91.2295 o
90.8669 103.739 o
125.94 106.844 o
112.545 106.023 o
132.604 144.659 o
102.761 104.131 o
96.1781 87.527 o
126.783 94.0546 o
138.982 106.281 o
97.543 103.921 o
153.919 115.898 o
89.4811 99.443 o
125.763 97.5656 o
111.868 104.659 o
153.047 98.6246 o
126.907 147.67 o
123.842 109.887 o
145.411 93.0856 o
99.0144 96.7749 o
121.953 102.355 o
109.682 115.327 o
84.9143 98.4708 o
95.2949 84.8267 o
122.768 108.1 o
80.9469 91.9447 o
115.848 110.167 o
90.0826 97.7114 o
78.9355 119.016 o
76.3673 91.2862 o
139.614 97.7265 o
104.346 89.5253 o
125.413 111.588 o
94.4108 85.7608 o
121.55 110.774 o
70.8251 92.0413 o
67.1589 94.724 o
86.6792 99.2744 o
106.115 87.8587 o
97.8392 110.825 o
104.343 94.1357 o
85.9557 83.0849 o
121.867 129.123 o
84.8665 93.146 o
153.1 99.3358 o
88.1468 106.027 o
100.258 93.7915 o
111.25 116.908 o
89.8868 95.4897 o
99.9043 102.295 o
102.067 108.733 o
103.184 98.6948 o
141.119 113.721 o
91.8553 98.2765 o
106.295 110.633 o
93.7501 90.3082 o
111.041 90.1331 o
108.003 100.462 o
88.198 99.1507 o
120.679 104.423 o
97.6182 111.651 o
113.154 100.689 o
72.7822 93.2251 o
93.3439 76.7107 o
94.8784 54.1241 o
96.4607 104.311 o
125.459 121.46 o
78.8663 96.4033 o
119.146 99.2361 o
134.57 121.919 o
115.757 61.6969 o
74.9951 87.1234 o
118.718 117.81 o
97.0542 112.995 o
106.814 98.0574 o
124.893 117.11 o
99.8628 101.635 o
167.726 103.105 o
111.683 96.2533 o
125.253 125.743 o
113.303 105.446 o
90.4657 81.6878 o
126.332 78.6494 o
96.5251 92.7782 o
101.876 83.3641 o
82.2394 85.4402 o
98.8746 91.028 o
130.429 107.747 o
121.606 100.73 o
109.591 110.868 o
113.651 86.5864 o
124.146 99.7543 o
133.496 125.819 o
94.5082 126.327 o
123.985 78.1535 o
99.3568 83.4664 o
126.965 115.509 o
69.3604 80.8393 o
128.343 106.499 o
70.9112 98.2891 o
131.334 110.361 o
98.7321 92.3591 o
104.739 103.356 o
117.977 87.3342 o
107.075 120.289 o
119.093 111.982 o
134.485 110.296 o
87.5748 79.0201 o
91.7671 82.7597 o
104.432 102.728 o
115.628 92.9145 o
117.388 91.2491 o
117.896 110.647 o
102.493 95.0304 o
101.179 98.6714 o
116.359 103.168 o
106.913 122.755 o
93.2045 86.4173 o
143.585 113.814 o
103.05 131.268 o
96.8668 56.0721 o
123.705 100.206 o
103.117 99.9167 o
121.135 107.739 o
100.801 119.032 o
145.997 101.026 o
124.549 112.255 o
112.772 95.9818 o
92.3463 80.3153 o
123.872 105.244 o
131.961 111.613 o
143.303 122.319 o
117.418 119.65 o
111.469 105.727 o
133.903 149.52 o
106.063 90.8251 o
67.9095 102.756 o
115.065 102.273 o
105.998 108.247 o
88.9741 84.1581 o
111.116 111.991 o
99.8683 91.2077 o
95.1798 83.1031 o
105.432 114.058 o
88.8739 77.3008 o
139.784 125.867 o
110.959 107.724 o
120.951 110.879 o
75.2595 70.3015 o
75.4516 106.984 o
111.161 103.414 o
82.4795 99.168 o
111.749 120.602 o
106.075 97.6126 o
134.107 92.3486 o
141.833 122.504 o
58.2659 81.1311 o
98.9498 113.973 o
80.3248 118.477 o
124.02 112.909 o
95.0233 70.2119 o
101.238 93.5174 o
95.9317 106.988 o
106.744 103.019 o
62.5921 110.221 o
109.463 119.675 o
109.219 101.939 o
110.481 95.7736 o
72.4865 81.9281 o
90.0436 101.778 o
117.752 112.379 o
110.947 86.9243 o
82.8939 92.1014 o
123.834 113.062 o
92.9944 98.6875 o
105.992 111.056 o
87.252 93.4693 o
134.119 99.8253 o
112.543 101.602 o
92.3269 83.9044 o
78.3959 67.7724 o
95.4186 121.39 o
98.3207 85.0932 o
122.194 127.021 o
87.5201 73.9902 o
107.487 100.734 o
106.641 103.822 o
105.99 102.052 o
85.9854 86.4181 o
96.1144 99.9187 o
119.143 114.45 o
119.002 115.58 o
113.917 119.403 o
123.729 94.0718 o
122.983 98.5609 o
115.796 104.71 o
114.727 97.0223 o
142.802 107.293 o
113.263 97.011 o
100.174 89.521 o
116.097 98.9593 o
140.752 132.827 o
93.3597 65.7079 o
70.1179 74.598 o
123.352 114.667 o
106.648 94.8544 o
118.815 94.4738 o
114.195 145.115 o
100.891 96.1977 o
148.289 120.817 o
111.387 114.72 o
106.619 92.3816 o
120.366 110.746 o
115.788 101.489 o
110.427 101.92 o
159.411 125.943 o
107.897 98.6325 o
118.647 120.924 o
101.778 80.5034 o
113.294 110.55 o
91.9014 82.999 o
114.23 109.236 o
117.5 99.6042 o
93.3702 79.2731 o
115.909 102.145 o
108.056 88.1076 o
108.649 104.837 o
134.423 100.172 o
125.39 123.479 o
68.3154 104.815 o
119.076 124.338 o
98.4491 110.583 o
133.383 104.482 o
100.197 116.361 o
115.05 97.3613 o
86.73 80.4321 o
116.638 107.554 o
107.927 99.359 o
95.3031 100.276 o
75.2339 99.1985 o
132.992 98.8429 o
108.491 100.083 o
137.956 100.349 o
117.914 118.909 o
99.0131 87.9308 o
107.958 102.619 o
107.987 109.392 o
103.403 119.269 o
111.94 118.974 o
124.01 130.446 o
121.074 88.0348 o
136.123 117.811 o
91.9755 93.235 o
94.1158 93.4816 o
145.294 109.697 o
106.634 100.007 o
93.2004 96.6291 o
110.115 105.787 o
116.018 110.443 o
128.639 111.717 o
153.223 101.367 o
126.991 121.268 o
128.127 85.1728 o
84.8056 77.2523 o
87.2447 151.641 o
103.441 90.7479 o
73.6467 84.7243 o
89.7031 82.1343 o
82.5013 112.486 o
107.363 100.161 o
98.5748 108.096 o
110.889 101.768 o
103.125 96.0086 o
89.8698 82.1059 o
72.6731 81.1787 o
101.95 92.0887 o
118.285 113.275 o
100.78 104.023 o
113.876 106.677 o
131.475 65.6444 o
149.007 126.12 o
107.03 89.129 o
131.961 110.584 o
105.878 96.9813 o
102.299 95.1037 o
76.1131 119.053 o
91.2887 93.6782 o
86.5359 94.522 o
98.1923 102.834 o
76.0381 99.106 o
131.739 87.2408 o
74.613 52.9522 o
130.382 109.287 o
113.796 99.1363 o
115.231 100.839 o
125.48 107.464 o
115.931 105.585 o
89.8271 91.8837 o
125.615 117.64 o
132.467 107.63 o
104.896 110.715 o
134.034 116.768 o
119.27 92.4091 o
114.493 107.907 o
117.566 100.527 o
102.837 88.6894 o
114.694 70.8157 o
115.86 100.217 o
106.584 96.2836 o
114.705 89.0233 o
90.3652 75.9453 o
110.629 92.0827 o
116.977 98.6613 o
114.135 93.9497 o
114.118 115.283 o
114.273 116.044 o
122.765 101.459 o
87.3102 98.1555 o
83.3389 86.9031 o
101.716 101.679 o
81.7541 76.9903 o
107.874 107.457 o
122.368 108.214 o
115.248 97.8504 o
98.2669 70.3871 o
143.032 87.716 o
128.47 119.139 o
131.924 101.125 o
126.843 112.41 o
94.9007 89.4981 o
94.5563 106.704 o
142.981 95.3382 o
93.4919 98.5085 o
131.419 67.0094 o
69.176 90.6269 o
103.985 96.5428 o
118.134 105.158 o
62.226 99.1032 o
100.128 113.806 o
117.812 113.931 o
131.935 99.3459 o
119.481 92.8369 o
139.982 119.294 o
89.5387 120.4 o
85.7344 94.7482 o
107.525 101.752 o
113.223 103.356 o
75.9333 107.47 o
154.224 86.4621 o
115.671 111.626 o
109.189 103.955 o
119.994 112.077 o
125.693 102.804 o
98.1725 102.168 o
107.913 87.0411 o
122.644 138.303 o
134.652 127.116 o
123.194 110.646 o
98.8043 93.6586 o
114.858 119.525 o
112.939 128.007 o
116.339 93.0112 o
99.9253 85.7503 o
89.1015 68.0704 o
96.9928 106.092 o
107.54 100.64 o
89.4261 84.6892 o
86.519 102.734 o
154.473 104.032 o
116.869 96.9926 o
83.2832 91.4024 o
102.63 99.8961 o
125.45 120.062 o
119.925 109.792 o
116.24 129.27 o
91.9602 90.2502 o
112.963 111.139 o
148.029 122.71 o
103.923 111.155 o
114.485 105.143 o
109.857 89.9767 o
141.42 110.626 o
116.467 88.9965 o
93.8815 88.5955 o
82.9526 92.7657 o
141.298 108.107 o
118.614 122.887 o
123.709 97.1057 o
87.6684 93.9335 o
135.908 101.225 o
111.868 98.5442 o
84.2939 93.4255 o
120.879 102.011 o
120.515 112.865 o
102.723 89.2229 o
107.162 116.489 o
113.459 105.911 o
89.6365 99.5137 o
96.3463 78.9218 o
112.505 103.812 o
102.765 103.058 o
147.598 106.376 o
90.572 67.9353 o
102.4 93.3195 o
113.752 134.415 o
111.66 103.033 o
102.773 116.715 o
97.5988 110.098 o
110.373 99.0277 o
119.876 84.7425 o
90.7058 88.2029 o
115.898 125.093 o
110.654 112.167 o
128.725 103.96 o
109.569 103.428 o
136.814 135.654 o
112.654 108.266 o
103.099 107.127 o
124.722 104.502 o
126.556 127.479 o
89.5129 91.7361 o
142.694 97.3578 o
108.58 75.7865 o
98.2666 91.5587 o
121.238 101.279 o
102.281 106.178 o
151.411 121.14 o
106.692 100.738 o
124.837 108.106 o
96.8367 97.781 o
127.389 101.135 o
106.682 89.3625 o
118.72 104.601 o
74.5765 80.923 o
82.8233 88.8681 o
77.5349 96.3053 o
80.2972 77.5293 o
126.448 117.803 o
90.849 54.2411 o
99.6286 118.579 o
93.8027 96.0705 o
110.506 101.353 o
77.6318 100.498 o
103.791 100.201 o
129.255 112.308 o
87.1854 92.5932 o
103.264 110.639 o
140.909 85.4425 o
101.743 98.9964 o
100.685 97.1084 o
132.862 88.2347 o
93.4065 75.8654 o
74.8302 112.293 o
104.528 109.037 o
107.702 123.533 o
93.0695 101.9 o
118.704 111.369 o
117.627 107.213 o
123.583 123.083 o
103.8 102.054 o
126.941 89.1004 o
87.8595 96.0249 o
94.313 92.0728 o
133.775 106.615 o
120.852 116.776 o
97.9126 100.854 o
84.348 105.307 o
82.9842 85.5039 o
106.485 106.449 o
88.8384 71.3225 o
80.821 96.7193 o
113.449 111.623 o
121.792 104.962 o
145.065 114.748 o
124.753 108.154 o
137.27 98.6921 o
61.4164 99.3828 o
121.18 105.596 o
117.794 111.602 o
105.763 118.48 o
87.4625 90.157 o
125.592 137.482 o
133.476 142.603 o
98.2568 118.985 o
140.506 113.045 o
91.1443 94.0418 o
101.872 86.3154 o
116.035 97.7702 o
99.4553 109.006 o
94.2032 84.3951 o
111.102 101.046 o
90.7817 121.199 o
122.616 84.4037 o
80.8484 92.2641 o
147.279 111.247 o
134.927 116.883 o
140.612 114.153 o
110.773 114.85 o
94.2559 100.282 o
132.737 120.831 o
111.222 99.4091 o
115.986 110.169 o
88.6011 66.4931 o
120.096 120.256 o
108.703 114.215 o
111.685 117.341 o
120.956 97.2529 o
81.0293 71.6001 o
91.5669 72.2432 o
148.234 106.821 o
90.9864 89.4566 o
71.3515 97.9648 o
88.8395 93.72 o
149.218 129.783 o
119.989 89.2208 o
77.1149 84.273 o
110.121 97.2796 o
132.49 98.3148 o
118.68 114.135 o
107.093 104.732 o
90.5128 90.7153 o
112.104 106.093 o
83.9259 117.226 o
84.8445 108.64 o
104.048 90.3489 o
94.1681 102.928 o
110.718 110.976 o
119.489 115.152 o
77.8564 87.5751 o
115.38 99.6455 o
120.558 117.171 o
110.136 93.9196 o
157.133 131.062 o
128.346 116.814 o
112.254 114.144 o
119.746 108.081 o
114.858 120.638 o
65.8593 83.2048 o
83.6238 113.672 o
103.172 103.973 o
88.4402 81.7978 o
115.477 112.824 o
117.95 113.376 o
116.592 95.5345 o
112.614 97.4662 o
98.6775 91.6711 o
84.865 84.0515 o
126.828 107.444 o
99.7975 102.438 o
126.271 116.068 o
94.1462 109.192 o
119.79 125.26 o
144.585 100.734 o
124.654 106.919 o
94.9308 82.8287 o
92.1645 83.5738 o
86.7341 104.081 o
122.197 102.384 o
101.805 92.0444 o
129.386 99.3451 o
96.9157 108.635 o
95.9579 91.6646 o
114.231 115.36 o
128.936 123.688 o
101.066 85.3039 o
160.647 97.9139 o
97.8089 103.417 o
113.869 99.154 o
104.642 88.0003 o
120.939 98.6837 o
109.207 100.33 o
105.302 94.7764 o
105.563 54.8112 o
97.7879 71.3184 o
97.0403 87.4322 o
123.227 116.429 o
103.197 97.8951 o
73.3668 98.9618 o
144.771 108.006 o
122.773 107.46 o
136.331 105.457 o
163.858 124.417 o
108.293 103.821 o
111.09 99.2084 o
114.385 95.12 o
124.727 109.418 o
140.832 116.938 o
103.795 65.0169 o
109.912 97.7471 o
104.094 104.552 o
98.0611 111.242 o
120.573 105.409 o
100.312 85.9846 o
118.671 103.339 o
109.171 103.689 o
108.465 90.8519 o
112.211 111.651 o
131.751 114.485 o
107.053 119.865 o
124.479 107.826 o
123.129 130.827 o
139.35 91.7958 o
119.497 117.127 o
53.3407 92.2098 o
87.9388 105.374 o
112.44 107.724 o
83.0911 93.3066 o
88.9146 90.0951 o
140.464 131.886 o
115.637 116.789 o
102.231 100.446 o
111.228 104.117 o
88.9634 91.2212 o
60.7288 98.1314 o
112.249 105.682 o
136.102 128.396 o
123.804 81.2945 o
89.3239 85.1879 o
124.043 101.331 o
130.999 104.09 o
102.493 95.7203 o
107.835 94.6743 o
88.5456 103.151 o
84.4166 90.251 o
123.542 106.489 o
113.208 138.757 o
96.4416 101.345 o
104.262 97.6134 o
97.7343 85.6634 o
64.7101 98.7985 o
102.095 79.4145 o
116.062 125.015 o
108.423 92.7793 o
79.8781 70.4085 o
102.197 86.4792 o
136.312 110.145 o
139.419 91.0496 o
109.004 108.791 o
104.029 121.996 o
96.4078 98.6949 o
95.0736 98.9856 o
111.582 109.69 o
95.196 93.1314 o
102.838 89.3772 o
110.941 106.266 o
134.557 101.959 o
111.045 92.6695 o
103.184 105.861 o
104.166 110.648 o
110.279 109.79 o
106.8 93.4903 o
86.3222 63.4983 o
83.7339 87.5123 o
78.178 99.5656 o
92.8762 90.7711 o
108.512 105.058 o
93.3568 88.7391 o
66.9444 83.768 o
69.8232 105.963 o
101.533 105.231 o
153.077 111.995 o
118.844 107.348 o
101.129 97.8787 o
85.5906 99.4245 o
122.744 81.1896 o
86.8464 110.475 o
124.31 98.665 o
59.2921 74.365 o
109.534 102.473 o
107.519 92.4636 o
110.931 105.258 o
97.6414 120.079 o
84.5771 89.9373 o
100.64 84.9407 o
111.846 107.324 o
96.9357 93.8818 o
102.226 122.007 o
112.395 123.41 o
105.187 111.418 o
98.7084 94.1715 o
126.745 116.11 o
100.271 102.41 o
106.24 92.9276 o
130.453 138.202 o
106.745 105.999 o
110.033 103.569 o
92.7053 95.0558 o
109.948 106.365 o
110.212 104.235 o
118.207 109.22 o
103.254 96.6286 o
127.756 115.054 o
112.983 94.0914 o
135.518 122.967 o
116.813 112.441 o
96.1415 87.442 o
113.658 95.7696 o
grestore
0.000 0.000 1.000 setrgbcolor
gsave
140.4 124.2 34.2 37.8 clipbox
/o {
gsave
newpath
translate
0.5 setlinewidth
1 setlinejoin
0 setlinecap
0 -0.25 m
0.0663008 -0.25 0.129895 -0.223658 0.176777 -0.176777 c
0.223658 -0.129895 0.25 -0.0663008 0.25 0 c
0.25 0.0663008 0.223658 0.129895 0.176777 0.176777 c
0.129895 0.223658 0.0663008 0.25 0 0.25 c
-0.0663008 0.25 -0.129895 0.223658 -0.176777 0.176777 c
-0.223658 0.129895 -0.25 0.0663008 -0.25 0 c
-0.25 -0.0663008 -0.223658 -0.129895 -0.176777 -0.176777 c
-0.129895 -0.223658 -0.0663008 -0.25 0 -0.25 c
cl
gsave
0.000 0.000 1.000 setrgbcolor
fill
grestore
stroke
grestore
} bind def
110.339 111.296 o
110.274 111.201 o
107.953 108.842 o
106.054 107.361 o
108.299 108.913 o
110.035 107.758 o
106.749 105.761 o
105.524 107.126 o
107.308 107.22 o
107.488 109.263 o
105.059 106.827 o
108.142 109.073 o
104.734 110.758 o
106.637 107.582 o
103.41 108.813 o
106.886 108.068 o
112.123 108.575 o
109.517 106.862 o
108.495 106.941 o
109.743 109.683 o
105.007 105.963 o
111.732 108.189 o
106.072 107.218 o
110.876 111.047 o
112.692 110.241 o
109.127 108.986 o
112.709 111.106 o
105.953 106.419 o
106.899 105.956 o
112.948 111.2 o
113.315 110.065 o
108.777 111.408 o
113.311 110.181 o
107.9 109.313 o
104.619 109.45 o
110.013 109.355 o
106.247 109.536 o
110.241 110.137 o
110.825 111.485 o
108.767 106.571 o
110.062 107.916 o
109.05 112.779 o
104.643 107.259 o
105.198 105.469 o
111.153 108.912 o
109.341 108.33 o
110.638 107.712 o
114.473 111.197 o
109.366 111.844 o
103.218 110.3 o
105.303 110.058 o
106.454 110.763 o
104.313 106.823 o
105.716 109.63 o
108.744 107.698 o
109.497 108.184 o
109.591 110.868 o
102.281 106.178 o
111.582 109.69 o
106.745 105.999 o
grestore
0.000 1.000 1.000 setrgbcolor
gsave
140.4 124.2 34.2 37.8 clipbox
/o {
gsave
newpath
translate
0.5 setlinewidth
1 setlinejoin
0 setlinecap
0 -1 m
0.265203 -1 0.51958 -0.894634 0.707107 -0.707107 c
0.894634 -0.51958 1 -0.265203 1 0 c
1 0.265203 0.894634 0.51958 0.707107 0.707107 c
0.51958 0.894634 0.265203 1 0 1 c
-0.265203 1 -0.51958 0.894634 -0.707107 0.707107 c
-0.894634 0.51958 -1 0.265203 -1 0 c
-1 -0.265203 -0.894634 -0.51958 -0.707107 -0.707107 c
-0.51958 -0.894634 -0.265203 -1 0 -1 c
cl
gsave
0.000 1.000 1.000 setrgbcolor
fill
grestore
stroke
grestore
} bind def
106.739 109.054 o
103.126 108.997 o
107.503 107.914 o
104.2 111.403 o
107.546 109.23 o
108.791 107.016 o
104.657 109.041 o
107.319 107.754 o
107.629 108.242 o
105.614 111.604 o
108.39 108.291 o
103.807 110.058 o
107.619 109.099 o
104.081 107.787 o
105.091 110.24 o
105.594 109.456 o
106.711 107.383 o
105.347 108.737 o
105.783 112.825 o
106.171 111.467 o
107.227 111.354 o
107.243 110.15 o
105.69 108.783 o
105.438 110.535 o
104.9 110.863 o
104.329 110.917 o
107.253 108.949 o
109.562 109.855 o
106.142 108.304 o
106.644 107.135 o
107.075 106.991 o
105.664 110.807 o
105.211 111.457 o
108.228 112.324 o
106.266 113.756 o
105.184 112.4 o
107.058 109.965 o
105.861 110.291 o
107.595 109.855 o
107.401 111.158 o
108.777 109.779 o
106.375 110.384 o
105.211 111.457 o
105.992 112.287 o
105.205 111.664 o
104.522 109.204 o
grestore
1.000 0.000 0.000 setrgbcolor
gsave
140.4 124.2 34.2 37.8 clipbox
/o {
gsave
newpath
translate
0.5 setlinewidth
1 setlinejoin
0 setlinecap
0 -1 m
0.265203 -1 0.51958 -0.894634 0.707107 -0.707107 c
0.894634 -0.51958 1 -0.265203 1 0 c
1 0.265203 0.894634 0.51958 0.707107 0.707107 c
0.51958 0.894634 0.265203 1 0 1 c
-0.265203 1 -0.51958 0.894634 -0.707107 0.707107 c
-0.894634 0.51958 -1 0.265203 -1 0 c
-1 -0.265203 -0.894634 -0.51958 -0.707107 -0.707107 c
-0.51958 -0.894634 -0.265203 -1 0 -1 c
cl
gsave
1.000 0.000 0.000 setrgbcolor
fill
grestore
stroke
grestore
} bind def
95.8915 90.9721 o
97.2638 88.2975 o
96.7722 90.0781 o
97.7755 90.5373 o
96.8233 92.6086 o
98.7965 90.3124 o
98.423 90.9217 o
99.3652 89.6073 o
99.0301 90.459 o
98.1337 92.5983 o
99.527 90.3949 o
99.2825 91.4317 o
99.1128 91.121 o
101.434 88.6324 o
98.324 93.4879 o
99.6309 91.8349 o
99.91 92.9859 o
100.376 93.2631 o
grestore
1.000 setlinewidth
0 setlinejoin
2 setlinecap
0.000 setgray
gsave
34.2 162 m
174.6 162 l
stroke
grestore
gsave
174.6 37.8 m
174.6 162 l
stroke
grestore
gsave
34.2 37.8 m
174.6 37.8 l
stroke
grestore
gsave
34.2 37.8 m
34.2 162 l
stroke
grestore
0.500 setlinewidth
1 setlinejoin
0 setlinecap
gsave
/o {
gsave
newpath
translate
0.5 setlinewidth
1 setlinejoin
0 setlinecap
0 0 m
0 4 l
gsave
0.000 setgray
fill
grestore
stroke
grestore
} bind def
34.2 37.8 o
grestore
gsave
/o {
gsave
newpath
translate
0.5 setlinewidth
1 setlinejoin
0 setlinecap
0 0 m
0 -4 l
gsave
0.000 setgray
fill
grestore
stroke
grestore
} bind def
34.2 162 o
grestore
/BitstreamVeraSans-Roman findfont
6.000 scalefont
setfont
gsave
28.387500 29.237500 translate
0.000000 rotate
0.000000 0.000000 m /minus glyphshow
5.027344 0.000000 m /six glyphshow
8.844727 0.000000 m /zero glyphshow
grestore
gsave
/o {
gsave
newpath
translate
0.5 setlinewidth
1 setlinejoin
0 setlinecap
0 0 m
0 4 l
gsave
0.000 setgray
fill
grestore
stroke
grestore
} bind def
57.6 37.8 o
grestore
gsave
/o {
gsave
newpath
translate
0.5 setlinewidth
1 setlinejoin
0 setlinecap
0 0 m
0 -4 l
gsave
0.000 setgray
fill
grestore
stroke
grestore
} bind def
57.6 162 o
grestore
gsave
51.787500 29.237500 translate
0.000000 rotate
0.000000 0.000000 m /minus glyphshow
5.027344 0.000000 m /four glyphshow
8.844727 0.000000 m /zero glyphshow
grestore
gsave
/o {
gsave
newpath
translate
0.5 setlinewidth
1 setlinejoin
0 setlinecap
0 0 m
0 4 l
gsave
0.000 setgray
fill
grestore
stroke
grestore
} bind def
81 37.8 o
grestore
gsave
/o {
gsave
newpath
translate
0.5 setlinewidth
1 setlinejoin
0 setlinecap
0 0 m
0 -4 l
gsave
0.000 setgray
fill
grestore
stroke
grestore
} bind def
81 162 o
grestore
gsave
75.187500 29.237500 translate
0.000000 rotate
0.000000 0.000000 m /minus glyphshow
5.027344 0.000000 m /two glyphshow
8.844727 0.000000 m /zero glyphshow
grestore
gsave
/o {
gsave
newpath
translate
0.5 setlinewidth
1 setlinejoin
0 setlinecap
0 0 m
0 4 l
gsave
0.000 setgray
fill
grestore
stroke
grestore
} bind def
104.4 37.8 o
grestore
gsave
/o {
gsave
newpath
translate
0.5 setlinewidth
1 setlinejoin
0 setlinecap
0 0 m
0 -4 l
gsave
0.000 setgray
fill
grestore
stroke
grestore
} bind def
104.4 162 o
grestore
gsave
102.884375 29.237500 translate
0.000000 rotate
0.000000 0.000000 m /zero glyphshow
grestore
gsave
/o {
gsave
newpath
translate
0.5 setlinewidth
1 setlinejoin
0 setlinecap
0 0 m
0 4 l
gsave
0.000 setgray
fill
grestore
stroke
grestore
} bind def
127.8 37.8 o
grestore
gsave
/o {
gsave
newpath
translate
0.5 setlinewidth
1 setlinejoin
0 setlinecap
0 0 m
0 -4 l
gsave
0.000 setgray
fill
grestore
stroke
grestore
} bind def
127.8 162 o
grestore
gsave
124.401562 29.237500 translate
0.000000 rotate
0.000000 0.000000 m /two glyphshow
3.817383 0.000000 m /zero glyphshow
grestore
gsave
/o {
gsave
newpath
translate
0.5 setlinewidth
1 setlinejoin
0 setlinecap
0 0 m
0 4 l
gsave
0.000 setgray
fill
grestore
stroke
grestore
} bind def
151.2 37.8 o
grestore
gsave
/o {
gsave
newpath
translate
0.5 setlinewidth
1 setlinejoin
0 setlinecap
0 0 m
0 -4 l
gsave
0.000 setgray
fill
grestore
stroke
grestore
} bind def
151.2 162 o
grestore
gsave
147.731250 29.237500 translate
0.000000 rotate
0.000000 0.000000 m /four glyphshow
3.817383 0.000000 m /zero glyphshow
grestore
gsave
/o {
gsave
newpath
translate
0.5 setlinewidth
1 setlinejoin
0 setlinecap
0 0 m
0 4 l
gsave
0.000 setgray
fill
grestore
stroke
grestore
} bind def
174.6 37.8 o
grestore
gsave
/o {
gsave
newpath
translate
0.5 setlinewidth
1 setlinejoin
0 setlinecap
0 0 m
0 -4 l
gsave
0.000 setgray
fill
grestore
stroke
grestore
} bind def
174.6 162 o
grestore
gsave
171.193750 29.237500 translate
0.000000 rotate
0.000000 0.000000 m /six glyphshow
3.817383 0.000000 m /zero glyphshow
grestore
gsave
90.900000 16.987500 translate
0.000000 rotate
/Cmr10 findfont
8.0 scalefont
setfont
0.000000 0.000000 moveto
/X glyphshow

/BitstreamVeraSans-Roman findfont
8.0 scalefont
setfont
6.000000 0.000000 moveto
/space glyphshow

/Cmr10 findfont
8.0 scalefont
setfont
8.542969 0.000000 moveto
/parenleft glyphshow

11.648438 0.000000 moveto
/k glyphshow

15.863281 0.000000 moveto
/p glyphshow

20.304688 0.000000 moveto
/c glyphshow

23.855469 0.000000 moveto
/parenright glyphshow


grestore
gsave
/o {
gsave
newpath
translate
0.5 setlinewidth
1 setlinejoin
0 setlinecap
0 0 m
4 0 l
gsave
0.000 setgray
fill
grestore
stroke
grestore
} bind def
34.2 37.8 o
grestore
gsave
/o {
gsave
newpath
translate
0.5 setlinewidth
1 setlinejoin
0 setlinecap
0 0 m
-4 0 l
gsave
0.000 setgray
fill
grestore
stroke
grestore
} bind def
174.6 37.8 o
grestore
gsave
18.575000 36.143750 translate
0.000000 rotate
0.000000 0.000000 m /minus glyphshow
5.027344 0.000000 m /six glyphshow
8.844727 0.000000 m /zero glyphshow
grestore
gsave
/o {
gsave
newpath
translate
0.5 setlinewidth
1 setlinejoin
0 setlinecap
0 0 m
4 0 l
gsave
0.000 setgray
fill
grestore
stroke
grestore
} bind def
34.2 58.5 o
grestore
gsave
/o {
gsave
newpath
translate
0.5 setlinewidth
1 setlinejoin
0 setlinecap
0 0 m
-4 0 l
gsave
0.000 setgray
fill
grestore
stroke
grestore
} bind def
174.6 58.5 o
grestore
gsave
18.575000 56.843750 translate
0.000000 rotate
0.000000 0.000000 m /minus glyphshow
5.027344 0.000000 m /four glyphshow
8.844727 0.000000 m /zero glyphshow
grestore
gsave
/o {
gsave
newpath
translate
0.5 setlinewidth
1 setlinejoin
0 setlinecap
0 0 m
4 0 l
gsave
0.000 setgray
fill
grestore
stroke
grestore
} bind def
34.2 79.2 o
grestore
gsave
/o {
gsave
newpath
translate
0.5 setlinewidth
1 setlinejoin
0 setlinecap
0 0 m
-4 0 l
gsave
0.000 setgray
fill
grestore
stroke
grestore
} bind def
174.6 79.2 o
grestore
gsave
18.575000 77.543750 translate
0.000000 rotate
0.000000 0.000000 m /minus glyphshow
5.027344 0.000000 m /two glyphshow
8.844727 0.000000 m /zero glyphshow
grestore
gsave
/o {
gsave
newpath
translate
0.5 setlinewidth
1 setlinejoin
0 setlinecap
0 0 m
4 0 l
gsave
0.000 setgray
fill
grestore
stroke
grestore
} bind def
34.2 99.9 o
grestore
gsave
/o {
gsave
newpath
translate
0.5 setlinewidth
1 setlinejoin
0 setlinecap
0 0 m
-4 0 l
gsave
0.000 setgray
fill
grestore
stroke
grestore
} bind def
174.6 99.9 o
grestore
gsave
27.168750 98.243750 translate
0.000000 rotate
0.000000 0.000000 m /zero glyphshow
grestore
gsave
/o {
gsave
newpath
translate
0.5 setlinewidth
1 setlinejoin
0 setlinecap
0 0 m
4 0 l
gsave
0.000 setgray
fill
grestore
stroke
grestore
} bind def
34.2 120.6 o
grestore
gsave
/o {
gsave
newpath
translate
0.5 setlinewidth
1 setlinejoin
0 setlinecap
0 0 m
-4 0 l
gsave
0.000 setgray
fill
grestore
stroke
grestore
} bind def
174.6 120.6 o
grestore
gsave
23.403125 118.943750 translate
0.000000 rotate
0.000000 0.000000 m /two glyphshow
3.817383 0.000000 m /zero glyphshow
grestore
gsave
/o {
gsave
newpath
translate
0.5 setlinewidth
1 setlinejoin
0 setlinecap
0 0 m
4 0 l
gsave
0.000 setgray
fill
grestore
stroke
grestore
} bind def
34.2 141.3 o
grestore
gsave
/o {
gsave
newpath
translate
0.5 setlinewidth
1 setlinejoin
0 setlinecap
0 0 m
-4 0 l
gsave
0.000 setgray
fill
grestore
stroke
grestore
} bind def
174.6 141.3 o
grestore
gsave
23.262500 139.643750 translate
0.000000 rotate
0.000000 0.000000 m /four glyphshow
3.817383 0.000000 m /zero glyphshow
grestore
gsave
/o {
gsave
newpath
translate
0.5 setlinewidth
1 setlinejoin
0 setlinecap
0 0 m
4 0 l
gsave
0.000 setgray
fill
grestore
stroke
grestore
} bind def
34.2 162 o
grestore
gsave
/o {
gsave
newpath
translate
0.5 setlinewidth
1 setlinejoin
0 setlinecap
0 0 m
-4 0 l
gsave
0.000 setgray
fill
grestore
stroke
grestore
} bind def
174.6 162 o
grestore
gsave
23.387500 160.343750 translate
0.000000 rotate
0.000000 0.000000 m /six glyphshow
3.817383 0.000000 m /zero glyphshow
grestore
gsave
11.575000 86.400000 translate
90.000000 rotate
/Cmr10 findfont
8.0 scalefont
setfont
0.000000 0.000000 moveto
/Y glyphshow

/BitstreamVeraSans-Roman findfont
8.0 scalefont
setfont
6.000000 0.000000 moveto
/space glyphshow

/Cmr10 findfont
8.0 scalefont
setfont
8.542969 0.000000 moveto
/parenleft glyphshow

11.648438 0.000000 moveto
/k glyphshow

15.863281 0.000000 moveto
/p glyphshow

20.304688 0.000000 moveto
/c glyphshow

23.855469 0.000000 moveto
/parenright glyphshow


grestore

end
showpage
