%!PS-Adobe-3.0 EPSF-3.0
%%Title: /Users/iuliasimion/bullock_johnston/denis_erkal/vasily/Figures/4498_3103313_yz.eps
%%Creator: matplotlib version 1.4.3, http://matplotlib.org/
%%CreationDate: Sat Aug 19 15:00:40 2017
%%Orientation: portrait
%%BoundingBox: 216 306 396 486
%%EndComments
%%BeginProlog
/mpldict 9 dict def
mpldict begin
/m { moveto } bind def
/l { lineto } bind def
/r { rlineto } bind def
/c { curveto } bind def
/cl { closepath } bind def
/box {
m
1 index 0 r
0 exch r
neg 0 r
cl
} bind def
/clipbox {
box
clip
newpath
} bind def
%!PS-Adobe-3.0 Resource-Font
%%Title: Bitstream Vera Sans
%%Copyright: Copyright (c) 2003 by Bitstream, Inc. All Rights Reserved.
%%Creator: Converted from TrueType to type 3 by PPR
25 dict begin
/_d{bind def}bind def
/_m{moveto}_d
/_l{lineto}_d
/_cl{closepath eofill}_d
/_c{curveto}_d
/_sc{7 -1 roll{setcachedevice}{pop pop pop pop pop pop}ifelse}_d
/_e{exec}_d
/FontName /BitstreamVeraSans-Roman def
/PaintType 0 def
/FontMatrix[.001 0 0 .001 0 0]def
/FontBBox[-183 -236 1287 928]def
/FontType 3 def
/Encoding [ /space /zero /two /four /six /minus ] def
/FontInfo 10 dict dup begin
/FamilyName (Bitstream Vera Sans) def
/FullName (Bitstream Vera Sans) def
/Notice (Copyright (c) 2003 by Bitstream, Inc. All Rights Reserved. Bitstream Vera is a trademark of Bitstream, Inc.) def
/Weight (Roman) def
/Version (Release 1.10) def
/ItalicAngle 0.0 def
/isFixedPitch false def
/UnderlinePosition -213 def
/UnderlineThickness 143 def
end readonly def
/CharStrings 6 dict dup begin
/space{318 0 0 0 0 0 _sc
}_d
/zero{636 0 66 -13 570 742 _sc
318 664 _m
267 664 229 639 203 589 _c
177 539 165 464 165 364 _c
165 264 177 189 203 139 _c
229 89 267 64 318 64 _c
369 64 407 89 433 139 _c
458 189 471 264 471 364 _c
471 464 458 539 433 589 _c
407 639 369 664 318 664 _c
318 742 _m
399 742 461 709 505 645 _c
548 580 570 486 570 364 _c
570 241 548 147 505 83 _c
461 19 399 -13 318 -13 _c
236 -13 173 19 130 83 _c
87 147 66 241 66 364 _c
66 486 87 580 130 645 _c
173 709 236 742 318 742 _c
_cl}_d
/two{{636 0 73 0 536 742 _sc
192 83 _m
536 83 _l
536 0 _l
73 0 _l
73 83 _l
110 121 161 173 226 239 _c
290 304 331 346 348 365 _c
380 400 402 430 414 455 _c
426 479 433 504 433 528 _c
433 566 419 598 392 622 _c
365 646 330 659 286 659 _c
255 659 222 653 188 643 _c
154 632 117 616 78 594 _c
78 694 _l
118 710 155 722 189 730 _c
223 738 255 742 284 742 _c
}_e{359 742 419 723 464 685 _c
509 647 532 597 532 534 _c
532 504 526 475 515 449 _c
504 422 484 390 454 354 _c
446 344 420 317 376 272 _c
332 227 271 164 192 83 _c
_cl}_e}_d
/four{636 0 49 0 580 729 _sc
378 643 _m
129 254 _l
378 254 _l
378 643 _l
352 729 _m
476 729 _l
476 254 _l
580 254 _l
580 172 _l
476 172 _l
476 0 _l
378 0 _l
378 172 _l
49 172 _l
49 267 _l
352 729 _l
_cl}_d
/six{{636 0 70 -13 573 742 _sc
330 404 _m
286 404 251 388 225 358 _c
199 328 186 286 186 234 _c
186 181 199 139 225 109 _c
251 79 286 64 330 64 _c
374 64 409 79 435 109 _c
461 139 474 181 474 234 _c
474 286 461 328 435 358 _c
409 388 374 404 330 404 _c
526 713 _m
526 623 _l
501 635 476 644 451 650 _c
425 656 400 659 376 659 _c
310 659 260 637 226 593 _c
}_e{192 549 172 482 168 394 _c
187 422 211 444 240 459 _c
269 474 301 482 336 482 _c
409 482 467 459 509 415 _c
551 371 573 310 573 234 _c
573 159 550 99 506 54 _c
462 9 403 -13 330 -13 _c
246 -13 181 19 137 83 _c
92 147 70 241 70 364 _c
70 479 97 571 152 639 _c
206 707 280 742 372 742 _c
396 742 421 739 447 735 _c
472 730 498 723 526 713 _c
_cl}_e}_d
/minus{838 0 106 272 732 355 _sc
106 355 _m
732 355 _l
732 272 _l
106 272 _l
106 355 _l
_cl}_d
end readonly def

/BuildGlyph
 {exch begin
 CharStrings exch
 2 copy known not{pop /.notdef}if
 true 3 1 roll get exec
 end}_d

/BuildChar {
 1 index /Encoding get exch get
 1 index /BuildGlyph get exec
}_d

FontName currentdict end definefont pop
%!PS-Adobe-3.0 Resource-Font
%%Title: cmr10
%%Copyright: Copyright (C) 1994, Basil K. Malyshev. All Rights Reserved.012BaKoMa Fonts Collection, Level-B.
%%Creator: Converted from TrueType to type 3 by PPR
25 dict begin
/_d{bind def}bind def
/_m{moveto}_d
/_l{lineto}_d
/_cl{closepath eofill}_d
/_c{curveto}_d
/_sc{7 -1 roll{setcachedevice}{pop pop pop pop pop pop}ifelse}_d
/_e{exec}_d
/FontName /Cmr10 def
/PaintType 0 def
/FontMatrix[.001 0 0 .001 0 0]def
/FontBBox[-44 -250 1009 750]def
/FontType 3 def
/Encoding [ /Z /k /parenright /Y /parenleft /c /p ] def
/FontInfo 10 dict dup begin
/FamilyName (cmr10) def
/FullName (cmr10) def
/Notice (Copyright (C) 1994, Basil K. Malyshev. All Rights Reserved.012BaKoMa Fonts Collection, Level-B. ) def
/Weight (Regular) def
/Version (1.1/12-Nov-94) def
/ItalicAngle 0.0 def
/isFixedPitch false def
/UnderlinePosition -133 def
/UnderlineThickness 20 def
end readonly def
/CharStrings 7 dict dup begin
/Z{{611 0 56 0 560 683 _sc
67 0 _m
59 0 56 3 56 11 _c
56 25 _l
56 27 56 29 58 31 _c
447 648 _l
306 648 _l
259 648 220 641 190 629 _c
160 617 137 596 121 568 _c
105 540 98 502 98 454 _c
69 454 _l
80 683 _l
543 683 _l
550 683 554 679 554 672 _c
554 660 _l
554 657 553 655 553 654 _c
164 38 _l
311 38 _l
346 38 378 41 406 48 _c
}_e{434 54 458 67 478 86 _c
491 99 501 116 509 136 _c
517 156 522 176 524 195 _c
526 213 528 239 531 271 _c
560 271 _l
543 0 _l
67 0 _l
_cl}_e}_d
/k{{527 0 26 0 511 694 _sc
26 0 _m
26 35 _l
48 35 67 36 82 40 _c
96 44 104 53 104 67 _c
104 592 _l
104 610 101 623 96 631 _c
90 639 83 643 73 645 _c
63 647 47 648 26 648 _c
26 683 _l
174 694 _l
174 219 _l
308 337 _l
321 349 328 361 328 372 _c
328 380 325 386 320 390 _c
314 394 308 396 300 396 _c
300 431 _l
488 431 _l
488 396 _l
}_e{442 396 397 376 352 337 _c
281 275 _l
408 94 _l
426 69 440 53 452 46 _c
464 38 483 35 511 35 _c
511 0 _l
312 0 _l
312 35 _l
334 35 346 42 346 56 _c
346 66 340 78 328 94 _c
232 231 _l
171 178 _l
171 67 _l
171 53 178 44 193 40 _c
207 36 226 35 249 35 _c
249 0 _l
26 0 _l
_cl}_e}_d
/parenright{{388 0 56 -249 291 750 _sc
65 -249 _m
59 -249 56 -246 56 -240 _c
56 -237 56 -235 58 -234 _c
172 -122 229 38 229 250 _c
229 462 172 623 60 733 _c
57 734 56 737 56 741 _c
56 743 57 745 59 747 _c
61 749 63 750 65 750 _c
74 750 _l
76 750 77 749 79 748 _c
127 710 167 664 199 610 _c
231 556 254 498 269 437 _c
283 376 291 314 291 250 _c
291 202 287 156 279 110 _c
}_e{271 64 258 20 241 -24 _c
223 -68 201 -108 175 -146 _c
148 -184 116 -217 79 -247 _c
77 -248 76 -249 74 -249 _c
65 -249 _l
_cl}_e}_d
/Y{{750 0 11 0 738 683 _sc
226 0 _m
226 35 _l
294 35 329 45 329 67 _c
329 273 _l
119 618 _l
109 631 95 639 78 643 _c
60 646 38 648 11 648 _c
11 683 _l
293 683 _l
293 648 _l
246 648 223 640 223 625 _c
223 623 223 621 225 617 _c
406 319 _l
571 590 _l
575 596 577 602 577 610 _c
577 623 571 633 559 639 _c
547 645 535 648 521 648 _c
521 683 _l
738 683 _l
738 648 _l
}_e{712 648 687 643 665 634 _c
643 624 625 610 613 591 _c
419 273 _l
419 67 _l
419 45 453 35 522 35 _c
522 0 _l
226 0 _l
_cl}_e}_d
/parenleft{{388 0 97 -249 332 750 _sc
310 -247 _m
272 -217 240 -184 214 -146 _c
187 -108 165 -67 148 -25 _c
131 17 118 62 110 109 _c
101 155 97 202 97 250 _c
97 298 101 345 110 392 _c
118 438 131 483 149 527 _c
166 570 188 611 215 649 _c
242 687 274 720 310 748 _c
310 749 311 750 315 750 _c
324 750 _l
326 750 327 749 329 747 _c
331 745 332 743 332 741 _c
332 738 331 736 330 735 _c
}_e{297 703 270 668 248 632 _c
226 596 209 557 196 516 _c
183 474 174 432 168 388 _c
162 344 159 298 159 250 _c
159 38 215 -122 329 -232 _c
331 -234 332 -236 332 -240 _c
332 -242 331 -244 329 -246 _c
327 -248 326 -249 324 -249 _c
315 -249 _l
311 -249 310 -248 310 -247 _c
_cl}_e}_d
/c{{444 0 33 -10 415 448 _sc
249 -10 _m
208 -10 171 0 139 21 _c
106 41 80 69 61 104 _c
42 139 33 176 33 216 _c
33 255 42 293 61 329 _c
79 365 105 393 138 415 _c
171 437 208 448 249 448 _c
288 448 324 440 356 425 _c
388 409 404 384 404 350 _c
404 337 399 326 390 316 _c
380 306 369 302 356 302 _c
342 302 331 306 322 316 _c
312 326 308 337 308 350 _c
}_e{308 362 311 372 319 381 _c
327 389 336 395 347 397 _c
324 411 292 419 250 419 _c
218 419 192 408 173 387 _c
153 365 140 339 132 308 _c
124 277 120 246 120 216 _c
120 183 124 152 134 122 _c
144 92 159 67 181 47 _c
202 27 229 18 261 18 _c
293 18 320 27 342 47 _c
364 66 379 91 387 123 _c
387 127 389 129 395 129 _c
407 129 _l
409 129 410 128 412 126 _c
}_e{414 124 415 122 415 120 _c
415 117 _l
405 77 385 46 355 24 _c
325 1 289 -10 249 -10 _c
_cl}_e}_d
/p{{555 0 26 -193 522 442 _sc
26 -193 _m
26 -158 _l
48 -158 67 -156 82 -152 _c
96 -148 104 -139 104 -126 _c
104 355 _l
104 373 97 384 84 389 _c
71 393 52 396 26 396 _c
26 431 _l
174 442 _l
174 380 _l
192 400 213 415 237 426 _c
261 436 287 442 315 442 _c
354 442 389 431 421 410 _c
453 388 477 360 495 326 _c
513 291 522 254 522 216 _c
522 175 512 137 492 103 _c
}_e{472 68 446 40 412 20 _c
378 0 340 -10 300 -10 _c
251 -10 210 9 177 48 _c
177 -126 _l
177 -139 184 -148 199 -152 _c
213 -156 232 -158 255 -158 _c
255 -193 _l
26 -193 _l
177 97 _m
188 73 204 54 225 38 _c
246 22 269 15 294 15 _c
317 15 337 21 355 33 _c
373 45 388 62 400 83 _c
412 104 420 126 426 149 _c
432 172 435 194 435 216 _c
435 242 430 271 420 302 _c
}_e{410 333 396 359 376 381 _c
356 402 333 413 305 413 _c
278 413 253 406 231 392 _c
208 378 190 360 177 336 _c
177 97 _l
_cl}_e}_d
end readonly def

/BuildGlyph
 {exch begin
 CharStrings exch
 2 copy known not{pop /.notdef}if
 true 3 1 roll get exec
 end}_d

/BuildChar {
 1 index /Encoding get exch get
 1 index /BuildGlyph get exec
}_d

FontName currentdict end definefont pop
end
%%EndProlog
mpldict begin
216 306 translate
180 180 0 0 clipbox
gsave
0 0 m
180 0 l
180 180 l
0 180 l
cl
1.000 setgray
fill
grestore
gsave
34.2 36 m
174.6 36 l
174.6 162 l
34.2 162 l
cl
1.000 setgray
fill
grestore
0.500 setlinewidth
1 setlinejoin
0 setlinecap
[] 0 setdash
0.000 setgray
gsave
140.4 126 34.2 36 clipbox
/o {
gsave
newpath
translate
0.5 setlinewidth
1 setlinejoin
0 setlinecap
0 -0.25 m
0.0663008 -0.25 0.129895 -0.223658 0.176777 -0.176777 c
0.223658 -0.129895 0.25 -0.0663008 0.25 0 c
0.25 0.0663008 0.223658 0.129895 0.176777 0.176777 c
0.129895 0.223658 0.0663008 0.25 0 0.25 c
-0.0663008 0.25 -0.129895 0.223658 -0.176777 0.176777 c
-0.223658 0.129895 -0.25 0.0663008 -0.25 0 c
-0.25 -0.0663008 -0.223658 -0.129895 -0.176777 -0.176777 c
-0.129895 -0.223658 -0.0663008 -0.25 0 -0.25 c
cl
gsave
0.000 setgray
fill
grestore
stroke
grestore
} bind def
99.2507 108.742 o
105.668 108.43 o
106.507 94.5271 o
87.3993 112.208 o
103.565 98.2426 o
91.466 111.356 o
105.064 112.288 o
84.381 109.45 o
95.612 115.302 o
110.005 99.8521 o
104.411 76.2341 o
96.8023 108.172 o
103.746 77.6453 o
95.8349 112.3 o
98.46 104.004 o
109.695 97.3039 o
98.3903 109.321 o
88.7094 114.328 o
97.1807 100.892 o
107.341 91.4761 o
105.434 82.8636 o
89.7238 112.697 o
99.9585 109.793 o
94.9575 114.118 o
91.277 114.725 o
107.765 87.9441 o
107.532 91.1345 o
102.124 104.11 o
97.9645 111.839 o
107.506 96.0354 o
105.065 94.4 o
86.6542 112.202 o
90.9784 114.206 o
87.1512 112.97 o
109.687 89.5313 o
87.7843 113.768 o
103.927 95.915 o
109.188 96.4562 o
91.034 108 o
94.0783 118.675 o
109.05 93.461 o
101.368 113.788 o
89.1488 111.154 o
95.212 108.539 o
111.939 87.2668 o
102.448 112.166 o
103.469 82.4607 o
95.5513 112.117 o
105.906 102.052 o
101.12 102.582 o
100.958 97.1264 o
97.1049 107.268 o
110.792 83.9873 o
88.9715 112.798 o
101.871 93.2744 o
95.033 108.361 o
103.173 100.855 o
104.643 93.3807 o
124.992 86.6253 o
108.39 90.2563 o
109.141 92.0221 o
117.282 90.9784 o
102.858 81.2761 o
120.504 85.2532 o
103.496 108.84 o
113.388 92.0814 o
100.392 109.134 o
117.175 89.977 o
114.508 92.7933 o
99.9342 110.083 o
104.547 80.6224 o
90.1394 109.134 o
110.621 93.2286 o
88.5862 111.34 o
94.54 108.267 o
97.7504 113.764 o
93.7739 110.155 o
102.095 81.5126 o
104.772 86.5621 o
129.701 79.4716 o
90.7719 117.393 o
83.2455 131.279 o
88.068 109.18 o
89.8431 112.926 o
128.604 79.1726 o
85.3561 114.846 o
117.483 89.713 o
95.6673 113.13 o
101.71 71.4372 o
90.6977 114.691 o
113.775 85.9265 o
96.6424 105.591 o
94.8069 109.426 o
101.241 109.543 o
89.0188 118.605 o
72.9838 123.685 o
108.968 74.8501 o
94.5941 112.389 o
93.5964 114.697 o
93.4907 108.982 o
113.41 74.8886 o
99.9414 107.948 o
88.2568 111.106 o
115.207 90.7235 o
103.009 104.715 o
106.657 103.938 o
94.2084 110.572 o
117.077 93.239 o
112.834 88.9968 o
96.5788 104.097 o
120.032 67.3233 o
98.7176 113.302 o
98.7751 109.406 o
96.4536 108.672 o
97.6871 107.167 o
104.127 78.7903 o
93.5366 135.687 o
102.47 93.3699 o
118.844 95.6305 o
98.5347 97.1316 o
99.2326 110.097 o
104.762 93.0586 o
102.713 101.057 o
139.291 90.4738 o
101.436 115.538 o
110.103 96.4858 o
92.6639 109.662 o
107.586 88.1399 o
112.72 88.9445 o
110.482 84.0899 o
101.532 115.802 o
108.208 101.706 o
114.589 90.4901 o
91.4128 108.512 o
95.6578 109.432 o
110.55 94.7003 o
100.28 107.835 o
86.2377 115.943 o
90.0818 114.024 o
105.533 99.705 o
102.519 74.1448 o
90.5683 108.62 o
139.49 74.6367 o
104.857 96.453 o
103.636 114.591 o
87.862 111.568 o
116.118 85.455 o
112.205 93.7012 o
94.2046 110.926 o
123.014 73.3474 o
105.869 94.6514 o
99.9912 105.419 o
101.621 116.078 o
102.45 101.491 o
114.29 84.3038 o
88.0401 133.655 o
116.552 84.9062 o
93.7493 112.282 o
103.818 99.0543 o
116.51 86.5531 o
111.936 97.4706 o
109.766 86.3093 o
92.3621 111.342 o
102.489 104.323 o
107.524 93.5355 o
100.236 108.774 o
102.941 77.6498 o
100.961 131.704 o
113.304 86.5907 o
92.7759 109.577 o
113.283 91.3903 o
91.2225 119.089 o
104.649 76.5626 o
128.146 85.9535 o
112.244 93.0819 o
115.049 81.9831 o
109.656 90.4314 o
117.863 76.0438 o
95.7118 109.032 o
93.2767 113.071 o
100.896 114.105 o
92.4477 110.551 o
111.661 88.4012 o
111.105 90.1219 o
104.831 94.778 o
105.869 113.206 o
110.944 101.171 o
112.965 82.2244 o
107.174 82.1218 o
124.521 75.5295 o
106.955 98.661 o
98.3104 110.891 o
102.464 105.551 o
106.331 81.6267 o
100.129 107.692 o
110.043 95.7367 o
85.7801 110.525 o
108.213 92.5994 o
101.679 103.526 o
111.025 90.1728 o
102.314 116.79 o
109.643 85.9834 o
108.354 97.1414 o
110.874 89.2384 o
98.7066 113.162 o
93.7569 113.327 o
91.6482 131.797 o
103.876 83.9928 o
93.1421 110.091 o
89.5967 114.788 o
106.406 82.6345 o
87.6953 102.605 o
109.877 94.4309 o
122.29 80.254 o
102.896 73.7198 o
117.269 78.3802 o
107.24 90.8814 o
98.4439 106.62 o
139.974 86.3559 o
128.34 85.9455 o
95.9071 112.391 o
94.068 112.684 o
77.1782 109.867 o
89.7323 116.439 o
116.323 75.2471 o
102.357 84.9184 o
93.7512 112.207 o
117.017 98.3093 o
102.554 96.2128 o
110.151 82.8982 o
114.351 95.5262 o
140.457 90.1613 o
103.351 99.6602 o
135.544 85.7171 o
137.226 74.6462 o
108.324 93.3383 o
105.866 87.3865 o
92.2781 111.799 o
91.5048 115.013 o
103.448 104.161 o
102.871 121.442 o
97.3643 118.332 o
112.568 87.2837 o
105.223 77.9317 o
106.117 82.6824 o
112.675 90.6264 o
100.942 115.055 o
95.1085 110.349 o
117.39 78.4736 o
102.569 80.0883 o
113.627 97.9622 o
95.8292 112.45 o
105.24 77.658 o
95.311 111.446 o
136.054 98.4963 o
110.582 85.4022 o
122.122 90.7367 o
97.3953 117.348 o
104.872 110.279 o
115.359 88.1688 o
121.261 89.7953 o
112.189 80.6793 o
83.9284 129.569 o
106.432 95.8734 o
109.964 91.667 o
93.9543 116.866 o
91.3134 116.654 o
88.3896 111.263 o
114.326 94.3009 o
98.3615 107.038 o
107.155 76.9927 o
91.3509 112.774 o
110.199 86.8093 o
87.4947 115.517 o
105.663 81.6842 o
105.052 86.0825 o
105.657 93.2587 o
99.9353 103.885 o
120.516 75.3335 o
123.48 72.9704 o
111.805 98.3838 o
111.298 89.6067 o
98.1688 112.348 o
89.9207 113.312 o
107.527 98.4518 o
114.984 92.6452 o
116.98 79.3883 o
87.9915 112.074 o
108.264 101.486 o
100.199 101.027 o
88.3804 110.777 o
102.929 86.4913 o
100.274 107.971 o
93.0655 117.501 o
103.141 101.755 o
99.803 107.879 o
106.942 89.0556 o
98.2614 118.641 o
126.899 67.3103 o
117.439 125.818 o
105.832 96.164 o
85.352 111.851 o
127.631 82.2012 o
101.548 109.361 o
101.267 108.269 o
117.821 76.6496 o
122.329 83.562 o
91.2365 109.414 o
87.5214 119.707 o
103.193 104.29 o
123.499 84.1078 o
87.1548 110.606 o
109.178 98.5517 o
91.2254 121.517 o
105.413 77.0262 o
102.286 102.416 o
80.6737 105.888 o
123.36 79.1239 o
112.231 90.8755 o
142.933 87.5661 o
110.312 74.0746 o
105.691 99.0303 o
95.2831 109.98 o
85.8389 109.009 o
110.301 86.4716 o
110.78 81.4507 o
90.968 137.081 o
97.9525 104.885 o
105.348 95.4496 o
101.563 118.698 o
95.7445 106.454 o
115.704 83.7927 o
103.772 91.3459 o
117.064 81.117 o
96.782 112.718 o
107.609 88.6765 o
101.826 106.185 o
83.9041 116.593 o
79.1317 129.847 o
126.297 83.0481 o
89.2219 111.059 o
114.77 90.8431 o
96.9514 138.559 o
109.749 101.281 o
89.2922 140.87 o
101.13 100.018 o
118.71 82.9268 o
99.4104 102.347 o
103.53 89.2349 o
96.6662 110.077 o
100.793 98.0546 o
118.486 89.3393 o
73.7004 126.023 o
105.409 92.0099 o
104.706 101.496 o
109.03 98.9189 o
93.6814 115.455 o
100.016 119.445 o
96.2307 109.946 o
110.583 93.4271 o
109.015 99.0833 o
94.8459 105.441 o
96.8169 112.154 o
89.6604 126.388 o
95.1292 100.617 o
108.351 99.7367 o
113.182 127.227 o
121.539 81.3414 o
93.1267 112.947 o
105.703 86.9612 o
129.668 83.0057 o
122.911 82.4151 o
81.71 124.467 o
96.9491 102.067 o
122.333 76.1602 o
119.957 83.0721 o
93.413 111.102 o
98.5993 117.947 o
123.352 89.1205 o
108.069 99.5254 o
103.045 106.453 o
97.8952 118.161 o
94.1056 118.894 o
99.7631 110.499 o
106.194 88.8322 o
89.1184 112.867 o
103.18 89.2178 o
95.2307 114.254 o
109.407 79.9197 o
102.556 80.1751 o
98.4383 126.792 o
107.173 98.4256 o
96.9563 102.111 o
113.618 97.2566 o
97.6104 120.287 o
92.6576 102.612 o
136.32 95.6914 o
108.429 94.691 o
88.586 108.888 o
101.002 112.638 o
69.9172 132.952 o
114.429 94.4099 o
106.185 104.194 o
84.2159 113.965 o
113.473 122.299 o
101.507 98.4648 o
115.623 78.2618 o
100.953 114.633 o
97.7918 96.5556 o
107.381 90.0237 o
97.8872 115.309 o
87.1152 134.321 o
103.755 93.6628 o
84.1026 121.591 o
97.396 116.55 o
117.676 88.1806 o
98.2655 109.723 o
102.495 101.388 o
80.162 119.875 o
92.9987 107.617 o
101.012 105.544 o
104.712 107.302 o
139.098 75.0776 o
116.622 96.2833 o
95.1763 115.868 o
104.357 93.645 o
117.991 72.3938 o
136.289 95.8011 o
103.235 86.2745 o
107.117 95.6993 o
127.787 70.1034 o
84.9332 107.925 o
108.573 89.5496 o
89.6888 109.897 o
137.099 98.7705 o
112.775 87.2042 o
112.206 100 o
96.1613 114.802 o
109.222 89.4194 o
102.361 103.375 o
102.198 109.359 o
98.1498 117.728 o
93.909 102.951 o
98.0618 103.732 o
119.629 82.3194 o
123.558 92.9841 o
83.5112 112.309 o
133.252 90.6255 o
99.5125 114.87 o
101.595 103.609 o
114.539 93.2946 o
116.674 88.5113 o
109.846 99.011 o
122.815 70.723 o
105.513 90.2369 o
105.366 92.4116 o
132.217 87.5266 o
104.039 102.172 o
91.2917 115.024 o
113.098 96.1764 o
88.0436 132.561 o
104.611 85.5747 o
79.9289 113.467 o
116.686 93.6927 o
113.084 90.7524 o
107.119 92.7896 o
103.363 86.9837 o
102.593 81.9234 o
110.09 96.5148 o
111.064 80.9931 o
94.229 138.092 o
98.1299 110.499 o
132.175 74.0187 o
103.508 132.411 o
107.535 80.9256 o
107.014 97.9798 o
119.895 80.0009 o
98.7503 114.164 o
95.996 79.9776 o
113.191 76.4651 o
99.3844 108.44 o
111.979 94.9392 o
108.77 93.5473 o
97.6442 109.322 o
122.306 71.9896 o
85.0927 134.359 o
107.296 93.8323 o
111.686 87.618 o
115.662 86.22 o
128.997 81.2939 o
99.5386 108.64 o
94.1675 107.799 o
114.241 89.4339 o
87.3585 106.557 o
107.905 83.1789 o
109.21 99.5701 o
107.077 95.0582 o
127.003 75.0285 o
88.7132 103.985 o
115.483 85.3562 o
106.856 88.5022 o
134.643 90.8064 o
131.945 89.5946 o
116.291 76.8578 o
99.7638 112.957 o
117.8 90.7181 o
128.726 71.7496 o
101.599 101.766 o
105.092 100.139 o
108.495 84.5955 o
95.997 99.8468 o
106.026 82.5346 o
83.9232 109.361 o
91.9219 113.19 o
123.17 71.5123 o
96.355 106.625 o
106.295 91.1926 o
108.883 102.953 o
101.666 112.658 o
104.992 94.3086 o
122.756 84.6428 o
104.292 76.3055 o
100.384 104.193 o
128.363 87.3371 o
108.037 94.3101 o
120.824 92.7584 o
108.965 86.5544 o
105.867 89.884 o
110.371 74.2469 o
120.581 95.1794 o
102.619 91.7116 o
96.1439 113.159 o
85.6386 123.951 o
108.003 94.984 o
84.6214 109.594 o
128.669 75.4155 o
94.0839 102.899 o
93.6225 111.358 o
106.544 96.2787 o
125.631 83.8577 o
97.231 114.921 o
103.031 102.108 o
110.918 75.5839 o
117.586 64.9608 o
130.212 68.7707 o
93.6685 109.705 o
101.758 101.334 o
82.8241 115.393 o
104.776 95.4931 o
96.7601 105.546 o
114.13 89.5669 o
94.2745 100.243 o
98.7596 104.753 o
104.538 121.807 o
107.495 84.1357 o
132.408 78.2794 o
102.645 99.2037 o
111.906 81.9503 o
109.811 92.0916 o
104.767 92.3381 o
115.271 82.702 o
92.2265 112.805 o
103.627 77.3657 o
104.433 104.369 o
95.4006 109.13 o
92.0629 110.992 o
90.9182 115.837 o
115.576 83.2202 o
102.285 110.285 o
103.02 99.3938 o
135.133 71.2098 o
95.543 103.726 o
94.39 114.534 o
113.439 86.6258 o
95.3948 113.482 o
81.9554 123.77 o
90.4839 104.707 o
100.1 106.084 o
91.4455 110.777 o
139.993 93.5461 o
122.34 84.4731 o
101.195 98.314 o
120.074 87.3993 o
83.4249 119.518 o
117.362 93.5501 o
109.132 96.9256 o
130.584 64.7658 o
93.176 114.326 o
114.476 92.1905 o
111.942 100.536 o
113.634 90.8008 o
91.4363 118.433 o
104.904 94.0872 o
101.633 89.9852 o
123.648 84.0245 o
109.588 96.602 o
108.577 98.3155 o
131.744 86.9343 o
110.991 87.9428 o
98.3685 99.3544 o
85.5783 111.506 o
114.206 87.5947 o
104.68 92.5986 o
95.9092 108.266 o
147.517 76.7052 o
125.557 69.5732 o
99.1932 113.069 o
112.27 91.1643 o
140.233 85.1119 o
92.4206 127.695 o
127.321 86.666 o
119.59 72.2302 o
91.6708 105.015 o
86.401 107.458 o
133.412 85.6992 o
95.9071 109.855 o
114.369 81.9562 o
138.904 79.1924 o
106.864 92.7245 o
85.1825 104.172 o
100.84 94.2404 o
121.545 84.623 o
134.671 69.0657 o
121.358 87.5914 o
109.595 81.6362 o
100.201 98.6639 o
108.15 108.31 o
104.885 91.9517 o
88.3285 105.398 o
97.7486 102.52 o
116.742 81.0689 o
81.4373 109.902 o
101.769 72.4907 o
93.6064 114.75 o
106.07 106.792 o
105.264 93.0153 o
133.623 93.0957 o
92.9863 117.176 o
112.662 96.5052 o
107.556 88.5254 o
112.948 80.902 o
138.625 85.2227 o
121.566 95.5465 o
120.426 81.8725 o
103.856 100.886 o
145.15 74.8952 o
92.7374 111.337 o
84.6994 112.613 o
88.6237 103.191 o
113.414 95.2658 o
116.848 86.443 o
107.798 78.5426 o
108.367 86.6699 o
109.425 106.437 o
112.359 85.5698 o
108.873 98.3004 o
105.23 101.754 o
109.044 94.8661 o
106.448 94.6373 o
99.85 85.7963 o
112.079 81.4671 o
105.145 100.307 o
110.836 85.8473 o
81.2181 115.203 o
122.608 86.296 o
123.075 74.3415 o
115.693 82.0121 o
130.475 103.219 o
90.2527 120.528 o
100.192 98.9027 o
94.6958 99.7371 o
115.568 83.366 o
76.5158 126.229 o
100.111 105.221 o
134.452 85.3716 o
123.672 66.6952 o
115.767 98.2358 o
89.7713 107.987 o
110.605 93.8299 o
139.544 75.0559 o
106.229 97.0113 o
120.177 85.955 o
116.852 71.1358 o
119.462 82.0875 o
120.058 81.831 o
134.915 85.8381 o
115.995 89.3583 o
135.49 97.808 o
87.2216 112.443 o
116.128 86.2868 o
99.7717 97.9099 o
105.907 80.7733 o
76.3708 137.188 o
119.011 84.0033 o
90.0387 110.054 o
102.41 86.3537 o
92.8358 112.223 o
104.403 112.865 o
102.354 111.698 o
100.872 97.9158 o
107.641 95.4721 o
111.407 108.452 o
115.459 91.8874 o
104.861 96.8655 o
80.5519 129.306 o
91.6587 110.36 o
116.345 79.0448 o
117.822 77.4999 o
107.013 100.821 o
86.1635 112.901 o
136.286 96.0613 o
104.392 112.942 o
97.8066 102.136 o
86.7717 112.049 o
111.254 88.0793 o
97.04 103.726 o
130.453 78.8162 o
97.6145 105.291 o
121.526 91.8129 o
102.503 98.4941 o
89.0739 125.176 o
113.754 89.1595 o
100.069 96.8392 o
133.463 82.97 o
95.8614 105.682 o
113.764 77.9114 o
124.043 81.8429 o
83.5736 103.274 o
108.987 97.7234 o
125.892 91.1371 o
140.628 75.2804 o
86.5292 113.742 o
103.78 100.602 o
137.941 96.2176 o
129.385 78.9447 o
109.274 85.2795 o
115.831 72.8012 o
95.6842 99.6176 o
113.771 92.66 o
119.612 85.2995 o
109.239 96.3226 o
93.2726 102.304 o
102.174 105.111 o
98.5742 87.8457 o
73.7011 120.392 o
112.806 75.8582 o
102.965 93.87 o
93.8814 117.546 o
103.399 91.9876 o
111.097 96.3281 o
91.574 104.576 o
113.969 85.7419 o
105.582 110.041 o
107.876 102.981 o
110.519 101.146 o
107.979 92.1088 o
102.061 124.82 o
112.939 89.0562 o
92.4556 103.883 o
105.748 94.082 o
110.139 98.1835 o
102.8 109.043 o
72.0348 111.542 o
105.606 108.443 o
105.412 77.8718 o
119.093 76.2154 o
106.225 97.111 o
107.762 113.961 o
112.673 90.2125 o
115.011 81.8375 o
104.449 82.1751 o
105.362 88.8226 o
97.0912 98.9892 o
107.461 82.0072 o
111.348 83.1234 o
95.0787 132.279 o
99.3655 104.672 o
85.4208 128.121 o
116.079 75.3817 o
89.6834 108.608 o
127.039 86.8994 o
97.3205 112.848 o
139.073 77.1922 o
122.109 93.5611 o
109.422 100.679 o
131.029 76.5924 o
99.3015 98.3487 o
127.904 78.0506 o
101.157 114.048 o
121.058 91.3787 o
105.546 102.578 o
118.722 88.4081 o
142.336 92.7984 o
101.304 132.974 o
94.104 83.0661 o
100.034 118.293 o
104.114 99.9665 o
134.822 83.611 o
95.8686 110.292 o
91.9458 114.692 o
86.7469 115.566 o
144.464 80.1799 o
113.596 82.4325 o
106.722 95.6539 o
98.9948 109.075 o
119.841 73.4461 o
63.189 107.937 o
136.483 65.3153 o
110.316 84.3954 o
73.9017 120.911 o
132.585 71.0812 o
102.187 89.6602 o
104.775 87.6166 o
100.656 101.216 o
114.964 95.746 o
103.413 92.6988 o
117.155 86.5984 o
100.709 112.749 o
127.735 79.0757 o
76.6478 124.35 o
111.671 75.9292 o
92.9133 100.985 o
99.9072 78.9367 o
105.765 97.9611 o
97.0839 117.287 o
104.345 90.3977 o
109.316 97.3366 o
105.703 87.5297 o
129.083 92.6054 o
101.44 119.354 o
95.6514 119.585 o
107.365 98.5238 o
117.971 84.1767 o
98.206 98.2709 o
119.664 78.4974 o
89.7071 111.363 o
101.874 94.5896 o
135.265 81.2975 o
136.611 76.612 o
119.957 75.4602 o
116.516 122.355 o
110.517 89.9814 o
115.058 83.0799 o
93.9004 107.735 o
124.007 83.3863 o
103.42 109.029 o
101.719 110.417 o
110.323 92.3502 o
127.238 86.0424 o
110.14 99.2884 o
129.101 80.1914 o
98.3386 120.252 o
110.513 93.3167 o
99.7696 104.057 o
110.653 94.859 o
109.33 78.364 o
91.7923 111.291 o
119.473 85.5739 o
100.522 103.709 o
118.838 88.412 o
90.1971 103.668 o
145.043 78.3142 o
109.447 97.1358 o
85.0993 109.22 o
110.765 95.0943 o
98.7267 117.655 o
63.1249 110.417 o
116.099 98.2756 o
98.746 106.272 o
109.333 88.0309 o
91.816 107.963 o
99.2365 142.5 o
107.042 87.1968 o
114.555 97.8632 o
103.5 101.647 o
106.083 109.211 o
117.001 90.904 o
89.9226 130.214 o
67.4208 116.14 o
108.395 83.346 o
137.015 95.7856 o
90.8333 114.266 o
112.544 100.416 o
117.642 81.12 o
103.853 107.005 o
111.675 118.428 o
96.1101 101.278 o
94.967 115.557 o
102.116 75.0885 o
142.961 92.0556 o
128.129 72.232 o
112.622 91.2787 o
97.5073 102.366 o
102.911 92.9273 o
109.309 89.225 o
114.465 88.2335 o
93.1108 105.047 o
89.3385 113.358 o
114.638 93.001 o
118.967 83.5981 o
109.762 97.6333 o
119.051 84.7567 o
123.504 92.341 o
100.001 112.165 o
128.595 96.1336 o
117.122 83.6084 o
98.0698 93.3896 o
81.5175 110.453 o
84.0169 119.67 o
124.374 94.228 o
100.439 101.191 o
114.842 80.0003 o
144.514 80.3055 o
100.236 97.5341 o
93.4453 103.096 o
112.788 91.0121 o
96.4068 108.011 o
101.623 103.634 o
96.2072 105.85 o
121.033 75.6688 o
95.3354 105.231 o
118.918 89.92 o
114.689 86.1004 o
86.5146 131.427 o
123.431 72.5524 o
101.686 105.121 o
105.22 95.1003 o
110.823 93.6686 o
102.432 110.09 o
120.841 83.2061 o
104.716 94.263 o
124.431 86.7425 o
87.752 107.361 o
102.401 98.6435 o
123.854 84.9708 o
107.714 81.6453 o
108.203 97.5779 o
104.949 92.5364 o
115.574 86.9144 o
102.968 103.678 o
128.204 78.7507 o
135.364 83.976 o
105.55 89.1126 o
128.094 73.6025 o
93.3894 105.483 o
133.745 82.2033 o
99.1729 118.419 o
101.558 111.049 o
120.915 81.8388 o
81.9417 116.751 o
87.619 114.609 o
68.0209 114.644 o
98.7041 100.617 o
130.919 93.1321 o
111.732 85.6969 o
85.857 122.34 o
116.199 82.3458 o
110.712 90.791 o
107.332 96.5181 o
103.074 103.194 o
114.726 77.2472 o
126.439 87.4915 o
94.1414 103.309 o
133.015 88.8323 o
96.6947 108.906 o
99.1484 95.7041 o
102.977 131.194 o
104.702 95.2634 o
109.893 87.9575 o
104.216 93.3303 o
78.5613 111.163 o
108.524 90.4804 o
103.334 94.799 o
142.283 88.1074 o
114.803 84.0035 o
119.222 89.9373 o
128.065 75.4098 o
102.058 119.157 o
134.45 96.7383 o
94.7828 113.834 o
118.801 96.9026 o
119.987 71.3705 o
101.657 110.386 o
106.303 87.5178 o
100.956 113.485 o
139.056 77.5672 o
103.865 103.991 o
94.7535 98.7569 o
129.648 80.7668 o
98.5387 141.506 o
122.941 83.8803 o
84.1383 107.207 o
116.598 86.1474 o
113.186 88.4039 o
64.8582 105.428 o
131.489 72.4963 o
103.693 101.931 o
99.8539 99.4465 o
116.955 82.3326 o
115.699 85.5859 o
112.83 95.9732 o
107.323 87.5206 o
101.766 119.334 o
103.839 107.006 o
86.9477 121.577 o
87.0485 67.5412 o
110.312 98.283 o
117.775 82.7987 o
98.5113 96.901 o
117.429 104.008 o
109.063 79.2482 o
116.032 71.5441 o
104.516 82.9118 o
108.22 96.8127 o
122.021 85.3713 o
109.822 88.1619 o
111.341 95.216 o
135.015 73.7915 o
113.803 80.227 o
129.527 92.5388 o
99.2239 100.499 o
94.1142 128.855 o
94.3535 126.172 o
111.804 94.4448 o
128.971 74.0033 o
116.658 89.1533 o
98.5103 119.725 o
123.135 71.8979 o
108.099 102.816 o
106.805 94.1127 o
130.096 78.8362 o
114.29 75.8346 o
126.545 88.9388 o
106.658 86.7057 o
120.929 78.7283 o
115.484 84.9319 o
112.313 83.8682 o
75.3194 121.328 o
116.503 63.4535 o
113.236 86.823 o
103.916 95.9087 o
122.231 86.83 o
94.3544 113.922 o
119.735 82.6242 o
114.935 97.974 o
88.657 114.2 o
98.4166 99.864 o
114.464 92.1475 o
98.8648 106.178 o
135.729 98.1979 o
112.18 92.5176 o
99.1232 111.763 o
122.206 88.9217 o
108.681 75.5685 o
119.426 78.7791 o
110.394 92.726 o
90.7333 113.769 o
116.285 84.8214 o
64.7087 116.283 o
105.054 103.288 o
116.089 88.9035 o
107.75 86.6334 o
114.531 86.9537 o
88.7539 130.772 o
105.532 107.058 o
120.436 81.5686 o
106.525 77.4542 o
110.132 92.1442 o
124.47 83.9079 o
102.472 106.476 o
99.1401 108.119 o
114.739 87.4209 o
113.169 88.2334 o
125.918 83.5552 o
114.671 87.6441 o
142.33 72.3524 o
126.225 89.3326 o
92.0755 108.957 o
91.8404 108.255 o
106.188 114.048 o
85.9374 108.149 o
94.9001 108.711 o
140.768 82.322 o
130.252 78.6863 o
109.968 72.6963 o
115.854 89.7441 o
114.871 78.3228 o
91.8636 117.561 o
102.538 92.8182 o
89.0073 114.048 o
92.4206 105.917 o
89.8784 119.83 o
115.112 95.3076 o
106.268 92.275 o
105.104 116.071 o
114.285 79.1683 o
87.1857 107.653 o
120.554 83.257 o
114.132 72.2575 o
104.196 100.672 o
106.153 98.6571 o
120.469 77.4219 o
110.922 97.1589 o
125.823 88.1213 o
110.035 77.8905 o
97.8088 109.581 o
104.47 99.4943 o
116.235 94.9657 o
103.079 78.1621 o
88.7836 104.515 o
85.7414 130.912 o
126.551 83.5628 o
122.748 122.317 o
119.471 81.1004 o
110.029 116.815 o
120.755 63.418 o
96.8957 116.804 o
96.4513 110.87 o
116.166 88.0597 o
93.2005 110.829 o
93.1041 119.716 o
97.9247 115.651 o
107.962 93.1652 o
128.566 75.7675 o
94.2692 109.961 o
103.014 63.4691 o
73.2188 108.212 o
105.527 81.2395 o
123.974 64.288 o
99.5439 95.4686 o
113.832 82.4923 o
109.017 133.559 o
118.889 102.719 o
105.3 112.765 o
114.658 73.5421 o
92.0085 106.035 o
106.175 101.484 o
110.489 96.995 o
116.762 95.4697 o
113.287 93.0641 o
90.5753 107.362 o
121.047 87.1967 o
93.0583 107.378 o
93.4329 110.671 o
121.901 69.1874 o
129.656 84.7531 o
123.523 97.4061 o
102.947 95.474 o
129.926 86.123 o
127.367 75.4503 o
103.269 99.3233 o
95.3904 100.836 o
117.484 101.673 o
119.417 66.4432 o
80.5754 116.03 o
120.267 86.0166 o
136.809 74.1933 o
134.72 77.3742 o
143.151 80.7752 o
137.41 96.0991 o
93.6293 113.068 o
115.678 80.7493 o
90.9954 124.707 o
129.55 104.824 o
116.912 85.6359 o
111.456 82.702 o
128.373 82.4251 o
118.616 73.7872 o
105.006 99.0693 o
120.415 98.0748 o
114.862 94.0614 o
89.4671 105.496 o
93.2743 113.587 o
118.958 79.2439 o
129.018 78.1811 o
77.9137 113.554 o
98.3296 102.042 o
115.322 94.9828 o
90.0603 117.544 o
142.077 72.9931 o
114.279 72.9024 o
120.08 67.9622 o
125.4 80.6448 o
112.659 79.9904 o
104.045 74.2208 o
93.9489 102.654 o
113.759 91.8375 o
94.6048 120.546 o
97.8874 127.433 o
89.437 97.4754 o
107.31 92.4754 o
113.701 84.4314 o
107.895 119.556 o
107.552 91.092 o
116.636 73.7679 o
103.922 93.1429 o
108.181 82.6045 o
110.874 93.0428 o
102.728 114.887 o
91.9548 120.756 o
97.9541 105.72 o
116.452 90.7784 o
109.564 94.6378 o
105.173 131.181 o
83.9469 115.248 o
106.229 95.7934 o
122.733 94.7283 o
91.1907 112.241 o
112.12 85.4772 o
144.604 82.5853 o
115.271 95.4813 o
122.72 87.1508 o
83.8358 109.097 o
89.4589 113.577 o
83.4851 110.288 o
131.08 74.4054 o
93.02 101.035 o
132.344 82.5704 o
64.7551 115.604 o
110.079 112.179 o
115.7 83.4726 o
102.546 101.957 o
117.951 77.3477 o
88.6203 105.921 o
99.6619 102.068 o
104.996 73.2322 o
97.8267 107.543 o
81.3826 109.956 o
104.955 100.458 o
116.266 76.6875 o
117.067 89.2423 o
119.401 91.4787 o
104.912 70.2135 o
115.961 131.257 o
135.2 82.119 o
109.529 122.54 o
100.366 98.3964 o
72.504 135.083 o
97.3948 104.521 o
116.828 86.6949 o
113.522 74.8001 o
115.698 71.9801 o
101.935 95.3241 o
93.1385 114.039 o
96.1808 101.637 o
84.7999 106.391 o
106.124 98.0929 o
100.55 116.128 o
106.505 73.3307 o
90.4519 97.934 o
100.459 106.489 o
140.984 73.5481 o
121.088 74.1724 o
85.7511 114.937 o
128.36 67.8773 o
103.531 87.6563 o
140.834 78.8456 o
106.46 78.7934 o
81.746 121.428 o
125.21 90.7344 o
104.968 85.1709 o
119.479 82.9792 o
111.77 89.8244 o
96.7094 121.635 o
115.828 94.5382 o
121.564 87.3563 o
122.881 82.7436 o
127.885 93.8334 o
93.8499 118.749 o
137.377 95.1088 o
111.245 90.1901 o
118.142 130.486 o
75.4545 121.51 o
112.497 94.3683 o
119.467 80.6842 o
92.0458 101.192 o
113.136 78.2925 o
95.0431 104.172 o
119.447 58.9244 o
137.914 67.618 o
101.267 97.6597 o
104.001 84.3459 o
110.58 90.1349 o
100.051 106.757 o
132.174 93.7767 o
122.518 83.7009 o
114.095 91.7005 o
93.8537 102.326 o
88.9218 124.09 o
103.016 88.0549 o
126.004 82.1693 o
111.253 93.4159 o
94.2457 107.977 o
124.427 85.7208 o
103.488 91.1497 o
117.174 90.0064 o
110.179 126.18 o
84.7226 126.496 o
117.145 62.0904 o
109.411 94.8118 o
99.7435 101.697 o
115.891 89.1083 o
99.678 77.4536 o
98.1446 102.056 o
85.2289 114.082 o
112.941 83.1863 o
89.5153 117.555 o
130.191 73.3947 o
104.241 103.309 o
116.268 98.562 o
121.2 87.6222 o
102.321 94.1243 o
97.3405 97.7979 o
102.207 113.259 o
112.813 97.748 o
107.222 78.1525 o
100.89 105.41 o
100.657 105.2 o
112.435 87.0242 o
118.486 99.9196 o
138.258 90.1941 o
100.205 101.967 o
115.873 116.187 o
106.474 80.5622 o
86.5418 106.193 o
102.832 97.2292 o
95.9509 122.523 o
90.1405 99.6728 o
65.1131 101.732 o
87.703 127.973 o
78.6999 119.747 o
126.52 95.9183 o
109.38 81.5928 o
112.259 96.1719 o
118.063 84.9622 o
101.466 91.2925 o
103.962 106.511 o
103.625 107.524 o
105.494 77.1891 o
106.811 100.215 o
119.695 86.6472 o
78.6329 109.424 o
108.626 95.9702 o
116.399 76.3965 o
97.1084 121.001 o
116.398 79.0015 o
88.8059 75.3358 o
105.276 70.8167 o
103.272 88.7958 o
106.613 82.1753 o
119.659 77.2457 o
107.52 91.2031 o
94.5403 113.874 o
98.4872 100.087 o
125.875 82.3764 o
118.415 89.2794 o
102.793 81.1525 o
102.892 94.8282 o
90.9024 109.095 o
104.929 96.0525 o
95.5064 82.0353 o
104.783 90.4846 o
101.897 77.8906 o
105.16 100.041 o
124.498 80.4804 o
82.5313 143.684 o
97.1375 83.4126 o
105.865 98.4344 o
112.117 95.7243 o
94.2911 109.476 o
97.1061 112.875 o
92.3479 79.4115 o
123.109 83.129 o
64.7857 114.933 o
103.728 114.603 o
102.635 82.3007 o
89.7451 123.54 o
97.2211 115.492 o
117.409 89.1953 o
89.2076 111.593 o
116.022 90.4543 o
86.9417 103.275 o
106.944 91.3144 o
75.748 123.221 o
119.475 102.699 o
118.954 88.9054 o
111.83 83.1424 o
105.856 88.9969 o
79.9389 116.659 o
139.342 91.8378 o
115.197 78.7076 o
74.2238 128.592 o
110.842 80.6039 o
109.108 95.2733 o
127.378 91.9569 o
105.073 93.0544 o
125.479 83.7509 o
102.725 109.523 o
138.7 70.2912 o
102.184 105.009 o
110.445 90.0618 o
123.325 85.2436 o
126.372 84.5874 o
93.8983 60.2646 o
110.47 123.949 o
92.4793 110.079 o
109.785 86.7082 o
118.155 85.1738 o
97.8612 116.143 o
109.849 96.0262 o
112.527 94.8014 o
133.234 76.527 o
126.686 67.859 o
139.385 102.252 o
91.638 104.911 o
102.79 118.47 o
75.4173 118.978 o
122.881 86.2278 o
127.817 94.3593 o
97.2019 104.541 o
110.936 72.2175 o
90.2325 114.508 o
103.503 101.578 o
107.034 71.549 o
104.936 102.584 o
71.7963 100.906 o
96.2338 101.345 o
110.103 92.7127 o
115.041 90.9153 o
83.1748 112.391 o
131.405 88.4885 o
100.969 105.694 o
107.326 118.707 o
97.849 106.307 o
112.636 92.263 o
112.948 101.524 o
121.411 88.2607 o
98.8872 92.9244 o
104.217 118.839 o
124.83 93.1278 o
86.9441 122.098 o
82.9212 124.827 o
128.661 65.4768 o
111.234 95.4731 o
107.309 93.2596 o
144.557 82.8159 o
123.078 90.643 o
100.22 81.1264 o
111.785 83.7483 o
98.1139 120.353 o
93.1085 116.321 o
104.294 99.5449 o
118.142 98.9744 o
107.828 132.644 o
101.406 119.08 o
130.458 77.5817 o
87.8139 119.996 o
96.5756 105.429 o
104.5 97.0946 o
109.128 93.1638 o
84.19 107.695 o
94.1752 113.382 o
116.414 79.4696 o
105.733 94.0572 o
92.7284 119.789 o
108.433 86.7075 o
86.1751 110.932 o
104.936 88.1722 o
114.07 118 o
111.326 95.9279 o
107.369 92.8649 o
90.8437 125.25 o
100.718 143.553 o
123.764 77.052 o
85.1202 116.945 o
97.6951 77.63 o
123.859 82.1427 o
119.855 86.2056 o
110.509 76.3367 o
90.4212 121.298 o
112.48 77.2248 o
93.0536 108.34 o
98.0764 101.587 o
99.7876 116.967 o
120.167 103.407 o
80.7799 129.36 o
124.061 91.2477 o
117.244 89.0062 o
113.294 87.7698 o
114.175 101.312 o
80.399 105.31 o
123.585 94.6861 o
124.498 79.1154 o
83.3132 92.6601 o
105.913 91.3121 o
142.533 82.654 o
108.09 84.0028 o
125.363 80.3183 o
124.557 86.0431 o
106.274 95.9549 o
66.8745 122.488 o
109.504 93.4149 o
91.7043 109.657 o
110.83 94.2094 o
76.4542 109.518 o
100.631 105.762 o
133.172 67.7229 o
88.3557 122.243 o
111.128 92.383 o
117.5 83.3675 o
126.314 78.7928 o
99.0576 101.906 o
119.36 93.5313 o
117.607 102.115 o
76.9689 104.551 o
110.723 90.3749 o
92.5639 104.784 o
107.807 97.0865 o
135.149 74.4406 o
93.7574 116.713 o
91.8734 66.6015 o
131.332 93.629 o
126.103 104.229 o
125.696 96.0445 o
122.099 66.384 o
126.237 72.1658 o
118.421 100.581 o
93.0421 107.116 o
105.775 87.6241 o
101.819 107.165 o
96.9417 96.7226 o
116.323 86.3664 o
101.847 120.233 o
101.602 96.6442 o
109.348 123.805 o
105.052 103.282 o
101.135 98.2596 o
107.413 76.0608 o
104.259 98.2654 o
86.7783 113.301 o
113.153 87.2531 o
133.955 69.105 o
101.057 108.668 o
120.633 73.4715 o
114.857 82.7932 o
108.982 79.0321 o
104.09 124.404 o
122.498 82.1652 o
101.505 90.2623 o
105.56 76.815 o
77.5699 119.642 o
124.306 72.6737 o
111.372 72.1335 o
84.7318 113.931 o
93.9799 127.918 o
93.0264 102.22 o
119.88 92.1177 o
102.859 105.462 o
125.971 82.8633 o
80.302 104.928 o
96.4887 90.3846 o
122.919 93.0222 o
108.302 80.3235 o
130.891 87.0315 o
101.85 102.599 o
97.7997 104.051 o
95.4277 116.74 o
90.7109 106.75 o
98.4193 102.709 o
108.482 83.751 o
145.395 99.0554 o
103.522 90.9181 o
106.379 74.1863 o
92.0576 96.418 o
94.2696 106.21 o
114.308 74.2922 o
105.36 93.2312 o
126.349 71.1554 o
68.1702 124.255 o
109.879 95.6978 o
102.141 102.992 o
127.293 77.3819 o
144.789 78.2452 o
83.5153 121.833 o
103.815 97.7764 o
101.247 97.9878 o
107.604 82.4339 o
100.897 93.7024 o
129.681 79.0794 o
111.025 92.0679 o
102.953 94.2324 o
99.3515 104.335 o
66.0739 108.381 o
100.233 98.237 o
103.666 86.5314 o
109.909 87.3733 o
109.533 102.423 o
125.303 78.9935 o
115.437 87.5686 o
109.976 95.9138 o
117.854 100.944 o
100.199 105.761 o
92.5055 104.159 o
104.069 94.0869 o
111.934 90.3532 o
87.5954 107.635 o
128.587 81.925 o
111.526 96.4318 o
102.216 101.565 o
101.593 107.737 o
77.5963 109.146 o
121.342 75.5971 o
96.0669 119.481 o
101.721 121.989 o
125.135 90.31 o
95.1306 121.218 o
106.79 90.9107 o
105.034 87.4344 o
107.966 97.7793 o
104.273 101.457 o
90.4863 131.888 o
104.16 95.0666 o
101.943 106.686 o
100.816 102.932 o
118.809 79.7803 o
108.496 89.2423 o
142.76 79.7132 o
143.273 84.0635 o
105.583 100.107 o
92.5571 115.042 o
122.225 80.8337 o
99.3614 102.817 o
103.518 84.429 o
106.624 93.0442 o
117.574 93.1504 o
106.48 76.4173 o
121.26 90.8103 o
85.7937 110.371 o
93.948 109.404 o
98.9153 100.217 o
120.285 81.5942 o
110.694 87.8979 o
113.093 87.5364 o
81.2585 93.4691 o
90.1686 120.429 o
98.0954 110.315 o
123.926 49.2949 o
104.56 106.235 o
103.194 99.0261 o
116.798 104.881 o
116.774 80.7964 o
107.339 97.9626 o
90.0124 111.778 o
144.731 83.9353 o
115.077 77.4911 o
100.079 101.893 o
104.03 77.0284 o
118.957 84.7874 o
120.407 76.4811 o
96.4756 94.7914 o
97.4602 107.495 o
110.988 70.3728 o
109.469 89.3022 o
113.362 61.6745 o
116.937 82.9683 o
139.762 78.9638 o
123.028 79.3537 o
94.749 117.252 o
111.001 83.7904 o
106.502 101.101 o
123.397 90.3654 o
80.1808 108.508 o
120.27 75.65 o
108.341 79.6714 o
87.874 89.4102 o
106.393 76.2462 o
118.518 92.1145 o
115.196 93.2124 o
120.734 61.6107 o
89.2123 137.204 o
88.9241 112.782 o
97.8661 103.954 o
104.563 91.7161 o
136.488 75.0477 o
99.4294 94.0478 o
83.6784 106.712 o
97.0875 125.72 o
126.416 68.0159 o
102.61 108.278 o
115.088 90.2009 o
98.7901 107.468 o
123.329 85.0376 o
115.983 82.1049 o
109.467 89.5988 o
123.853 94.832 o
117.087 91.1137 o
104.761 104.849 o
134 102.409 o
100.332 73.9328 o
119.628 100.815 o
111.702 95.5408 o
90.7642 113.54 o
119.633 83.9029 o
107.643 99.6231 o
101.997 95.4261 o
115.893 85.1313 o
94.9472 102.629 o
116.277 131.605 o
112.073 95.0654 o
85.7093 86.2257 o
106.303 104.105 o
109.392 132.093 o
98.1818 106.572 o
99.2226 99.336 o
111.572 87.8141 o
128 80.6227 o
133.328 85.4832 o
97.175 99.5627 o
114.465 89.0069 o
103.312 92.6086 o
114.559 82.4042 o
112.753 76.1174 o
108.993 99.9184 o
103.301 107.199 o
99.908 139.999 o
105.831 93.6885 o
104.528 101.494 o
124.751 63.2917 o
111.626 77.7454 o
110.121 93.8426 o
98.1764 96.5798 o
108.928 79.8575 o
115.293 92.6899 o
106.663 115.834 o
106.406 109.253 o
61.7896 107.484 o
104.296 108.111 o
108.965 67.8128 o
97.5388 120.977 o
102.829 98.0651 o
112.403 85.6112 o
103.133 104.565 o
115.5 63.6415 o
96.535 109.664 o
97.4192 103.639 o
65.8845 111.585 o
100.379 110.223 o
124.705 84.2369 o
96.5643 101.341 o
94.7267 117.731 o
108.686 100.147 o
127.073 75.1096 o
72.0892 134.657 o
97.7022 103.729 o
119.673 71.7248 o
103.823 79.2753 o
92.6543 107.963 o
125.416 85.1339 o
111.552 93.2645 o
124.921 82.0303 o
93.4905 117.938 o
98.5291 92.5342 o
109.919 92.7405 o
94.721 107.441 o
106.745 96.0435 o
125.288 142.301 o
106.581 86.8585 o
89.0816 124.412 o
109.987 87.454 o
104.131 109.744 o
99.9269 127.46 o
96.8938 110.384 o
97.2236 100.694 o
116.589 89.0946 o
112.075 87.4011 o
97.796 131.562 o
106.53 93.7569 o
93.8312 122.933 o
71.4834 110.421 o
124.302 83.5489 o
101.368 94.4696 o
102.154 119.29 o
113.29 90.3152 o
108.204 106.789 o
98.7837 96.5153 o
107.709 92.6663 o
111.631 87.992 o
85.9472 79.2393 o
86.9126 130.143 o
89.7857 37.2501 o
93.7776 85.4423 o
98.4709 94.921 o
105.845 94.0758 o
84.3652 103.951 o
104.141 108.704 o
98.1688 101.692 o
100.35 109.337 o
72.7598 99.9892 o
103.375 69.0301 o
98.6456 102.545 o
110.583 98.6105 o
108.421 120.65 o
117.262 86.7084 o
110.345 77.5453 o
117.342 107.199 o
128.968 68.9095 o
100.798 109.903 o
96.0718 116.135 o
117.595 92.4257 o
117.201 69.246 o
104.97 75.5508 o
113.679 94.0207 o
126.693 96.0571 o
117.01 75.588 o
99.4234 100.404 o
117.319 75.139 o
100.664 103.706 o
105.976 101.018 o
97.3491 112.4 o
123.028 85.0802 o
138.322 94.2285 o
132.46 100.649 o
95.9142 104.026 o
115.538 95.8094 o
105.055 109.928 o
128.612 90.0618 o
84.508 106.985 o
100.459 118.956 o
104.158 115.444 o
78.3902 107.072 o
125.275 85.777 o
133.548 88.6085 o
103.131 74.4366 o
121.362 87.5407 o
94.0728 91.6963 o
98.1457 100.427 o
132.832 74.5951 o
124.753 83.8711 o
112.897 85.8943 o
115.972 90.0498 o
137.029 93.3041 o
114.924 87.3648 o
86.5742 139.43 o
109.819 98.084 o
110.12 95.0092 o
115.429 92.5937 o
113.774 120.316 o
111.13 92.3241 o
91.787 111.041 o
78.197 112.138 o
105.517 86.4267 o
104.458 83.9754 o
87.1929 106.462 o
108.32 95.6379 o
107.326 97.2094 o
124.8 74.6381 o
105.159 95.9344 o
117.42 59.7828 o
95.9795 94.5933 o
107.876 109.42 o
102.655 83.4596 o
100.614 107.208 o
87.7728 100.513 o
92.6421 109.745 o
152.295 88.5221 o
108.36 144.289 o
117.165 87.0476 o
110.943 76.9664 o
100.733 97.228 o
102.989 91.56 o
101.692 94.6402 o
99.2525 101.192 o
103.029 109.009 o
125.793 84.7755 o
116.653 83.4339 o
79.5045 97.3679 o
117.497 90.4625 o
123.007 72.151 o
109.569 91.7802 o
104.365 101.763 o
99.5541 117.135 o
111.941 91.7667 o
101.96 152.445 o
116.843 78.9479 o
100.34 96.2558 o
110.459 95.1732 o
89.7096 116.346 o
110.724 88.718 o
113.462 86.3024 o
109.561 80.4245 o
87.4182 117.415 o
106.723 88.6402 o
104.731 100.099 o
102.65 95.4028 o
124.242 144.946 o
135.192 102.393 o
87.0516 113.375 o
118.613 82.4656 o
106.831 89.1342 o
122.939 78.5769 o
120.98 80.4564 o
113.237 71.3905 o
110.219 91.0682 o
103.581 107.345 o
106.902 75.2956 o
132.254 80.3176 o
117.549 119.083 o
111.452 81.1199 o
75.8277 113.855 o
126.482 98.6924 o
95.6451 111.442 o
138.146 140.093 o
87.6375 105.601 o
91.2843 120.602 o
113.913 96.9737 o
100.523 100.25 o
112.597 95.8648 o
125.403 85.5494 o
110.678 92.7646 o
108.479 88.7831 o
122.019 129.489 o
115.24 78.0469 o
100.648 99.0744 o
87.41 107.996 o
73.7927 151.493 o
96.5893 106.651 o
116.794 111.428 o
99.7102 105.081 o
111.112 88.4664 o
101.385 107.199 o
124.746 70.482 o
121.243 93.3179 o
130.206 100.855 o
135.479 91.6237 o
96.8694 106.529 o
116.383 78.9612 o
95.7955 115.674 o
105.813 121.614 o
90.8705 112.244 o
78.9115 107.622 o
112.703 75.2354 o
123.693 86.8772 o
95.622 146.509 o
123.742 82.573 o
135.248 77.323 o
96.4843 109.86 o
107.067 94.7327 o
100.715 92.6473 o
86.9884 112.723 o
98.9452 108.85 o
74.8356 131.194 o
114.026 96.1617 o
108.657 96.2636 o
105.803 93.9873 o
95.7344 104.587 o
110.29 81.6452 o
103.518 115.828 o
135.845 90.5884 o
109.29 92.571 o
107.579 81.1458 o
118.959 89.839 o
94.756 97.5484 o
117.108 85.7539 o
117.875 87.7316 o
112.146 93.7309 o
122.831 80.7458 o
101.411 106.281 o
119.005 74.7767 o
124.926 74.2861 o
102.16 97.1957 o
126.365 85.8367 o
98.0837 76.6347 o
86.1599 126.07 o
112.719 86.4537 o
126.711 95.7819 o
97.7512 113.461 o
137.649 86.4118 o
141.519 65.5946 o
111.296 86.7657 o
102.086 110.017 o
119.574 56.6278 o
83.5726 100.57 o
103.287 106.003 o
113.696 89.7704 o
79.1909 121.363 o
106.575 103.899 o
104.871 95.551 o
123.559 70.9034 o
111.56 93.3109 o
79.1345 113.403 o
112.192 96.5838 o
107.567 81.4387 o
90.7053 129.167 o
91.84 117.523 o
102.599 93.9602 o
106.035 88.2095 o
106.868 93.3098 o
110.421 82.1816 o
94.9043 116.163 o
73.2815 105.278 o
99.151 98.0215 o
128.992 84.0006 o
94.4321 106.719 o
109.44 92.8591 o
108.114 105.238 o
123.995 88.1178 o
97.0583 103.497 o
95.2622 116.723 o
95.2324 79.5913 o
101.366 110.293 o
100.078 109.492 o
122.294 69.2731 o
108.223 120.537 o
112.329 72.4363 o
121.142 91.9685 o
110.956 62.4522 o
71.365 113.418 o
97.4716 120.703 o
82.5917 111.246 o
102.002 90.4635 o
106.581 91.5037 o
89.8169 111.04 o
109.783 91.4491 o
110.696 86.2413 o
103.878 95.7695 o
131.89 66.1678 o
114.588 88.5244 o
141.009 77.8242 o
119.716 93.4368 o
91.62 77.2607 o
107.175 89.4482 o
104.674 105.477 o
92.6828 109.023 o
110.372 86.2093 o
99.1544 105.451 o
106.667 80.5447 o
114.411 115.545 o
127.438 84.8489 o
102.91 91.0078 o
106.803 93.4902 o
110.117 96.1071 o
91.2915 89.7508 o
101.067 83.4601 o
96.7816 109.782 o
110.575 114.065 o
149.58 121.012 o
105.935 74.3554 o
81.2058 116.494 o
100.793 106.863 o
101.473 94.8869 o
121.801 91.4573 o
106.466 114.999 o
119.45 139.517 o
105.095 104.232 o
68.4806 117.107 o
79.914 117.237 o
99.2353 117.816 o
109.268 96.3898 o
93.0158 100.021 o
130.257 88.7136 o
115.338 68.5823 o
130.685 85.9862 o
116.135 114.95 o
99.1806 100.725 o
91.6615 112.704 o
99.4087 110.007 o
85.2217 105.296 o
119.383 122.235 o
113.93 85.8941 o
100.826 130.553 o
93.5714 80.7635 o
121.029 92.7902 o
100.13 107.365 o
103.77 82.1191 o
136.334 104.368 o
112.843 77.5721 o
96.909 110.477 o
117.352 72.2064 o
71.5139 92.2476 o
147.731 91.7567 o
105.418 80.5291 o
107.952 86.0723 o
117.315 83.9607 o
109.207 74.4196 o
104.524 90.2344 o
84.2853 104.732 o
135.395 83.7962 o
121.273 76.0672 o
128.512 139.679 o
122.524 87.3851 o
93.423 122.117 o
92.2499 132.506 o
141.221 148.332 o
89.3101 113.929 o
106.643 89.585 o
95.5392 88.7417 o
98.6114 115.15 o
117.21 77.6435 o
124.296 81.7796 o
113.51 92.7547 o
132.071 91.0375 o
101.899 93.0969 o
102.078 97.086 o
94.298 111.506 o
110.038 103.737 o
99.7464 134.904 o
108.006 116.435 o
101.122 101.001 o
94.7701 103.721 o
102.48 105.834 o
112.775 91.4892 o
120.942 73.3904 o
109.838 96.8229 o
72.1168 107.033 o
102.965 92.4022 o
101.44 100.355 o
104.836 88.7457 o
111.717 115.042 o
106.649 111.201 o
104.126 93.045 o
98.2337 102.421 o
116.784 86.6821 o
112.317 94.922 o
121.692 84.2743 o
105.009 107.059 o
105.872 78.2113 o
106.054 117.79 o
87.45 111.836 o
94.3296 100.613 o
104.914 90.5115 o
119.811 93.003 o
105.038 92.6248 o
118.249 84.0379 o
102.472 117.937 o
98.4325 107.575 o
144.353 74.5504 o
129.807 88.9444 o
107.475 106.396 o
92.8558 96.7126 o
90.0352 113.029 o
118.462 79.9999 o
119.32 120.426 o
91.0694 96.9519 o
95.9486 110.815 o
130.107 85.8469 o
104.477 114.113 o
76.4628 98.8021 o
117.456 141.698 o
100.566 116.725 o
95.9408 96.2408 o
117.528 81.295 o
85.7395 131.243 o
106.084 74.0604 o
103.916 96.417 o
122.76 91.8523 o
129.039 96.5941 o
107.063 55.7789 o
100.209 105.929 o
129.991 91.1006 o
136.981 74.4892 o
82.7755 142.626 o
113.231 92.2751 o
93.4354 103.499 o
140.578 84.8835 o
113.982 79.1659 o
96.509 112.653 o
97.0814 110.063 o
118.538 94.7243 o
103.307 101.479 o
103.769 95.5573 o
111.333 94.5756 o
97.6368 106.82 o
109.752 97.1284 o
79.1242 127.216 o
95.4015 115.217 o
127.659 83.1766 o
119.998 80.205 o
110.224 104.377 o
92.1633 117.848 o
113.076 103.601 o
101.191 98.3474 o
98.9916 86.6666 o
92.8944 117.989 o
93.5643 117.93 o
113.025 87.4577 o
123.279 79.2265 o
108.314 77.1387 o
87.1469 95.9244 o
86.336 116.535 o
97.405 110.674 o
105.659 83.861 o
100.163 107.171 o
83.7334 110.267 o
101.777 105.569 o
128.994 75.6137 o
124.78 84.7984 o
65.4758 94.5429 o
105.796 91.9476 o
100.822 112.674 o
116.606 92.7991 o
103.576 123.415 o
130.137 79.6699 o
129.937 61.6427 o
75.5419 113.789 o
99.7064 98.8882 o
103.427 96.8767 o
117.171 90.7586 o
87.3899 113.62 o
111.432 132.033 o
119.9 82.2484 o
109.523 85.7022 o
92.784 83.32 o
111.031 92.7601 o
101.959 105.503 o
105.026 85.9202 o
98.4641 127.623 o
112.871 113.301 o
111.005 71.7741 o
88.0073 85.5627 o
106.717 104.073 o
104.724 121.132 o
83.5116 98.7368 o
105.816 93.473 o
98.026 118.307 o
96.8001 76.9953 o
59.2665 125.117 o
125.002 89.6217 o
94.1713 64.7332 o
150.366 116.52 o
89.3052 113.053 o
104.734 87.5425 o
102.228 102.919 o
113.304 97.0324 o
100.653 108.134 o
97.9796 99.9575 o
83.2187 122.547 o
132.247 65.3054 o
112.478 125.178 o
118.845 95.1253 o
100.157 146.546 o
108.733 113.211 o
119.642 92.6632 o
102.291 117.29 o
80.8632 81.0236 o
79.6548 114.128 o
86.1683 117.192 o
100.754 102.719 o
93.9227 111.362 o
81.2265 122.992 o
113.326 95.2343 o
102.387 74.5197 o
117.902 91.8007 o
108.457 119.634 o
120.579 84.8357 o
96.3776 112.088 o
96.8537 101.231 o
102.907 133.619 o
124.79 87.8819 o
122.937 79.9516 o
128.56 96.5604 o
96.2606 102.605 o
103.954 102.323 o
109.241 70.2214 o
82.3671 91.7265 o
128.898 83.1378 o
85.954 122.254 o
99.5241 111.063 o
125.582 90.1003 o
118.945 84.0645 o
108.625 105.691 o
107.387 95.0877 o
115.42 78.9438 o
115.659 92.4387 o
97.3901 92.6465 o
83.2472 123.492 o
93.2076 117.631 o
82.7656 115.938 o
99.2798 105.544 o
122.946 76.8685 o
111.832 86.2898 o
100.205 108.927 o
103.114 97.9319 o
133.714 95.5409 o
84.5121 91.3127 o
97.8454 73.8147 o
108.294 79.9714 o
119.488 81.5743 o
126.372 96.4183 o
101.401 109.361 o
114.304 93.7757 o
126.448 72.3933 o
96.0418 123.771 o
108.126 107.185 o
87.4187 102.593 o
110.191 95.7096 o
105.14 107.533 o
121.5 119.16 o
105.468 93.7611 o
94.8395 89.1469 o
114.347 84.8713 o
107.206 97.1696 o
80.9779 115.574 o
111.492 94.7337 o
121.304 95.5792 o
97.2575 69.5912 o
99.26 103.603 o
100.828 105.94 o
123.56 87.0017 o
106.295 93.776 o
104.667 90.9009 o
93.5628 121.082 o
99.8092 110.597 o
89.4933 120.306 o
110.125 81.7281 o
102.503 107.339 o
91.5628 115.924 o
100.31 99.5085 o
129.166 97.2801 o
145.528 80.5729 o
104.14 100.825 o
106.428 86.5762 o
101.639 100.321 o
137.571 73.6612 o
121.035 90.131 o
141.979 83.6305 o
112.704 86.1872 o
84.6932 101.301 o
82.5148 62.6241 o
118.367 86.0549 o
108.893 117.128 o
107.477 95.3741 o
90.3503 75.8899 o
104.983 96.6826 o
126.599 99.8972 o
91.7539 140.334 o
123.508 70.824 o
109.336 98.7651 o
104.835 77.706 o
106.494 109.623 o
85.8183 101.663 o
92.9411 101.15 o
97.7157 101.421 o
106.491 108.148 o
107.354 109.54 o
78.3944 81.259 o
95.5828 101.228 o
112.564 97.0875 o
103.165 105.265 o
101.491 106.466 o
91.4692 67.0359 o
104.538 93.2193 o
111.188 115.49 o
106.094 96.0642 o
99.7404 106.285 o
78.0849 106.05 o
118.906 124.81 o
89.0943 105.787 o
110.062 78.8473 o
138.497 105.74 o
122.785 102.52 o
128.248 99.1564 o
104.133 96.701 o
96.3298 112.477 o
100.163 111.092 o
114.443 123.192 o
134.336 87.17 o
108.996 78.3588 o
103.816 80.4788 o
91.3244 115.993 o
114.473 91.3969 o
147.165 76.0535 o
113.175 91.9707 o
125.836 78.7004 o
109.022 102.775 o
117.459 78.0867 o
88.5026 113.023 o
103.426 81.1602 o
113.798 107.365 o
83.944 125.819 o
105.416 94.0434 o
97.0166 114.8 o
91.7772 64.1535 o
111.2 89.993 o
123.092 84.9322 o
91.1124 108.354 o
76.9055 112.577 o
108.1 42.4908 o
111.155 103.117 o
96.7764 101.87 o
137.054 95.7773 o
118.62 99.066 o
110.656 94.1382 o
108.703 85.9187 o
106.123 108.823 o
96.4189 104.595 o
69.0386 100.998 o
131.872 77.2249 o
102.311 73.4451 o
106.835 84.0054 o
129.054 78.6398 o
103.772 98.0315 o
96.6225 91.5489 o
111.487 85.0682 o
114.724 68.5065 o
142.542 76.0491 o
100.697 124.736 o
119.622 86.8764 o
85.5831 89.5125 o
98.6432 105.287 o
116.156 90.0993 o
130.126 82.5991 o
94.9945 112.377 o
107.702 102.989 o
104.931 58.6686 o
104.144 92.9029 o
98.7717 74.6513 o
115.734 109.697 o
62.5478 75.2806 o
79.9281 135.248 o
100.735 95.9111 o
108.656 88.3735 o
112.015 93.0802 o
98.6172 102.738 o
107.538 104.426 o
120.293 91.4283 o
115.644 53.6444 o
115.883 86.3412 o
103.661 110.02 o
106.189 103.993 o
88.3423 136.042 o
100.624 103.66 o
101.842 122.5 o
103.134 104.033 o
103.532 108.562 o
102.86 89.7981 o
107.825 129.904 o
75.8132 115.229 o
97.3485 97.7724 o
118.84 77.3936 o
110.057 108.611 o
115.246 90.5737 o
105.974 91.1097 o
98.3125 97.4809 o
105.71 87.1411 o
80.1986 105.619 o
127.758 80.4693 o
97.0259 94.3182 o
122.99 93.6356 o
109.458 98.6532 o
105.973 98.569 o
118.548 127.139 o
116.295 91.4259 o
95.643 99.6658 o
103.13 95.3088 o
116.547 92.8257 o
91.8281 111.557 o
117.053 86.2972 o
89.2041 104.443 o
127.263 104.528 o
103.095 96.4712 o
102.437 107.239 o
110.52 98.5605 o
62.1915 107.676 o
107.604 81.5385 o
86.6956 105.496 o
107.431 99.7042 o
93.2176 119.328 o
100.965 102.447 o
97.9236 104.149 o
110.931 134.542 o
88.915 115.732 o
89.8255 129.248 o
76.6174 78.9199 o
109.124 75.5818 o
70.9432 124.68 o
99.6209 116.844 o
98.7079 115.95 o
95.8708 73.9868 o
83.0241 111.527 o
91.0051 105.022 o
113.829 88.4979 o
116.473 78.5252 o
102.933 95.2708 o
91.7754 98.0603 o
80.3555 122.135 o
112.076 103.455 o
118.162 106.102 o
103.964 108.319 o
118.688 79.0151 o
97.8214 98.8018 o
101.516 100.625 o
101.051 97.7735 o
105.94 92.9681 o
99.8949 99.623 o
99.1677 82.6703 o
118.665 84.9702 o
116.452 82.4194 o
97.7473 89.553 o
113.344 78.0413 o
101.152 100.563 o
92.614 118.353 o
106.218 103.457 o
82.5958 110.17 o
88.4964 113.225 o
92.141 137.766 o
114.291 90.2703 o
102.773 101.475 o
88.5139 120.723 o
118.798 93.6659 o
116.283 140.089 o
108.055 111.098 o
81.6143 72.6234 o
106.385 113.516 o
101.319 105.886 o
105.056 110.687 o
101.541 103.802 o
74.2958 110.829 o
146.325 72.4965 o
106.186 79.1123 o
112.43 77.5887 o
108.582 86.749 o
104.504 102.875 o
103.057 97.8435 o
85.3364 115.337 o
99.4208 111.967 o
115.053 58.5541 o
101.753 95.5881 o
134.514 81.642 o
92.6779 112.737 o
121.968 56.5532 o
102.596 81.4731 o
135 132.924 o
123.69 108.287 o
95.3089 86.7723 o
107.151 79.3752 o
120.468 77.7024 o
109.147 100.753 o
91.2494 105.859 o
102.417 81.5744 o
81.3378 103.932 o
111.504 65.3712 o
144.179 75.7784 o
111.388 96.7772 o
120.049 74.7089 o
119.706 80.7365 o
92.1163 93.4796 o
104.504 96.9227 o
108.636 89.8633 o
108.829 89.5077 o
110.89 92.1999 o
141.161 81.3706 o
128.97 82.0041 o
105.798 106.618 o
112.45 80.7351 o
109.027 88.0372 o
119.136 96.3809 o
93.6108 126.42 o
111.871 96.4898 o
114.934 116.069 o
93.49 98.6039 o
89.0011 115.478 o
113.149 86.6688 o
113.219 77.1418 o
100.189 98.8086 o
101.856 113.177 o
106.447 74.106 o
111.107 114.336 o
107.607 91.9992 o
128.399 96.6263 o
116.211 81.1993 o
116.581 98.1906 o
119.795 56.6188 o
100.857 101.256 o
109.021 68.9504 o
111.604 66.2725 o
136.722 72.3697 o
85.9175 102.62 o
102.623 92.7337 o
133.661 89.1246 o
107.457 93.3917 o
86.5155 119.783 o
111.41 98.2724 o
121.112 98.61 o
101.445 113.44 o
102.77 108.037 o
123.982 65.3091 o
109.402 90.6814 o
104.901 101.37 o
119.302 69.9163 o
117.492 80.0004 o
105.088 93.4631 o
108.539 82.2383 o
105.206 79.7157 o
62.3796 111.361 o
112.92 56.1246 o
99.6894 92.2438 o
88.5743 113.291 o
126.574 76.8147 o
121.136 96.6419 o
117.474 97.112 o
93.4959 114.262 o
123.765 76.3777 o
108.685 86.7406 o
135.118 89.9433 o
101.804 97.6685 o
118.707 81.5771 o
94.1299 119.834 o
80.0735 115.953 o
117.944 129.394 o
97.8178 103.911 o
115.553 89.9252 o
112.18 97.0219 o
112.02 109.519 o
118.056 81.888 o
85.7163 118.828 o
114.775 74.704 o
104.146 96.5135 o
100.629 99.2256 o
96.5238 109.02 o
121.415 53.2564 o
109.066 81.9045 o
112.556 63.0338 o
91.0516 109.399 o
101.594 119.443 o
117.957 80.3535 o
118.608 112.226 o
101.485 119.147 o
122.405 59.6934 o
106.308 111.314 o
75.0347 128.933 o
109.353 90.2 o
112.864 87.9956 o
105.035 94.5672 o
103.277 122.859 o
91.7579 115.414 o
90.3528 108.027 o
121.928 91.3621 o
100.323 102.737 o
109.503 86.3965 o
119.888 69.8316 o
118.524 59.8615 o
105.514 106.418 o
101.164 107.108 o
93.3132 124.801 o
105.487 105.261 o
105.595 91.141 o
90.5215 133.702 o
127.155 109.681 o
88.1424 98.5072 o
110.31 95.6705 o
115.276 78.2694 o
91.0574 111.157 o
89.9212 89.8985 o
112.078 95.0576 o
108.527 90.1068 o
95.4811 91.2777 o
111.324 78.804 o
103.518 119.799 o
106.306 62.9409 o
93.6241 119.701 o
83.708 114.5 o
125.195 101.201 o
108.45 88.1183 o
106.367 84.0286 o
101.314 98.63 o
117.029 76.8556 o
95.5271 106.082 o
116.591 102.962 o
158.172 95.6521 o
103.443 113.516 o
108.145 80.7258 o
121.813 98.5585 o
134.714 75.5428 o
109.795 100.546 o
115.378 73.6877 o
126.163 93.7929 o
106.784 98.1884 o
104.024 100.686 o
97.5256 106.088 o
93.7509 88.256 o
118.318 75.8813 o
101.615 104.295 o
96.4088 114.151 o
115.59 103.388 o
108.336 102.066 o
91.8535 110.556 o
102.362 84.2235 o
116.68 93.2689 o
90.2448 123.925 o
108.281 101.663 o
73.4253 114.142 o
122.061 93.1072 o
107.811 87.6376 o
88.8573 105.276 o
89.0427 77.6963 o
103.417 104.579 o
122.306 92.029 o
126.866 69.7159 o
80.0077 107.257 o
106.495 90.4002 o
98.5096 63.0798 o
104.172 92.1122 o
128.016 72.1332 o
105.402 93.3951 o
89.691 98.1646 o
107.365 95.2758 o
116.199 89.3798 o
101.79 95.4156 o
101.18 106.069 o
92.4882 122.091 o
112.226 87.8238 o
106.216 99.2266 o
110.331 115.581 o
134.05 67.5923 o
110.991 85.4498 o
104.07 111.226 o
126.879 98.0232 o
122.405 96.4703 o
142.346 94.605 o
122.367 74.7678 o
112.671 81.9544 o
117.952 72.7974 o
118.541 97.075 o
138.168 86.968 o
112.869 85.2131 o
121.39 91.6791 o
113.007 90.9662 o
82.7956 126.625 o
118.466 104.616 o
95.0144 77.5036 o
94.1394 119.423 o
105.628 96.3319 o
93.1314 101.931 o
87.6051 112.643 o
103.619 93.1535 o
96.9422 83.7514 o
115.399 85.9625 o
108.36 68.8339 o
123.977 60.3656 o
88.3833 84.3021 o
100.539 58.3844 o
112.777 75.4887 o
111.378 84.3672 o
95.9751 118.841 o
108.939 71.3787 o
107.498 74.3652 o
119.089 79.6721 o
82.5823 123.558 o
126.559 131.054 o
147.623 78.9286 o
120.965 79.1665 o
95.5364 110.347 o
121.941 83.7164 o
104.666 109.847 o
120.547 94.3099 o
109.887 113.255 o
108.947 83.8088 o
99.0112 87.8663 o
91.9238 105.666 o
129.257 94.4206 o
96.5212 107.947 o
122.481 78.8182 o
91.8251 97.8856 o
113.445 93.3872 o
120.849 92.7502 o
89.3372 121.111 o
118.295 95.0874 o
103.549 56.703 o
112.536 91.1645 o
82.6841 132.692 o
68.1087 137.855 o
113.129 67.0121 o
86.3538 112.316 o
116.328 86.0159 o
114.933 84.5058 o
94.75 103.774 o
103.029 97.2047 o
113.368 85.9307 o
131.857 92.4695 o
103.609 111.792 o
98.4274 141.27 o
94.9249 129.477 o
95.5914 92.6301 o
102.386 155.16 o
125.245 104.516 o
142.675 77.8355 o
112.227 112.644 o
81.461 121.966 o
137.046 127.656 o
96.8915 98.5845 o
74.5587 128.25 o
124.191 66.9663 o
104.9 74.2169 o
111.104 66.1976 o
109.774 99.949 o
98.6264 111.367 o
116.215 93.3512 o
120.079 80.0062 o
115.199 72.8809 o
112.352 82.4303 o
139.034 79.5516 o
84.1567 127.126 o
96.9834 113.33 o
108.435 110.597 o
117.624 78.7859 o
107.207 71.5918 o
96.4803 119.152 o
96.5757 117.529 o
93.9115 120.388 o
101.428 122.02 o
148.41 115.987 o
73.5216 115.42 o
101.796 108.481 o
82.5564 110.366 o
104.435 87.6524 o
88.3868 107.248 o
101.719 116.406 o
113.281 92.1023 o
104.729 105.186 o
105.049 92.1967 o
111.339 88.7085 o
105.952 96.3982 o
105.773 106.144 o
114.551 92.735 o
113.069 86.1723 o
105.422 97.7308 o
127.208 79.5422 o
107.868 100.383 o
104.562 79.6943 o
104.108 89.9826 o
114.2 114.927 o
96.6851 69.1638 o
88.1131 116.267 o
82.8738 127.784 o
122.581 61.5274 o
133.948 97.9367 o
107.464 96.8586 o
100.4 112.458 o
111.293 69.7007 o
133.441 82.3479 o
104.681 80.2871 o
97.8051 100.733 o
134.926 88.615 o
92.9502 108.631 o
107.17 92.1452 o
100.407 97.1048 o
93.9922 144.086 o
117.327 77.8154 o
84.7679 111.131 o
122.009 94.7302 o
97.0726 107.441 o
133.513 101.315 o
127.767 90.6593 o
113.215 85.577 o
110.982 99.5439 o
66.8035 116.341 o
123.573 88.5364 o
123.736 82.6974 o
114.01 95.0592 o
125.79 100.257 o
108.781 118.376 o
79.0066 115.127 o
112.439 71.2123 o
112.355 86.603 o
111.301 94.8885 o
120.287 81.0911 o
124.336 83.7491 o
98.7898 105.008 o
125.852 72.2287 o
67.8972 114.127 o
92.1569 111.594 o
129.296 58.988 o
108.747 127.641 o
120.246 58.4772 o
115.224 80.9803 o
100.815 89.3564 o
91.8686 109.943 o
103.119 97.4771 o
105.554 96.935 o
107.639 96.0325 o
127.719 85.116 o
79.4601 111.588 o
98.5805 104.496 o
129.611 69.2901 o
124.625 71.8364 o
121.332 87.0119 o
113.764 86.5054 o
93.9806 126.812 o
94.5986 125.08 o
108.739 97.6124 o
112.25 140.091 o
111.322 84.9689 o
154.998 109.587 o
109.182 93.3375 o
90.4131 101.217 o
97.7922 83.0167 o
111.613 62.5233 o
108.945 112.85 o
122.485 86.807 o
103.883 111.964 o
101.761 77.9878 o
109.78 91.964 o
102.958 68.2553 o
158.401 80.6879 o
115.69 124.148 o
96.6967 91.069 o
100.867 111.384 o
107.176 77.9959 o
121.839 94.4153 o
102.784 114.523 o
87.3606 81.1116 o
113.67 98.5667 o
95.4071 117.69 o
116.006 75.1125 o
101.926 104.506 o
126.009 125.852 o
94.6626 105.723 o
101.943 111.74 o
92.6721 90.834 o
117.612 86.5153 o
88.4166 120.907 o
116.693 71.567 o
95.5163 114.952 o
98.5488 122.619 o
103.693 97.5719 o
90.7881 111.604 o
116.75 67.3711 o
97.8839 100.765 o
85.3917 95.0464 o
137.435 83.7363 o
96.765 105.825 o
103.762 80.5411 o
111.326 90.4474 o
97.4947 97.1959 o
123.626 81.1162 o
99.4145 113.218 o
107.108 102.525 o
114.385 80.6003 o
103.038 108.03 o
120.024 70.5467 o
102.565 122.923 o
116.533 140.662 o
93.557 105.152 o
93.3592 113.771 o
105.036 100.435 o
103.553 78.6641 o
109.512 95.848 o
117.683 89.4011 o
105.292 89.9902 o
96.8545 94.7432 o
78.1861 101.144 o
52.6533 116.015 o
109.387 96.9362 o
128.772 80.1916 o
100.447 80.6466 o
103.649 78.1498 o
129.291 109.077 o
61.2139 129.363 o
89.9569 111.426 o
124.646 71.5452 o
119.203 92.6297 o
102.317 103.119 o
123.854 92.6741 o
106.362 99.9781 o
108.023 101.852 o
100.278 89.8786 o
133.614 86.8109 o
110.669 112.23 o
83.8123 118.048 o
80.3776 128.585 o
96.3493 112.207 o
85.7072 127.606 o
88.0542 101.689 o
94.3708 120.299 o
113.271 62.2595 o
105.338 100.483 o
116.799 91.0533 o
89.3499 103.117 o
104.235 79.5893 o
133.7 94.9254 o
134.274 60.8156 o
79.817 125.078 o
85.8229 109.042 o
122.045 74.8754 o
82.8532 122.225 o
111.86 91.315 o
102.579 116.54 o
116.225 72.101 o
95.8756 103.296 o
108.307 85.6295 o
90.1951 117.051 o
127.449 121.463 o
118.057 58.136 o
116.152 71.8914 o
80.7967 106.859 o
85.024 113.23 o
107.597 78.7881 o
96.5033 95.7457 o
94.6207 109.111 o
116.549 60.0494 o
98.8952 85.4063 o
103.011 106.095 o
108.094 73.4929 o
130.237 91.3792 o
89.1587 113.38 o
120.129 72.9721 o
139.859 78.5667 o
54.8554 110.177 o
104.745 134.935 o
104.419 90.3585 o
113.261 69.3136 o
126.027 94.7504 o
105.673 139.252 o
118.366 99.5805 o
99.9707 91.3681 o
82.2608 108.694 o
110.441 120.092 o
117.641 100.896 o
129.744 72.5815 o
126.727 57.3159 o
110.988 91.4784 o
160.492 108.481 o
94.1414 110.394 o
107.629 120.732 o
107.083 91.8494 o
113.835 71.136 o
86.6048 80.8904 o
118.069 71.2923 o
94.5739 104.015 o
85.4122 108.518 o
120.404 83.5695 o
78.853 118.222 o
133.755 74.9449 o
113.245 96.7933 o
116.811 90.9536 o
70.9409 70.0026 o
112.408 139.931 o
108.372 119.031 o
103.572 92.2335 o
127.802 89.0755 o
101.814 102.012 o
95.8637 131.79 o
129.952 89.2987 o
83.183 128.251 o
120.309 89.6681 o
125.4 136.236 o
119.106 82.6283 o
70.8396 107.745 o
97.1849 100.428 o
112.413 97.8529 o
107.926 105.954 o
116.067 100.89 o
126.754 76.0589 o
106.705 72.7253 o
99.7353 96.2445 o
84.0839 109.231 o
106.522 120.296 o
118.506 73.9904 o
89.7318 97.3579 o
95.5842 59.9282 o
119.279 69.6413 o
103.029 96.8162 o
117.011 84.7688 o
97.1305 115.066 o
104.316 129.687 o
106.324 92.5739 o
86.318 115.41 o
68.0819 108.481 o
128.693 88.3793 o
87.6619 80.3478 o
135.059 68.6905 o
75.1106 80.3108 o
105.343 101.802 o
108.833 101.576 o
106.833 86.1365 o
89.1596 128.616 o
104.421 113.863 o
120.848 93.2584 o
122.126 92.3091 o
126.447 57.9237 o
97.8116 60.4815 o
102.886 80.3399 o
109.837 83.8261 o
101.147 98.3755 o
112.758 82.6848 o
101.134 93.9432 o
92.6672 134.043 o
103.337 90.605 o
141.622 140.205 o
65.7481 133.377 o
75.7978 89.7867 o
121.093 99.1755 o
98.6963 92.1482 o
98.266 102.437 o
155.513 121.714 o
100.215 116.824 o
128.045 86.2608 o
121.153 82.6071 o
95.9009 101.356 o
116.66 87.199 o
106.196 89.1199 o
106.683 124.339 o
133.84 98.4186 o
102.967 96.521 o
128.166 82.9091 o
82.4734 111.403 o
116.439 96.2376 o
85.2945 90.3698 o
114.954 79.1769 o
104.066 75.6962 o
81.0826 78.4465 o
106.938 126.514 o
91.0694 96.8698 o
109.981 116.529 o
104.707 96.6018 o
131.054 76.7599 o
109.956 73.8462 o
132.026 108.654 o
116.477 87.2778 o
109.58 72.9147 o
123.008 73.0254 o
101.53 101.174 o
82.3928 106.953 o
113.053 76.8208 o
103.788 106.335 o
104.825 98.5364 o
103.607 137.336 o
103.205 101.001 o
104.607 91.0543 o
104.908 100.154 o
125.888 85.7507 o
90.8696 116.198 o
107.473 97.6588 o
115.13 106.006 o
126.295 52.1139 o
125.962 82.0337 o
138.93 63.2525 o
90.9872 108.317 o
124.648 123.539 o
96.8656 106.206 o
97.1444 115.957 o
115.475 80.2173 o
104.521 84.6125 o
100.703 104.529 o
111.055 83.8817 o
116.319 52.8647 o
117.759 96.3472 o
106.059 91.5285 o
128.555 102.176 o
87.7519 76.9709 o
78.7983 116.732 o
162.89 102.948 o
94.0542 110.518 o
87.2449 116.713 o
84.317 105.479 o
118.627 108.819 o
104.695 93.6613 o
113.665 85.2837 o
106.512 100.016 o
100.001 112.737 o
84.285 129.902 o
83.2367 122.145 o
95.5699 122.505 o
119.519 90.0982 o
109.061 97.9001 o
112.061 88.9896 o
65.6763 129.277 o
134.04 90.5959 o
92.224 100.87 o
116.478 64.7762 o
101.101 98.47 o
98.9781 123.465 o
126.052 131.469 o
97.3667 109.991 o
98.3205 114.501 o
107.717 85.8677 o
103.502 84.766 o
90.0896 112.269 o
51.3286 99.972 o
115.012 85.1038 o
103.537 98.6167 o
105.461 76.4395 o
112.95 58.52 o
110.826 92.8653 o
95.3381 114.124 o
124.454 67.1945 o
113.138 80.4291 o
116.626 79.57 o
123.468 87.4992 o
95.9321 79.5064 o
113.451 88.1554 o
105.109 86.0355 o
91.7271 111.228 o
71.5221 153.039 o
104.758 85.9237 o
100.312 98.576 o
92.1046 121.793 o
77.3208 120.052 o
95.563 111.381 o
103 85.0239 o
97.6736 105.631 o
121.79 69.3323 o
122.649 78.8911 o
106.162 84.773 o
102.428 103.204 o
89.7078 112.493 o
106.412 94.7731 o
78.5021 129.491 o
112.942 114.95 o
113.799 100.898 o
102.083 113.481 o
71.0376 123.836 o
90.6268 75.7181 o
126.148 86.4789 o
105.785 59.2345 o
118.542 88.5716 o
92.6413 89.1572 o
112.091 137.606 o
99.2432 70.3814 o
102.827 111.928 o
67.2193 128.229 o
93.9173 128.867 o
100.605 113.637 o
110.344 74.6418 o
103.499 113.802 o
120.12 77.0602 o
120.261 91.1629 o
103.774 104.031 o
96.4156 108.725 o
126.323 81.1108 o
127.574 57.3154 o
98.5762 112.954 o
106.494 94.2546 o
108.306 89.87 o
112.958 71.3894 o
89.2093 85.2532 o
117.656 89.2611 o
108.984 77.8272 o
118.166 100.139 o
107.683 86.2052 o
106.963 106.057 o
89.8639 113.123 o
147.812 78.6144 o
135.166 69.3878 o
116.548 64.0974 o
97.3444 114.504 o
126.584 94.482 o
136.173 87.3516 o
96.6127 92.0959 o
88.4047 124.852 o
68.4187 122.775 o
111.399 80.3646 o
105.236 94.0606 o
87.2052 103.047 o
107.603 102.774 o
109.071 110.367 o
101.113 103.179 o
94.794 105.396 o
104.396 97.7665 o
127.192 70.3167 o
115.582 73.5176 o
137.601 140.816 o
93.4916 100.069 o
117.105 99.2727 o
130.185 75.6496 o
117.124 108.062 o
110.327 82.8865 o
93.1824 58.5681 o
116.525 68.3943 o
92.0744 107.172 o
91.621 107.865 o
96.3352 117.807 o
113.678 70.2715 o
130.385 118.319 o
101.241 123.891 o
97.6553 117.091 o
105.898 113.043 o
102.867 109.186 o
97.0811 112.695 o
106.786 84.6074 o
119.056 81.8448 o
92.3303 103.658 o
123.153 90.737 o
111.195 94.5911 o
103.963 113.116 o
80.6855 100.712 o
108.822 92.9491 o
107.97 99.6276 o
111.72 112.561 o
68.266 86.4735 o
96.9612 106.807 o
143.417 82.7008 o
107.942 78.9759 o
123.408 90.5315 o
115.929 96.1557 o
103.414 81.3778 o
87.2654 85.5284 o
91.1771 110.231 o
132.879 89.601 o
118.267 95.0064 o
108.99 102.697 o
108.388 75.5071 o
144.817 81.4849 o
113.857 80.0548 o
112.57 98.8307 o
109.603 91.8932 o
135.576 80.3003 o
95.1712 125.005 o
101.526 105.199 o
77.1412 89.5965 o
94.9707 110.404 o
105.959 67.035 o
111.497 88.4682 o
128.41 102.093 o
105.347 76.3069 o
113.676 120.783 o
102.005 124.276 o
105.796 102.48 o
92.488 138.473 o
109.714 123.485 o
82.9477 67.4186 o
91.9291 117.641 o
100.336 108.122 o
79.1114 102.6 o
124.638 95.7383 o
52.7856 113.106 o
125.515 79.1459 o
100.071 109.001 o
106.043 74.2708 o
105.076 104.089 o
104.741 69.7336 o
118.427 107.085 o
96.1401 116.401 o
116.539 81.5041 o
88.0568 112.628 o
103.378 96.8301 o
101.244 101.819 o
91.2131 130.73 o
77.2305 133.61 o
118.409 136.779 o
114.729 96.8655 o
131.116 98.5911 o
106.661 109.934 o
117.365 67.9556 o
112.667 92.4562 o
130.607 128.617 o
106.835 97.7084 o
92.1918 127.648 o
100.019 109.769 o
95.5519 111.681 o
111.99 77.1338 o
123.477 74.397 o
105.479 114.91 o
110.512 103.402 o
88.1262 81.8248 o
111.804 95.099 o
72.095 114.759 o
100.804 78.6327 o
117.653 121.086 o
110.123 96.9033 o
121.185 122.114 o
113.73 86.8181 o
103.035 90.5542 o
103.815 113.48 o
110.839 89.2399 o
117.628 84.1281 o
125.403 87.885 o
93.3862 109.125 o
146.884 87.0521 o
152.673 79.0926 o
125.974 138.22 o
119.26 94.0533 o
97.7777 119.176 o
89.0435 102.261 o
101.992 97.4302 o
114.694 58.581 o
86.8727 103.031 o
105.696 85.2112 o
128.477 80.5181 o
86.8825 120.669 o
95.7682 97.5214 o
117.226 72.3139 o
123.598 78.0123 o
120.512 97.6962 o
121.3 59.174 o
104.832 102.512 o
128.061 103.95 o
103.845 83.5629 o
116.008 92.8228 o
66.6356 107.046 o
127.411 67.3243 o
120.582 90.608 o
124.116 89.6068 o
101.408 114.973 o
72.4088 83.6431 o
73.1358 115.695 o
112.223 70.8658 o
92.5944 114.103 o
102.212 104.709 o
97.414 110.169 o
138.181 113.292 o
92.3278 117.602 o
86.7347 105.802 o
101.438 81.7981 o
102.608 62.5624 o
120.492 108.586 o
109.862 89.4761 o
94.0173 94.943 o
111.4 95.4391 o
123.986 83.9614 o
114.28 52.5901 o
93.6031 109.471 o
107.823 100.083 o
116.92 82.7297 o
121.641 95.968 o
90.4675 106.145 o
104.112 108.793 o
123.924 87.5766 o
97.6395 111.445 o
139.626 95.7933 o
123.52 69.832 o
120.502 90.6464 o
113.648 86.7043 o
127.843 88.3926 o
85.5271 94.0223 o
119.969 128.636 o
109.004 88.2329 o
83.9367 99.5706 o
119.009 79.3798 o
119.634 68.8386 o
99.4651 82.7579 o
101.649 71.9513 o
95.0977 107.281 o
86.4842 116.856 o
112.928 80.5085 o
107.269 99.2004 o
122.676 56.0839 o
114.904 92.9877 o
133.067 92.1853 o
105.343 72.2128 o
112.335 89.9653 o
85.102 106.353 o
85.9443 133.733 o
109.127 90.3251 o
107.208 84.5591 o
95.5197 80.8017 o
103.773 60.7068 o
114.274 91.8035 o
95.0905 99.8304 o
121.876 88.9438 o
131.29 73.0285 o
87.9001 82.2515 o
102.155 90.0489 o
108.376 117.615 o
103.557 88.683 o
90.9481 106.396 o
103.025 83.993 o
104.886 84.4756 o
98.6081 96.3168 o
53.43 108.715 o
72.0903 131.148 o
90.306 113.623 o
123.085 73.9629 o
102.134 104.06 o
103.339 106.654 o
113.563 130.986 o
112.946 82.6172 o
110.682 71.8467 o
132.115 113.398 o
108.833 90.2783 o
103.618 140.834 o
98.9966 83.9703 o
115.159 96.8621 o
123.66 79.632 o
64.9669 132.888 o
101.966 97.4485 o
109.659 101.642 o
117.222 119.902 o
110.627 74.5578 o
88.6695 96.9532 o
108.287 109.415 o
108.683 101.858 o
94.1717 109.757 o
117.684 105.962 o
120.887 102.758 o
126.969 134.896 o
113.36 80.7145 o
139.361 68.6153 o
95.2387 56.9391 o
123.874 74.9464 o
95.7068 124.186 o
110.588 112.006 o
113.244 116.917 o
96.9465 132.321 o
93.3162 117.743 o
140.558 84.2713 o
123.492 100.308 o
105.017 114.927 o
109.167 95.4814 o
94.5891 100.926 o
102.401 92.4862 o
110.937 97.8548 o
136.613 74.6269 o
83.3677 118.718 o
87.7689 106.436 o
106.017 88.9575 o
109.136 74.2781 o
99.6751 104.582 o
98.4926 94.9473 o
108.075 83.5576 o
93.4924 100.56 o
111.849 67.1291 o
148.325 107.6 o
106.033 108.867 o
101.815 105.554 o
88.3064 60.7105 o
103.155 112.309 o
81.2425 95.7532 o
132.79 101.302 o
96.3505 93.2224 o
71.0618 64.0205 o
89.2287 103.888 o
115.981 91.0776 o
94.3951 78.8532 o
114.451 95.5401 o
129.378 82.9471 o
103.038 84.9184 o
103.366 102.159 o
115.467 89.9745 o
96.7485 109.323 o
92.5047 76.4459 o
111.596 114.627 o
106.728 125.353 o
96.2264 103.156 o
111.139 108.488 o
116.55 96.4076 o
115.58 94.448 o
97.1542 104.696 o
63.2502 115.107 o
90.3965 93.8042 o
104.022 122.101 o
94.0803 104.417 o
110.231 80.1259 o
91.7833 98.9684 o
86.1638 115.753 o
111.254 107.771 o
110.426 95.4071 o
118.073 81.4193 o
112.82 107.55 o
102.115 112.799 o
103.862 95.1468 o
83.2492 103.326 o
116.354 142.674 o
103.004 89.5245 o
75.5343 113.397 o
107.308 98.4369 o
95.9937 99.9593 o
110.457 91.3872 o
127.211 142.208 o
93.1378 115.736 o
87.4895 125.223 o
112.792 91.8996 o
97.5968 103.392 o
129.391 73.6419 o
130.977 69.7562 o
117.42 102.004 o
97.9243 108.011 o
122.724 90.8182 o
107.238 97.6959 o
96.5182 95.9068 o
147.698 119.549 o
111.294 89.8612 o
108.548 97.5763 o
98.924 100.437 o
111.709 75.2177 o
109.3 93.5562 o
114.936 66.8664 o
100.702 98.3175 o
121.53 82.513 o
97.8338 79.3515 o
130.475 69.141 o
118.577 96.0162 o
90.317 102.031 o
99.7309 78.363 o
grestore
0.000 0.000 1.000 setrgbcolor
gsave
140.4 126 34.2 36 clipbox
/o {
gsave
newpath
translate
0.5 setlinewidth
1 setlinejoin
0 setlinecap
0 -0.25 m
0.0663008 -0.25 0.129895 -0.223658 0.176777 -0.176777 c
0.223658 -0.129895 0.25 -0.0663008 0.25 0 c
0.25 0.0663008 0.223658 0.129895 0.176777 0.176777 c
0.129895 0.223658 0.0663008 0.25 0 0.25 c
-0.0663008 0.25 -0.129895 0.223658 -0.176777 0.176777 c
-0.223658 0.129895 -0.25 0.0663008 -0.25 0 c
-0.25 -0.0663008 -0.223658 -0.129895 -0.176777 -0.176777 c
-0.129895 -0.223658 -0.0663008 -0.25 0 -0.25 c
cl
gsave
0.000 0.000 1.000 setrgbcolor
fill
grestore
stroke
grestore
} bind def
117.282 90.9784 o
117.175 89.977 o
114.508 92.7933 o
112.834 88.9968 o
114.589 90.4901 o
113.283 91.3903 o
111.025 90.1728 o
112.568 87.2837 o
112.675 90.6264 o
114.984 92.6452 o
112.231 90.8755 o
114.77 90.8431 o
116.674 88.5113 o
113.084 90.7524 o
114.476 92.1905 o
113.634 90.8008 o
114.206 87.5947 o
112.27 91.1643 o
112.359 85.5698 o
115.459 91.8874 o
111.254 88.0793 o
113.771 92.66 o
112.673 90.2125 o
117.001 90.904 o
116.089 88.9035 o
114.671 87.6441 o
117.067 89.2423 o
111.77 89.8244 o
111.245 90.1901 o
117.174 90.0064 o
115.891 89.1083 o
117.409 89.1953 o
116.022 90.4543 o
115.041 90.9153 o
115.196 93.2124 o
115.088 90.2009 o
115.293 92.6899 o
115.972 90.0498 o
117.497 90.4625 o
111.941 91.7667 o
113.462 86.3024 o
118.959 89.839 o
112.719 86.4537 o
110.696 86.2413 o
114.588 88.5244 o
113.93 85.8941 o
113.231 92.2751 o
117.171 90.7586 o
117.902 91.8007 o
116.156 90.0993 o
115.883 86.3412 o
116.68 93.2689 o
112.226 87.8238 o
115.399 85.9625 o
113.215 85.577 o
113.764 86.5054 o
116.799 91.0533 o
111.497 88.4682 o
115.467 89.9745 o
111.294 89.8612 o
grestore
0.000 1.000 1.000 setrgbcolor
gsave
140.4 126 34.2 36 clipbox
/o {
gsave
newpath
translate
0.5 setlinewidth
1 setlinejoin
0 setlinecap
0 -1 m
0.265203 -1 0.51958 -0.894634 0.707107 -0.707107 c
0.894634 -0.51958 1 -0.265203 1 0 c
1 0.265203 0.894634 0.51958 0.707107 0.707107 c
0.51958 0.894634 0.265203 1 0 1 c
-0.265203 1 -0.51958 0.894634 -0.707107 0.707107 c
-0.894634 0.51958 -1 0.265203 -1 0 c
-1 -0.265203 -0.894634 -0.51958 -0.707107 -0.707107 c
-0.51958 -0.894634 -0.265203 -1 0 -1 c
cl
gsave
0.000 1.000 1.000 setrgbcolor
fill
grestore
stroke
grestore
} bind def
114.748 90.5246 o
114.684 88.2819 o
113.459 90.8006 o
117.403 89.5379 o
114.947 91.5256 o
112.444 90.1974 o
114.733 87.5077 o
113.278 89.424 o
113.831 91.1785 o
117.631 89.4229 o
113.885 91.6269 o
115.883 89.0592 o
114.799 92.2997 o
113.316 87.617 o
116.089 90.9794 o
115.202 90.355 o
112.86 89.4568 o
114.39 88.968 o
119.011 91.9814 o
117.476 91.8734 o
117.348 90.7691 o
115.987 91.0812 o
114.441 88.177 o
116.422 90.7161 o
116.793 86.4776 o
116.854 86.8075 o
114.629 91.6966 o
115.654 89.5053 o
113.9 87.549 o
112.579 87.5247 o
112.416 88.5467 o
116.73 89.7019 o
117.465 87.942 o
118.445 90.8116 o
120.064 91.8036 o
118.53 90.2994 o
115.778 90.6864 o
116.147 87.8918 o
115.653 88.39 o
117.126 90.0385 o
115.568 89.7696 o
116.251 88.9182 o
117.465 87.942 o
118.403 90.947 o
117.699 88.9936 o
114.917 87.7094 o
grestore
1.000 0.000 0.000 setrgbcolor
gsave
140.4 126 34.2 36 clipbox
/o {
gsave
newpath
translate
0.5 setlinewidth
1 setlinejoin
0 setlinecap
0 -1 m
0.265203 -1 0.51958 -0.894634 0.707107 -0.707107 c
0.894634 -0.51958 1 -0.265203 1 0 c
1 0.265203 0.894634 0.51958 0.707107 0.707107 c
0.51958 0.894634 0.265203 1 0 1 c
-0.265203 1 -0.51958 0.894634 -0.707107 0.707107 c
-0.894634 0.51958 -1 0.265203 -1 0 c
-1 -0.265203 -0.894634 -0.51958 -0.707107 -0.707107 c
-0.51958 -0.894634 -0.265203 -1 0 -1 c
cl
gsave
1.000 0.000 0.000 setrgbcolor
fill
grestore
stroke
grestore
} bind def
94.3076 114.24 o
91.2842 117.413 o
93.297 116.698 o
93.8161 114.908 o
96.1576 115.398 o
93.5618 117.062 o
94.2506 116.965 o
92.7648 118.151 o
93.7276 117.702 o
96.1459 113.463 o
93.6551 116.73 o
94.8271 115.034 o
94.4759 119.187 o
91.6627 116.832 o
97.1515 117.403 o
95.2829 116.722 o
96.5841 115.88 o
96.8974 114.941 o
grestore
1.000 setlinewidth
0 setlinejoin
2 setlinecap
0.000 setgray
gsave
34.2 162 m
174.6 162 l
stroke
grestore
gsave
174.6 36 m
174.6 162 l
stroke
grestore
gsave
34.2 36 m
174.6 36 l
stroke
grestore
gsave
34.2 36 m
34.2 162 l
stroke
grestore
0.500 setlinewidth
1 setlinejoin
0 setlinecap
gsave
/o {
gsave
newpath
translate
0.5 setlinewidth
1 setlinejoin
0 setlinecap
0 0 m
0 4 l
gsave
0.000 setgray
fill
grestore
stroke
grestore
} bind def
34.2 36 o
grestore
gsave
/o {
gsave
newpath
translate
0.5 setlinewidth
1 setlinejoin
0 setlinecap
0 0 m
0 -4 l
gsave
0.000 setgray
fill
grestore
stroke
grestore
} bind def
34.2 162 o
grestore
/BitstreamVeraSans-Roman findfont
6.000 scalefont
setfont
gsave
28.387500 27.437500 translate
0.000000 rotate
0.000000 0.000000 m /minus glyphshow
5.027344 0.000000 m /six glyphshow
8.844727 0.000000 m /zero glyphshow
grestore
gsave
/o {
gsave
newpath
translate
0.5 setlinewidth
1 setlinejoin
0 setlinecap
0 0 m
0 4 l
gsave
0.000 setgray
fill
grestore
stroke
grestore
} bind def
57.6 36 o
grestore
gsave
/o {
gsave
newpath
translate
0.5 setlinewidth
1 setlinejoin
0 setlinecap
0 0 m
0 -4 l
gsave
0.000 setgray
fill
grestore
stroke
grestore
} bind def
57.6 162 o
grestore
gsave
51.787500 27.437500 translate
0.000000 rotate
0.000000 0.000000 m /minus glyphshow
5.027344 0.000000 m /four glyphshow
8.844727 0.000000 m /zero glyphshow
grestore
gsave
/o {
gsave
newpath
translate
0.5 setlinewidth
1 setlinejoin
0 setlinecap
0 0 m
0 4 l
gsave
0.000 setgray
fill
grestore
stroke
grestore
} bind def
81 36 o
grestore
gsave
/o {
gsave
newpath
translate
0.5 setlinewidth
1 setlinejoin
0 setlinecap
0 0 m
0 -4 l
gsave
0.000 setgray
fill
grestore
stroke
grestore
} bind def
81 162 o
grestore
gsave
75.187500 27.437500 translate
0.000000 rotate
0.000000 0.000000 m /minus glyphshow
5.027344 0.000000 m /two glyphshow
8.844727 0.000000 m /zero glyphshow
grestore
gsave
/o {
gsave
newpath
translate
0.5 setlinewidth
1 setlinejoin
0 setlinecap
0 0 m
0 4 l
gsave
0.000 setgray
fill
grestore
stroke
grestore
} bind def
104.4 36 o
grestore
gsave
/o {
gsave
newpath
translate
0.5 setlinewidth
1 setlinejoin
0 setlinecap
0 0 m
0 -4 l
gsave
0.000 setgray
fill
grestore
stroke
grestore
} bind def
104.4 162 o
grestore
gsave
102.884375 27.437500 translate
0.000000 rotate
0.000000 0.000000 m /zero glyphshow
grestore
gsave
/o {
gsave
newpath
translate
0.5 setlinewidth
1 setlinejoin
0 setlinecap
0 0 m
0 4 l
gsave
0.000 setgray
fill
grestore
stroke
grestore
} bind def
127.8 36 o
grestore
gsave
/o {
gsave
newpath
translate
0.5 setlinewidth
1 setlinejoin
0 setlinecap
0 0 m
0 -4 l
gsave
0.000 setgray
fill
grestore
stroke
grestore
} bind def
127.8 162 o
grestore
gsave
124.401562 27.437500 translate
0.000000 rotate
0.000000 0.000000 m /two glyphshow
3.817383 0.000000 m /zero glyphshow
grestore
gsave
/o {
gsave
newpath
translate
0.5 setlinewidth
1 setlinejoin
0 setlinecap
0 0 m
0 4 l
gsave
0.000 setgray
fill
grestore
stroke
grestore
} bind def
151.2 36 o
grestore
gsave
/o {
gsave
newpath
translate
0.5 setlinewidth
1 setlinejoin
0 setlinecap
0 0 m
0 -4 l
gsave
0.000 setgray
fill
grestore
stroke
grestore
} bind def
151.2 162 o
grestore
gsave
147.731250 27.437500 translate
0.000000 rotate
0.000000 0.000000 m /four glyphshow
3.817383 0.000000 m /zero glyphshow
grestore
gsave
/o {
gsave
newpath
translate
0.5 setlinewidth
1 setlinejoin
0 setlinecap
0 0 m
0 4 l
gsave
0.000 setgray
fill
grestore
stroke
grestore
} bind def
174.6 36 o
grestore
gsave
/o {
gsave
newpath
translate
0.5 setlinewidth
1 setlinejoin
0 setlinecap
0 0 m
0 -4 l
gsave
0.000 setgray
fill
grestore
stroke
grestore
} bind def
174.6 162 o
grestore
gsave
171.193750 27.437500 translate
0.000000 rotate
0.000000 0.000000 m /six glyphshow
3.817383 0.000000 m /zero glyphshow
grestore
gsave
90.900000 15.187500 translate
0.000000 rotate
/Cmr10 findfont
8.0 scalefont
setfont
0.000000 0.000000 moveto
/Y glyphshow

/BitstreamVeraSans-Roman findfont
8.0 scalefont
setfont
6.000000 0.000000 moveto
/space glyphshow

/Cmr10 findfont
8.0 scalefont
setfont
8.542969 0.000000 moveto
/parenleft glyphshow

11.648438 0.000000 moveto
/k glyphshow

15.863281 0.000000 moveto
/p glyphshow

20.304688 0.000000 moveto
/c glyphshow

23.855469 0.000000 moveto
/parenright glyphshow


grestore
gsave
/o {
gsave
newpath
translate
0.5 setlinewidth
1 setlinejoin
0 setlinecap
0 0 m
4 0 l
gsave
0.000 setgray
fill
grestore
stroke
grestore
} bind def
34.2 36 o
grestore
gsave
/o {
gsave
newpath
translate
0.5 setlinewidth
1 setlinejoin
0 setlinecap
0 0 m
-4 0 l
gsave
0.000 setgray
fill
grestore
stroke
grestore
} bind def
174.6 36 o
grestore
gsave
18.575000 34.343750 translate
0.000000 rotate
0.000000 0.000000 m /minus glyphshow
5.027344 0.000000 m /six glyphshow
8.844727 0.000000 m /zero glyphshow
grestore
gsave
/o {
gsave
newpath
translate
0.5 setlinewidth
1 setlinejoin
0 setlinecap
0 0 m
4 0 l
gsave
0.000 setgray
fill
grestore
stroke
grestore
} bind def
34.2 57 o
grestore
gsave
/o {
gsave
newpath
translate
0.5 setlinewidth
1 setlinejoin
0 setlinecap
0 0 m
-4 0 l
gsave
0.000 setgray
fill
grestore
stroke
grestore
} bind def
174.6 57 o
grestore
gsave
18.575000 55.343750 translate
0.000000 rotate
0.000000 0.000000 m /minus glyphshow
5.027344 0.000000 m /four glyphshow
8.844727 0.000000 m /zero glyphshow
grestore
gsave
/o {
gsave
newpath
translate
0.5 setlinewidth
1 setlinejoin
0 setlinecap
0 0 m
4 0 l
gsave
0.000 setgray
fill
grestore
stroke
grestore
} bind def
34.2 78 o
grestore
gsave
/o {
gsave
newpath
translate
0.5 setlinewidth
1 setlinejoin
0 setlinecap
0 0 m
-4 0 l
gsave
0.000 setgray
fill
grestore
stroke
grestore
} bind def
174.6 78 o
grestore
gsave
18.575000 76.343750 translate
0.000000 rotate
0.000000 0.000000 m /minus glyphshow
5.027344 0.000000 m /two glyphshow
8.844727 0.000000 m /zero glyphshow
grestore
gsave
/o {
gsave
newpath
translate
0.5 setlinewidth
1 setlinejoin
0 setlinecap
0 0 m
4 0 l
gsave
0.000 setgray
fill
grestore
stroke
grestore
} bind def
34.2 99 o
grestore
gsave
/o {
gsave
newpath
translate
0.5 setlinewidth
1 setlinejoin
0 setlinecap
0 0 m
-4 0 l
gsave
0.000 setgray
fill
grestore
stroke
grestore
} bind def
174.6 99 o
grestore
gsave
27.168750 97.343750 translate
0.000000 rotate
0.000000 0.000000 m /zero glyphshow
grestore
gsave
/o {
gsave
newpath
translate
0.5 setlinewidth
1 setlinejoin
0 setlinecap
0 0 m
4 0 l
gsave
0.000 setgray
fill
grestore
stroke
grestore
} bind def
34.2 120 o
grestore
gsave
/o {
gsave
newpath
translate
0.5 setlinewidth
1 setlinejoin
0 setlinecap
0 0 m
-4 0 l
gsave
0.000 setgray
fill
grestore
stroke
grestore
} bind def
174.6 120 o
grestore
gsave
23.403125 118.343750 translate
0.000000 rotate
0.000000 0.000000 m /two glyphshow
3.817383 0.000000 m /zero glyphshow
grestore
gsave
/o {
gsave
newpath
translate
0.5 setlinewidth
1 setlinejoin
0 setlinecap
0 0 m
4 0 l
gsave
0.000 setgray
fill
grestore
stroke
grestore
} bind def
34.2 141 o
grestore
gsave
/o {
gsave
newpath
translate
0.5 setlinewidth
1 setlinejoin
0 setlinecap
0 0 m
-4 0 l
gsave
0.000 setgray
fill
grestore
stroke
grestore
} bind def
174.6 141 o
grestore
gsave
23.262500 139.343750 translate
0.000000 rotate
0.000000 0.000000 m /four glyphshow
3.817383 0.000000 m /zero glyphshow
grestore
gsave
/o {
gsave
newpath
translate
0.5 setlinewidth
1 setlinejoin
0 setlinecap
0 0 m
4 0 l
gsave
0.000 setgray
fill
grestore
stroke
grestore
} bind def
34.2 162 o
grestore
gsave
/o {
gsave
newpath
translate
0.5 setlinewidth
1 setlinejoin
0 setlinecap
0 0 m
-4 0 l
gsave
0.000 setgray
fill
grestore
stroke
grestore
} bind def
174.6 162 o
grestore
gsave
23.387500 160.343750 translate
0.000000 rotate
0.000000 0.000000 m /six glyphshow
3.817383 0.000000 m /zero glyphshow
grestore
gsave
11.575000 86.000000 translate
90.000000 rotate
/Cmr10 findfont
8.0 scalefont
setfont
0.000000 0.000000 moveto
/Z glyphshow

/BitstreamVeraSans-Roman findfont
8.0 scalefont
setfont
4.886719 0.000000 moveto
/space glyphshow

/Cmr10 findfont
8.0 scalefont
setfont
7.429688 0.000000 moveto
/parenleft glyphshow

10.535156 0.000000 moveto
/k glyphshow

14.750000 0.000000 moveto
/p glyphshow

19.191406 0.000000 moveto
/c glyphshow

22.742188 0.000000 moveto
/parenright glyphshow


grestore

end
showpage
