%!PS-Adobe-3.0 EPSF-3.0
%%Title: /Users/iuliasimion/bullock_johnston/denis_erkal/vasily/Figures/4498_3103313_xz.eps
%%Creator: matplotlib version 1.4.3, http://matplotlib.org/
%%CreationDate: Sat Aug 19 15:00:40 2017
%%Orientation: portrait
%%BoundingBox: 216 306 396 486
%%EndComments
%%BeginProlog
/mpldict 9 dict def
mpldict begin
/m { moveto } bind def
/l { lineto } bind def
/r { rlineto } bind def
/c { curveto } bind def
/cl { closepath } bind def
/box {
m
1 index 0 r
0 exch r
neg 0 r
cl
} bind def
/clipbox {
box
clip
newpath
} bind def
%!PS-Adobe-3.0 Resource-Font
%%Title: Bitstream Vera Sans
%%Copyright: Copyright (c) 2003 by Bitstream, Inc. All Rights Reserved.
%%Creator: Converted from TrueType to type 3 by PPR
25 dict begin
/_d{bind def}bind def
/_m{moveto}_d
/_l{lineto}_d
/_cl{closepath eofill}_d
/_c{curveto}_d
/_sc{7 -1 roll{setcachedevice}{pop pop pop pop pop pop}ifelse}_d
/_e{exec}_d
/FontName /BitstreamVeraSans-Roman def
/PaintType 0 def
/FontMatrix[.001 0 0 .001 0 0]def
/FontBBox[-183 -236 1287 928]def
/FontType 3 def
/Encoding [ /space /zero /two /four /six /minus ] def
/FontInfo 10 dict dup begin
/FamilyName (Bitstream Vera Sans) def
/FullName (Bitstream Vera Sans) def
/Notice (Copyright (c) 2003 by Bitstream, Inc. All Rights Reserved. Bitstream Vera is a trademark of Bitstream, Inc.) def
/Weight (Roman) def
/Version (Release 1.10) def
/ItalicAngle 0.0 def
/isFixedPitch false def
/UnderlinePosition -213 def
/UnderlineThickness 143 def
end readonly def
/CharStrings 6 dict dup begin
/space{318 0 0 0 0 0 _sc
}_d
/zero{636 0 66 -13 570 742 _sc
318 664 _m
267 664 229 639 203 589 _c
177 539 165 464 165 364 _c
165 264 177 189 203 139 _c
229 89 267 64 318 64 _c
369 64 407 89 433 139 _c
458 189 471 264 471 364 _c
471 464 458 539 433 589 _c
407 639 369 664 318 664 _c
318 742 _m
399 742 461 709 505 645 _c
548 580 570 486 570 364 _c
570 241 548 147 505 83 _c
461 19 399 -13 318 -13 _c
236 -13 173 19 130 83 _c
87 147 66 241 66 364 _c
66 486 87 580 130 645 _c
173 709 236 742 318 742 _c
_cl}_d
/two{{636 0 73 0 536 742 _sc
192 83 _m
536 83 _l
536 0 _l
73 0 _l
73 83 _l
110 121 161 173 226 239 _c
290 304 331 346 348 365 _c
380 400 402 430 414 455 _c
426 479 433 504 433 528 _c
433 566 419 598 392 622 _c
365 646 330 659 286 659 _c
255 659 222 653 188 643 _c
154 632 117 616 78 594 _c
78 694 _l
118 710 155 722 189 730 _c
223 738 255 742 284 742 _c
}_e{359 742 419 723 464 685 _c
509 647 532 597 532 534 _c
532 504 526 475 515 449 _c
504 422 484 390 454 354 _c
446 344 420 317 376 272 _c
332 227 271 164 192 83 _c
_cl}_e}_d
/four{636 0 49 0 580 729 _sc
378 643 _m
129 254 _l
378 254 _l
378 643 _l
352 729 _m
476 729 _l
476 254 _l
580 254 _l
580 172 _l
476 172 _l
476 0 _l
378 0 _l
378 172 _l
49 172 _l
49 267 _l
352 729 _l
_cl}_d
/six{{636 0 70 -13 573 742 _sc
330 404 _m
286 404 251 388 225 358 _c
199 328 186 286 186 234 _c
186 181 199 139 225 109 _c
251 79 286 64 330 64 _c
374 64 409 79 435 109 _c
461 139 474 181 474 234 _c
474 286 461 328 435 358 _c
409 388 374 404 330 404 _c
526 713 _m
526 623 _l
501 635 476 644 451 650 _c
425 656 400 659 376 659 _c
310 659 260 637 226 593 _c
}_e{192 549 172 482 168 394 _c
187 422 211 444 240 459 _c
269 474 301 482 336 482 _c
409 482 467 459 509 415 _c
551 371 573 310 573 234 _c
573 159 550 99 506 54 _c
462 9 403 -13 330 -13 _c
246 -13 181 19 137 83 _c
92 147 70 241 70 364 _c
70 479 97 571 152 639 _c
206 707 280 742 372 742 _c
396 742 421 739 447 735 _c
472 730 498 723 526 713 _c
_cl}_e}_d
/minus{838 0 106 272 732 355 _sc
106 355 _m
732 355 _l
732 272 _l
106 272 _l
106 355 _l
_cl}_d
end readonly def

/BuildGlyph
 {exch begin
 CharStrings exch
 2 copy known not{pop /.notdef}if
 true 3 1 roll get exec
 end}_d

/BuildChar {
 1 index /Encoding get exch get
 1 index /BuildGlyph get exec
}_d

FontName currentdict end definefont pop
%!PS-Adobe-3.0 Resource-Font
%%Title: cmr10
%%Copyright: Copyright (C) 1994, Basil K. Malyshev. All Rights Reserved.012BaKoMa Fonts Collection, Level-B.
%%Creator: Converted from TrueType to type 3 by PPR
25 dict begin
/_d{bind def}bind def
/_m{moveto}_d
/_l{lineto}_d
/_cl{closepath eofill}_d
/_c{curveto}_d
/_sc{7 -1 roll{setcachedevice}{pop pop pop pop pop pop}ifelse}_d
/_e{exec}_d
/FontName /Cmr10 def
/PaintType 0 def
/FontMatrix[.001 0 0 .001 0 0]def
/FontBBox[-44 -250 1009 750]def
/FontType 3 def
/Encoding [ /Z /k /parenright /parenleft /c /p /X ] def
/FontInfo 10 dict dup begin
/FamilyName (cmr10) def
/FullName (cmr10) def
/Notice (Copyright (C) 1994, Basil K. Malyshev. All Rights Reserved.012BaKoMa Fonts Collection, Level-B. ) def
/Weight (Regular) def
/Version (1.1/12-Nov-94) def
/ItalicAngle 0.0 def
/isFixedPitch false def
/UnderlinePosition -133 def
/UnderlineThickness 20 def
end readonly def
/CharStrings 7 dict dup begin
/Z{{611 0 56 0 560 683 _sc
67 0 _m
59 0 56 3 56 11 _c
56 25 _l
56 27 56 29 58 31 _c
447 648 _l
306 648 _l
259 648 220 641 190 629 _c
160 617 137 596 121 568 _c
105 540 98 502 98 454 _c
69 454 _l
80 683 _l
543 683 _l
550 683 554 679 554 672 _c
554 660 _l
554 657 553 655 553 654 _c
164 38 _l
311 38 _l
346 38 378 41 406 48 _c
}_e{434 54 458 67 478 86 _c
491 99 501 116 509 136 _c
517 156 522 176 524 195 _c
526 213 528 239 531 271 _c
560 271 _l
543 0 _l
67 0 _l
_cl}_e}_d
/k{{527 0 26 0 511 694 _sc
26 0 _m
26 35 _l
48 35 67 36 82 40 _c
96 44 104 53 104 67 _c
104 592 _l
104 610 101 623 96 631 _c
90 639 83 643 73 645 _c
63 647 47 648 26 648 _c
26 683 _l
174 694 _l
174 219 _l
308 337 _l
321 349 328 361 328 372 _c
328 380 325 386 320 390 _c
314 394 308 396 300 396 _c
300 431 _l
488 431 _l
488 396 _l
}_e{442 396 397 376 352 337 _c
281 275 _l
408 94 _l
426 69 440 53 452 46 _c
464 38 483 35 511 35 _c
511 0 _l
312 0 _l
312 35 _l
334 35 346 42 346 56 _c
346 66 340 78 328 94 _c
232 231 _l
171 178 _l
171 67 _l
171 53 178 44 193 40 _c
207 36 226 35 249 35 _c
249 0 _l
26 0 _l
_cl}_e}_d
/parenright{{388 0 56 -249 291 750 _sc
65 -249 _m
59 -249 56 -246 56 -240 _c
56 -237 56 -235 58 -234 _c
172 -122 229 38 229 250 _c
229 462 172 623 60 733 _c
57 734 56 737 56 741 _c
56 743 57 745 59 747 _c
61 749 63 750 65 750 _c
74 750 _l
76 750 77 749 79 748 _c
127 710 167 664 199 610 _c
231 556 254 498 269 437 _c
283 376 291 314 291 250 _c
291 202 287 156 279 110 _c
}_e{271 64 258 20 241 -24 _c
223 -68 201 -108 175 -146 _c
148 -184 116 -217 79 -247 _c
77 -248 76 -249 74 -249 _c
65 -249 _l
_cl}_e}_d
/parenleft{{388 0 97 -249 332 750 _sc
310 -247 _m
272 -217 240 -184 214 -146 _c
187 -108 165 -67 148 -25 _c
131 17 118 62 110 109 _c
101 155 97 202 97 250 _c
97 298 101 345 110 392 _c
118 438 131 483 149 527 _c
166 570 188 611 215 649 _c
242 687 274 720 310 748 _c
310 749 311 750 315 750 _c
324 750 _l
326 750 327 749 329 747 _c
331 745 332 743 332 741 _c
332 738 331 736 330 735 _c
}_e{297 703 270 668 248 632 _c
226 596 209 557 196 516 _c
183 474 174 432 168 388 _c
162 344 159 298 159 250 _c
159 38 215 -122 329 -232 _c
331 -234 332 -236 332 -240 _c
332 -242 331 -244 329 -246 _c
327 -248 326 -249 324 -249 _c
315 -249 _l
311 -249 310 -248 310 -247 _c
_cl}_e}_d
/c{{444 0 33 -10 415 448 _sc
249 -10 _m
208 -10 171 0 139 21 _c
106 41 80 69 61 104 _c
42 139 33 176 33 216 _c
33 255 42 293 61 329 _c
79 365 105 393 138 415 _c
171 437 208 448 249 448 _c
288 448 324 440 356 425 _c
388 409 404 384 404 350 _c
404 337 399 326 390 316 _c
380 306 369 302 356 302 _c
342 302 331 306 322 316 _c
312 326 308 337 308 350 _c
}_e{308 362 311 372 319 381 _c
327 389 336 395 347 397 _c
324 411 292 419 250 419 _c
218 419 192 408 173 387 _c
153 365 140 339 132 308 _c
124 277 120 246 120 216 _c
120 183 124 152 134 122 _c
144 92 159 67 181 47 _c
202 27 229 18 261 18 _c
293 18 320 27 342 47 _c
364 66 379 91 387 123 _c
387 127 389 129 395 129 _c
407 129 _l
409 129 410 128 412 126 _c
}_e{414 124 415 122 415 120 _c
415 117 _l
405 77 385 46 355 24 _c
325 1 289 -10 249 -10 _c
_cl}_e}_d
/p{{555 0 26 -193 522 442 _sc
26 -193 _m
26 -158 _l
48 -158 67 -156 82 -152 _c
96 -148 104 -139 104 -126 _c
104 355 _l
104 373 97 384 84 389 _c
71 393 52 396 26 396 _c
26 431 _l
174 442 _l
174 380 _l
192 400 213 415 237 426 _c
261 436 287 442 315 442 _c
354 442 389 431 421 410 _c
453 388 477 360 495 326 _c
513 291 522 254 522 216 _c
522 175 512 137 492 103 _c
}_e{472 68 446 40 412 20 _c
378 0 340 -10 300 -10 _c
251 -10 210 9 177 48 _c
177 -126 _l
177 -139 184 -148 199 -152 _c
213 -156 232 -158 255 -158 _c
255 -193 _l
26 -193 _l
177 97 _m
188 73 204 54 225 38 _c
246 22 269 15 294 15 _c
317 15 337 21 355 33 _c
373 45 388 62 400 83 _c
412 104 420 126 426 149 _c
432 172 435 194 435 216 _c
435 242 430 271 420 302 _c
}_e{410 333 396 359 376 381 _c
356 402 333 413 305 413 _c
278 413 253 406 231 392 _c
208 378 190 360 177 336 _c
177 97 _l
_cl}_e}_d
/X{{750 0 23 0 726 683 _sc
23 0 _m
23 35 _l
91 35 138 54 165 92 _c
331 339 _l
147 619 _l
136 631 122 639 104 643 _c
86 646 64 648 37 648 _c
37 683 _l
317 683 _l
317 648 _l
305 648 291 645 275 641 _c
259 636 252 629 252 621 _c
252 619 252 618 253 617 _c
384 418 _l
499 590 _l
501 596 503 600 503 604 _c
503 618 496 628 482 636 _c
468 644 454 648 440 648 _c
}_e{440 683 _l
684 683 _l
684 648 _l
616 648 569 629 542 591 _c
405 386 _l
616 64 _l
627 51 641 43 659 40 _c
677 36 699 35 726 35 _c
726 0 _l
446 0 _l
446 35 _l
456 35 470 37 486 42 _c
502 46 511 53 511 62 _c
511 64 510 65 510 66 _c
352 307 _l
208 93 _l
206 89 205 84 205 79 _c
205 65 211 55 225 47 _c
238 39 252 35 267 35 _c
267 0 _l
}_e{23 0 _l
_cl}_e}_d
end readonly def

/BuildGlyph
 {exch begin
 CharStrings exch
 2 copy known not{pop /.notdef}if
 true 3 1 roll get exec
 end}_d

/BuildChar {
 1 index /Encoding get exch get
 1 index /BuildGlyph get exec
}_d

FontName currentdict end definefont pop
end
%%EndProlog
mpldict begin
216 306 translate
180 180 0 0 clipbox
gsave
0 0 m
180 0 l
180 180 l
0 180 l
cl
1.000 setgray
fill
grestore
gsave
34.2 36 m
174.6 36 l
174.6 162 l
34.2 162 l
cl
1.000 setgray
fill
grestore
0.500 setlinewidth
1 setlinejoin
0 setlinecap
[] 0 setdash
0.000 setgray
gsave
140.4 126 34.2 36 clipbox
/o {
gsave
newpath
translate
0.5 setlinewidth
1 setlinejoin
0 setlinecap
0 -0.25 m
0.0663008 -0.25 0.129895 -0.223658 0.176777 -0.176777 c
0.223658 -0.129895 0.25 -0.0663008 0.25 0 c
0.25 0.0663008 0.223658 0.129895 0.176777 0.176777 c
0.129895 0.223658 0.0663008 0.25 0 0.25 c
-0.0663008 0.25 -0.129895 0.223658 -0.176777 0.176777 c
-0.223658 0.129895 -0.25 0.0663008 -0.25 0 c
-0.25 -0.0663008 -0.223658 -0.129895 -0.176777 -0.176777 c
-0.129895 -0.223658 -0.0663008 -0.25 0 -0.25 c
cl
gsave
0.000 setgray
fill
grestore
stroke
grestore
} bind def
86.6629 108.742 o
94.9551 108.43 o
112.259 94.5271 o
92.914 112.208 o
110.784 98.2426 o
85.6903 111.356 o
90.4474 112.288 o
94.502 109.45 o
92.5732 115.302 o
104.559 99.8521 o
119.697 76.2341 o
93.4488 108.172 o
120.382 77.6453 o
95.0628 112.3 o
101.424 104.004 o
104.441 97.3039 o
88.7665 109.321 o
93.5228 114.328 o
100.967 100.892 o
109.585 91.4761 o
124.601 82.8636 o
96.8902 112.697 o
87.5867 109.793 o
89.9075 114.118 o
90.1718 114.725 o
121.773 87.9441 o
113.668 91.1345 o
99.4243 104.11 o
95.9602 111.839 o
109.046 96.0354 o
106.172 94.4 o
97.2706 112.202 o
98.341 114.206 o
96.7711 112.97 o
110.13 89.5313 o
92.7349 113.768 o
103.955 95.915 o
104.918 96.4562 o
97.1292 108 o
87.8449 118.675 o
104.012 93.461 o
89.6465 113.788 o
86.9665 111.154 o
99.0781 108.539 o
115.48 87.2668 o
86.3182 112.166 o
116.678 82.4607 o
94.8072 112.117 o
104.444 102.052 o
99.1365 102.582 o
103.754 97.1264 o
90.3417 107.268 o
127.069 83.9873 o
92.2704 112.798 o
110.49 93.2744 o
100.807 108.361 o
105.652 100.855 o
110.457 93.3807 o
142.412 86.6253 o
106.878 90.2563 o
116.027 92.0221 o
110.339 90.9784 o
123.189 81.2761 o
105.717 85.2532 o
92.6101 108.84 o
113.287 92.0814 o
90.6053 109.134 o
110.274 89.977 o
107.953 92.7933 o
86.9822 110.083 o
124.607 80.6224 o
84.6916 109.134 o
108.233 93.2286 o
90.2821 111.34 o
91.5605 108.267 o
85.8233 113.764 o
89.8416 110.155 o
125.851 81.5126 o
114.195 86.5621 o
121.298 79.4716 o
89.2324 117.393 o
84.8849 131.279 o
93.5313 109.18 o
89.4661 112.926 o
121.546 79.1726 o
94.5391 114.846 o
115.077 89.713 o
84.5577 113.13 o
123.254 71.4372 o
92.0057 114.691 o
119.029 85.9265 o
99.7909 105.591 o
83.0213 109.426 o
90.5082 109.543 o
87.1159 118.605 o
95.811 123.685 o
117.915 74.8501 o
87.5757 112.389 o
103.229 114.697 o
86.1912 108.982 o
116.04 74.8886 o
95.2761 107.948 o
90.4251 111.106 o
121.1 90.7235 o
100.208 104.715 o
96.425 103.938 o
93.6714 110.572 o
143.111 93.239 o
106.054 88.9968 o
99.5933 104.097 o
123.338 67.3233 o
74.5897 113.302 o
97.002 109.406 o
97.7628 108.672 o
94.927 107.167 o
123.646 78.7903 o
105.204 135.687 o
111.828 93.3699 o
119.029 95.6305 o
109.006 97.1316 o
94.4585 110.097 o
112.673 93.0586 o
106.289 101.057 o
131.769 90.4738 o
87.3217 115.538 o
104.978 96.4858 o
95.4054 109.662 o
120.891 88.1399 o
123.472 88.9445 o
125.015 84.0899 o
88.8702 115.802 o
100.241 101.706 o
108.299 90.4901 o
86.2438 108.512 o
88.4251 109.432 o
110.623 94.7003 o
92.5862 107.835 o
103.633 115.943 o
84.7556 114.024 o
107.689 99.705 o
125.075 74.1448 o
87.0394 108.62 o
135.904 74.6367 o
111.048 96.453 o
87.5082 114.591 o
85.6925 111.568 o
115.99 85.455 o
109.165 93.7012 o
85.5774 110.926 o
110.815 73.3474 o
110.903 94.6514 o
88.3801 105.419 o
89.3952 116.078 o
100.589 101.491 o
113.357 84.3038 o
88.4544 133.655 o
121.478 84.9062 o
86.2641 112.282 o
104.96 99.0543 o
112.667 86.5531 o
103.832 97.4706 o
120.466 86.3093 o
87.6993 111.342 o
102.924 104.323 o
109.715 93.5355 o
95.632 108.774 o
125.673 77.6498 o
95.6075 131.704 o
127.289 86.5907 o
83.6566 109.577 o
110.035 91.3903 o
86.2056 119.089 o
121.31 76.5626 o
117.757 85.9535 o
118.806 93.0819 o
121.332 81.9831 o
104.856 90.4314 o
114.791 76.0438 o
96.4016 109.032 o
81.918 113.071 o
93.2049 114.105 o
84.3725 110.551 o
117.487 88.4012 o
114.2 90.1219 o
109.51 94.778 o
102.33 113.206 o
100.519 101.171 o
120.9 82.2244 o
116.293 82.1218 o
119.531 75.5295 o
104.91 98.661 o
89.9026 110.891 o
92.0226 105.551 o
119.861 81.6267 o
97.2143 107.692 o
136.305 95.7367 o
93.0702 110.525 o
106.724 92.5994 o
103.769 103.526 o
106.749 90.1728 o
90.094 116.79 o
127.086 85.9834 o
105.806 97.1414 o
117.32 89.2384 o
94.4412 113.162 o
88.3526 113.327 o
92.5256 131.797 o
118.036 83.9928 o
98.0937 110.091 o
105.644 114.788 o
120.666 82.6345 o
94.6012 102.605 o
112.609 94.4309 o
107.557 80.254 o
124.854 73.7198 o
120.749 78.3802 o
103.649 90.8814 o
90.7712 106.62 o
129.35 86.3559 o
123.748 85.9455 o
88.9579 112.391 o
98.0977 112.684 o
94.578 109.867 o
101.812 116.439 o
121.531 75.2471 o
124.459 84.9184 o
92.4594 112.207 o
126.673 98.3093 o
106.677 96.2128 o
121.738 82.8982 o
109.28 95.5262 o
136.678 90.1613 o
103.129 99.6602 o
144.546 85.7171 o
138.59 74.6462 o
104.691 93.3383 o
114.347 87.3865 o
99.6281 111.799 o
86.0133 115.013 o
97.1082 104.161 o
90.8094 121.442 o
105.188 118.332 o
105.524 87.2837 o
119.281 77.9317 o
114.363 82.6824 o
107.308 90.6264 o
80.739 115.055 o
85.2968 110.349 o
122.397 78.4736 o
129.02 80.0883 o
111.246 97.9622 o
86.4166 112.45 o
122.611 77.658 o
82.3092 111.446 o
130.896 98.4963 o
126.713 85.4022 o
125.939 90.7367 o
94.2704 117.348 o
95.1993 110.279 o
126.455 88.1688 o
117.978 89.7953 o
149.026 80.6793 o
86.7152 129.569 o
112.618 95.8734 o
125.55 91.667 o
93.9283 116.866 o
103.994 116.654 o
89.2367 111.263 o
121.609 94.3009 o
104.462 107.038 o
122.576 76.9927 o
96.7185 112.774 o
113.485 86.8093 o
89.3278 115.517 o
123.829 81.6842 o
116.729 86.0825 o
106.048 93.2587 o
87.811 103.885 o
121.177 75.3335 o
121.691 72.9704 o
102.165 98.3838 o
121.687 89.6067 o
91.8982 112.348 o
91.2475 113.312 o
99.1427 98.4518 o
107.488 92.6452 o
108.099 79.3883 o
82.176 112.074 o
105.674 101.486 o
102.53 101.027 o
101.214 110.777 o
111.376 86.4913 o
92.3187 107.971 o
96.3081 117.501 o
103.458 101.755 o
87.9834 107.879 o
125.562 89.0556 o
84.6776 118.641 o
128.553 67.3103 o
81.2938 125.818 o
106.809 96.164 o
88.2456 111.851 o
119.289 82.2012 o
104.876 109.361 o
95.1317 108.269 o
126.582 76.6496 o
125.285 83.562 o
83.6399 109.414 o
102.484 119.707 o
100.593 104.29 o
114.527 84.1078 o
92.5888 110.606 o
109.48 98.5517 o
88.7822 121.517 o
122.414 77.0262 o
104.49 102.416 o
89.6561 105.888 o
136.136 79.1239 o
105.059 90.8755 o
102.254 87.5661 o
110.242 74.0746 o
101.649 99.0303 o
85.7359 109.98 o
72.2787 109.009 o
120.378 86.4716 o
121.607 81.4507 o
106.421 137.081 o
90.8814 104.885 o
103.828 95.4496 o
87.1424 118.698 o
100.903 106.454 o
114.539 83.7927 o
121.458 91.3459 o
123.691 81.117 o
100.681 112.718 o
115.981 88.6765 o
91.8875 106.185 o
89.5897 116.593 o
104.456 129.847 o
147.713 83.0481 o
91.3299 111.059 o
108.142 90.8431 o
100.109 138.559 o
101.875 101.281 o
86.3218 140.87 o
108.085 100.018 o
118.172 82.9268 o
101.085 102.347 o
114.344 89.2349 o
94.677 110.077 o
106.85 98.0546 o
113.66 89.3393 o
101.251 126.023 o
110.121 92.0099 o
98.7325 101.496 o
100.97 98.9189 o
98.6509 115.455 o
92.3821 119.445 o
83.5735 109.946 o
107.733 93.4271 o
102.54 99.0833 o
88.0831 105.441 o
79.6301 112.154 o
102.28 126.388 o
98.2443 100.617 o
100.874 99.7367 o
82.015 127.227 o
147.185 81.3414 o
89.325 112.947 o
117.503 86.9612 o
117.998 83.0057 o
117.226 82.4151 o
69.9371 124.467 o
101.047 102.067 o
120.183 76.1602 o
111.339 83.0721 o
84.1382 111.102 o
88.4024 117.947 o
115.676 89.1205 o
101.609 99.5254 o
99.3878 106.453 o
81.0634 118.161 o
82.451 118.894 o
101.297 110.499 o
112.234 88.8322 o
83.3187 112.867 o
106.427 89.2178 o
89.2887 114.254 o
118.572 79.9197 o
122.397 80.1751 o
75.5504 126.792 o
110.599 98.4256 o
106.792 102.111 o
121.325 97.2566 o
81.7669 120.287 o
95.0435 102.612 o
132.175 95.6914 o
112.397 94.691 o
92.6164 108.888 o
92.8401 112.638 o
73.7367 132.952 o
116.539 94.4099 o
99.1581 104.194 o
99.0851 113.965 o
79.852 122.299 o
101.758 98.4648 o
105.785 78.2618 o
100.596 114.633 o
96.1841 96.5556 o
116.01 90.0237 o
93.6487 115.309 o
61.4973 134.321 o
106.443 93.6628 o
98.2375 121.591 o
82.6256 116.55 o
116.054 88.1806 o
101.854 109.723 o
100.697 101.388 o
85.4619 119.875 o
79.1794 107.617 o
100.239 105.544 o
86.5979 107.302 o
126.513 75.0776 o
115.069 96.2833 o
93.1537 115.868 o
113.466 93.645 o
118.095 72.3938 o
130.484 95.8011 o
118.947 86.2745 o
108.355 95.6993 o
125.464 70.1034 o
94.2399 107.925 o
113.016 89.5496 o
87.7471 109.897 o
130.282 98.7705 o
120.719 87.2042 o
98.3719 100 o
96.1119 114.802 o
109.688 89.4194 o
103.031 103.375 o
92.6676 109.359 o
89.0968 117.728 o
99.5036 102.951 o
101.174 103.732 o
149.947 82.3194 o
113.561 92.9841 o
95.8348 112.309 o
136.609 90.6255 o
93.8231 114.87 o
103.581 103.609 o
110.996 93.2946 o
104.734 88.5113 o
101.064 99.011 o
130.028 70.723 o
106.382 90.2369 o
111.165 92.4116 o
107.187 87.5266 o
99.1936 102.172 o
78.8086 115.024 o
109.242 96.1764 o
109.335 132.561 o
112.4 85.5747 o
79.5458 113.467 o
116.98 93.6927 o
106.637 90.7524 o
99.912 92.7896 o
109.998 86.9837 o
123.885 81.9234 o
105.081 96.5148 o
120.965 80.9931 o
79.7805 138.092 o
91.1937 110.499 o
143.803 74.0187 o
96.3109 132.411 o
115.669 80.9256 o
104.211 97.9798 o
121.818 80.0009 o
93.6136 114.164 o
115.169 79.9776 o
115.225 76.4651 o
105.05 108.44 o
109.524 94.9392 o
112.935 93.5473 o
87.1129 109.322 o
116.002 71.9896 o
105.96 134.359 o
104.287 93.8323 o
122.474 87.618 o
113.652 86.22 o
147.641 81.2939 o
96.4853 108.64 o
100.811 107.799 o
122.315 89.4339 o
89.6509 106.557 o
126.68 83.1789 o
107.61 99.5701 o
111.921 95.0582 o
128.576 75.0285 o
86.3506 103.985 o
124.947 85.3562 o
109.982 88.5022 o
130.99 90.8064 o
123.268 89.5946 o
139.295 76.8578 o
90.7551 112.957 o
116.808 90.7181 o
120.124 71.7496 o
107.059 101.766 o
105.072 100.139 o
123.844 84.5955 o
97.9132 99.8468 o
118.526 82.5346 o
96.2899 109.361 o
93.7514 113.19 o
117.78 71.5123 o
94.212 106.625 o
115.1 91.1926 o
101.091 102.953 o
81.2693 112.658 o
113.327 94.3086 o
118.411 84.6428 o
143.181 76.3055 o
104.27 104.193 o
136.187 87.3371 o
110.631 94.3101 o
124.307 92.7584 o
116.036 86.5544 o
114.068 89.884 o
144.786 74.2469 o
121.467 95.1794 o
93.8877 91.7116 o
88.8612 113.159 o
66.6899 123.951 o
107.627 94.984 o
96.8613 109.594 o
142.973 75.4155 o
99.8471 102.899 o
92.3412 111.358 o
103.863 96.2787 o
115.231 83.8577 o
84.5608 114.921 o
96.1688 102.108 o
121.358 75.5839 o
114.813 64.9608 o
117.296 68.7707 o
87.4601 109.705 o
104.959 101.334 o
68.01 115.393 o
110.45 95.4931 o
102.759 105.546 o
130.11 89.5669 o
98.5896 100.243 o
103.824 104.753 o
95.1411 121.807 o
116.724 84.1357 o
127.99 78.2794 o
100.191 99.2037 o
139.28 81.9503 o
109.532 92.0916 o
109.157 92.3381 o
121.844 82.702 o
88.0331 112.805 o
117.959 77.3657 o
94.5389 104.369 o
110.754 109.13 o
93.5696 110.992 o
84.7401 115.837 o
141.564 83.2202 o
90.8711 110.285 o
103.788 99.3938 o
128.045 71.2098 o
96.9018 103.726 o
105.428 114.534 o
125.559 86.6258 o
103.104 113.482 o
71.1434 123.77 o
85.6022 104.707 o
92.1509 106.084 o
97.322 110.777 o
125.718 93.5461 o
148.042 84.4731 o
106.908 98.314 o
113.453 87.3993 o
95.3945 119.518 o
110.09 93.5501 o
114.922 96.9256 o
135.207 64.7658 o
97.1179 114.326 o
103.41 92.1905 o
136.718 100.536 o
106.886 90.8008 o
99.3802 118.433 o
107.743 94.0872 o
147.711 89.9852 o
151.28 84.0245 o
107.723 96.602 o
112.887 98.3155 o
128.191 86.9343 o
117.783 87.9428 o
101.657 99.3544 o
89.9371 111.506 o
112.123 87.5947 o
115.14 92.5986 o
101.437 108.266 o
123.24 76.7052 o
125.594 69.5732 o
90.989 113.069 o
109.517 91.1643 o
126.202 85.1119 o
68.8036 127.695 o
122.278 86.666 o
140.627 72.2302 o
91.0193 105.015 o
92.5015 107.458 o
147.088 85.6992 o
85.9778 109.855 o
131.418 81.9562 o
132.273 79.1924 o
113.623 92.7245 o
90.7399 104.172 o
118.032 94.2404 o
150.002 84.623 o
127.627 69.0657 o
126.406 87.5914 o
151.19 81.6362 o
105.443 98.6639 o
100.714 108.31 o
124.444 91.9517 o
91.4715 105.398 o
97.13 102.52 o
113.151 81.0689 o
77.1188 109.902 o
139.217 72.4907 o
90.3933 114.75 o
96.6785 106.792 o
109.263 93.0153 o
137.261 93.0957 o
97.2632 117.176 o
110.184 96.5052 o
121.479 88.5254 o
115.5 80.902 o
102.426 85.2227 o
118.896 95.5465 o
116.933 81.8725 o
106.453 100.886 o
102.503 74.8952 o
96.5737 111.337 o
98.8454 112.613 o
91.6359 103.191 o
112.66 95.2658 o
151.045 86.443 o
108.523 78.5426 o
110.26 86.6699 o
97.4645 106.437 o
108.495 85.5698 o
104.555 98.3004 o
99.06 101.754 o
141.37 94.8661 o
109.613 94.6373 o
115.673 85.7963 o
122.01 81.4671 o
105.428 100.307 o
112.924 85.8473 o
63.7199 115.203 o
114.856 86.296 o
110.217 74.3415 o
126.622 82.0121 o
143.128 103.219 o
90.155 120.528 o
104.19 98.9027 o
101.959 99.7371 o
149.461 83.366 o
60.897 126.229 o
101.472 105.221 o
126.955 85.3716 o
123.633 66.6952 o
113.68 98.2358 o
93.1494 107.987 o
107.118 93.8299 o
137.444 75.0559 o
111.71 97.0113 o
125.82 85.955 o
110.041 71.1358 o
107.503 82.0875 o
118.134 81.831 o
136.349 85.8381 o
122.589 89.3583 o
132.406 97.808 o
84.5706 112.443 o
118.071 86.2868 o
102.048 97.9099 o
125.795 80.7733 o
76.5633 137.188 o
115.305 84.0033 o
87.7264 110.054 o
121.767 86.3537 o
100.594 112.223 o
89.9809 112.865 o
94.7193 111.698 o
106.572 97.9158 o
103.156 95.4721 o
95.5551 108.452 o
109.743 91.8874 o
107.276 96.8655 o
109.987 129.306 o
91.6438 110.36 o
150.112 79.0448 o
124.267 77.4999 o
101.466 100.821 o
92.9758 112.901 o
131.305 96.0613 o
78.2415 112.942 o
96.4701 102.136 o
95.7677 112.049 o
105.007 88.0793 o
110.377 103.726 o
116.525 78.8162 o
92.0987 105.291 o
120.422 91.8129 o
109.002 98.4941 o
91.3074 125.176 o
128.451 89.1595 o
103.649 96.8392 o
146.538 82.97 o
88.3367 105.682 o
151.052 77.9114 o
110.834 81.8429 o
78.4022 103.274 o
106.92 97.7234 o
119.818 91.1371 o
137.959 75.2804 o
87.0608 113.742 o
96.5327 100.602 o
130.204 96.2176 o
147.318 78.9447 o
112.523 85.2795 o
144.836 72.8012 o
93.1766 99.6176 o
111.732 92.66 o
109.214 85.2995 o
110.119 96.3226 o
96.7894 102.304 o
105.616 105.111 o
116.202 87.8457 o
99.7805 120.392 o
146.277 75.8582 o
109.351 93.87 o
86.4818 117.546 o
103.309 91.9876 o
123.006 96.3281 o
82.5402 104.576 o
118.435 85.7419 o
99.4631 110.041 o
132.762 102.981 o
119.851 101.146 o
112.222 92.1088 o
79.7304 124.82 o
142.935 89.0562 o
96.4777 103.883 o
146.454 94.082 o
102.889 98.1835 o
94.2094 109.043 o
88.4566 111.542 o
94.7722 108.443 o
106.62 77.8718 o
111.53 76.2154 o
105.066 97.111 o
88.4767 113.961 o
106.072 90.2125 o
148.352 81.8375 o
118.175 82.1751 o
114.645 88.8226 o
103.818 98.9892 o
125.548 82.0072 o
125.465 83.1234 o
81.5071 132.279 o
103.502 104.672 o
79.0903 128.121 o
122.169 75.3817 o
93.6665 108.608 o
130.695 86.8994 o
88.9578 112.848 o
123.316 77.1922 o
125.58 93.5611 o
102.348 100.679 o
123.614 76.5924 o
97.103 98.3487 o
129.145 78.0506 o
97.505 114.048 o
120.894 91.3787 o
100.769 102.578 o
149.436 88.4081 o
127.589 92.7984 o
94.5404 132.974 o
128.681 83.0661 o
88.9689 118.293 o
100.158 99.9665 o
120.01 83.611 o
97.7361 110.292 o
93.3262 114.692 o
79.0906 115.566 o
133.139 80.1799 o
149.11 82.4325 o
102.775 95.6539 o
101.488 109.075 o
97.8534 73.4461 o
95.158 107.937 o
101.67 65.3153 o
119.485 84.3954 o
96.2655 120.911 o
116.394 71.0812 o
113.695 89.6602 o
118.75 87.6166 o
100.076 101.216 o
103.246 95.746 o
117.305 92.6988 o
109.3 86.5984 o
97.114 112.749 o
118.101 79.0757 o
77.595 124.35 o
111.557 75.9292 o
102.494 100.985 o
121.146 78.9367 o
102.282 97.9611 o
88.1897 117.287 o
115.598 90.3977 o
103.094 97.3366 o
116.72 87.5297 o
114.517 92.6054 o
88.5057 119.354 o
93.9916 119.585 o
99.8833 98.5238 o
116.253 84.1767 o
101.926 98.2709 o
149.157 78.4974 o
90.5833 111.363 o
106.543 94.5896 o
125.361 81.2975 o
139.803 76.612 o
148.686 75.4602 o
125.146 122.355 o
107.027 89.9814 o
112.131 83.0799 o
79.2655 107.735 o
117.336 83.3863 o
85.9075 109.029 o
94.4231 110.417 o
110.942 92.3502 o
138.586 86.0424 o
107.599 99.2884 o
149.72 80.1914 o
93.8865 120.252 o
105.674 93.3167 o
102.804 104.057 o
117.241 94.859 o
142.35 78.364 o
91.2283 111.291 o
152.273 85.5739 o
97.2917 103.709 o
112.259 88.412 o
92.0574 103.668 o
132.819 78.3142 o
104.1 97.1358 o
83.6319 109.22 o
105.157 95.0943 o
85.3005 117.655 o
97.1311 110.417 o
110.453 98.2756 o
103.551 106.272 o
105.712 88.0309 o
85.3222 107.963 o
76.7723 142.5 o
118.934 87.1968 o
102.872 97.8632 o
102.07 101.647 o
96.5482 109.211 o
110.876 90.904 o
95.273 130.214 o
59.8102 116.14 o
121.904 83.346 o
130.332 95.7856 o
102.662 114.266 o
125.59 100.416 o
143.573 81.12 o
98.3453 107.005 o
88.2929 118.428 o
98.9303 101.278 o
90.0966 115.557 o
124.943 75.0885 o
106.212 92.0556 o
115.704 72.232 o
119.591 91.2787 o
97.1078 102.366 o
132.347 92.9273 o
117.99 89.225 o
147.289 88.2335 o
89.8846 105.047 o
99.1556 113.358 o
129.122 93.001 o
123.941 83.5981 o
108.448 97.6333 o
119.96 84.7567 o
145.083 92.341 o
93.8537 112.165 o
114.733 96.1336 o
118.752 83.6084 o
102.981 93.3896 o
83.2117 110.453 o
80.3706 119.67 o
127.455 94.228 o
96.1091 101.191 o
112.247 80.0003 o
133.599 80.3055 o
102.829 97.5341 o
96.3181 103.096 o
119.536 91.0121 o
85.4901 108.011 o
88.4435 103.634 o
95.3962 105.85 o
120.049 75.6688 o
89.5087 105.231 o
123.185 89.92 o
119.285 86.1004 o
102.056 131.427 o
118.733 72.5524 o
89.1864 105.121 o
125.148 95.1003 o
117.953 93.6686 o
80.812 110.09 o
123.857 83.2061 o
109.641 94.263 o
119.888 86.7425 o
87.2655 107.361 o
107.63 98.6435 o
114.469 84.9708 o
121.899 81.6453 o
109.892 97.5779 o
113.682 92.5364 o
116.423 86.9144 o
88.2775 103.678 o
140.982 78.7507 o
124.565 83.976 o
115.542 89.1126 o
130.102 73.6025 o
99.0907 105.483 o
134.176 82.2033 o
73.6244 118.419 o
92.6333 111.049 o
128.508 81.8388 o
79.4854 116.751 o
94.6843 114.609 o
105.843 114.644 o
102.631 100.617 o
129.483 93.1321 o
110.114 85.6969 o
85.38 122.34 o
120.013 82.3458 o
108.704 90.791 o
105.735 96.5181 o
95.7408 103.194 o
110.404 77.2472 o
123.805 87.4915 o
102.838 103.309 o
105.513 88.8323 o
86.7249 108.906 o
99.6768 95.7041 o
85.5128 131.194 o
103.959 95.2634 o
111.731 87.9575 o
109.365 93.3303 o
93.9626 111.163 o
108.28 90.4804 o
103.603 94.799 o
140.631 88.1074 o
147.516 84.0035 o
115.096 89.9373 o
120.326 75.4098 o
101.408 119.157 o
130.221 96.7383 o
97.2732 113.834 o
111.333 96.9026 o
103.068 71.3705 o
96.2519 110.386 o
113.03 87.5178 o
98.4594 113.485 o
131.029 77.5672 o
98.5672 103.991 o
101.493 98.7569 o
150.497 80.7668 o
75.3617 141.506 o
146.916 83.8803 o
89.9836 107.207 o
110.752 86.1474 o
114.248 88.4039 o
99.937 105.428 o
126.263 72.4963 o
100.339 101.931 o
102.635 99.4465 o
125.747 82.3326 o
127.069 85.5859 o
122.582 95.9732 o
113.492 87.5206 o
96.6654 119.334 o
94.9099 107.006 o
92.9239 121.577 o
80.0486 67.5412 o
127.593 98.283 o
116.462 82.7987 o
105.931 96.901 o
103.087 104.008 o
123.716 79.2482 o
95.7866 71.5441 o
121.368 82.9118 o
105.55 96.8127 o
116.81 85.3713 o
125.091 88.1619 o
106.321 95.216 o
142.392 73.7915 o
110.034 80.227 o
135.62 92.5388 o
96.3682 100.499 o
93.2429 128.855 o
100.226 126.172 o
116.916 94.4448 o
141.188 74.0033 o
143.723 89.1533 o
100.005 119.725 o
139.6 71.8979 o
104.447 102.816 o
109.641 94.1127 o
128.294 78.8362 o
112.312 75.8346 o
116.483 88.9388 o
114.79 86.7057 o
112.46 78.7283 o
115.95 84.9319 o
139.913 83.8682 o
56.7651 121.328 o
123.547 63.4535 o
124.025 86.823 o
98.7778 95.9087 o
114.69 86.83 o
95.0844 113.922 o
110.238 82.6242 o
125.126 97.974 o
101.699 114.2 o
112.162 99.864 o
119.814 92.1475 o
82.6305 106.178 o
132.796 98.1979 o
119.258 92.5176 o
90.6787 111.763 o
124.424 88.9217 o
119.808 75.5685 o
117.705 78.7791 o
108.703 92.726 o
90.4221 113.769 o
120.745 84.8214 o
94.6342 116.283 o
98.0334 103.288 o
112.692 88.9035 o
124.337 86.6334 o
128.468 86.9537 o
103.381 130.772 o
85.0172 107.058 o
114.29 81.5686 o
119.85 77.4542 o
111.14 92.1442 o
119.513 83.9079 o
89.009 106.476 o
97.337 108.119 o
129.494 87.4209 o
122.832 88.2334 o
112.255 83.5552 o
109.127 87.6441 o
125.675 72.3524 o
115.35 89.3326 o
90.9418 108.957 o
95.7467 108.255 o
79.4053 114.048 o
90.5959 108.149 o
60.2298 108.711 o
129.105 82.322 o
120.412 78.6863 o
117.092 72.6963 o
122.649 89.7441 o
114.564 78.3228 o
87.7054 117.561 o
136.995 92.8182 o
80.2137 114.048 o
80.1452 105.917 o
90.6729 119.83 o
119.609 95.3076 o
111.802 92.275 o
93.6556 116.071 o
132.797 79.1683 o
62.1519 107.653 o
127.703 83.257 o
118.228 72.2575 o
105.817 100.672 o
104.088 98.6571 o
119.098 77.4219 o
130.594 97.1589 o
106.962 88.1213 o
109.695 77.8905 o
123.823 109.581 o
104.934 99.4943 o
114.628 94.9657 o
139.498 78.1621 o
97.9741 104.515 o
75.0151 130.912 o
90.4621 83.5628 o
123.777 122.317 o
127.704 81.1004 o
90.322 116.815 o
119.94 63.418 o
77.2073 116.804 o
97.7283 110.87 o
113.089 88.0597 o
99.4865 110.829 o
90.9419 119.716 o
104.005 115.651 o
110.855 93.1652 o
108.161 75.7675 o
95.6324 109.961 o
128.018 63.4691 o
76.2356 108.212 o
126.157 81.2395 o
119.337 64.288 o
108.29 95.4686 o
118.245 82.4923 o
105.198 133.559 o
41.8188 102.719 o
97.0592 112.765 o
113.63 73.5421 o
93.6082 106.035 o
98.3323 101.484 o
118.125 96.995 o
121.758 95.4697 o
114.44 93.0641 o
85.991 107.362 o
122.727 87.1967 o
135.035 107.378 o
86.0041 110.671 o
123.221 69.1874 o
147.312 84.7531 o
125.67 97.4061 o
131.104 95.474 o
132.522 86.123 o
125.678 75.4503 o
109.105 99.3233 o
84.0854 100.836 o
122.635 101.673 o
112.198 66.4432 o
98.8895 116.03 o
103.962 86.0166 o
139.089 74.1933 o
135.876 77.3742 o
133.114 80.7752 o
129.638 96.0991 o
70.3714 113.068 o
103.287 80.7493 o
96.8848 124.707 o
117.848 104.824 o
145.11 85.6359 o
153.289 82.702 o
131.976 82.4251 o
108.391 73.7872 o
105.723 99.0693 o
132.213 98.0748 o
113.29 94.0614 o
94.7703 105.496 o
101.836 113.587 o
115.533 79.2439 o
141.076 78.1811 o
95.9615 113.554 o
100.612 102.042 o
105.843 94.9828 o
84.2215 117.544 o
126.16 72.9931 o
141.035 72.9024 o
113.406 67.9622 o
149.303 80.6448 o
124.153 79.9904 o
126.716 74.2208 o
82.7702 102.654 o
121.357 91.8375 o
104.555 120.546 o
92.1886 127.433 o
96.3407 97.4754 o
119.304 92.4754 o
127.648 84.4314 o
87.7993 119.556 o
118.589 91.092 o
118.846 73.7679 o
112.316 93.1429 o
114.466 82.6045 o
106.618 93.0428 o
74.0581 114.887 o
74.9708 120.756 o
94.1755 105.72 o
143.59 90.7784 o
102.537 94.6378 o
82.4305 131.181 o
95.5456 115.248 o
123.96 95.7934 o
108.577 94.7283 o
112.193 112.241 o
151.423 85.4772 o
103.531 82.5853 o
97.943 95.4813 o
99.5631 87.1508 o
82.4609 109.097 o
96.2352 113.577 o
93.1445 110.288 o
129.69 74.4054 o
95.004 101.035 o
141.388 82.5704 o
90.5405 115.604 o
78.3279 112.179 o
150.885 83.4726 o
106.059 101.957 o
121 77.3477 o
92.1329 105.921 o
77.5921 102.068 o
94.4166 73.2322 o
94.9233 107.543 o
85.5115 109.956 o
93.4373 100.458 o
139.267 76.6875 o
112.709 89.2423 o
128.597 91.4787 o
124.711 70.2135 o
106.915 131.257 o
129.422 82.119 o
65.6134 122.54 o
92.7185 98.3964 o
84.5668 135.083 o
85.4901 104.521 o
116.865 86.6949 o
113.56 74.8001 o
130.773 71.9801 o
108.617 95.3241 o
88.5869 114.039 o
82.334 101.637 o
92.4509 106.391 o
120.916 98.0929 o
117.615 116.128 o
110.177 73.3307 o
96.6203 97.934 o
88.8672 106.489 o
128.627 73.5481 o
119.636 74.1724 o
94.8803 114.937 o
137.368 67.8773 o
104.746 87.6563 o
133.651 78.8456 o
114.947 78.7934 o
77.5746 121.428 o
121.067 90.7344 o
121.321 85.1709 o
123.018 82.9792 o
105.953 89.8244 o
93.8857 121.635 o
122.832 94.5382 o
151.74 87.3563 o
114.217 82.7436 o
126.261 93.8334 o
101.494 118.749 o
128.884 95.1088 o
106.899 90.1901 o
85.1557 130.486 o
79.5528 121.51 o
133.706 94.3683 o
113.097 80.6842 o
98.6703 101.192 o
119.176 78.2925 o
81.8514 104.172 o
131.004 58.9244 o
120.453 67.618 o
120.005 97.6597 o
127.7 84.3459 o
114.509 90.1349 o
94.3646 106.757 o
136.229 93.7767 o
105.085 83.7009 o
126.19 91.7005 o
73.4736 102.326 o
99.6005 124.09 o
115.11 88.0549 o
111.139 82.1693 o
118.047 93.4159 o
107.988 107.977 o
121.609 85.7208 o
103.568 91.1497 o
112.948 90.0064 o
71.3955 126.18 o
62.5276 126.496 o
114.746 62.0904 o
79.9983 94.8118 o
98.441 101.697 o
113.315 89.1083 o
143.769 77.4536 o
102.383 102.056 o
83.1483 114.082 o
117.351 83.1863 o
86.9927 117.555 o
140.087 73.3947 o
104.277 103.309 o
115.509 98.562 o
116.511 87.6222 o
114.109 94.1243 o
96.116 97.7979 o
88.9304 113.259 o
133.146 97.748 o
150.95 78.1525 o
115.303 105.41 o
94.163 105.2 o
126.297 87.0242 o
119.977 99.9196 o
144.719 90.1941 o
104.88 101.967 o
117.956 116.187 o
98.0751 80.5622 o
65.3353 106.193 o
107.994 97.2292 o
97.623 122.523 o
87.5833 99.6728 o
70.7706 101.732 o
96.5904 127.973 o
102.763 119.747 o
122.365 95.9183 o
128.383 81.5928 o
110.866 96.1719 o
126.847 84.9622 o
109.418 91.2925 o
95.9641 106.511 o
92.7704 107.524 o
125.914 77.1891 o
96.0554 100.215 o
117.477 86.6472 o
91.0482 109.424 o
104.623 95.9702 o
88.0387 76.3965 o
93.0848 121.001 o
149.544 79.0015 o
128.258 75.3358 o
134.242 70.8167 o
123.796 88.7958 o
115.684 82.1753 o
111.717 77.2457 o
119.249 91.2031 o
82.5901 113.874 o
114.029 100.087 o
101.8 82.3764 o
132.018 89.2794 o
121.916 81.1525 o
104.458 94.8282 o
102.456 109.095 o
109.57 96.0525 o
123.32 82.0353 o
115.492 90.4846 o
115.731 77.8906 o
104.117 100.041 o
133.242 80.4804 o
82.1834 143.684 o
132.378 83.4126 o
105.814 98.4344 o
113.587 95.7243 o
95.2041 109.476 o
90.2781 112.875 o
119.62 79.4115 o
113.017 83.129 o
109.612 114.933 o
98.5369 114.603 o
119.182 82.3007 o
100.117 123.54 o
94.2377 115.492 o
108.777 89.1953 o
88.0164 111.593 o
113.311 90.4543 o
93.4542 103.275 o
92.8763 91.3144 o
126.431 123.221 o
127.662 102.699 o
99.0683 88.9054 o
108.022 83.1424 o
90.1801 88.9969 o
81.811 116.659 o
126.435 91.8378 o
114.242 78.7076 o
60.3407 128.592 o
122.825 80.6039 o
115.554 95.2733 o
136.195 91.9569 o
128.19 93.0544 o
116.916 83.7509 o
92.9708 109.523 o
130.763 70.2912 o
93.9255 105.009 o
111.049 90.0618 o
119.427 85.2436 o
119.113 84.5874 o
123.903 60.2646 o
81.5938 123.949 o
88.6713 110.079 o
126.767 86.7082 o
100.713 85.1738 o
85.8642 116.143 o
102.311 96.0262 o
118.296 94.8014 o
138.043 76.527 o
132.097 67.859 o
120.997 102.252 o
81.7833 104.911 o
98.887 118.47 o
84.5404 118.978 o
99.0921 86.2278 o
137.14 94.3593 o
93.5196 104.541 o
115.633 72.2175 o
95.9214 114.508 o
102.475 101.578 o
121.183 71.549 o
94.9558 102.584 o
84.3415 100.906 o
103.36 101.345 o
105.882 92.7127 o
107.9 90.9153 o
90.047 112.391 o
127.538 88.4885 o
74.932 105.694 o
94.3754 118.707 o
77.3981 106.307 o
139.104 92.263 o
102.014 101.524 o
149.233 88.2607 o
137.408 92.9244 o
91.9769 118.839 o
122.943 93.1278 o
76.1474 122.098 o
121.778 124.827 o
109.459 65.4768 o
109.816 95.4731 o
112.329 93.2596 o
125.547 82.8159 o
126.463 90.643 o
123.191 81.1264 o
151.83 83.7483 o
89.9847 120.353 o
82.0805 116.321 o
93.881 99.5449 o
99.8517 98.9744 o
84.4724 132.644 o
72.7112 119.08 o
111.316 77.5817 o
85.8734 119.996 o
116.715 105.429 o
102.793 97.0946 o
116.593 93.1638 o
88.3951 107.695 o
86.5912 113.382 o
123.461 79.4696 o
101.557 94.0572 o
93.6804 119.789 o
131.816 86.7075 o
87.7838 110.932 o
136.254 88.1722 o
105.724 118 o
138.438 95.9279 o
133.726 92.8649 o
84.2421 125.25 o
115.783 143.553 o
111.531 77.052 o
98.9358 116.945 o
118.976 77.63 o
116.12 82.1427 o
114.454 86.2056 o
83.8788 76.3367 o
92.6041 121.298 o
150.98 77.2248 o
87.8544 108.34 o
103.546 101.587 o
98.5906 116.967 o
120.62 103.407 o
67.0211 129.36 o
119.879 91.2477 o
122.873 89.0062 o
100.249 87.7698 o
98.9738 101.312 o
84.9359 105.31 o
121.128 94.6861 o
92.476 79.1154 o
96.8263 92.6601 o
115.858 91.3121 o
139.717 82.654 o
121.193 84.0028 o
113.415 80.3183 o
124.741 86.0431 o
85.7444 95.9549 o
93.7952 122.488 o
104.299 93.4149 o
115.245 109.657 o
106.295 94.2094 o
82.6031 109.518 o
101.086 105.762 o
120.176 67.7229 o
133.968 122.243 o
117.478 92.383 o
123.04 83.3675 o
129.156 78.7928 o
105.07 101.906 o
122.242 93.5313 o
98.1249 102.115 o
99.6194 104.551 o
111.438 90.3749 o
88.9858 104.784 o
108.021 97.0865 o
133.13 74.4406 o
105.51 116.713 o
135.897 66.6015 o
120.674 93.629 o
125.395 104.229 o
109.821 96.0445 o
116.1 66.384 o
144.959 72.1658 o
103.874 100.581 o
95.4286 107.116 o
115.535 87.6241 o
94.308 107.165 o
109.69 96.7226 o
123.166 86.3664 o
94.2889 120.233 o
117.474 96.6442 o
67.0838 123.805 o
99.6244 103.282 o
95.0966 98.2596 o
97.2044 76.0608 o
99.7951 98.2654 o
93.39 113.301 o
126.864 87.2531 o
116.943 69.105 o
96.6376 108.668 o
113.239 73.4715 o
118.752 82.7932 o
117.984 79.0321 o
100.287 124.404 o
103.587 82.1652 o
115.824 90.2623 o
112.361 76.815 o
68.6272 119.642 o
127.6 72.6737 o
115.512 72.1335 o
91.509 113.931 o
70.3744 127.918 o
97.4777 102.22 o
119.227 92.1177 o
91.0605 105.462 o
113.483 82.8633 o
86.2415 104.928 o
132.943 90.3846 o
118.629 93.0222 o
140.188 80.3235 o
147.122 87.0315 o
90.7401 102.599 o
100.948 104.051 o
95.2136 116.74 o
95.2742 106.75 o
85.7207 102.709 o
108.759 83.751 o
119.172 99.0554 o
105.38 90.9181 o
110.495 74.1863 o
99.7472 96.418 o
87.7992 106.21 o
118.068 74.2922 o
111.301 93.2312 o
111.964 71.1554 o
112.718 124.255 o
114.381 95.6978 o
89.0045 102.992 o
125.808 77.3819 o
130.422 78.2452 o
82.4555 121.833 o
110.244 97.7764 o
104.452 97.9878 o
125.025 82.4339 o
110.145 93.7024 o
98.3931 79.0794 o
121.889 92.0679 o
105.926 94.2324 o
101.351 104.335 o
77.4783 108.381 o
96.4202 98.237 o
120.154 86.5314 o
102.933 87.3733 o
120.818 102.423 o
97.7914 78.9935 o
122.896 87.5686 o
117.527 95.9138 o
119.209 100.944 o
91.368 105.761 o
99.0393 104.159 o
110.7 94.0869 o
110.638 90.3532 o
95.8586 107.635 o
90.9946 81.925 o
121.685 96.4318 o
85.978 101.565 o
78.3023 107.737 o
94.6738 109.146 o
113.867 75.5971 o
78.311 119.481 o
72.1999 121.989 o
121.554 90.31 o
92.6325 121.218 o
114.408 90.9107 o
114.037 87.4344 o
113.794 97.7793 o
99.9186 101.457 o
58.9544 131.888 o
104.345 95.0666 o
94.1406 106.686 o
135.974 102.932 o
137.181 79.7803 o
127.827 89.2423 o
132.826 79.7132 o
138.19 84.0635 o
109.166 100.107 o
88.1089 115.042 o
107.114 80.8337 o
76.7648 102.817 o
110.662 84.429 o
111.877 93.0442 o
122.761 93.1504 o
109.732 76.4173 o
117.957 90.8103 o
86.1398 110.371 o
99.7175 109.404 o
98.188 100.217 o
148.031 81.5942 o
114.271 87.8979 o
122.262 87.5364 o
75.5171 93.4691 o
101.507 120.429 o
95.8019 110.315 o
96.8378 49.2949 o
100.981 106.235 o
102.883 99.0261 o
44.1469 104.881 o
113.792 80.7964 o
115.77 97.9626 o
95.3253 111.778 o
129.775 83.9353 o
106.58 77.4911 o
81.7048 101.893 o
83.4783 77.0284 o
119.23 84.7874 o
110.977 76.4811 o
73.0886 94.7914 o
84.222 107.495 o
121.54 70.3728 o
110.086 89.3022 o
133.914 61.6745 o
126.039 82.9683 o
122.044 78.9638 o
110.3 79.3537 o
90.3135 117.252 o
116.803 83.7904 o
104.526 101.101 o
124.275 90.3654 o
71.104 108.508 o
128.668 75.65 o
120.257 79.6714 o
100.648 89.4102 o
84.1756 76.2462 o
126.403 92.1145 o
104.619 93.2124 o
118.992 61.6107 o
92.7822 137.204 o
95.623 112.782 o
99.2198 103.954 o
104.141 91.7161 o
138.367 75.0477 o
72.3011 94.0478 o
100.496 106.712 o
78.2107 125.72 o
119.992 68.0159 o
101.67 108.278 o
110.013 90.2009 o
105.46 107.468 o
116.821 85.0376 o
148.837 82.1049 o
105.059 89.5988 o
149.992 94.832 o
144.027 91.1137 o
100.559 104.849 o
116.336 102.409 o
124.008 73.9328 o
121.412 100.815 o
76.2846 95.5408 o
73.8647 113.54 o
117.684 83.9029 o
103.961 99.6231 o
136.885 95.4261 o
147.55 85.1313 o
99.0856 102.629 o
102.181 131.605 o
119.723 95.0654 o
81.0744 86.2257 o
121.306 104.105 o
87.6794 132.093 o
78.7979 106.572 o
127.784 99.336 o
113.729 87.8141 o
118.387 80.6227 o
115.302 85.4832 o
105.615 99.5627 o
125.237 89.0069 o
113.915 92.6086 o
111.81 82.4042 o
142.669 76.1174 o
97.1483 99.9184 o
104.352 107.199 o
77.6054 139.999 o
113.345 93.6885 o
105.026 101.494 o
136.323 63.2917 o
105.485 77.7454 o
102.502 93.8426 o
104.678 96.5798 o
150.693 79.8575 o
106.247 92.6899 o
92.2542 115.834 o
83.4101 109.253 o
101.617 107.484 o
92.9621 108.111 o
118.995 67.8128 o
66.6092 120.977 o
111.085 98.0651 o
112.291 85.6112 o
90.2396 104.565 o
130.07 63.6415 o
94.2323 109.664 o
77.4488 103.639 o
76.8095 111.585 o
96.8136 110.223 o
125.423 84.2369 o
85.4982 101.341 o
103.04 117.731 o
101.225 100.147 o
111.235 75.1096 o
63.8661 134.657 o
112.739 103.729 o
117.294 71.7248 o
115.634 79.2753 o
97.8258 107.963 o
113.6 85.1339 o
118.671 93.2645 o
111.77 82.0303 o
100.005 117.938 o
79.7594 92.5342 o
108.137 92.7405 o
89.1759 107.441 o
119.104 96.0435 o
106.023 142.301 o
111.745 86.8585 o
76.5705 124.412 o
121.196 87.454 o
97.6046 109.744 o
98.3634 127.46 o
89.5505 110.384 o
104.79 100.694 o
125.284 89.0946 o
124.586 87.4011 o
83.2724 131.562 o
109.625 93.7569 o
77.296 122.933 o
82.2127 110.421 o
115.05 83.5489 o
107.966 94.4696 o
122.216 119.29 o
123.804 90.3152 o
97.0111 106.789 o
106.152 96.5153 o
112.547 92.6663 o
119.441 87.992 o
69.8771 79.2393 o
58.5155 130.143 o
114.358 37.2501 o
123.564 85.4423 o
81.2946 94.921 o
109.525 94.0758 o
91.3982 103.951 o
91.4771 108.704 o
89.9632 101.692 o
103.465 109.337 o
76.7475 99.9892 o
134.499 69.0301 o
97.5205 102.545 o
110.668 98.6105 o
66.3631 120.65 o
110.939 86.7084 o
82.7419 77.5453 o
130.601 107.199 o
133.934 68.9095 o
96.8649 109.903 o
96.5295 116.135 o
118.432 92.4257 o
111.283 69.246 o
127.395 75.5508 o
94.4153 94.0207 o
118.346 96.0571 o
107.886 75.588 o
99.1356 100.404 o
123.908 75.139 o
106.255 103.706 o
98.9755 101.018 o
103.382 112.4 o
88.2339 85.0802 o
135.606 94.2285 o
135.98 100.649 o
96.3514 104.026 o
108.496 95.8094 o
91.5776 109.928 o
126.386 90.0618 o
99.789 106.985 o
96.451 118.956 o
81.1542 115.444 o
86.1182 107.072 o
135.506 85.777 o
130.25 88.6085 o
109.948 74.4366 o
127.601 87.5407 o
100.193 91.6963 o
95.2304 100.427 o
103.268 74.5951 o
108.065 83.8711 o
64.2183 85.8943 o
110.241 90.0498 o
142.015 93.3041 o
116.252 87.3648 o
71.4134 139.43 o
111.829 98.084 o
98.6934 95.0092 o
118.076 92.5937 o
108.788 120.316 o
116.7 92.3241 o
91.3195 111.041 o
91.056 112.138 o
118.45 86.4267 o
115.054 83.9754 o
107.96 106.462 o
118.142 95.6379 o
111.32 97.2094 o
148.8 74.6381 o
100.052 95.9344 o
115.888 59.7828 o
97.4277 94.5933 o
119.387 109.42 o
133.469 83.4596 o
104.036 107.208 o
87.3931 100.513 o
78.0086 109.745 o
134.515 88.5221 o
106.55 144.289 o
126.807 87.0476 o
110.394 76.9664 o
118.963 97.228 o
71.6887 91.56 o
102.653 94.6402 o
101.187 101.192 o
77.2604 109.009 o
117.169 84.7755 o
108.184 83.4339 o
89.9348 97.3679 o
110.825 90.4625 o
123.925 72.151 o
106.29 91.7802 o
98.9018 101.763 o
100.522 117.135 o
108.767 91.7667 o
122.138 152.445 o
121.451 78.9479 o
106.304 96.2558 o
119.862 95.1732 o
92.9829 116.346 o
137.545 88.718 o
110.062 86.3024 o
108.537 80.4245 o
101.425 117.415 o
110.857 88.6402 o
114.089 100.099 o
79.7833 95.4028 o
82.8028 144.946 o
121.648 102.393 o
80.8791 113.375 o
114.79 82.4656 o
105.067 89.1342 o
106.734 78.5769 o
98.7802 80.4564 o
146.641 71.3905 o
124.537 91.0682 o
97.4903 107.345 o
149.578 75.2956 o
110.166 80.3176 o
98.1552 119.083 o
123.424 81.1199 o
83.1348 113.855 o
130.11 98.6924 o
87.3666 111.442 o
114.565 140.093 o
91.1102 105.601 o
73.1432 120.602 o
111.41 96.9737 o
121.307 100.25 o
111.903 95.8648 o
89.6448 85.5494 o
91.2278 92.7646 o
109.5 88.7831 o
106.435 129.489 o
106.493 78.0469 o
108.666 99.0744 o
106.032 107.996 o
89.8235 151.493 o
115.791 106.651 o
102.405 111.428 o
112.955 105.081 o
108.774 88.4664 o
99.0296 107.199 o
128.604 70.482 o
118.241 93.3179 o
111.115 100.855 o
121.826 91.6237 o
119.894 106.529 o
116.918 78.9612 o
83.0846 115.674 o
65.0873 121.614 o
126.356 112.244 o
71.1288 107.622 o
91.7578 75.2354 o
114.771 86.8772 o
86.6985 146.509 o
107.428 82.573 o
118.957 77.323 o
104.092 109.86 o
115.969 94.7327 o
98.5421 92.6473 o
105.055 112.723 o
95.499 108.85 o
73.9332 131.194 o
118.895 96.1617 o
107.02 96.2636 o
105.156 93.9873 o
91.6261 104.587 o
114.585 81.6452 o
97.0972 115.828 o
127.609 90.5884 o
121.001 92.571 o
117.777 81.1458 o
109.05 89.839 o
97.2209 97.5484 o
100.242 85.7539 o
147.65 87.7316 o
114.243 93.7309 o
147.659 80.7458 o
108.345 106.281 o
122.742 74.7767 o
147.781 74.2861 o
99.738 97.1957 o
117.315 85.8367 o
104.985 76.6347 o
68.4678 126.07 o
104.643 86.4537 o
116.676 95.7819 o
162.315 113.461 o
130.635 86.4118 o
135.647 65.5946 o
114.568 86.7657 o
85.3179 110.017 o
115.959 56.6278 o
87.6917 100.57 o
97.3359 106.003 o
114.946 89.7704 o
84.6424 121.363 o
133.267 103.899 o
111.569 95.551 o
143.847 70.9034 o
110.023 93.3109 o
96.6345 113.403 o
126.992 96.5838 o
114.959 81.4387 o
63.4188 129.167 o
98.25 117.523 o
108.414 93.9602 o
119.054 88.2095 o
104.742 93.3098 o
130.559 82.1816 o
85.1082 116.163 o
92.7001 105.278 o
101.944 98.0215 o
121.299 84.0006 o
97.637 106.719 o
118.972 92.8591 o
99.7181 105.238 o
111.076 88.1178 o
104.406 103.497 o
106.285 116.723 o
122.855 79.5913 o
91.7611 110.293 o
99.1719 109.492 o
144.248 69.2731 o
92.7604 120.537 o
144.745 72.4363 o
102.103 91.9685 o
123.68 62.4522 o
77.1413 113.418 o
124.102 120.703 o
103.712 111.246 o
106.337 90.4635 o
113.236 91.5037 o
89.3582 111.04 o
107.443 91.4491 o
105.198 86.2413 o
108.776 95.7695 o
135.297 66.1678 o
111.153 88.5244 o
136.526 77.8242 o
122.999 93.4368 o
127.482 77.2607 o
116.864 89.4482 o
103.874 105.477 o
85.1212 109.023 o
123.642 86.2093 o
111.903 105.451 o
111.745 80.5447 o
119.75 115.545 o
104.057 84.8489 o
112.759 91.0078 o
111.656 93.4902 o
107.065 96.1071 o
89.9362 89.7508 o
121.515 83.4601 o
116.462 109.782 o
75.7384 114.065 o
138.742 121.012 o
147.394 74.3554 o
117.784 116.494 o
108.789 106.863 o
108.673 94.8869 o
113.076 91.4573 o
95.3259 114.999 o
105.909 139.517 o
132.429 104.232 o
90.6547 117.107 o
74.2932 117.237 o
87.8952 117.816 o
109.968 96.3898 o
59.3133 100.021 o
135.009 88.7136 o
110.759 68.5823 o
135.062 85.9862 o
68.0239 114.95 o
108.377 100.725 o
93.7815 112.704 o
94.6261 110.007 o
80.5384 105.296 o
100.015 122.235 o
109.341 85.8941 o
86.4167 130.553 o
129.364 80.7635 o
120.116 92.7902 o
91.2198 107.365 o
118.236 82.1191 o
121.004 104.368 o
149.822 77.5721 o
79.5616 110.477 o
147.968 72.2064 o
82.9798 92.2476 o
131.746 91.7567 o
109.749 80.5291 o
118.651 86.0723 o
126.046 83.9607 o
139.186 74.4196 o
109.228 90.2344 o
96.9899 104.732 o
120.428 83.7962 o
133.415 76.0672 o
81.5624 139.679 o
114.4 87.3851 o
78.4487 122.117 o
94.0358 132.506 o
84.5419 148.332 o
84.482 113.929 o
112.653 89.585 o
112.566 88.7417 o
83.0451 115.15 o
107.596 77.6435 o
88.0037 81.7796 o
99.81 92.7547 o
114.695 91.0375 o
116.401 93.0969 o
95.0811 97.086 o
104.782 111.506 o
90.7551 103.737 o
72.4553 134.904 o
100.794 116.435 o
99.5352 101.001 o
82.5013 103.721 o
94.1754 105.834 o
115.517 91.4892 o
100.273 73.3904 o
103.482 96.8229 o
80.0878 107.033 o
131.911 92.4022 o
93.8543 100.355 o
104.724 88.7457 o
86.8896 115.042 o
133.399 111.201 o
113.949 93.045 o
107.243 102.421 o
73.6942 86.6821 o
105.451 94.922 o
86.6115 84.2743 o
87.9003 107.059 o
123.49 78.2113 o
85.3463 117.79 o
98.3899 111.836 o
82.943 100.613 o
112.475 90.5115 o
118.159 93.003 o
117.303 92.6248 o
122.23 84.0379 o
85.3255 117.937 o
114.959 107.575 o
131.052 74.5504 o
127.842 88.9444 o
82.4105 106.396 o
87.6001 96.7126 o
76.6879 113.029 o
117.338 79.9999 o
113.133 120.426 o
100.878 96.9519 o
84.9904 110.815 o
119.141 85.8469 o
86.8906 114.113 o
90.0737 98.8021 o
85.0178 141.698 o
93.2618 116.725 o
110.74 96.2408 o
96.2693 81.295 o
74.3443 131.243 o
119.304 74.0604 o
106.327 96.417 o
115.149 91.8523 o
133.719 96.5941 o
123.254 55.7789 o
102.884 105.929 o
147.032 91.1006 o
135.176 74.4892 o
73.0874 142.626 o
110.638 92.2751 o
97.2046 103.499 o
122.619 84.8835 o
113.347 79.1659 o
96.0296 112.653 o
124.883 110.063 o
107.819 94.7243 o
98.4009 101.479 o
148.227 95.5573 o
116.125 94.5756 o
115.416 106.82 o
101.93 97.1284 o
88.0895 127.216 o
71.1251 115.217 o
126.871 83.1766 o
103.313 80.205 o
94.3638 104.377 o
100.423 117.848 o
162.626 103.601 o
102.456 98.3474 o
86.1677 86.6666 o
95.1002 117.989 o
91.8839 117.93 o
117.607 87.4577 o
96.7307 79.2265 o
111.376 77.1387 o
94.6183 95.9244 o
93.9348 116.535 o
123.7 110.674 o
109.642 83.861 o
96.3206 107.171 o
91.9467 110.267 o
93.3981 105.569 o
110.952 75.6137 o
116.007 84.7984 o
94.4814 94.5429 o
102.116 91.9476 o
107.533 112.674 o
119.089 92.7991 o
94.3175 123.415 o
126.375 79.6699 o
119.232 61.6427 o
77.5327 113.789 o
85.0449 98.8882 o
106.537 96.8767 o
114.473 90.7586 o
101.7 113.62 o
113.766 132.033 o
116.849 82.2484 o
113.425 85.7022 o
85.7921 83.32 o
115.09 92.7601 o
101.778 105.503 o
121.557 85.9202 o
78.8881 127.623 o
108.103 113.301 o
112.951 71.7741 o
83.447 85.5627 o
102.724 104.073 o
96.6827 121.132 o
85.4073 98.7368 o
114.971 93.473 o
83.4032 118.307 o
99.3212 76.9953 o
99.1901 125.117 o
46.5052 89.6217 o
128.063 64.7332 o
123.787 116.52 o
120.758 113.053 o
105.065 87.5425 o
97.4625 102.919 o
113.093 97.0324 o
85.1869 108.134 o
103.208 99.9575 o
107.717 122.547 o
124.133 65.3054 o
99.8387 125.178 o
127.593 95.1253 o
87.507 146.546 o
95.2448 113.211 o
108.469 92.6632 o
85.9625 117.29 o
101.868 81.0236 o
85.1548 114.128 o
92.1005 117.192 o
98.8984 102.719 o
80.0269 111.362 o
70.5646 122.992 o
82.3929 95.2343 o
83.1627 74.5197 o
109.366 91.8007 o
132.065 119.634 o
98.0621 84.8357 o
111.395 112.088 o
104.276 101.231 o
58.1826 133.619 o
118.773 87.8819 o
114.044 79.9516 o
111.104 96.5604 o
88.3215 102.605 o
95.76 102.323 o
111.521 70.2214 o
83.0197 91.7265 o
151.4 83.1378 o
99.1397 122.254 o
85.4258 111.063 o
122.457 90.1003 o
87.5563 84.0645 o
127.294 105.691 o
107.382 95.0877 o
120.02 78.9438 o
97.7947 92.4387 o
141.06 92.6465 o
105.884 123.492 o
96.5573 117.631 o
89.4541 115.938 o
102.198 105.544 o
108.418 76.8685 o
116.259 86.2898 o
87.5457 108.927 o
105.653 97.9319 o
133.909 95.5409 o
87.8863 91.3127 o
137.267 73.8147 o
126.671 79.9714 o
121.66 81.5743 o
111.516 96.4183 o
93.4961 109.361 o
105.942 93.7757 o
143.241 72.3933 o
75.816 123.771 o
90.4256 107.185 o
105.642 102.593 o
118.217 95.7096 o
96.8972 107.533 o
75.2581 119.16 o
117.935 93.7611 o
114.9 89.1469 o
106.99 84.8713 o
110.637 97.1696 o
85.4755 115.574 o
103.704 94.7337 o
126.677 95.5792 o
101.662 69.5912 o
100.82 103.603 o
109.451 105.94 o
116.064 87.0017 o
109.137 93.776 o
115.713 90.9009 o
90.5766 121.082 o
98.9324 110.597 o
64.5277 120.306 o
109.901 81.7281 o
100.967 107.339 o
96.9104 115.924 o
108.722 99.5085 o
134.268 97.2801 o
117.378 80.5729 o
99.3979 100.825 o
106.325 86.5762 o
111.474 100.321 o
132.882 73.6612 o
108.161 90.131 o
120.848 83.6305 o
128.913 86.1872 o
93.2822 101.301 o
106.459 62.6241 o
148.227 86.0549 o
94.932 117.128 o
107.544 95.3741 o
86.9455 75.8899 o
101.706 96.6826 o
109.105 99.8972 o
86.3274 140.334 o
109.104 70.824 o
103.777 98.7651 o
108.245 77.706 o
107.897 109.623 o
92.3697 101.663 o
93.9467 101.15 o
96.0004 101.421 o
113.162 108.148 o
129.868 109.54 o
98.6755 81.259 o
101.213 101.228 o
110.285 97.0875 o
92.2055 105.265 o
98.3734 106.466 o
86.5656 67.0359 o
115.721 93.2193 o
140.713 115.49 o
103.196 96.0642 o
97.6879 106.285 o
92.407 106.05 o
108.844 124.81 o
90.9678 105.787 o
117.278 78.8473 o
119.221 105.74 o
129.46 102.52 o
123.105 99.1564 o
103.603 96.701 o
89.1421 112.477 o
91.7032 111.092 o
68.9607 123.192 o
122.693 87.17 o
119.814 78.3588 o
138.177 80.4788 o
98.6511 115.993 o
114.381 91.3969 o
108.371 76.0535 o
113.187 91.9707 o
122.013 78.7004 o
100.058 102.775 o
83.3184 78.0867 o
87.1788 113.023 o
114 81.1602 o
103.09 107.365 o
78.7385 125.819 o
118.121 94.0434 o
85.2909 114.8 o
131.435 64.1535 o
98.3151 89.993 o
113.307 84.9322 o
89.3709 108.354 o
93.207 112.577 o
125.939 42.4908 o
72.2745 103.117 o
71.6072 101.87 o
119.475 95.7773 o
126.189 99.066 o
114.595 94.1382 o
115.133 85.9187 o
84.7076 108.823 o
83.9261 104.595 o
86.015 100.998 o
144.322 77.2249 o
108.976 73.4451 o
123.257 84.0054 o
108.78 78.6398 o
115.819 98.0315 o
107.496 91.5489 o
122.276 85.0682 o
107.57 68.5065 o
127.056 76.0491 o
132.586 124.736 o
117.368 86.8764 o
92.984 89.5125 o
105.178 105.287 o
103.218 90.0993 o
128.427 82.5991 o
94.4663 112.377 o
109.631 102.989 o
127.444 58.6686 o
109.43 92.9029 o
126.039 74.6513 o
110.085 109.697 o
81.231 75.2806 o
118.652 135.248 o
96.5638 95.9111 o
107.607 88.3735 o
77.4683 93.0802 o
117.796 102.738 o
91.2515 104.426 o
101.322 91.4283 o
117.727 53.6444 o
105.303 86.3412 o
90.7299 110.02 o
110.547 103.993 o
97.5114 136.042 o
90.0883 103.66 o
102.397 122.5 o
101.712 104.033 o
88.8499 108.562 o
112.425 89.7981 o
71.9319 129.904 o
71.0321 115.229 o
104.159 97.7724 o
113.154 77.3936 o
125.972 108.611 o
100.036 90.5737 o
114.323 91.1097 o
92.4403 97.4809 o
139.696 87.1411 o
64.003 105.619 o
139.339 80.4693 o
100.664 94.3182 o
132.211 93.6356 o
151.755 98.6532 o
116.537 98.569 o
92.0824 127.139 o
93.7695 91.4259 o
86.7144 99.6658 o
107.215 95.3088 o
111.721 92.8257 o
96.8245 111.557 o
123.013 86.2972 o
105.061 104.443 o
124.832 104.528 o
110.391 96.4712 o
95.1229 107.239 o
111.119 98.5605 o
109.332 107.676 o
125.406 81.5385 o
97.9509 105.496 o
105.902 99.7042 o
100.328 119.328 o
93.6434 102.447 o
92.6015 104.149 o
93.8835 134.542 o
90.7939 115.732 o
87.5479 129.248 o
88.719 78.9199 o
118.569 75.5818 o
61.5757 124.68 o
85.2516 116.844 o
108.032 115.95 o
112.448 73.9868 o
71.314 111.527 o
85.5687 105.022 o
113.124 88.4979 o
106.603 78.5252 o
106.791 95.2708 o
72.715 98.0603 o
80.0649 122.135 o
91.4772 103.455 o
109.823 106.102 o
103.795 108.319 o
123.182 79.0151 o
95.8919 98.8018 o
92.4355 100.625 o
107.647 97.7735 o
92.1833 92.9681 o
104.659 99.623 o
140.393 82.6703 o
89.7428 84.9702 o
84.4626 82.4194 o
126.366 89.553 o
147.002 78.0413 o
107.314 100.563 o
95.8355 118.353 o
99.5772 103.457 o
88.8014 110.17 o
111.227 113.225 o
68.4927 137.766 o
121.914 90.2703 o
85.8114 101.475 o
107.942 120.723 o
118.483 93.6659 o
97.2977 140.089 o
96.0132 111.098 o
75.5033 72.6234 o
95.6028 113.516 o
128.567 105.886 o
101.145 110.687 o
89.6319 103.802 o
93.4297 110.829 o
78.0376 72.4965 o
113.179 79.1123 o
117.486 77.5887 o
140.027 86.749 o
99.6649 102.875 o
115.485 97.8435 o
72.718 115.337 o
105.854 111.967 o
129.459 58.5541 o
108.686 95.5881 o
142.967 81.642 o
92.2494 112.737 o
115.089 56.5532 o
107.192 81.4731 o
116.528 132.924 o
120.889 108.287 o
64.9519 86.7723 o
121.112 79.3752 o
150.23 77.7024 o
104.53 100.753 o
87.6293 105.859 o
116.31 81.5744 o
87.5747 103.932 o
128.08 65.3712 o
128.653 75.7784 o
100.979 96.7772 o
116.941 74.7089 o
135.438 80.7365 o
95.5658 93.4796 o
102.363 96.9227 o
114.495 89.8633 o
92.6262 89.5077 o
133.98 92.1999 o
128.98 81.3706 o
146.573 82.0041 o
105.259 106.618 o
117.127 80.7351 o
120.537 88.0372 o
120.901 96.3809 o
94.118 126.42 o
103.967 96.4898 o
105.2 116.069 o
56.3918 98.6039 o
84.0309 115.478 o
119.05 86.6688 o
121.839 77.1418 o
113.785 98.8086 o
92.9789 113.177 o
109.706 74.106 o
61.9011 114.336 o
70.6766 91.9992 o
138.034 96.6263 o
125.362 81.1993 o
108.183 98.1906 o
85.1504 56.6188 o
106.282 101.256 o
95.2177 68.9504 o
139.446 66.2725 o
135.748 72.3697 o
85.7617 102.62 o
99.9759 92.7337 o
114.376 89.1246 o
108.94 93.3917 o
97.603 119.783 o
107.06 98.2724 o
109.238 98.61 o
90.3851 113.44 o
154.808 108.037 o
135.883 65.3091 o
128.981 90.6814 o
97.3526 101.37 o
112.352 69.9163 o
108.944 80.0004 o
74.5992 93.4631 o
115.218 82.2383 o
106.576 79.7157 o
96.0666 111.361 o
121.488 56.1246 o
90.944 92.2438 o
118.507 113.291 o
99.8775 76.8147 o
124.697 96.6419 o
121.07 97.112 o
87.5521 114.262 o
127.371 76.3777 o
111.287 86.7406 o
127.68 89.9433 o
102.151 97.6685 o
97.0637 81.5771 o
85.3485 119.834 o
95.1458 115.953 o
100.344 129.394 o
87.9075 103.911 o
131.571 89.9252 o
123.652 97.0219 o
115.309 109.519 o
100.267 81.888 o
80.4661 118.828 o
124.705 74.704 o
108.205 96.5135 o
104.232 99.2256 o
76.306 109.02 o
100.724 53.2564 o
68.17 81.9045 o
122.11 63.0338 o
85.3307 109.399 o
87.1512 119.443 o
119.388 80.3535 o
107.598 112.226 o
84.7978 119.147 o
123.031 59.6934 o
74.5467 111.314 o
106.925 128.933 o
117.802 90.2 o
118.622 87.9956 o
128.989 94.5672 o
137.518 122.859 o
88.0588 115.414 o
95.846 108.027 o
125.457 91.3621 o
106.528 102.737 o
105.222 86.3965 o
112.9 69.8316 o
122.062 59.8615 o
106.548 106.418 o
90.2469 107.108 o
85.101 124.801 o
118.504 105.261 o
114.866 91.141 o
90.3394 133.702 o
142.35 109.681 o
105.861 98.5072 o
106.105 95.6705 o
83.4947 78.2694 o
87.3363 111.157 o
104.789 89.8985 o
94.7612 95.0576 o
100.362 90.1068 o
67.1041 91.2777 o
150.024 78.804 o
102.839 119.799 o
133.741 62.9409 o
84.4404 119.701 o
68.1285 114.5 o
120.087 101.201 o
150.041 88.1183 o
103.799 84.0286 o
107.781 98.63 o
106.477 76.8556 o
109.631 106.082 o
124.033 102.962 o
131.727 95.6521 o
50.3401 113.516 o
126.244 80.7258 o
121.582 98.5585 o
118.775 75.5428 o
103.178 100.546 o
121.035 73.6877 o
134.386 93.7929 o
95.783 98.1884 o
94.9713 100.686 o
98.779 106.088 o
91.5989 88.256 o
132.806 75.8813 o
100.648 104.295 o
102.979 114.151 o
124.393 103.388 o
103.252 102.066 o
122.532 110.556 o
112.28 84.2235 o
106.454 93.2689 o
81.7972 123.925 o
125.447 101.663 o
86.2332 114.142 o
124.102 93.1072 o
120.789 87.6376 o
93.7551 105.276 o
100.299 77.6963 o
104.688 104.579 o
125.157 92.029 o
120.568 69.7159 o
89.8987 107.257 o
107.19 90.4002 o
77.1448 63.0798 o
117.223 92.1122 o
142.179 72.1332 o
113.065 93.3951 o
88.5645 98.1646 o
113.748 95.2758 o
114.786 89.3798 o
113.48 95.4156 o
89.403 106.069 o
88.7169 122.091 o
104.313 87.8238 o
124.214 99.2266 o
94.2189 115.581 o
134.289 67.5923 o
118.567 85.4498 o
105.185 111.226 o
125.187 98.0232 o
124.978 96.4703 o
118.845 94.605 o
113.576 74.7678 o
111.943 81.9544 o
111.254 72.7974 o
111.305 97.075 o
131.008 86.968 o
111.381 85.2131 o
142.893 91.6791 o
97.5991 90.9662 o
81.3596 126.625 o
109.524 104.616 o
64.6708 77.5036 o
92.8643 119.423 o
105.357 96.3319 o
96.3774 101.931 o
78.7687 112.643 o
108.885 93.1535 o
113.842 83.7514 o
105.716 85.9625 o
116.206 68.8339 o
115.929 60.3656 o
117.67 84.3021 o
107.844 58.3844 o
145.3 75.4887 o
126.15 84.3672 o
83.3651 118.841 o
124.852 71.3787 o
128.164 74.3652 o
98.9082 79.6721 o
68.9586 123.558 o
75.8504 131.054 o
126.678 78.9286 o
136.508 79.1665 o
94.5174 110.347 o
106.906 83.7164 o
116.114 109.847 o
114.422 94.3099 o
102.59 113.255 o
119.205 83.8088 o
106.966 87.8663 o
90.478 105.666 o
119.32 94.4206 o
102.712 107.947 o
109.829 78.8182 o
85.1452 97.8856 o
128.389 93.3872 o
124.801 92.7502 o
90.8313 121.111 o
114.423 95.0874 o
111.128 56.703 o
122.445 91.1645 o
99.2444 132.692 o
98.0906 137.855 o
113.015 67.0121 o
90.3103 112.316 o
126.449 86.0159 o
135.492 84.5058 o
84.1469 103.774 o
104.743 97.2047 o
140.798 85.9307 o
137.718 92.4695 o
101.74 111.792 o
113.914 141.27 o
50.6148 129.477 o
135.334 92.6301 o
120.243 155.16 o
120.445 104.516 o
135.59 77.8355 o
126.15 112.644 o
88.6445 121.966 o
123.68 127.656 o
103.379 98.5845 o
64.8156 128.25 o
119.474 66.9663 o
122.669 74.2169 o
127.42 66.1976 o
100.734 99.949 o
98.0879 111.367 o
61.4653 93.3512 o
117.514 80.0062 o
124.499 72.8809 o
119.441 82.4303 o
141.479 79.5516 o
96.5729 127.126 o
120.11 113.33 o
94.3197 110.597 o
106.055 78.7859 o
121.91 71.5918 o
81.323 119.152 o
114.421 117.529 o
97.4151 120.388 o
98.913 122.02 o
137.725 115.987 o
97.3018 115.42 o
108.322 108.481 o
103.533 110.366 o
80.5653 87.6524 o
98.0232 107.248 o
98.8309 116.406 o
132.789 92.1023 o
102.06 105.186 o
102.859 92.1967 o
116.553 88.7085 o
134.001 96.3982 o
127.314 106.144 o
126.469 92.735 o
129.883 86.1723 o
110.02 97.7308 o
95.7692 79.5422 o
126.552 100.383 o
117.32 79.6943 o
132.608 89.9826 o
153.06 114.927 o
138.12 69.1638 o
71.3249 116.267 o
103.15 127.784 o
96.1612 61.5274 o
114.588 97.9367 o
111.08 96.8586 o
96.649 112.458 o
113.617 69.7007 o
134.955 82.3479 o
118.058 80.2871 o
114.971 100.733 o
138.761 88.615 o
79.37 108.631 o
109.844 92.1452 o
112.045 97.1048 o
87.5496 144.086 o
77.9927 77.8154 o
91.2813 111.131 o
99.8105 94.7302 o
95.0293 107.441 o
134.293 101.315 o
109.732 90.6593 o
108.744 85.577 o
89.493 99.5439 o
85.878 116.341 o
124.844 88.5364 o
123.877 82.6974 o
102.146 95.0592 o
116.084 100.257 o
86.5361 118.376 o
140.831 115.127 o
104.415 71.2123 o
110.584 86.603 o
124.603 94.8885 o
109.194 81.0911 o
140.884 83.7491 o
109.135 105.008 o
125.779 72.2287 o
79.2135 114.127 o
123.335 111.594 o
110.787 58.988 o
130.466 127.641 o
129.486 58.4772 o
125.107 80.9803 o
106.854 89.3564 o
93.0389 109.943 o
103.112 97.4771 o
108.526 96.935 o
98.9127 96.0325 o
117.188 85.116 o
74.7942 111.588 o
95.5571 104.496 o
122.436 69.2901 o
116.746 71.8364 o
114.942 87.0119 o
109.497 86.5054 o
103.981 126.812 o
83.3208 125.08 o
90.8669 97.6124 o
125.94 140.091 o
112.545 84.9689 o
132.604 109.587 o
102.761 93.3375 o
96.1781 101.217 o
126.783 83.0167 o
138.982 62.5233 o
97.543 112.85 o
153.919 86.807 o
89.4811 111.964 o
125.763 77.9878 o
111.868 91.964 o
153.047 68.2553 o
126.907 80.6879 o
123.842 124.148 o
145.411 91.069 o
99.0144 111.384 o
121.953 77.9959 o
109.682 94.4153 o
84.9143 114.523 o
95.2949 81.1116 o
122.768 98.5667 o
80.9469 117.69 o
115.848 75.1125 o
90.0826 104.506 o
78.9355 125.852 o
76.3673 105.723 o
139.614 111.74 o
104.346 90.834 o
125.413 86.5153 o
94.4108 120.907 o
121.55 71.567 o
70.8251 114.952 o
67.1589 122.619 o
86.6792 97.5719 o
106.115 111.604 o
97.8392 67.3711 o
104.343 100.765 o
85.9557 95.0464 o
121.867 83.7363 o
84.8665 105.825 o
153.1 80.5411 o
88.1468 90.4474 o
100.258 97.1959 o
111.25 81.1162 o
89.8868 113.218 o
99.9043 102.525 o
102.067 80.6003 o
103.184 108.03 o
141.119 70.5467 o
91.8553 122.923 o
106.295 140.662 o
93.7501 105.152 o
111.041 113.771 o
108.003 100.435 o
88.198 78.6641 o
120.679 95.848 o
97.6182 89.4011 o
113.154 89.9902 o
72.7822 94.7432 o
93.3439 101.144 o
94.8784 116.015 o
96.4607 96.9362 o
125.459 80.1916 o
78.8663 80.6466 o
119.146 78.1498 o
134.57 109.077 o
115.757 129.363 o
74.9951 111.426 o
118.718 71.5452 o
97.0542 92.6297 o
106.814 103.119 o
124.893 92.6741 o
99.8628 99.9781 o
167.726 101.852 o
111.683 89.8786 o
125.253 86.8109 o
113.303 112.23 o
90.4657 118.048 o
126.332 128.585 o
96.5251 112.207 o
101.876 127.606 o
82.2394 101.689 o
98.8746 120.299 o
130.429 62.2595 o
121.606 100.483 o
109.591 91.0533 o
113.651 103.117 o
124.146 79.5893 o
133.496 94.9254 o
94.5082 60.8156 o
123.985 125.078 o
99.3568 109.042 o
126.965 74.8754 o
69.3604 122.225 o
128.343 91.315 o
70.9112 116.54 o
131.334 72.101 o
98.7321 103.296 o
104.739 85.6295 o
117.977 117.051 o
107.075 121.463 o
119.093 58.136 o
134.485 71.8914 o
87.5748 106.859 o
91.7671 113.23 o
104.432 78.7881 o
115.628 95.7457 o
117.388 109.111 o
117.896 60.0494 o
102.493 85.4063 o
101.179 106.095 o
116.359 73.4929 o
106.913 91.3792 o
93.2045 113.38 o
143.585 72.9721 o
103.05 78.5667 o
96.8668 110.177 o
123.705 134.935 o
103.117 90.3585 o
121.135 69.3136 o
100.801 94.7504 o
145.997 139.252 o
124.549 99.5805 o
112.772 91.3681 o
92.3463 108.694 o
123.872 120.092 o
131.961 100.896 o
143.303 72.5815 o
117.418 57.3159 o
111.469 91.4784 o
133.903 108.481 o
106.063 110.394 o
67.9095 120.732 o
115.065 91.8494 o
105.998 71.136 o
88.9741 80.8904 o
111.116 71.2923 o
99.8683 104.015 o
95.1798 108.518 o
105.432 83.5695 o
88.8739 118.222 o
139.784 74.9449 o
110.959 96.7933 o
120.951 90.9536 o
75.2595 70.0026 o
75.4516 139.931 o
111.161 119.031 o
82.4795 92.2335 o
111.749 89.0755 o
106.075 102.012 o
134.107 131.79 o
141.833 89.2987 o
58.2659 128.251 o
98.9498 89.6681 o
80.3248 136.236 o
124.02 82.6283 o
95.0233 107.745 o
101.238 100.428 o
95.9317 97.8529 o
106.744 105.954 o
62.5921 100.89 o
109.463 76.0589 o
109.219 72.7253 o
110.481 96.2445 o
72.4865 109.231 o
90.0436 120.296 o
117.752 73.9904 o
110.947 97.3579 o
82.8939 59.9282 o
123.834 69.6413 o
92.9944 96.8162 o
105.992 84.7688 o
87.252 115.066 o
134.119 129.687 o
112.543 92.5739 o
92.3269 115.41 o
78.3959 108.481 o
95.4186 88.3793 o
98.3207 80.3478 o
122.194 68.6905 o
87.5201 80.3108 o
107.487 101.802 o
106.641 101.576 o
105.99 86.1365 o
85.9854 128.616 o
96.1144 113.863 o
119.143 93.2584 o
119.002 92.3091 o
113.917 57.9237 o
123.729 60.4815 o
122.983 80.3399 o
115.796 83.8261 o
114.727 98.3755 o
142.802 82.6848 o
113.263 93.9432 o
100.174 134.043 o
116.097 90.605 o
140.752 140.205 o
93.3597 133.377 o
70.1179 89.7867 o
123.352 99.1755 o
106.648 92.1482 o
118.815 102.437 o
114.195 121.714 o
100.891 116.824 o
148.289 86.2608 o
111.387 82.6071 o
106.619 101.356 o
120.366 87.199 o
115.788 89.1199 o
110.427 124.339 o
159.411 98.4186 o
107.897 96.521 o
118.647 82.9091 o
101.778 111.403 o
113.294 96.2376 o
91.9014 90.3698 o
114.23 79.1769 o
117.5 75.6962 o
93.3702 78.4465 o
115.909 126.514 o
108.056 96.8698 o
108.649 116.529 o
134.423 96.6018 o
125.39 76.7599 o
68.3154 73.8462 o
119.076 108.654 o
98.4491 87.2778 o
133.383 72.9147 o
100.197 73.0254 o
115.05 101.174 o
86.73 106.953 o
116.638 76.8208 o
107.927 106.335 o
95.3031 98.5364 o
75.2339 137.336 o
132.992 101.001 o
108.491 91.0543 o
137.956 100.154 o
117.914 85.7507 o
99.0131 116.198 o
107.958 97.6588 o
107.987 106.006 o
103.403 52.1139 o
111.94 82.0337 o
124.01 63.2525 o
121.074 108.317 o
136.123 123.539 o
91.9755 106.206 o
94.1158 115.957 o
145.294 80.2173 o
106.634 84.6125 o
93.2004 104.529 o
110.115 83.8817 o
116.018 52.8647 o
128.639 96.3472 o
153.223 91.5285 o
126.991 102.176 o
128.127 76.9709 o
84.8056 116.732 o
87.2447 102.948 o
103.441 110.518 o
73.6467 116.713 o
89.7031 105.479 o
82.5013 108.819 o
107.363 93.6613 o
98.5748 85.2837 o
110.889 100.016 o
103.125 112.737 o
89.8698 129.902 o
72.6731 122.145 o
101.95 122.505 o
118.285 90.0982 o
100.78 97.9001 o
113.876 88.9896 o
131.475 129.277 o
149.007 90.5959 o
107.03 100.87 o
131.961 64.7762 o
105.878 98.47 o
102.299 123.465 o
76.1131 131.469 o
91.2887 109.991 o
86.5359 114.501 o
98.1923 85.8677 o
76.0381 84.766 o
131.739 112.269 o
74.613 99.972 o
130.382 85.1038 o
113.796 98.6167 o
115.231 76.4395 o
125.48 58.52 o
115.931 92.8653 o
89.8271 114.124 o
125.615 67.1945 o
132.467 80.4291 o
104.896 79.57 o
134.034 87.4992 o
119.27 79.5064 o
114.493 88.1554 o
117.566 86.0355 o
102.837 111.228 o
114.694 153.039 o
115.86 85.9237 o
106.584 98.576 o
114.705 121.793 o
90.3652 120.052 o
110.629 111.381 o
116.977 85.0239 o
114.135 105.631 o
114.118 69.3323 o
114.273 78.8911 o
122.765 84.773 o
87.3102 103.204 o
83.3389 112.493 o
101.716 94.7731 o
81.7541 129.491 o
107.874 114.95 o
122.368 100.898 o
115.248 113.481 o
98.2669 123.836 o
143.032 75.7181 o
128.47 86.4789 o
131.924 59.2345 o
126.843 88.5716 o
94.9007 89.1572 o
94.5563 137.606 o
142.981 70.3814 o
93.4919 111.928 o
131.419 128.229 o
69.176 128.867 o
103.985 113.637 o
118.134 74.6418 o
62.226 113.802 o
100.128 77.0602 o
117.812 91.1629 o
131.935 104.031 o
119.481 108.725 o
139.982 81.1108 o
89.5387 57.3154 o
85.7344 112.954 o
107.525 94.2546 o
113.223 89.87 o
75.9333 71.3894 o
154.224 85.2532 o
115.671 89.2611 o
109.189 77.8272 o
119.994 100.139 o
125.693 86.2052 o
98.1725 106.057 o
107.913 113.123 o
122.644 78.6144 o
134.652 69.3878 o
123.194 64.0974 o
98.8043 114.504 o
114.858 94.482 o
112.939 87.3516 o
116.339 92.0959 o
99.9253 124.852 o
89.1015 122.775 o
96.9928 80.3646 o
107.54 94.0606 o
89.4261 103.047 o
86.519 102.774 o
154.473 110.367 o
116.869 103.179 o
83.2832 105.396 o
102.63 97.7665 o
125.45 70.3167 o
119.925 73.5176 o
116.24 140.816 o
91.9602 100.069 o
112.963 99.2727 o
148.029 75.6496 o
103.923 108.062 o
114.485 82.8865 o
109.857 58.5681 o
141.42 68.3943 o
116.467 107.172 o
93.8815 107.865 o
82.9526 117.807 o
141.298 70.2715 o
118.614 118.319 o
123.709 123.891 o
87.6684 117.091 o
135.908 113.043 o
111.868 109.186 o
84.2939 112.695 o
120.879 84.6074 o
120.515 81.8448 o
102.723 103.658 o
107.162 90.737 o
113.459 94.5911 o
89.6365 113.116 o
96.3463 100.712 o
112.505 92.9491 o
102.765 99.6276 o
147.598 112.561 o
90.572 86.4735 o
102.4 106.807 o
113.752 82.7008 o
111.66 78.9759 o
102.773 90.5315 o
97.5988 96.1557 o
110.373 81.3778 o
119.876 85.5284 o
90.7058 110.231 o
115.898 89.601 o
110.654 95.0064 o
128.725 102.697 o
109.569 75.5071 o
136.814 81.4849 o
112.654 80.0548 o
103.099 98.8307 o
124.722 91.8932 o
126.556 80.3003 o
89.5129 125.005 o
142.694 105.199 o
108.58 89.5965 o
98.2666 110.404 o
121.238 67.035 o
102.281 88.4682 o
151.411 102.093 o
106.692 76.3069 o
124.837 120.783 o
96.8367 124.276 o
127.389 102.48 o
106.682 138.473 o
118.72 123.485 o
74.5765 67.4186 o
82.8233 117.641 o
77.5349 108.122 o
80.2972 102.6 o
126.448 95.7383 o
90.849 113.106 o
99.6286 79.1459 o
93.8027 109.001 o
110.506 74.2708 o
77.6318 104.089 o
103.791 69.7336 o
129.255 107.085 o
87.1854 116.401 o
103.264 81.5041 o
140.909 112.628 o
101.743 96.8301 o
100.685 101.819 o
132.862 130.73 o
93.4065 133.61 o
74.8302 136.779 o
104.528 96.8655 o
107.702 98.5911 o
93.0695 109.934 o
118.704 67.9556 o
117.627 92.4562 o
123.583 128.617 o
103.8 97.7084 o
126.941 127.648 o
87.8595 109.769 o
94.313 111.681 o
133.775 77.1338 o
120.852 74.397 o
97.9126 114.91 o
84.348 103.402 o
82.9842 81.8248 o
106.485 95.099 o
88.8384 114.759 o
80.821 78.6327 o
113.449 121.086 o
121.792 96.9033 o
145.065 122.114 o
124.753 86.8181 o
137.27 90.5542 o
61.4164 113.48 o
121.18 89.2399 o
117.794 84.1281 o
105.763 87.885 o
87.4625 109.125 o
125.592 87.0521 o
133.476 79.0926 o
98.2568 138.22 o
140.506 94.0533 o
91.1443 119.176 o
101.872 102.261 o
116.035 97.4302 o
99.4553 58.581 o
94.2032 103.031 o
111.102 85.2112 o
90.7817 80.5181 o
122.616 120.669 o
80.8484 97.5214 o
147.279 72.3139 o
134.927 78.0123 o
140.612 97.6962 o
110.773 59.174 o
94.2559 102.512 o
132.737 103.95 o
111.222 83.5629 o
115.986 92.8228 o
88.6011 107.046 o
120.096 67.3243 o
108.703 90.608 o
111.685 89.6068 o
120.956 114.973 o
81.0293 83.6431 o
91.5669 115.695 o
148.234 70.8658 o
90.9864 114.103 o
71.3515 104.709 o
88.8395 110.169 o
149.218 113.292 o
119.989 117.602 o
77.1149 105.802 o
110.121 81.7981 o
132.49 62.5624 o
118.68 108.586 o
107.093 89.4761 o
90.5128 94.943 o
112.104 95.4391 o
83.9259 83.9614 o
84.8445 52.5901 o
104.048 109.471 o
94.1681 100.083 o
110.718 82.7297 o
119.489 95.968 o
77.8564 106.145 o
115.38 108.793 o
120.558 87.5766 o
110.136 111.445 o
157.133 95.7933 o
128.346 69.832 o
112.254 90.6464 o
119.746 86.7043 o
114.858 88.3926 o
65.8593 94.0223 o
83.6238 128.636 o
103.172 88.2329 o
88.4402 99.5706 o
115.477 79.3798 o
117.95 68.8386 o
116.592 82.7579 o
112.614 71.9513 o
98.6775 107.281 o
84.865 116.856 o
126.828 80.5085 o
99.7975 99.2004 o
126.271 56.0839 o
94.1462 92.9877 o
119.79 92.1853 o
144.585 72.2128 o
124.654 89.9653 o
94.9308 106.353 o
92.1645 133.733 o
86.7341 90.3251 o
122.197 84.5591 o
101.805 80.8017 o
129.386 60.7068 o
96.9157 91.8035 o
95.9579 99.8304 o
114.231 88.9438 o
128.936 73.0285 o
101.066 82.2515 o
160.647 90.0489 o
97.8089 117.615 o
113.869 88.683 o
104.642 106.396 o
120.939 83.993 o
109.207 84.4756 o
105.302 96.3168 o
105.563 108.715 o
97.7879 131.148 o
97.0403 113.623 o
123.227 73.9629 o
103.197 104.06 o
73.3668 106.654 o
144.771 130.986 o
122.773 82.6172 o
136.331 71.8467 o
163.858 113.398 o
108.293 90.2783 o
111.09 140.834 o
114.385 83.9703 o
124.727 96.8621 o
140.832 79.632 o
103.795 132.888 o
109.912 97.4485 o
104.094 101.642 o
98.0611 119.902 o
120.573 74.5578 o
100.312 96.9532 o
118.671 109.415 o
109.171 101.858 o
108.465 109.757 o
112.211 105.962 o
131.751 102.758 o
107.053 134.896 o
124.479 80.7145 o
123.129 68.6153 o
139.35 56.9391 o
119.497 74.9464 o
53.3407 124.186 o
87.9388 112.006 o
112.44 116.917 o
83.0911 132.321 o
88.9146 117.743 o
140.464 84.2713 o
115.637 100.308 o
102.231 114.927 o
111.228 95.4814 o
88.9634 100.926 o
60.7288 92.4862 o
112.249 97.8548 o
136.102 74.6269 o
123.804 118.718 o
89.3239 106.436 o
124.043 88.9575 o
130.999 74.2781 o
102.493 104.582 o
107.835 94.9473 o
88.5456 83.5576 o
84.4166 100.56 o
123.542 67.1291 o
113.208 107.6 o
96.4416 108.867 o
104.262 105.554 o
97.7343 60.7105 o
64.7101 112.309 o
102.095 95.7532 o
116.062 101.302 o
108.423 93.2224 o
79.8781 64.0205 o
102.197 103.888 o
136.312 91.0776 o
139.419 78.8532 o
109.004 95.5401 o
104.029 82.9471 o
96.4078 84.9184 o
95.0736 102.159 o
111.582 89.9745 o
95.196 109.323 o
102.838 76.4459 o
110.941 114.627 o
134.557 125.353 o
111.045 103.156 o
103.184 108.488 o
104.166 96.4076 o
110.279 94.448 o
106.8 104.696 o
86.3222 115.107 o
83.7339 93.8042 o
78.178 122.101 o
92.8762 104.417 o
108.512 80.1259 o
93.3568 98.9684 o
66.9444 115.753 o
69.8232 107.771 o
101.533 95.4071 o
153.077 81.4193 o
118.844 107.55 o
101.129 112.799 o
85.5906 95.1468 o
122.744 103.326 o
86.8464 142.674 o
124.31 89.5245 o
59.2921 113.397 o
109.534 98.4369 o
107.519 99.9593 o
110.931 91.3872 o
97.6414 142.208 o
84.5771 115.736 o
100.64 125.223 o
111.846 91.8996 o
96.9357 103.392 o
102.226 73.6419 o
112.395 69.7562 o
105.187 102.004 o
98.7084 108.011 o
126.745 90.8182 o
100.271 97.6959 o
106.24 95.9068 o
130.453 119.549 o
106.745 89.8612 o
110.033 97.5763 o
92.7053 100.437 o
109.948 75.2177 o
110.212 93.5562 o
118.207 66.8664 o
103.254 98.3175 o
127.756 82.513 o
112.983 79.3515 o
135.518 69.141 o
116.813 96.0162 o
96.1415 102.031 o
113.658 78.363 o
grestore
0.000 0.000 1.000 setrgbcolor
gsave
140.4 126 34.2 36 clipbox
/o {
gsave
newpath
translate
0.5 setlinewidth
1 setlinejoin
0 setlinecap
0 -0.25 m
0.0663008 -0.25 0.129895 -0.223658 0.176777 -0.176777 c
0.223658 -0.129895 0.25 -0.0663008 0.25 0 c
0.25 0.0663008 0.223658 0.129895 0.176777 0.176777 c
0.129895 0.223658 0.0663008 0.25 0 0.25 c
-0.0663008 0.25 -0.129895 0.223658 -0.176777 0.176777 c
-0.223658 0.129895 -0.25 0.0663008 -0.25 0 c
-0.25 -0.0663008 -0.223658 -0.129895 -0.176777 -0.176777 c
-0.129895 -0.223658 -0.0663008 -0.25 0 -0.25 c
cl
gsave
0.000 0.000 1.000 setrgbcolor
fill
grestore
stroke
grestore
} bind def
110.339 90.9784 o
110.274 89.977 o
107.953 92.7933 o
106.054 88.9968 o
108.299 90.4901 o
110.035 91.3903 o
106.749 90.1728 o
105.524 87.2837 o
107.308 90.6264 o
107.488 92.6452 o
105.059 90.8755 o
108.142 90.8431 o
104.734 88.5113 o
106.637 90.7524 o
103.41 92.1905 o
106.886 90.8008 o
112.123 87.5947 o
109.517 91.1643 o
108.495 85.5698 o
109.743 91.8874 o
105.007 88.0793 o
111.732 92.66 o
106.072 90.2125 o
110.876 90.904 o
112.692 88.9035 o
109.127 87.6441 o
112.709 89.2423 o
105.953 89.8244 o
106.899 90.1901 o
112.948 90.0064 o
113.315 89.1083 o
108.777 89.1953 o
113.311 90.4543 o
107.9 90.9153 o
104.619 93.2124 o
110.013 90.2009 o
106.247 92.6899 o
110.241 90.0498 o
110.825 90.4625 o
108.767 91.7667 o
110.062 86.3024 o
109.05 89.839 o
104.643 86.4537 o
105.198 86.2413 o
111.153 88.5244 o
109.341 85.8941 o
110.638 92.2751 o
114.473 90.7586 o
109.366 91.8007 o
103.218 90.0993 o
105.303 86.3412 o
106.454 93.2689 o
104.313 87.8238 o
105.716 85.9625 o
108.744 85.577 o
109.497 86.5054 o
109.591 91.0533 o
102.281 88.4682 o
111.582 89.9745 o
106.745 89.8612 o
grestore
0.000 1.000 1.000 setrgbcolor
gsave
140.4 126 34.2 36 clipbox
/o {
gsave
newpath
translate
0.5 setlinewidth
1 setlinejoin
0 setlinecap
0 -1 m
0.265203 -1 0.51958 -0.894634 0.707107 -0.707107 c
0.894634 -0.51958 1 -0.265203 1 0 c
1 0.265203 0.894634 0.51958 0.707107 0.707107 c
0.51958 0.894634 0.265203 1 0 1 c
-0.265203 1 -0.51958 0.894634 -0.707107 0.707107 c
-0.894634 0.51958 -1 0.265203 -1 0 c
-1 -0.265203 -0.894634 -0.51958 -0.707107 -0.707107 c
-0.51958 -0.894634 -0.265203 -1 0 -1 c
cl
gsave
0.000 1.000 1.000 setrgbcolor
fill
grestore
stroke
grestore
} bind def
106.739 90.5246 o
103.126 88.2819 o
107.503 90.8006 o
104.2 89.5379 o
107.546 91.5256 o
108.791 90.1974 o
104.657 87.5077 o
107.319 89.424 o
107.629 91.1785 o
105.614 89.4229 o
108.39 91.6269 o
103.807 89.0592 o
107.619 92.2997 o
104.081 87.617 o
105.091 90.9794 o
105.594 90.355 o
106.711 89.4568 o
105.347 88.968 o
105.783 91.9814 o
106.171 91.8734 o
107.227 90.7691 o
107.243 91.0812 o
105.69 88.177 o
105.438 90.7161 o
104.9 86.4776 o
104.329 86.8075 o
107.253 91.6966 o
109.562 89.5053 o
106.142 87.549 o
106.644 87.5247 o
107.075 88.5467 o
105.664 89.7019 o
105.211 87.942 o
108.228 90.8116 o
106.266 91.8036 o
105.184 90.2994 o
107.058 90.6864 o
105.861 87.8918 o
107.595 88.39 o
107.401 90.0385 o
108.777 89.7696 o
106.375 88.9182 o
105.211 87.942 o
105.992 90.947 o
105.205 88.9936 o
104.522 87.7094 o
grestore
1.000 0.000 0.000 setrgbcolor
gsave
140.4 126 34.2 36 clipbox
/o {
gsave
newpath
translate
0.5 setlinewidth
1 setlinejoin
0 setlinecap
0 -1 m
0.265203 -1 0.51958 -0.894634 0.707107 -0.707107 c
0.894634 -0.51958 1 -0.265203 1 0 c
1 0.265203 0.894634 0.51958 0.707107 0.707107 c
0.51958 0.894634 0.265203 1 0 1 c
-0.265203 1 -0.51958 0.894634 -0.707107 0.707107 c
-0.894634 0.51958 -1 0.265203 -1 0 c
-1 -0.265203 -0.894634 -0.51958 -0.707107 -0.707107 c
-0.51958 -0.894634 -0.265203 -1 0 -1 c
cl
gsave
1.000 0.000 0.000 setrgbcolor
fill
grestore
stroke
grestore
} bind def
95.8915 114.24 o
97.2638 117.413 o
96.7722 116.698 o
97.7755 114.908 o
96.8233 115.398 o
98.7965 117.062 o
98.423 116.965 o
99.3652 118.151 o
99.0301 117.702 o
98.1337 113.463 o
99.527 116.73 o
99.2825 115.034 o
99.1128 119.187 o
101.434 116.832 o
98.324 117.403 o
99.6309 116.722 o
99.91 115.88 o
100.376 114.941 o
grestore
1.000 setlinewidth
0 setlinejoin
2 setlinecap
0.000 setgray
gsave
34.2 162 m
174.6 162 l
stroke
grestore
gsave
174.6 36 m
174.6 162 l
stroke
grestore
gsave
34.2 36 m
174.6 36 l
stroke
grestore
gsave
34.2 36 m
34.2 162 l
stroke
grestore
0.500 setlinewidth
1 setlinejoin
0 setlinecap
gsave
/o {
gsave
newpath
translate
0.5 setlinewidth
1 setlinejoin
0 setlinecap
0 0 m
0 4 l
gsave
0.000 setgray
fill
grestore
stroke
grestore
} bind def
34.2 36 o
grestore
gsave
/o {
gsave
newpath
translate
0.5 setlinewidth
1 setlinejoin
0 setlinecap
0 0 m
0 -4 l
gsave
0.000 setgray
fill
grestore
stroke
grestore
} bind def
34.2 162 o
grestore
/BitstreamVeraSans-Roman findfont
6.000 scalefont
setfont
gsave
28.387500 27.437500 translate
0.000000 rotate
0.000000 0.000000 m /minus glyphshow
5.027344 0.000000 m /six glyphshow
8.844727 0.000000 m /zero glyphshow
grestore
gsave
/o {
gsave
newpath
translate
0.5 setlinewidth
1 setlinejoin
0 setlinecap
0 0 m
0 4 l
gsave
0.000 setgray
fill
grestore
stroke
grestore
} bind def
57.6 36 o
grestore
gsave
/o {
gsave
newpath
translate
0.5 setlinewidth
1 setlinejoin
0 setlinecap
0 0 m
0 -4 l
gsave
0.000 setgray
fill
grestore
stroke
grestore
} bind def
57.6 162 o
grestore
gsave
51.787500 27.437500 translate
0.000000 rotate
0.000000 0.000000 m /minus glyphshow
5.027344 0.000000 m /four glyphshow
8.844727 0.000000 m /zero glyphshow
grestore
gsave
/o {
gsave
newpath
translate
0.5 setlinewidth
1 setlinejoin
0 setlinecap
0 0 m
0 4 l
gsave
0.000 setgray
fill
grestore
stroke
grestore
} bind def
81 36 o
grestore
gsave
/o {
gsave
newpath
translate
0.5 setlinewidth
1 setlinejoin
0 setlinecap
0 0 m
0 -4 l
gsave
0.000 setgray
fill
grestore
stroke
grestore
} bind def
81 162 o
grestore
gsave
75.187500 27.437500 translate
0.000000 rotate
0.000000 0.000000 m /minus glyphshow
5.027344 0.000000 m /two glyphshow
8.844727 0.000000 m /zero glyphshow
grestore
gsave
/o {
gsave
newpath
translate
0.5 setlinewidth
1 setlinejoin
0 setlinecap
0 0 m
0 4 l
gsave
0.000 setgray
fill
grestore
stroke
grestore
} bind def
104.4 36 o
grestore
gsave
/o {
gsave
newpath
translate
0.5 setlinewidth
1 setlinejoin
0 setlinecap
0 0 m
0 -4 l
gsave
0.000 setgray
fill
grestore
stroke
grestore
} bind def
104.4 162 o
grestore
gsave
102.884375 27.437500 translate
0.000000 rotate
0.000000 0.000000 m /zero glyphshow
grestore
gsave
/o {
gsave
newpath
translate
0.5 setlinewidth
1 setlinejoin
0 setlinecap
0 0 m
0 4 l
gsave
0.000 setgray
fill
grestore
stroke
grestore
} bind def
127.8 36 o
grestore
gsave
/o {
gsave
newpath
translate
0.5 setlinewidth
1 setlinejoin
0 setlinecap
0 0 m
0 -4 l
gsave
0.000 setgray
fill
grestore
stroke
grestore
} bind def
127.8 162 o
grestore
gsave
124.401562 27.437500 translate
0.000000 rotate
0.000000 0.000000 m /two glyphshow
3.817383 0.000000 m /zero glyphshow
grestore
gsave
/o {
gsave
newpath
translate
0.5 setlinewidth
1 setlinejoin
0 setlinecap
0 0 m
0 4 l
gsave
0.000 setgray
fill
grestore
stroke
grestore
} bind def
151.2 36 o
grestore
gsave
/o {
gsave
newpath
translate
0.5 setlinewidth
1 setlinejoin
0 setlinecap
0 0 m
0 -4 l
gsave
0.000 setgray
fill
grestore
stroke
grestore
} bind def
151.2 162 o
grestore
gsave
147.731250 27.437500 translate
0.000000 rotate
0.000000 0.000000 m /four glyphshow
3.817383 0.000000 m /zero glyphshow
grestore
gsave
/o {
gsave
newpath
translate
0.5 setlinewidth
1 setlinejoin
0 setlinecap
0 0 m
0 4 l
gsave
0.000 setgray
fill
grestore
stroke
grestore
} bind def
174.6 36 o
grestore
gsave
/o {
gsave
newpath
translate
0.5 setlinewidth
1 setlinejoin
0 setlinecap
0 0 m
0 -4 l
gsave
0.000 setgray
fill
grestore
stroke
grestore
} bind def
174.6 162 o
grestore
gsave
171.193750 27.437500 translate
0.000000 rotate
0.000000 0.000000 m /six glyphshow
3.817383 0.000000 m /zero glyphshow
grestore
gsave
90.900000 15.187500 translate
0.000000 rotate
/Cmr10 findfont
8.0 scalefont
setfont
0.000000 0.000000 moveto
/X glyphshow

/BitstreamVeraSans-Roman findfont
8.0 scalefont
setfont
6.000000 0.000000 moveto
/space glyphshow

/Cmr10 findfont
8.0 scalefont
setfont
8.542969 0.000000 moveto
/parenleft glyphshow

11.648438 0.000000 moveto
/k glyphshow

15.863281 0.000000 moveto
/p glyphshow

20.304688 0.000000 moveto
/c glyphshow

23.855469 0.000000 moveto
/parenright glyphshow


grestore
gsave
/o {
gsave
newpath
translate
0.5 setlinewidth
1 setlinejoin
0 setlinecap
0 0 m
4 0 l
gsave
0.000 setgray
fill
grestore
stroke
grestore
} bind def
34.2 36 o
grestore
gsave
/o {
gsave
newpath
translate
0.5 setlinewidth
1 setlinejoin
0 setlinecap
0 0 m
-4 0 l
gsave
0.000 setgray
fill
grestore
stroke
grestore
} bind def
174.6 36 o
grestore
gsave
18.575000 34.343750 translate
0.000000 rotate
0.000000 0.000000 m /minus glyphshow
5.027344 0.000000 m /six glyphshow
8.844727 0.000000 m /zero glyphshow
grestore
gsave
/o {
gsave
newpath
translate
0.5 setlinewidth
1 setlinejoin
0 setlinecap
0 0 m
4 0 l
gsave
0.000 setgray
fill
grestore
stroke
grestore
} bind def
34.2 57 o
grestore
gsave
/o {
gsave
newpath
translate
0.5 setlinewidth
1 setlinejoin
0 setlinecap
0 0 m
-4 0 l
gsave
0.000 setgray
fill
grestore
stroke
grestore
} bind def
174.6 57 o
grestore
gsave
18.575000 55.343750 translate
0.000000 rotate
0.000000 0.000000 m /minus glyphshow
5.027344 0.000000 m /four glyphshow
8.844727 0.000000 m /zero glyphshow
grestore
gsave
/o {
gsave
newpath
translate
0.5 setlinewidth
1 setlinejoin
0 setlinecap
0 0 m
4 0 l
gsave
0.000 setgray
fill
grestore
stroke
grestore
} bind def
34.2 78 o
grestore
gsave
/o {
gsave
newpath
translate
0.5 setlinewidth
1 setlinejoin
0 setlinecap
0 0 m
-4 0 l
gsave
0.000 setgray
fill
grestore
stroke
grestore
} bind def
174.6 78 o
grestore
gsave
18.575000 76.343750 translate
0.000000 rotate
0.000000 0.000000 m /minus glyphshow
5.027344 0.000000 m /two glyphshow
8.844727 0.000000 m /zero glyphshow
grestore
gsave
/o {
gsave
newpath
translate
0.5 setlinewidth
1 setlinejoin
0 setlinecap
0 0 m
4 0 l
gsave
0.000 setgray
fill
grestore
stroke
grestore
} bind def
34.2 99 o
grestore
gsave
/o {
gsave
newpath
translate
0.5 setlinewidth
1 setlinejoin
0 setlinecap
0 0 m
-4 0 l
gsave
0.000 setgray
fill
grestore
stroke
grestore
} bind def
174.6 99 o
grestore
gsave
27.168750 97.343750 translate
0.000000 rotate
0.000000 0.000000 m /zero glyphshow
grestore
gsave
/o {
gsave
newpath
translate
0.5 setlinewidth
1 setlinejoin
0 setlinecap
0 0 m
4 0 l
gsave
0.000 setgray
fill
grestore
stroke
grestore
} bind def
34.2 120 o
grestore
gsave
/o {
gsave
newpath
translate
0.5 setlinewidth
1 setlinejoin
0 setlinecap
0 0 m
-4 0 l
gsave
0.000 setgray
fill
grestore
stroke
grestore
} bind def
174.6 120 o
grestore
gsave
23.403125 118.343750 translate
0.000000 rotate
0.000000 0.000000 m /two glyphshow
3.817383 0.000000 m /zero glyphshow
grestore
gsave
/o {
gsave
newpath
translate
0.5 setlinewidth
1 setlinejoin
0 setlinecap
0 0 m
4 0 l
gsave
0.000 setgray
fill
grestore
stroke
grestore
} bind def
34.2 141 o
grestore
gsave
/o {
gsave
newpath
translate
0.5 setlinewidth
1 setlinejoin
0 setlinecap
0 0 m
-4 0 l
gsave
0.000 setgray
fill
grestore
stroke
grestore
} bind def
174.6 141 o
grestore
gsave
23.262500 139.343750 translate
0.000000 rotate
0.000000 0.000000 m /four glyphshow
3.817383 0.000000 m /zero glyphshow
grestore
gsave
/o {
gsave
newpath
translate
0.5 setlinewidth
1 setlinejoin
0 setlinecap
0 0 m
4 0 l
gsave
0.000 setgray
fill
grestore
stroke
grestore
} bind def
34.2 162 o
grestore
gsave
/o {
gsave
newpath
translate
0.5 setlinewidth
1 setlinejoin
0 setlinecap
0 0 m
-4 0 l
gsave
0.000 setgray
fill
grestore
stroke
grestore
} bind def
174.6 162 o
grestore
gsave
23.387500 160.343750 translate
0.000000 rotate
0.000000 0.000000 m /six glyphshow
3.817383 0.000000 m /zero glyphshow
grestore
gsave
11.575000 86.000000 translate
90.000000 rotate
/Cmr10 findfont
8.0 scalefont
setfont
0.000000 0.000000 moveto
/Z glyphshow

/BitstreamVeraSans-Roman findfont
8.0 scalefont
setfont
4.886719 0.000000 moveto
/space glyphshow

/Cmr10 findfont
8.0 scalefont
setfont
7.429688 0.000000 moveto
/parenleft glyphshow

10.535156 0.000000 moveto
/k glyphshow

14.750000 0.000000 moveto
/p glyphshow

19.191406 0.000000 moveto
/c glyphshow

22.742188 0.000000 moveto
/parenright glyphshow


grestore

end
showpage
