%!PS-Adobe-3.0 EPSF-3.0
%%Title: /Users/iuliasimion/bullock_johnston/denis_erkal/vasily/Figures/4498_3103313_rvr.eps
%%Creator: matplotlib version 1.4.3, http://matplotlib.org/
%%CreationDate: Sat Aug 19 15:00:40 2017
%%Orientation: portrait
%%BoundingBox: 180 306 432 486
%%EndComments
%%BeginProlog
/mpldict 10 dict def
mpldict begin
/m { moveto } bind def
/l { lineto } bind def
/r { rlineto } bind def
/c { curveto } bind def
/cl { closepath } bind def
/box {
m
1 index 0 r
0 exch r
neg 0 r
cl
} bind def
/clipbox {
box
clip
newpath
} bind def
%!PS-Adobe-3.0 Resource-Font
%%Title: Bitstream Vera Sans
%%Copyright: Copyright (c) 2003 by Bitstream, Inc. All Rights Reserved.
%%Creator: Converted from TrueType to type 3 by PPR
25 dict begin
/_d{bind def}bind def
/_m{moveto}_d
/_l{lineto}_d
/_cl{closepath eofill}_d
/_c{curveto}_d
/_sc{7 -1 roll{setcachedevice}{pop pop pop pop pop pop}ifelse}_d
/_e{exec}_d
/FontName /BitstreamVeraSans-Roman def
/PaintType 0 def
/FontMatrix[.001 0 0 .001 0 0]def
/FontBBox[-183 -236 1287 928]def
/FontType 3 def
/Encoding [ /space /parenleft /parenright /slash /zero /one /two /three /four /five /six /seven /k /m /s /minus ] def
/FontInfo 10 dict dup begin
/FamilyName (Bitstream Vera Sans) def
/FullName (Bitstream Vera Sans) def
/Notice (Copyright (c) 2003 by Bitstream, Inc. All Rights Reserved. Bitstream Vera is a trademark of Bitstream, Inc.) def
/Weight (Roman) def
/Version (Release 1.10) def
/ItalicAngle 0.0 def
/isFixedPitch false def
/UnderlinePosition -213 def
/UnderlineThickness 143 def
end readonly def
/CharStrings 16 dict dup begin
/space{318 0 0 0 0 0 _sc
}_d
/parenleft{390 0 86 -131 310 759 _sc
310 759 _m
266 683 234 609 213 536 _c
191 463 181 389 181 314 _c
181 238 191 164 213 91 _c
234 17 266 -56 310 -131 _c
232 -131 _l
183 -54 146 20 122 94 _c
98 168 86 241 86 314 _c
86 386 98 459 122 533 _c
146 607 182 682 232 759 _c
310 759 _l
_cl}_d
/parenright{390 0 80 -131 304 759 _sc
80 759 _m
158 759 _l
206 682 243 607 267 533 _c
291 459 304 386 304 314 _c
304 241 291 168 267 94 _c
243 20 206 -54 158 -131 _c
80 -131 _l
123 -56 155 17 177 91 _c
198 164 209 238 209 314 _c
209 389 198 463 177 536 _c
155 609 123 683 80 759 _c
_cl}_d
/slash{337 0 0 -92 337 729 _sc
254 729 _m
337 729 _l
83 -92 _l
0 -92 _l
254 729 _l
_cl}_d
/zero{636 0 66 -13 570 742 _sc
318 664 _m
267 664 229 639 203 589 _c
177 539 165 464 165 364 _c
165 264 177 189 203 139 _c
229 89 267 64 318 64 _c
369 64 407 89 433 139 _c
458 189 471 264 471 364 _c
471 464 458 539 433 589 _c
407 639 369 664 318 664 _c
318 742 _m
399 742 461 709 505 645 _c
548 580 570 486 570 364 _c
570 241 548 147 505 83 _c
461 19 399 -13 318 -13 _c
236 -13 173 19 130 83 _c
87 147 66 241 66 364 _c
66 486 87 580 130 645 _c
173 709 236 742 318 742 _c
_cl}_d
/one{636 0 110 0 544 729 _sc
124 83 _m
285 83 _l
285 639 _l
110 604 _l
110 694 _l
284 729 _l
383 729 _l
383 83 _l
544 83 _l
544 0 _l
124 0 _l
124 83 _l
_cl}_d
/two{{636 0 73 0 536 742 _sc
192 83 _m
536 83 _l
536 0 _l
73 0 _l
73 83 _l
110 121 161 173 226 239 _c
290 304 331 346 348 365 _c
380 400 402 430 414 455 _c
426 479 433 504 433 528 _c
433 566 419 598 392 622 _c
365 646 330 659 286 659 _c
255 659 222 653 188 643 _c
154 632 117 616 78 594 _c
78 694 _l
118 710 155 722 189 730 _c
223 738 255 742 284 742 _c
}_e{359 742 419 723 464 685 _c
509 647 532 597 532 534 _c
532 504 526 475 515 449 _c
504 422 484 390 454 354 _c
446 344 420 317 376 272 _c
332 227 271 164 192 83 _c
_cl}_e}_d
/three{{636 0 76 -13 556 742 _sc
406 393 _m
453 383 490 362 516 330 _c
542 298 556 258 556 212 _c
556 140 531 84 482 45 _c
432 6 362 -13 271 -13 _c
240 -13 208 -10 176 -4 _c
144 1 110 10 76 22 _c
76 117 _l
103 101 133 89 166 81 _c
198 73 232 69 268 69 _c
330 69 377 81 409 105 _c
441 129 458 165 458 212 _c
458 254 443 288 413 312 _c
383 336 341 349 287 349 _c
}_e{202 349 _l
202 430 _l
291 430 _l
339 430 376 439 402 459 _c
428 478 441 506 441 543 _c
441 580 427 609 401 629 _c
374 649 336 659 287 659 _c
260 659 231 656 200 650 _c
169 644 135 635 98 623 _c
98 711 _l
135 721 170 729 203 734 _c
235 739 266 742 296 742 _c
370 742 429 725 473 691 _c
517 657 539 611 539 553 _c
539 513 527 479 504 451 _c
481 423 448 403 406 393 _c
_cl}_e}_d
/four{636 0 49 0 580 729 _sc
378 643 _m
129 254 _l
378 254 _l
378 643 _l
352 729 _m
476 729 _l
476 254 _l
580 254 _l
580 172 _l
476 172 _l
476 0 _l
378 0 _l
378 172 _l
49 172 _l
49 267 _l
352 729 _l
_cl}_d
/five{{636 0 77 -13 549 729 _sc
108 729 _m
495 729 _l
495 646 _l
198 646 _l
198 467 _l
212 472 227 476 241 478 _c
255 480 270 482 284 482 _c
365 482 429 459 477 415 _c
525 370 549 310 549 234 _c
549 155 524 94 475 51 _c
426 8 357 -13 269 -13 _c
238 -13 207 -10 175 -6 _c
143 -1 111 6 77 17 _c
77 116 _l
106 100 136 88 168 80 _c
199 72 232 69 267 69 _c
}_e{323 69 368 83 401 113 _c
433 143 450 183 450 234 _c
450 284 433 324 401 354 _c
368 384 323 399 267 399 _c
241 399 214 396 188 390 _c
162 384 135 375 108 363 _c
108 729 _l
_cl}_e}_d
/six{{636 0 70 -13 573 742 _sc
330 404 _m
286 404 251 388 225 358 _c
199 328 186 286 186 234 _c
186 181 199 139 225 109 _c
251 79 286 64 330 64 _c
374 64 409 79 435 109 _c
461 139 474 181 474 234 _c
474 286 461 328 435 358 _c
409 388 374 404 330 404 _c
526 713 _m
526 623 _l
501 635 476 644 451 650 _c
425 656 400 659 376 659 _c
310 659 260 637 226 593 _c
}_e{192 549 172 482 168 394 _c
187 422 211 444 240 459 _c
269 474 301 482 336 482 _c
409 482 467 459 509 415 _c
551 371 573 310 573 234 _c
573 159 550 99 506 54 _c
462 9 403 -13 330 -13 _c
246 -13 181 19 137 83 _c
92 147 70 241 70 364 _c
70 479 97 571 152 639 _c
206 707 280 742 372 742 _c
396 742 421 739 447 735 _c
472 730 498 723 526 713 _c
_cl}_e}_d
/seven{636 0 82 0 551 729 _sc
82 729 _m
551 729 _l
551 687 _l
286 0 _l
183 0 _l
432 646 _l
82 646 _l
82 729 _l
_cl}_d
/k{579 0 91 0 576 760 _sc
91 760 _m
181 760 _l
181 311 _l
449 547 _l
564 547 _l
274 291 _l
576 0 _l
459 0 _l
181 267 _l
181 0 _l
91 0 _l
91 760 _l
_cl}_d
/m{{974 0 91 0 889 560 _sc
520 442 _m
542 482 569 511 600 531 _c
631 550 668 560 711 560 _c
767 560 811 540 842 500 _c
873 460 889 403 889 330 _c
889 0 _l
799 0 _l
799 327 _l
799 379 789 418 771 444 _c
752 469 724 482 686 482 _c
639 482 602 466 575 435 _c
548 404 535 362 535 309 _c
535 0 _l
445 0 _l
445 327 _l
445 379 435 418 417 444 _c
398 469 369 482 331 482 _c
}_e{285 482 248 466 221 435 _c
194 404 181 362 181 309 _c
181 0 _l
91 0 _l
91 547 _l
181 547 _l
181 462 _l
201 495 226 520 255 536 _c
283 552 317 560 357 560 _c
397 560 430 550 458 530 _c
486 510 506 480 520 442 _c
_cl}_e}_d
/s{{521 0 54 -13 472 560 _sc
443 531 _m
443 446 _l
417 458 391 468 364 475 _c
336 481 308 485 279 485 _c
234 485 200 478 178 464 _c
156 450 145 430 145 403 _c
145 382 153 366 169 354 _c
185 342 217 330 265 320 _c
296 313 _l
360 299 405 279 432 255 _c
458 230 472 195 472 151 _c
472 100 452 60 412 31 _c
372 1 316 -13 246 -13 _c
216 -13 186 -10 154 -5 _c
}_e{122 0 89 8 54 20 _c
54 113 _l
87 95 120 82 152 74 _c
184 65 216 61 248 61 _c
290 61 323 68 346 82 _c
368 96 380 117 380 144 _c
380 168 371 187 355 200 _c
339 213 303 226 247 238 _c
216 245 _l
160 257 119 275 95 299 _c
70 323 58 356 58 399 _c
58 450 76 490 112 518 _c
148 546 200 560 268 560 _c
301 560 332 557 362 552 _c
391 547 418 540 443 531 _c
}_e{_cl}_e}_d
/minus{838 0 106 272 732 355 _sc
106 355 _m
732 355 _l
732 272 _l
106 272 _l
106 355 _l
_cl}_d
end readonly def

/BuildGlyph
 {exch begin
 CharStrings exch
 2 copy known not{pop /.notdef}if
 true 3 1 roll get exec
 end}_d

/BuildChar {
 1 index /Encoding get exch get
 1 index /BuildGlyph get exec
}_d

FontName currentdict end definefont pop
%!PS-Adobe-3.0 Resource-Font
%%Title: cmr10
%%Copyright: Copyright (C) 1994, Basil K. Malyshev. All Rights Reserved.012BaKoMa Fonts Collection, Level-B.
%%Creator: Converted from TrueType to type 3 by PPR
25 dict begin
/_d{bind def}bind def
/_m{moveto}_d
/_l{lineto}_d
/_cl{closepath eofill}_d
/_c{curveto}_d
/_sc{7 -1 roll{setcachedevice}{pop pop pop pop pop pop}ifelse}_d
/_e{exec}_d
/FontName /Cmr10 def
/PaintType 0 def
/FontMatrix[.001 0 0 .001 0 0]def
/FontBBox[-44 -250 1009 750]def
/FontType 3 def
/Encoding [ /k /S /parenright /R /G /parenleft /c /p /r ] def
/FontInfo 10 dict dup begin
/FamilyName (cmr10) def
/FullName (cmr10) def
/Notice (Copyright (C) 1994, Basil K. Malyshev. All Rights Reserved.012BaKoMa Fonts Collection, Level-B. ) def
/Weight (Regular) def
/Version (1.1/12-Nov-94) def
/ItalicAngle 0.0 def
/isFixedPitch false def
/UnderlinePosition -133 def
/UnderlineThickness 20 def
end readonly def
/CharStrings 9 dict dup begin
/k{{527 0 26 0 511 694 _sc
26 0 _m
26 35 _l
48 35 67 36 82 40 _c
96 44 104 53 104 67 _c
104 592 _l
104 610 101 623 96 631 _c
90 639 83 643 73 645 _c
63 647 47 648 26 648 _c
26 683 _l
174 694 _l
174 219 _l
308 337 _l
321 349 328 361 328 372 _c
328 380 325 386 320 390 _c
314 394 308 396 300 396 _c
300 431 _l
488 431 _l
488 396 _l
}_e{442 396 397 376 352 337 _c
281 275 _l
408 94 _l
426 69 440 53 452 46 _c
464 38 483 35 511 35 _c
511 0 _l
312 0 _l
312 35 _l
334 35 346 42 346 56 _c
346 66 340 78 328 94 _c
232 231 _l
171 178 _l
171 67 _l
171 53 178 44 193 40 _c
207 36 226 35 249 35 _c
249 0 _l
26 0 _l
_cl}_e}_d
/S{{555 0 56 -21 499 705 _sc
56 -13 _m
56 219 _l
56 224 59 227 65 227 _c
77 227 _l
79 227 80 226 82 224 _c
84 222 85 221 85 219 _c
85 153 105 103 146 67 _c
186 31 239 13 305 13 _c
328 13 349 19 369 33 _c
388 46 403 63 414 85 _c
425 107 431 129 431 153 _c
431 173 427 192 419 211 _c
411 230 399 247 384 261 _c
368 275 351 284 332 289 _c
202 321 _l
}_e{159 332 124 355 97 391 _c
69 426 56 466 56 510 _c
56 544 64 577 82 607 _c
100 637 123 660 153 678 _c
183 696 215 705 250 705 _c
316 705 369 682 409 637 _c
450 702 _l
452 704 454 705 457 705 _c
464 705 _l
466 705 467 704 469 703 _c
471 701 472 699 472 697 _c
472 465 _l
472 459 469 456 464 456 _c
452 456 _l
446 456 443 459 443 465 _c
443 481 440 500 434 520 _c
}_e{428 540 421 560 411 578 _c
401 596 390 612 378 624 _c
346 656 303 673 250 673 _c
227 673 206 667 187 655 _c
167 643 152 628 141 608 _c
129 588 124 568 124 546 _c
124 517 132 491 150 468 _c
168 444 191 429 220 422 _c
350 390 _l
371 384 391 375 410 362 _c
429 348 445 333 458 315 _c
471 297 481 277 488 255 _c
495 233 499 210 499 187 _c
499 151 490 117 474 85 _c
}_e{457 53 434 27 404 8 _c
374 -11 341 -21 305 -21 _c
283 -21 260 -18 237 -13 _c
214 -8 193 -1 173 8 _c
153 18 136 31 120 47 _c
78 -18 _l
76 -20 73 -21 71 -21 _c
65 -21 _l
59 -21 56 -18 56 -13 _c
_cl}_e}_d
/parenright{{388 0 56 -249 291 750 _sc
65 -249 _m
59 -249 56 -246 56 -240 _c
56 -237 56 -235 58 -234 _c
172 -122 229 38 229 250 _c
229 462 172 623 60 733 _c
57 734 56 737 56 741 _c
56 743 57 745 59 747 _c
61 749 63 750 65 750 _c
74 750 _l
76 750 77 749 79 748 _c
127 710 167 664 199 610 _c
231 556 254 498 269 437 _c
283 376 291 314 291 250 _c
291 202 287 156 279 110 _c
}_e{271 64 258 20 241 -24 _c
223 -68 201 -108 175 -146 _c
148 -184 116 -217 79 -247 _c
77 -248 76 -249 74 -249 _c
65 -249 _l
_cl}_e}_d
/R{{736 0 33 -21 732 683 _sc
33 0 _m
33 35 _l
101 35 136 45 136 67 _c
136 616 _l
136 637 101 648 33 648 _c
33 683 _l
347 683 _l
384 683 423 676 465 663 _c
506 649 540 629 568 601 _c
596 573 610 540 610 502 _c
610 474 601 449 585 427 _c
568 405 546 386 520 372 _c
494 357 467 346 440 340 _c
470 329 496 312 518 290 _c
540 267 554 241 559 212 _c
573 123 _l
}_e{579 83 586 53 593 33 _c
600 13 616 4 641 4 _c
661 4 677 13 687 33 _c
697 52 703 73 703 96 _c
703 98 704 100 706 102 _c
708 104 710 105 713 105 _c
722 105 _l
728 105 732 100 732 92 _c
732 73 728 55 721 38 _c
713 20 703 6 690 -4 _c
676 -15 660 -21 642 -21 _c
594 -21 552 -9 518 14 _c
483 38 466 73 466 119 _c
466 208 _l
466 241 454 269 431 293 _c
}_e{407 317 379 329 346 329 _c
226 329 _l
226 67 _l
226 45 260 35 329 35 _c
329 0 _l
33 0 _l
226 355 _m
333 355 _l
388 355 430 366 459 388 _c
488 410 503 448 503 502 _c
503 555 488 593 460 615 _c
431 637 389 648 333 648 _c
277 648 _l
265 648 255 647 249 646 _c
242 645 236 642 232 638 _c
228 633 226 626 226 616 _c
226 355 _l
_cl}_e}_d
/G{{784 0 56 -21 735 705 _sc
230 107 _m
254 77 283 54 318 38 _c
352 21 389 13 427 13 _c
463 13 497 22 527 41 _c
557 60 573 87 573 122 _c
573 206 _l
573 227 531 238 448 238 _c
448 273 _l
735 273 _l
735 238 _l
713 238 696 236 684 232 _c
672 228 666 220 666 206 _c
666 9 _l
666 6 665 4 663 2 _c
661 0 659 0 657 0 _c
651 0 640 7 626 22 _c
}_e{611 36 600 49 592 61 _c
575 33 549 12 515 -1 _c
480 -14 444 -21 406 -21 _c
341 -21 282 -4 229 28 _c
175 61 133 106 102 162 _c
71 218 56 278 56 342 _c
56 389 65 435 83 479 _c
101 523 126 563 158 597 _c
190 631 227 657 270 676 _c
312 695 358 705 406 705 _c
440 705 473 697 504 683 _c
534 668 562 647 586 620 _c
644 702 _l
648 704 650 705 651 705 _c
658 705 _l
}_e{660 705 661 704 663 702 _c
665 700 666 699 666 697 _c
666 427 _l
666 421 663 418 658 418 _c
640 418 _l
634 418 631 421 631 427 _c
631 446 627 467 619 491 _c
611 515 602 537 590 559 _c
578 580 564 599 549 615 _c
511 651 468 670 420 670 _c
382 670 347 661 313 645 _c
279 628 251 605 228 576 _c
203 544 186 509 177 469 _c
167 429 163 387 163 342 _c
163 239 185 161 230 107 _c
}_e{_cl}_e}_d
/parenleft{{388 0 97 -249 332 750 _sc
310 -247 _m
272 -217 240 -184 214 -146 _c
187 -108 165 -67 148 -25 _c
131 17 118 62 110 109 _c
101 155 97 202 97 250 _c
97 298 101 345 110 392 _c
118 438 131 483 149 527 _c
166 570 188 611 215 649 _c
242 687 274 720 310 748 _c
310 749 311 750 315 750 _c
324 750 _l
326 750 327 749 329 747 _c
331 745 332 743 332 741 _c
332 738 331 736 330 735 _c
}_e{297 703 270 668 248 632 _c
226 596 209 557 196 516 _c
183 474 174 432 168 388 _c
162 344 159 298 159 250 _c
159 38 215 -122 329 -232 _c
331 -234 332 -236 332 -240 _c
332 -242 331 -244 329 -246 _c
327 -248 326 -249 324 -249 _c
315 -249 _l
311 -249 310 -248 310 -247 _c
_cl}_e}_d
/c{{444 0 33 -10 415 448 _sc
249 -10 _m
208 -10 171 0 139 21 _c
106 41 80 69 61 104 _c
42 139 33 176 33 216 _c
33 255 42 293 61 329 _c
79 365 105 393 138 415 _c
171 437 208 448 249 448 _c
288 448 324 440 356 425 _c
388 409 404 384 404 350 _c
404 337 399 326 390 316 _c
380 306 369 302 356 302 _c
342 302 331 306 322 316 _c
312 326 308 337 308 350 _c
}_e{308 362 311 372 319 381 _c
327 389 336 395 347 397 _c
324 411 292 419 250 419 _c
218 419 192 408 173 387 _c
153 365 140 339 132 308 _c
124 277 120 246 120 216 _c
120 183 124 152 134 122 _c
144 92 159 67 181 47 _c
202 27 229 18 261 18 _c
293 18 320 27 342 47 _c
364 66 379 91 387 123 _c
387 127 389 129 395 129 _c
407 129 _l
409 129 410 128 412 126 _c
}_e{414 124 415 122 415 120 _c
415 117 _l
405 77 385 46 355 24 _c
325 1 289 -10 249 -10 _c
_cl}_e}_d
/p{{555 0 26 -193 522 442 _sc
26 -193 _m
26 -158 _l
48 -158 67 -156 82 -152 _c
96 -148 104 -139 104 -126 _c
104 355 _l
104 373 97 384 84 389 _c
71 393 52 396 26 396 _c
26 431 _l
174 442 _l
174 380 _l
192 400 213 415 237 426 _c
261 436 287 442 315 442 _c
354 442 389 431 421 410 _c
453 388 477 360 495 326 _c
513 291 522 254 522 216 _c
522 175 512 137 492 103 _c
}_e{472 68 446 40 412 20 _c
378 0 340 -10 300 -10 _c
251 -10 210 9 177 48 _c
177 -126 _l
177 -139 184 -148 199 -152 _c
213 -156 232 -158 255 -158 _c
255 -193 _l
26 -193 _l
177 97 _m
188 73 204 54 225 38 _c
246 22 269 15 294 15 _c
317 15 337 21 355 33 _c
373 45 388 62 400 83 _c
412 104 420 126 426 149 _c
432 172 435 194 435 216 _c
435 242 430 271 420 302 _c
}_e{410 333 396 359 376 381 _c
356 402 333 413 305 413 _c
278 413 253 406 231 392 _c
208 378 190 360 177 336 _c
177 97 _l
_cl}_e}_d
/r{{391 0 26 0 364 442 _sc
26 0 _m
26 35 _l
48 35 67 36 82 40 _c
96 44 104 53 104 67 _c
104 340 _l
104 358 101 371 96 379 _c
90 387 83 391 73 393 _c
63 395 47 396 26 396 _c
26 431 _l
169 442 _l
169 344 _l
179 373 195 397 215 415 _c
235 433 259 442 287 442 _c
307 442 324 436 340 424 _c
356 412 364 397 364 378 _c
364 366 359 355 351 346 _c
}_e{342 337 331 333 319 333 _c
306 333 295 337 287 346 _c
278 354 274 365 274 378 _c
274 396 280 408 293 416 _c
287 416 _l
260 416 238 406 221 386 _c
203 366 191 342 184 314 _c
177 285 174 257 174 231 _c
174 67 _l
174 45 206 35 271 35 _c
271 0 _l
26 0 _l
_cl}_e}_d
end readonly def

/BuildGlyph
 {exch begin
 CharStrings exch
 2 copy known not{pop /.notdef}if
 true 3 1 roll get exec
 end}_d

/BuildChar {
 1 index /Encoding get exch get
 1 index /BuildGlyph get exec
}_d

FontName currentdict end definefont pop
%!PS-Adobe-3.0 Resource-Font
%%Title: cmmi10
%%Copyright: Copyright (C) 1994, Basil K. Malyshev. All Rights Reserved.012BaKoMa Fonts Collection, Level-B.
%%Creator: Converted from TrueType to type 3 by PPR
25 dict begin
/_d{bind def}bind def
/_m{moveto}_d
/_l{lineto}_d
/_cl{closepath eofill}_d
/_c{curveto}_d
/_sc{7 -1 roll{setcachedevice}{pop pop pop pop pop pop}ifelse}_d
/_e{exec}_d
/FontName /Cmmi10 def
/PaintType 0 def
/FontMatrix[.001 0 0 .001 0 0]def
/FontBBox[-34 -250 1048 750]def
/FontType 3 def
/Encoding [ /v ] def
/FontInfo 10 dict dup begin
/FamilyName (cmmi10) def
/FullName (cmmi10) def
/Notice (Copyright (C) 1994, Basil K. Malyshev. All Rights Reserved.012BaKoMa Fonts Collection, Level-B. ) def
/Weight (Regular) def
/Version (1.1/12-Nov-94) def
/ItalicAngle 0.0 def
/isFixedPitch false def
/UnderlinePosition -133 def
/UnderlineThickness 20 def
end readonly def
/CharStrings 1 dict dup begin
/v{{484 0 27 -10 467 443 _sc
107 113 _m
107 127 108 144 112 162 _c
116 180 119 194 123 206 _c
126 218 134 240 147 274 _c
160 307 167 324 167 326 _c
175 350 180 370 180 386 _c
180 406 172 416 158 416 _c
132 416 110 402 93 375 _c
75 347 63 317 55 284 _c
53 280 51 278 47 278 _c
35 278 _l
29 278 27 281 27 287 _c
27 290 _l
37 330 54 365 76 396 _c
}_e{98 426 126 442 160 442 _c
184 442 204 434 220 418 _c
236 402 245 383 245 359 _c
245 346 242 333 237 320 _c
223 286 213 258 206 238 _c
198 218 191 195 185 170 _c
179 144 176 121 176 100 _c
176 75 181 55 193 39 _c
204 23 222 15 247 15 _c
293 15 334 50 372 122 _c
384 145 395 172 405 203 _c
415 234 421 260 421 280 _c
421 300 417 315 411 327 _c
}_e{404 338 395 350 385 362 _c
375 374 370 383 370 391 _c
370 404 375 416 386 427 _c
396 437 408 443 422 443 _c
438 443 449 435 456 421 _c
463 406 467 389 467 371 _c
467 349 463 322 457 292 _c
451 261 442 229 431 196 _c
419 163 409 137 400 119 _c
356 33 304 -10 246 -10 _c
204 -10 170 0 145 21 _c
119 41 107 72 107 113 _c
_cl}_e}_d
end readonly def

/BuildGlyph
 {exch begin
 CharStrings exch
 2 copy known not{pop /.notdef}if
 true 3 1 roll get exec
 end}_d

/BuildChar {
 1 index /Encoding get exch get
 1 index /BuildGlyph get exec
}_d

FontName currentdict end definefont pop
end
%%EndProlog
mpldict begin
180 306 translate
252 180 0 0 clipbox
gsave
0 0 m
252 0 l
252 180 l
0 180 l
cl
1.000 setgray
fill
grestore
gsave
47.88 36 m
244.44 36 l
244.44 162 l
47.88 162 l
cl
1.000 setgray
fill
grestore
0.500 setlinewidth
1 setlinejoin
0 setlinecap
[] 0 setdash
0.000 setgray
gsave
196.6 126 47.88 36 clipbox
/o {
gsave
newpath
translate
0.5 setlinewidth
1 setlinejoin
0 setlinecap
0 -0.25 m
0.0663008 -0.25 0.129895 -0.223658 0.176777 -0.176777 c
0.223658 -0.129895 0.25 -0.0663008 0.25 0 c
0.25 0.0663008 0.223658 0.129895 0.176777 0.176777 c
0.129895 0.223658 0.0663008 0.25 0 0.25 c
-0.0663008 0.25 -0.129895 0.223658 -0.176777 0.176777 c
-0.223658 0.129895 -0.25 0.0663008 -0.25 0 c
-0.25 -0.0663008 -0.223658 -0.129895 -0.176777 -0.176777 c
-0.129895 -0.223658 -0.0663008 -0.25 0 -0.25 c
cl
gsave
0.000 setgray
fill
grestore
stroke
grestore
} bind def
99.2964 100.533 o
81.925 120.964 o
70.7808 107.815 o
108.48 90.7471 o
63.4649 74.0638 o
111.69 96.9129 o
96.7333 108.473 o
108.326 104.561 o
104.015 99.0748 o
61.5291 131.764 o
118.975 92.7826 o
88.1901 105.232 o
116.692 93.0468 o
94.6764 102.127 o
68.6968 105.095 o
61.3726 79.4331 o
96.6408 103.845 o
109.361 94.7087 o
67.7216 90.656 o
72.568 89.8335 o
112.833 98.7314 o
101.798 96.6845 o
98.6249 101.284 o
105.827 96.0416 o
110.541 98.5192 o
99.6289 93.5869 o
79.4036 110.353 o
66.8321 84.8515 o
90.6324 76.6642 o
63.4602 119.187 o
60.9933 83.8661 o
105.787 98.5016 o
101.757 105.156 o
106.572 102.446 o
79.3652 96.3415 o
110.599 103.491 o
56.276 83.8073 o
61.2924 82.4376 o
91.6159 80.6803 o
118.313 98.4313 o
66.4499 100.945 o
101.458 105.202 o
112.276 99.9707 o
83.9369 101.374 o
92.814 99.226 o
103.96 94.0155 o
101.075 93.9965 o
94.9071 94.7651 o
56.8069 76.12 o
65.5803 70.2788 o
57.666 98.7251 o
91.8546 102.815 o
117.214 102.086 o
107.714 93.2193 o
69.9008 84.4951 o
82.615 85.0616 o
54.3833 58.9748 o
68.7966 78.91 o
156.785 104.67 o
73.8387 108.545 o
83.3254 83.9928 o
88.1198 90.1888 o
113.407 101.021 o
101.315 90.5515 o
86.5822 112.207 o
83.4125 107.144 o
91.7329 94.7434 o
89.3647 93.9856 o
78.4853 91.9118 o
100.233 102.095 o
116.926 96.311 o
112.248 96.5166 o
71.2415 98.2217 o
108.523 100.081 o
93.9642 98.107 o
109.535 97.3154 o
100.427 102.842 o
117.651 99.7217 o
88.6208 88.8711 o
137.653 101.781 o
117.265 95.6855 o
158.437 103.349 o
102.267 92.6999 o
110.267 98.9944 o
136.647 99.1164 o
114.549 103.448 o
95.413 124.099 o
112.184 96.7622 o
134.612 95.6604 o
108.93 95.553 o
102.298 105.537 o
75.8027 96.3291 o
110.65 99.6288 o
92.1978 98.5679 o
124.249 94.1986 o
150.193 105.634 o
120.978 94.5243 o
106.755 91.2342 o
97.3009 103.425 o
105.394 89.7183 o
121.404 95.1586 o
82.0353 98.4638 o
108.495 101.218 o
100.501 69.7675 o
66.481 57.3154 o
71.7563 128.63 o
94.9865 105.712 o
146.847 86.7025 o
81.6609 109.146 o
73.7877 100.962 o
151.076 96.8065 o
130.145 110.95 o
83.5448 109.184 o
83.7487 105.741 o
83.2845 104.542 o
118.978 93.4275 o
149.414 102.585 o
71.6694 79.4669 o
98.0344 86.7335 o
66.4632 84.646 o
87.9267 92.0312 o
73.3244 92.4599 o
56.0797 82.5857 o
156.721 82.6996 o
108.597 89.9686 o
63.1923 117.167 o
93.4033 91.9842 o
97.5636 86.0626 o
104.599 84.8421 o
113.078 109.673 o
106.665 95.4969 o
63.226 54.374 o
82.5712 99.5007 o
107.188 99.5257 o
99.73 94.7979 o
71.8203 122.033 o
86.0887 111.615 o
110.781 102.416 o
118.718 89.5314 o
56.4392 77.0914 o
130.951 99.2705 o
107.039 102.196 o
178.473 92.0712 o
65.2621 78.3993 o
106.064 105.226 o
116.589 100.861 o
101.516 102.887 o
74.0033 83.9364 o
108.35 107.887 o
131.181 94.5584 o
67.6607 103.46 o
91.295 107.704 o
106.421 99.2028 o
60.1239 63.7971 o
98.5776 103.168 o
155.562 109.646 o
110.737 95.0893 o
109.601 98.0234 o
49.8248 66.031 o
96.3197 93.4144 o
66.4736 53.2665 o
100.836 94.4659 o
107.3 109.273 o
63.251 86.4602 o
68.6763 83.1591 o
82.8942 115.698 o
124.554 98.0467 o
138.227 113.196 o
115.525 94.3236 o
111.574 100.762 o
80.3078 108.501 o
123.994 100.817 o
120.323 93.2645 o
121.994 100.086 o
90.3096 123.17 o
114.028 110.927 o
74.0607 104.517 o
121.601 103.252 o
86.9055 86.456 o
118.873 89.5875 o
97.1177 83.2234 o
111.812 95.1861 o
93.636 95.122 o
84.9723 93.8548 o
64.5827 73.3837 o
86.3563 127.117 o
67.0396 132.893 o
111.152 94.3407 o
101.698 104.772 o
135.002 99.0167 o
54.1982 91.0799 o
97.2298 113.575 o
82.6782 98.4039 o
107.521 103.963 o
78.5851 79.9191 o
126.128 78.1092 o
108.596 97.7226 o
68.0757 89.3155 o
61.716 91.5006 o
76.8947 100.263 o
106.765 88.4151 o
113.718 100.871 o
59.1119 90.3741 o
91.2899 73.133 o
94.7022 78.842 o
107.911 100.821 o
145.048 113.601 o
99.6814 88.5122 o
90.7623 96.3929 o
103.142 101.581 o
106.724 103.64 o
95.3492 114.037 o
74.5311 124.89 o
114.319 92.9851 o
131.507 95.929 o
122.273 98.0208 o
70.7072 107.91 o
88.9841 104.089 o
157.508 93.1968 o
129.589 115.672 o
103.3 98.62 o
94.6007 111.453 o
123.169 101.879 o
106.64 91.2742 o
128.777 106.264 o
109.198 98.4616 o
100.052 104.938 o
109.345 115.059 o
58.1291 72.7181 o
109.332 97.7721 o
76.0538 68.712 o
166.407 86.1385 o
52.2104 80.2762 o
174.892 96.1093 o
178.959 98.5038 o
65.7243 107.092 o
87.2102 89.6496 o
94.2392 91.3674 o
116.721 99.893 o
70.2856 62.2257 o
116.285 80.9307 o
102.299 90.9122 o
84.9382 112.901 o
114.618 100.026 o
97.8098 101.835 o
78.6142 96.2756 o
119.553 95.9126 o
107.213 91.8676 o
124.371 99.221 o
125.781 96.433 o
75.5944 70.3766 o
107.711 96.6726 o
119.795 101.852 o
114.172 103.267 o
146.962 105.243 o
114.289 88.9656 o
118.375 109.927 o
105.164 89.8201 o
85.2786 68.5726 o
113.703 99.3046 o
105.373 105.446 o
167.131 95.3814 o
152.277 104.247 o
69.8493 77.658 o
103.911 82.8999 o
107.402 94.9444 o
104.594 97.5234 o
110.141 97.8992 o
97.1867 75.7032 o
73.8045 124.383 o
121.436 97.0077 o
99.6246 98.0215 o
89.4971 101.756 o
117.921 98.5753 o
113.667 105.509 o
93.3925 102.726 o
64.0199 88.8025 o
91.1301 114.976 o
132.278 88.4294 o
140.963 89.2533 o
66.5173 73.5162 o
99.1277 105.463 o
96.8512 103.55 o
108.452 103.526 o
62.6331 60.1821 o
79.3275 107.079 o
109.044 87.0367 o
122.834 97.087 o
59.6925 67.0657 o
60.176 78.8224 o
98.1647 99.5273 o
85.4536 108.501 o
86.795 101.554 o
107.588 92.1029 o
56.157 68.8939 o
95.187 98.1671 o
105.534 107.47 o
120.106 100.352 o
163.888 94.0541 o
143.787 98.5495 o
58.0176 86.7357 o
116.976 103.22 o
127.904 105.935 o
76.4428 78.3699 o
82.0241 79.2843 o
134.16 100.778 o
125.779 83.1285 o
113.119 91.8646 o
116.645 84.95 o
64.9679 84.859 o
113.285 101.66 o
106.87 101.164 o
64.6603 67.3397 o
125.539 98.5205 o
120.875 99.8746 o
58.333 89.6878 o
117.407 97.74 o
151.308 84.4402 o
76.6508 98.9657 o
145.42 106.396 o
117.458 97.7217 o
55.1738 55.0489 o
105.738 103.682 o
140.853 103.497 o
100.735 101.959 o
112.242 100.75 o
154.811 96.1493 o
87.12 89.1348 o
57.7397 98.8883 o
115.236 93.0116 o
77.8687 85.7124 o
102.488 96.8054 o
93.6753 78.1851 o
121.054 90.0025 o
89.8309 94.946 o
87.806 86.4334 o
84.0622 92.402 o
124.669 93.6538 o
150.265 96.1822 o
171.926 95.757 o
105.767 96.7251 o
82.1709 97.7623 o
155.665 95.8222 o
63.3316 135.368 o
173.319 110.343 o
60.014 86.5325 o
112.064 92.9422 o
64.8157 76.4755 o
83.3182 105.506 o
89.9116 85.8414 o
58.645 103.459 o
95.8835 114.149 o
151.361 97.8573 o
71.2001 92.9469 o
63.0488 55.9152 o
61.7095 140.095 o
100.687 72.1731 o
110.585 91.6766 o
109.032 105.412 o
70.3813 103.492 o
59.8241 70.9767 o
96.4191 93.7398 o
119.313 103.767 o
129.377 82.7746 o
74.9357 94.4536 o
60.7416 68.6695 o
142.899 97.0365 o
168.155 91.5682 o
106.465 98.2672 o
92.9936 107.107 o
128.949 77.9448 o
117.798 95.4296 o
168.068 96.4395 o
69.1355 118.5 o
131.652 97.5861 o
106.92 103.029 o
111.97 89.5241 o
112.959 96.305 o
107.036 68.9008 o
59.0324 75.514 o
71.3863 68.0661 o
125.381 95.1439 o
126.72 94.5797 o
81.4207 72.7686 o
81.2178 96.0122 o
120.545 94.1045 o
74.6496 116.567 o
106.733 99.5205 o
110.37 89.7049 o
114.36 95.1523 o
150.461 90.7281 o
64.251 82.8044 o
68.4056 85.2982 o
94.3675 116.741 o
128.235 106.173 o
85.1863 116.125 o
149.814 105.242 o
72.2654 82.4442 o
102.097 97.1708 o
94.425 86.8221 o
191.09 101.078 o
87.6148 128.832 o
67.1041 57.433 o
111.997 106.176 o
136.352 95.1202 o
57.391 101.003 o
109.624 92.8318 o
91.4638 76.4017 o
74.0155 73.6397 o
85.3486 75.6344 o
100.912 87.819 o
193.638 104.503 o
63.0515 114.628 o
126.885 101.557 o
120.104 93.9352 o
99.2091 98.2767 o
80.6892 73.6391 o
59.7402 137.67 o
140.435 106.832 o
118.191 85.8167 o
69.6076 80.5336 o
96.0345 104.335 o
165.541 88.5608 o
87.4887 81.1152 o
104.919 93.7941 o
73.9289 104.345 o
132.774 97.4438 o
147.124 105.802 o
96.7144 91.7695 o
62.3896 117.088 o
155.944 91.649 o
105.734 96.102 o
82.0365 97.4865 o
108.651 108.706 o
147.967 103.627 o
102.038 117.857 o
71.7009 139.546 o
98.6002 99.3681 o
78.7254 107.058 o
60.9805 78.3833 o
87.7335 107.294 o
111.774 93.0183 o
77.6066 107.555 o
69.1283 105.259 o
171.473 90.7309 o
101.324 120.992 o
112.708 109.587 o
154.049 105.359 o
98.7058 110.194 o
62.0621 91.1346 o
80.6753 129.702 o
88.5638 98.3941 o
63.2078 58.7072 o
154.907 92.5246 o
71.9414 114.913 o
71.9512 89.5255 o
121.659 81.4014 o
63.0074 56.9568 o
129.11 102.2 o
72.9377 80.2369 o
146.555 97.4951 o
88.5981 110.193 o
140.098 85.2025 o
92.405 65.6139 o
78.6973 106.36 o
68.7236 80.9653 o
82.7992 97.5088 o
113.387 101.78 o
63.154 134.488 o
112.341 94.4758 o
170.422 113.489 o
94.5351 87.0863 o
181.482 100.226 o
139.341 114.151 o
103.777 108.845 o
54.7365 53.34 o
123.458 86.2812 o
97.8657 84.5793 o
108.4 109.145 o
116.814 109.097 o
75.8928 67.4759 o
72.3764 125.537 o
75.1245 106.082 o
100.284 103.257 o
136.423 98.5396 o
153.249 95.6775 o
63.3518 106.566 o
103.682 82.5808 o
96.7851 76.4633 o
176.32 107.007 o
81.9622 91.0472 o
82.9653 84.6866 o
103.206 115.667 o
105.622 102.399 o
116.584 96.7203 o
61.8432 124.247 o
69.7473 123.871 o
149.954 98.0124 o
106.8 90.8519 o
114.743 109.835 o
79.5396 114.793 o
146.979 104.304 o
131.866 76.3789 o
154.344 89.5021 o
98.7666 85.029 o
96.9882 110.606 o
148.595 91.3333 o
59.7387 79.1558 o
51.7058 86.7028 o
109.185 93.2016 o
73.4578 113 o
103.589 98.3358 o
107.561 103.076 o
102.562 81.1968 o
139.881 102.101 o
85.1153 108.031 o
81.2881 94.4935 o
64.9264 62.2554 o
114.655 102.757 o
72.7477 105.127 o
115.302 76.7334 o
158.994 94.2081 o
64.7875 86.0453 o
148.38 105.739 o
69.2606 121.649 o
112.029 68.1935 o
92.6872 95.5835 o
81.7192 92.8834 o
166.126 91.1624 o
105.241 84.083 o
80.047 64.9347 o
104.601 98.4934 o
169.003 96.6592 o
63.6937 76.8818 o
106.046 99.8814 o
174.138 94.315 o
76.8818 92.4419 o
98.8587 92.9901 o
56.885 109.391 o
117.965 108.678 o
114.031 98.8874 o
69.5626 65.7312 o
124.185 103.221 o
147.442 87.7108 o
154.327 101.147 o
103.878 108.604 o
56.8782 74.9036 o
158.473 89.9088 o
65.1893 75.167 o
73.5345 71.053 o
118.514 96.2831 o
76.0946 97.9243 o
68.4204 90.6291 o
112.794 132.373 o
97.9813 83.9104 o
151.775 95.7891 o
58.8386 56.9582 o
144.89 82.7162 o
73.6025 74.7 o
69.0578 105.586 o
113.707 91.8218 o
109.196 90.3677 o
114.286 99.3832 o
75.5619 80.0678 o
85.7336 106.199 o
98.681 100.435 o
120.686 96.4941 o
150.133 99.9979 o
92.4983 93.8036 o
51.6524 60.8787 o
166.976 102.232 o
78.4652 96.4475 o
95.9317 112.735 o
112.258 113.946 o
92.3393 91.2307 o
164.757 91.7031 o
106.05 102.475 o
84.3441 97.4497 o
95.2844 102.04 o
148.516 90.3414 o
167.604 87.8337 o
57.8167 119.043 o
101.263 98.7065 o
125.417 95.8863 o
84.8491 79.0196 o
76.1182 119.224 o
181.288 97.2443 o
99.9476 109.327 o
78.2445 79.5739 o
127.634 93.1133 o
79.6207 102.11 o
109.636 76.3 o
63.3221 71.4446 o
154.792 96.7347 o
175.93 94.0748 o
63.9982 85.8401 o
70.6563 131.007 o
140.66 77.3423 o
94.3157 92.243 o
63.8106 113.094 o
113.94 95.3041 o
90.6321 82.5919 o
78.8303 91.9362 o
80.7405 78.3742 o
175.581 97.7191 o
154.457 102 o
98.9453 88.7483 o
78.6487 86.4817 o
155.178 95.8247 o
166.26 104.07 o
125.05 73.5945 o
166.258 101.667 o
95.0322 93.1337 o
104.387 109.486 o
176.759 97.4907 o
104.564 88.8246 o
130.673 107.626 o
166.785 87.2126 o
76.2797 77.2837 o
106.133 90.1772 o
84.0106 120.418 o
170.963 93.1358 o
169.511 98.8545 o
121.205 102.556 o
170.037 94.3823 o
58.3026 103.077 o
75.7938 66.0387 o
99.5588 114.124 o
100.256 132.274 o
73.3337 108.229 o
108.03 105.198 o
138.291 82.9092 o
157.644 95.7438 o
107.672 108.808 o
76.0534 68.3013 o
67.7961 82.5786 o
154.596 81.0974 o
106.246 98.8512 o
72.9885 71.1298 o
98.1004 104.952 o
106.813 100.76 o
138.029 107.341 o
102.587 111.118 o
114.829 93.4004 o
55.0499 81.3796 o
165.102 96.2905 o
95.0479 90.5348 o
109.024 111.456 o
97.8563 83.2344 o
78.8762 137.023 o
168.513 89.924 o
104.071 106.7 o
84.971 111.15 o
76.4816 59.8326 o
89.7305 100.12 o
58.7832 87.0965 o
62.7946 60.3643 o
137.987 81.3389 o
65.6785 114.556 o
93.6842 108.585 o
113.64 92.6565 o
52.5173 61.71 o
91.4031 97.3204 o
168.317 108.178 o
108.654 117.707 o
128.826 88.9182 o
122.999 109.56 o
160.497 95.5168 o
122.955 96.4819 o
57.9941 93.5197 o
71.9762 114.273 o
166.885 88.8069 o
191.692 105.659 o
68.6668 75.3684 o
145.145 104.927 o
156.201 96.6967 o
83.1578 71.8813 o
98.2723 98.2753 o
69.2227 97.1898 o
180.182 94.8384 o
66.7308 65.7676 o
120.636 90.2872 o
129.3 106.321 o
106.256 110.518 o
115.753 102.2 o
159.602 83.4044 o
105.715 69.2197 o
148.357 105.949 o
120.385 105.083 o
102.877 78.3998 o
60.6767 99.5295 o
118.772 98.6564 o
187.229 101.077 o
107.235 83.3584 o
108.404 85.6987 o
101.768 97.174 o
93.752 77.3471 o
98.5988 108.154 o
89.3181 116.893 o
58.2386 126.119 o
60.4673 102.566 o
84.9247 115.553 o
82.9623 86.6591 o
56.9053 136.084 o
148 95.0051 o
100.751 102.937 o
173.202 98.4193 o
129.226 99.3489 o
58.4919 134.196 o
111.515 97.0084 o
148.316 108.27 o
120.898 99.1977 o
74.0135 120.784 o
106.506 86.6287 o
81.4311 89.2986 o
73.9096 120.035 o
135.459 104.244 o
85.5609 114.953 o
107.357 84.1056 o
59.9029 115.979 o
132.971 88.8935 o
115.173 105.933 o
59.9074 81.7972 o
177.997 90.0496 o
95.0551 86.8338 o
175.246 97.7711 o
115.454 101.06 o
128.639 94.7103 o
60.8973 130.674 o
114.753 99.3274 o
182.307 98.0575 o
119.473 100.792 o
67.2985 86.181 o
149.716 105.12 o
178.577 96.1517 o
91.0453 96.279 o
170.678 99.5163 o
82.0246 120.24 o
81.0894 120.715 o
100.879 102.589 o
67.2329 119.387 o
81.4197 107.457 o
65.3182 78.3865 o
91.326 96.9853 o
141.817 99.333 o
167.623 89.2497 o
66.3528 81.7153 o
118.211 101.148 o
66.9671 115.272 o
95.8738 118.841 o
110.508 84.296 o
101.91 78.3945 o
79.8227 75.6695 o
117.28 116.569 o
88.1755 121.605 o
75.553 103.426 o
139.012 100.872 o
146.269 80.7148 o
84.6739 101.62 o
149.714 108.385 o
62.2907 83.4001 o
84.4081 83.8793 o
140.739 103.033 o
82.2318 74.2803 o
104.685 117.616 o
120.331 98.6535 o
54.7552 110.476 o
103.795 83.2839 o
78.9056 107.49 o
165.702 95.0851 o
103.714 86.2447 o
84.6319 105.962 o
65.4766 76.2651 o
116.401 89.1391 o
115.974 95.6849 o
154.836 103.972 o
67.3926 84.5991 o
156.643 96.4454 o
129.083 97.738 o
98.5879 108.626 o
137.222 75.6216 o
102.959 81.4432 o
159.177 87.8513 o
115.718 98.1208 o
61.6534 142.415 o
146.883 96.9786 o
69.3152 108.779 o
147.117 94.3464 o
92.0816 118.226 o
107.718 69.1422 o
61.1106 56.6602 o
164.785 88.1776 o
155.869 99.4738 o
142.061 107.778 o
124.183 96.3945 o
112.248 98.1603 o
58.4065 56.0016 o
139.686 91.4852 o
87.717 93.8648 o
105.853 100.434 o
134.178 99.9944 o
176.473 90.9163 o
166.051 95.3519 o
59.1197 91.6974 o
78.5899 66.13 o
127.192 104.412 o
152.023 99.8969 o
166.567 92.0691 o
102.996 91.8647 o
143.652 100.994 o
152.66 94.0994 o
81.7875 92.5598 o
93.8542 109.055 o
62.8326 73.2625 o
74.8289 92.3715 o
83.2193 99.5568 o
94.5198 96.0479 o
89.5476 74.715 o
131.884 96.7633 o
162.644 97.5975 o
114.259 112.71 o
76.3248 95.722 o
115.779 106.193 o
54.5352 85.946 o
112.792 80.7115 o
83.2568 91.0839 o
60.8728 71.829 o
90.5994 100.05 o
114.147 83.7671 o
114.727 97.148 o
111.876 94.7113 o
60.9098 132.375 o
106.545 86.2485 o
64.0062 94.0677 o
173.922 98.963 o
106.499 89.7459 o
62.1041 84.8789 o
149.168 83.6247 o
177.419 97.9333 o
176.93 94.7225 o
132.883 97.8478 o
76.8109 76.4378 o
100.901 101.15 o
117.303 106.857 o
118.034 80.6583 o
99.7892 101.465 o
87.212 77.0772 o
75.5354 103.367 o
152.459 102.039 o
63.6706 133.432 o
181.576 97.7427 o
111.742 96.8434 o
69.2242 97.9853 o
65.7981 70.7352 o
83.9029 123.347 o
155.031 109.106 o
102.609 103.077 o
173.573 92.3757 o
71.0377 114.388 o
96.4417 105.487 o
94.7331 117.281 o
179.132 92.0857 o
60.9973 95.4193 o
121.208 108.559 o
66.4751 63.8742 o
116.986 93.0138 o
152.996 91.9068 o
79.5519 125.071 o
71.6802 92.4873 o
79.6699 98.4028 o
107.739 103.638 o
182.355 109.428 o
95.3492 94.189 o
72.7123 134.166 o
57.1551 146.413 o
81.3038 82.6474 o
88.1905 68.7076 o
140.913 87.408 o
194.269 99.3638 o
107.957 87.4718 o
148.252 104.626 o
100.267 99.0263 o
102.495 116.886 o
158.039 86.3257 o
73.7872 57.5991 o
114.952 106.69 o
72.4824 95.7432 o
108.308 100.083 o
128.813 113.348 o
142.372 111.717 o
143.293 94.5592 o
94.194 65.2413 o
73.5896 83.6137 o
116.983 106.907 o
91.3081 75.6826 o
157.46 85.3206 o
94.8822 103.777 o
102.096 85.3876 o
114.072 101.651 o
119.422 109.208 o
64.4133 135.184 o
111.77 79.6349 o
157.208 103.594 o
92.5073 119.614 o
111.484 101.04 o
109.629 83.7701 o
69.5025 72.6173 o
128.75 115.855 o
141.553 105.4 o
122.193 123.119 o
70.6983 78.0492 o
107.584 80.2736 o
177.028 90.6031 o
59.2574 95.5354 o
82.3394 118.396 o
94.5829 116.601 o
102.729 90.2991 o
88.6793 116.435 o
82.364 116.775 o
130.93 103.376 o
92.9157 76.5256 o
109.817 111.183 o
103.342 86.3121 o
144.805 100.387 o
138.831 97.463 o
88.4203 116.889 o
98.7944 85.585 o
86.5952 128.487 o
111.963 90.9793 o
122.187 94.3614 o
65.7484 70.1287 o
116.927 72.3208 o
109.423 115.001 o
57.0464 128.842 o
112.467 75.1057 o
110.976 93.3048 o
64.3564 146.214 o
76.1082 127.081 o
98.8346 91.2777 o
88.6909 114.711 o
165.798 109.64 o
145.241 99.853 o
85.5882 103.928 o
155.823 88.6926 o
81.9576 86.4453 o
157.811 97.4029 o
139.038 101.68 o
91.2652 86.0337 o
131.695 80.1158 o
141.337 87.4214 o
110.396 98.5603 o
144.758 84.1635 o
62.8327 107.512 o
136.88 74.7765 o
89.8722 95.0404 o
137.1 89.6017 o
112.608 92.9498 o
76.4828 81.8712 o
58.0695 78.0553 o
71.7096 84.7834 o
112.733 102.212 o
124.781 75.2495 o
75.3216 87.1841 o
121.791 113.023 o
101.202 105.06 o
66.9863 131.169 o
145.239 91.2104 o
57.9548 87.186 o
84.6961 91.8912 o
67.1689 66.8477 o
122.251 115.347 o
74.4085 111.076 o
59.5601 90.7491 o
177.017 91.1719 o
161.631 86.769 o
97.9982 67.8248 o
140.975 89.6421 o
102.553 83.1915 o
143.161 99.4377 o
96.8594 85.2897 o
86.6461 118.777 o
130.761 95.2685 o
84.6612 119.987 o
85.1993 107.603 o
89.9766 77.9943 o
167.411 106.361 o
67.2639 115.304 o
72.069 94.7439 o
183.117 96.9575 o
181.955 108.888 o
166.316 88.1721 o
111.469 113.377 o
95.5326 99.8853 o
90.3805 116.383 o
144.918 90.6279 o
157.442 105.633 o
60.5028 136.244 o
59.6449 101.034 o
122.174 93.9567 o
118.464 100.471 o
96.6544 118.157 o
86.1915 91.6389 o
105.686 113.945 o
79.1693 73.7486 o
126.355 99.0471 o
158.459 92.965 o
105.354 112.399 o
109.082 99.3709 o
63.5247 112.67 o
82.0423 132.534 o
119.045 102.212 o
129.108 103.82 o
107.122 104.729 o
59.0988 79.5588 o
111.157 77.0048 o
106.832 85.5613 o
67.909 92.7045 o
183 94.1562 o
104.56 89.3302 o
145.601 77.6981 o
71.1604 97.9705 o
135.634 112.336 o
125.094 91.3277 o
84.8465 80.9591 o
173.344 95.1732 o
150.182 82.759 o
106.043 116.4 o
167.929 102.654 o
61.406 134.951 o
66.9159 119.256 o
147.877 95.3162 o
116.886 101.559 o
114.134 95.9255 o
89.4993 95.1645 o
117.786 91.7692 o
101.652 93.4359 o
144.123 106.71 o
194.531 97.7775 o
157.388 97.5869 o
108.942 118.371 o
63.7469 104.764 o
107.045 116.675 o
99.5865 87.9637 o
106.776 97.8196 o
103.746 132.457 o
103.755 96.6015 o
71.5146 125.143 o
95.7111 118.765 o
105.105 102.079 o
149.382 102.467 o
91.7073 117.471 o
96.9706 98.4288 o
117.611 96.0251 o
121.362 92.3199 o
120.298 100.659 o
72.2746 97.2542 o
109.209 103.801 o
109.444 73.5333 o
156.323 95.0261 o
67.0491 70.9697 o
91.6086 105.655 o
106.598 113.189 o
118.346 101.633 o
140.808 90.5852 o
99.2194 87.6304 o
112.824 108.036 o
116.589 88.6536 o
75.9347 95.1744 o
120.438 79.7731 o
90.1365 95.4092 o
80.1513 82.0152 o
120.003 73.2738 o
104.703 115.385 o
116.644 109.419 o
88.6061 103.094 o
174.261 97.9244 o
111.932 97.7262 o
99.1363 95.2453 o
92.0665 95.4536 o
120.243 92.2648 o
108.375 103.659 o
159.379 107.63 o
162.436 85.6932 o
138.861 95.4072 o
125.692 103.671 o
105.209 129.514 o
113.335 93.4216 o
118.411 81.8887 o
127.961 86.8245 o
127.59 96.9763 o
115.388 114.196 o
121.385 80.0812 o
93.6049 114.935 o
73.553 82.1824 o
100.34 134.801 o
137.437 100.303 o
159.788 109.967 o
127.901 78.4581 o
130.11 86.7674 o
53.5194 85.6191 o
52.2508 118.481 o
125.736 100.615 o
112.852 104.129 o
107.275 82.0194 o
107.305 91.9683 o
104.66 117.359 o
49.7281 58.7694 o
86.9403 128.454 o
148.931 93.7383 o
91.0088 109.692 o
167.304 98.1017 o
123.043 99.2069 o
137.267 91.6241 o
129.903 112.24 o
107.829 107.462 o
157.362 97.7232 o
130.648 96.0182 o
88.2273 93.618 o
93.5775 113.063 o
91.0345 97.0521 o
117.503 93.605 o
95.0536 87.1401 o
71.4714 75.5033 o
133.352 95.1829 o
91.3902 89.8691 o
158.572 95.1604 o
151.688 86.2187 o
118.519 99.2081 o
157.923 86.1566 o
65.5481 83.6823 o
107.591 97.0987 o
140.981 75.0951 o
202.368 90.112 o
88.7467 135.786 o
123.589 93.0755 o
91.5748 101.577 o
64.443 58.5491 o
84.3124 79.9018 o
99.8869 118.8 o
83.7619 124.05 o
107.486 103.868 o
115.164 96.1222 o
129.42 99.1689 o
108.014 94.3433 o
148.682 98.2875 o
173.308 92.3842 o
116.657 106.988 o
112.753 70.6519 o
145.318 104.469 o
145.923 107.981 o
59.526 116.996 o
101.44 81.7145 o
102.217 124.124 o
143.951 81.9666 o
122.166 94.3748 o
99.4236 99.4977 o
179.722 99.0483 o
167.657 87.8693 o
173.474 101.007 o
147.907 99.7162 o
141.44 109.454 o
103.755 93.6504 o
125.895 79.2165 o
118.077 112.457 o
156.163 84.827 o
174.188 98.2165 o
146.141 108.788 o
124.051 111.888 o
51.3771 105.982 o
124.947 108.546 o
83.3781 73.8884 o
93.9276 118.301 o
95.5527 75.8615 o
116.626 98.4962 o
167.624 97.2553 o
125.119 93.5114 o
66.8825 122.697 o
76.4202 131.389 o
125.269 97.2922 o
173.344 92.0911 o
162.614 104.751 o
141.544 84.3626 o
176.579 104.706 o
120.163 92.2452 o
133.088 99.789 o
106.356 77.3874 o
98.1568 119.626 o
110.113 101.457 o
130.856 115.424 o
88.8722 101.396 o
88.286 124.39 o
119.499 98.0316 o
116.289 99.0671 o
88.6742 78.6912 o
129.229 97.6949 o
72.5296 91.9914 o
98.757 103.508 o
70.762 95.8364 o
132.284 88.8065 o
144.139 104.327 o
82.0035 89.7686 o
148.711 105.191 o
65.4776 102.123 o
148.826 110.756 o
116.794 105.301 o
95.8015 67.5884 o
94.4307 120.079 o
98.9553 106.379 o
167.829 91.9631 o
153.907 94.9068 o
79.6511 119.792 o
103.306 107.129 o
124.934 106.186 o
104.355 97.3147 o
112.383 103.84 o
157.926 91.4816 o
83.714 80.941 o
167.499 105.256 o
158.022 97.1527 o
120.978 88.6201 o
169.971 93.9254 o
57.7894 46.7056 o
125.326 95.0541 o
99.296 113.629 o
113.729 123.204 o
120.851 80.3918 o
83.7708 85.1676 o
125.114 80.8835 o
74.5109 87.0107 o
154.529 92.4559 o
92.6332 100.918 o
119.107 103.82 o
139.007 95.6239 o
138.697 84.6205 o
153.277 100.852 o
160.929 100.908 o
77.5839 117.651 o
179.93 102.217 o
98.4802 90.9776 o
101.429 93.0711 o
119.65 100.638 o
147.694 93.9619 o
63.1793 70.7661 o
109.43 86.3743 o
104.831 71.7105 o
106.411 113.67 o
87.8081 61.6246 o
104.355 79.1653 o
118.095 112.411 o
86.3162 93.9227 o
91.2416 108.162 o
173.271 101.668 o
133.61 103.706 o
113.772 102.057 o
176.31 98.4249 o
78.2992 64.7395 o
172.297 89.7036 o
107.757 75.6629 o
151.313 95.321 o
115.58 103.807 o
102.823 96.9593 o
119.587 104.428 o
78.3571 86.5636 o
116.009 88.5607 o
101.279 120.662 o
172.68 91.9001 o
114.306 108.454 o
126.115 70.2428 o
106.864 106.79 o
147.002 97.59 o
77.2221 89.4705 o
149.423 101.171 o
157.452 102.517 o
121.893 94.4819 o
112.243 107.486 o
81.0851 113.902 o
116.9 102.244 o
108.082 110.24 o
177.754 91.1816 o
170.343 103.712 o
86.2476 103.344 o
116.172 107.737 o
84.9037 104.288 o
81.3365 97.1404 o
150.221 97.8397 o
107.608 107.252 o
108.355 115.144 o
126.803 99.7054 o
125.435 100.7 o
86.9753 98.2236 o
118.42 101.695 o
87.4558 124.537 o
83.1556 64.9714 o
120.525 96.6354 o
69.082 100.128 o
91.9165 96.6002 o
156.278 96.0064 o
181.057 96.3732 o
154.159 81.8635 o
108.706 90.4988 o
67.4112 79.4899 o
91.6763 94.7399 o
159.128 106.934 o
65.6457 84.7929 o
127.536 94.552 o
104.225 104.658 o
121.933 87.7857 o
173.801 102.885 o
59.414 63.5755 o
86.9124 74.5646 o
106.158 73.1475 o
75.0446 121.997 o
74.1987 115.929 o
101.36 103.845 o
119.843 108.27 o
172.922 100.724 o
80.2764 123.948 o
78.8523 89.7357 o
112.373 104.896 o
98.3425 120.128 o
176.414 90.6505 o
60.7508 128.097 o
110.563 88.346 o
99.7111 131.01 o
152.747 115.119 o
58.4148 122.484 o
115.947 91.134 o
100.827 124.968 o
172.21 105.026 o
137.102 86.0169 o
130.937 103.395 o
116.766 68.6258 o
122.866 97.922 o
73.4504 72.1345 o
121.274 85.5589 o
72.7698 93.6973 o
76.4185 136.657 o
83.9646 113.026 o
125.823 95.2888 o
68.9777 147.966 o
106.393 97.8744 o
122.902 89.4551 o
60.8719 99.022 o
125.502 84.8677 o
115.003 97.9296 o
172.091 92.0799 o
141.069 90.897 o
151.873 101.24 o
101.907 105.063 o
100.663 78.9901 o
118.832 105.016 o
89.8422 68.1352 o
117.752 90.9439 o
75.1544 113.682 o
116.23 105.662 o
126.623 71.5274 o
111.6 104.957 o
59.6096 80.5569 o
90.3065 89.7688 o
62.635 93.4012 o
115.524 87.2265 o
82.9241 82.8838 o
110.829 105.419 o
51.2765 66.976 o
145.712 81.2064 o
188.867 88.8687 o
128.813 93.1365 o
52.9966 64.4501 o
77.9788 125.331 o
91.0139 111.566 o
101.097 89.5826 o
117.988 109.451 o
113.036 94.4446 o
152.814 103.01 o
91.9446 82.0254 o
105.071 105.794 o
123.044 81.4942 o
101.143 82.7552 o
89.9835 113.293 o
111.203 94.8145 o
89.8051 70.7434 o
98.6383 120.309 o
82.8747 61.5668 o
156.139 102.355 o
115.137 85.0856 o
93.8421 101.959 o
94.6985 110.837 o
91.3833 108.366 o
140.701 103.189 o
148.855 94.5068 o
112.489 101.014 o
198.509 99.3469 o
115.811 105.858 o
78.5969 67.8626 o
143.896 81.6123 o
107.171 70.1715 o
119.467 105.315 o
87.3837 106.561 o
177.009 97.63 o
78.1869 99.3441 o
80.0746 100.571 o
116.56 77.3063 o
122.132 107.184 o
164.314 94.5561 o
135.4 86.2002 o
103.749 110.471 o
112.14 94.0949 o
98.2314 108.231 o
113.661 84.8847 o
63.9867 63.7745 o
88.1135 131.526 o
170.028 90.3497 o
167.106 90.9838 o
141.221 96.4737 o
112.179 82.7601 o
101.741 80.1298 o
147.702 100.278 o
105.293 103.256 o
145.28 106.626 o
82.52 102.713 o
126.001 122.091 o
105.241 109.279 o
56.4536 55.1288 o
131.855 92.2724 o
72.5228 76.1651 o
139.893 120.295 o
68.6088 83.1656 o
69.8507 88.0771 o
82.3795 108.237 o
119.042 85.6898 o
137.738 76.836 o
121.297 101.73 o
106.237 125.691 o
117.368 118.119 o
135.357 113.247 o
70.223 61.775 o
166.494 90.0114 o
129.824 101.778 o
108.741 122.798 o
115.933 107.545 o
148.719 90.7067 o
143.627 105.465 o
155.467 83.9553 o
70.8353 123.872 o
73.3065 80.1175 o
165.086 90.4731 o
120.769 85.4892 o
114.358 99.1158 o
170.091 94.2617 o
116.331 114.537 o
123.705 97.3799 o
73.1688 79.0001 o
82.6195 131.844 o
150.106 107.706 o
141.258 90.1144 o
134.294 90.6521 o
129.82 84.753 o
86.8906 112.147 o
54.2755 55.561 o
82.932 124.959 o
113.977 85.0308 o
110.397 93.134 o
123.061 95.2678 o
63.0958 109.506 o
115.24 102.679 o
122.067 111.386 o
115.124 95.4916 o
129.64 99.2715 o
103.832 73.0726 o
131.649 77.8437 o
120.5 132.877 o
139.133 85.0623 o
170.439 86.8926 o
124.678 93.9778 o
115.821 85.2887 o
116.791 109.034 o
118.623 101.643 o
103.816 94.2961 o
127.341 85.7796 o
121.928 87.399 o
175.414 94.6312 o
102.123 110.56 o
64.6849 116.085 o
99.1214 80.1699 o
103.434 76.7574 o
181.497 100.139 o
111.414 108.956 o
108.13 71.528 o
86.0488 70.8166 o
75.415 122.535 o
123.939 98.2995 o
110.049 67.4435 o
125.167 96.5841 o
104.263 96.2426 o
82.4058 102.62 o
180.057 91.9735 o
105.425 90.1569 o
122.01 103.181 o
124.848 76.3655 o
93.6098 73.245 o
160.594 87.3494 o
67.1976 125.585 o
97.0536 79.4554 o
68.4469 126.03 o
137.469 88.4015 o
69.6079 116.016 o
162.764 90.7205 o
149.772 88.6099 o
87.365 129.318 o
116.71 81.4404 o
143.881 99.3824 o
62.9586 131.716 o
105.643 111.408 o
83.9468 60.2415 o
116.336 90.7681 o
80.2475 100.404 o
97.0206 93.9277 o
60.863 117.81 o
168.356 89.4442 o
101.763 75.2671 o
166.73 101.712 o
124.754 117.681 o
121.687 108.803 o
101.209 84.7303 o
148.88 85.5852 o
179.682 96.4411 o
81.818 127.411 o
88.8398 103.614 o
88.5071 84.9491 o
81.0738 84.8895 o
70.6542 85.3566 o
111.037 107.872 o
109.933 109.72 o
80.5817 121.316 o
159.961 96.1735 o
64.1567 62.7928 o
71.6256 139.347 o
112.019 76.6947 o
59.1101 139.123 o
110.726 106.628 o
113.72 69.8643 o
158.917 94.3099 o
80.7412 77.3589 o
129.297 104.502 o
108.665 105.183 o
111.405 107.991 o
116.536 64.9036 o
110.469 101.631 o
84.5689 116.226 o
110.272 93.9315 o
168.564 93.4927 o
149.562 97.1818 o
126.324 81.6032 o
117.016 92.5684 o
163.096 110.451 o
80.9751 107.545 o
102.518 98.6328 o
84.4487 89.9903 o
118.716 85.2823 o
122.011 99.0064 o
122.606 105.634 o
106.167 85.8875 o
147.679 111.242 o
172.699 94.3372 o
82.5912 115.526 o
70.2854 74.6113 o
104.453 101.047 o
92.4744 121.561 o
95.986 109.515 o
91.1053 89.927 o
152.46 104.129 o
69.7229 94.8148 o
115.998 98.9296 o
80.281 98.3773 o
98.3807 110.557 o
125.388 78.8512 o
70.6318 70.634 o
140.882 87.4402 o
159.776 102.874 o
76.5968 124.84 o
86.7205 80.7676 o
142.753 96.6511 o
175.853 92.958 o
142.825 95.1255 o
62.3502 124.782 o
55.9181 68.9786 o
114.753 99.6658 o
69.3627 82.0442 o
129.9 106.964 o
96.4413 122.036 o
61.5926 118.421 o
67.9775 92.7621 o
163.053 107.7 o
69.5818 126.543 o
98.3232 91.5193 o
81.8503 85.4321 o
90.1661 123.279 o
122.92 103.437 o
107.936 89.3936 o
83.0905 78.1778 o
96.18 122.255 o
85.3871 75.2833 o
82.0967 104.38 o
67.9272 65.3327 o
80.8322 76.9371 o
98.6739 90.6456 o
128.441 97.5218 o
93.2732 96.5611 o
92.9275 115.882 o
115.069 116.525 o
121.496 107.445 o
125.896 87.3878 o
133.44 101.893 o
146.841 99.1464 o
116.52 98.1641 o
117.328 87.7791 o
80.7093 85.2464 o
86.531 97.8644 o
72.2156 120.108 o
60.487 45.3002 o
191.918 104.399 o
58.4156 83.7186 o
80.4923 73.521 o
124.865 96.3363 o
148.016 105.045 o
110.64 113.329 o
173.539 90.5298 o
177.788 92.2862 o
60.0317 142.808 o
112.51 90.9481 o
112.939 83.9909 o
116.066 106.879 o
89.6986 107.403 o
72.4606 66.8058 o
104.327 95.2983 o
109.815 115.329 o
104.233 98.5912 o
117.445 99.3095 o
86.9913 84.7454 o
68.0329 84.4705 o
168.65 90.5697 o
88.7573 104.911 o
104.563 85.8438 o
137.927 93.4438 o
114.954 92.9059 o
87.5085 103.009 o
189.988 95.0706 o
68.9013 73.9211 o
52.5316 62.487 o
196.352 87.1765 o
109.198 104.711 o
76.2021 124.177 o
101.119 92.1162 o
169.128 89.8907 o
111.067 88.2005 o
103.864 125.1 o
125.175 91.8216 o
110.586 79.8989 o
121.036 80.962 o
126.21 93.8432 o
103.904 94.9587 o
136.216 92.47 o
79.6112 84.3507 o
172.153 93.9147 o
121.64 105.781 o
156.816 75.5907 o
118.305 107.532 o
111.613 92.283 o
100.716 82.7739 o
55.4365 96.2503 o
117.788 114.855 o
149.913 113.438 o
141.38 97.2123 o
112.762 102.362 o
95.9623 123.115 o
125.865 92.508 o
113.268 93.2562 o
78.0656 116.928 o
160.845 93.9762 o
159.883 92.2661 o
104.287 108.562 o
71.8801 126.668 o
67.3731 82.0179 o
177.029 102.384 o
126.952 89.9645 o
102.528 107.989 o
144.651 111.891 o
153.038 90.7184 o
73.9001 137.445 o
85.2047 73.9041 o
74.3496 63.5799 o
113.81 78.106 o
166.994 94.709 o
75.8531 101.806 o
167.366 88.108 o
149.943 82.8625 o
66.0572 135.171 o
125.019 86.8356 o
130.365 88.2186 o
102.891 82.5703 o
118.207 92.5797 o
137.063 114.638 o
110.991 91.0127 o
55.91 60.2711 o
126.64 112.25 o
161.286 86.2896 o
75.6572 111.331 o
139.771 96.9436 o
90.3338 124.327 o
127.336 111.492 o
90.9329 108.598 o
145.788 92.6307 o
114.274 127.925 o
105.367 124.138 o
89.019 89.96 o
130.039 103.35 o
130.412 89.3319 o
65.5279 97.927 o
109.512 68.2867 o
76.5235 70.6768 o
101.55 95.0968 o
160.05 90.2435 o
68.6275 59.312 o
69.965 68.261 o
175.447 110.61 o
73.8494 103.319 o
54.7236 124.825 o
179.693 96.9437 o
107.365 112.44 o
67.8669 101.33 o
64.1723 103.465 o
170.692 97.5688 o
79.3102 88.1868 o
101.786 126.743 o
105.436 104.082 o
152.845 94.5395 o
84.5855 85.9338 o
139.001 82.8866 o
157.204 121.894 o
64.551 99.957 o
92.7087 88.0519 o
85.1045 90.6949 o
163.84 85.1297 o
89.8922 94.1179 o
115.84 129.261 o
166.464 94.426 o
84.2865 85.2236 o
128.373 106.423 o
97.3851 81.264 o
103.186 92.8735 o
61.0436 79.1382 o
133.391 91.0237 o
204.627 105.132 o
76.4954 129.886 o
135.183 103.305 o
107.137 102.547 o
88.1062 81.0553 o
114.262 109.343 o
89.1482 112.183 o
117.147 106.966 o
105.861 80.8533 o
111.084 108.681 o
71.0346 101.877 o
96.7088 111.882 o
84.4798 119.598 o
174.124 93.322 o
85.1951 92.4215 o
150.013 106.682 o
100.397 75.7671 o
80.9248 73.8311 o
126.098 111.283 o
98.0953 85.1999 o
65.7135 88.8474 o
111.675 101.983 o
108.283 116.29 o
149.885 90.3557 o
67.3727 60.3849 o
142.596 96.496 o
147.926 84.7082 o
116.013 114.604 o
64.4012 80.1635 o
117.174 112.414 o
104.125 118.672 o
76.7198 61.4661 o
63.4848 91.8402 o
74.9397 116.967 o
97.5881 119.586 o
155.671 92.7468 o
192.188 103.151 o
218.384 94.3916 o
111.755 97.0413 o
106.16 122.77 o
66.2306 96.9585 o
106.711 91.8604 o
88.324 107.315 o
86.2984 77.9605 o
77.2688 83.5522 o
148.765 115.611 o
155.805 96.6005 o
71.4007 101.408 o
69.0364 69.8566 o
156.41 96.0114 o
95.6267 109.433 o
126.604 92.6843 o
121.363 97.9928 o
170.258 106.401 o
83.262 116.077 o
101.322 104.143 o
97.3387 116.263 o
134.76 96.9611 o
131.427 88.863 o
83.1993 106.181 o
111.479 104.534 o
117.922 97.0773 o
65.6669 108.143 o
132.881 87.4187 o
63.9612 98.2756 o
62.4717 109.373 o
87.5856 103.859 o
117.807 97.16 o
159.235 85.9312 o
149.364 67.2038 o
79.0013 80.9792 o
77.6116 132.415 o
90.3479 83.7138 o
129.929 74.4098 o
101.337 104.826 o
105.339 81.758 o
118.921 80.2471 o
127.176 97.5266 o
144.491 89.7899 o
145.424 117.101 o
114.974 116.211 o
123.358 95.4135 o
81.0127 64.6113 o
74.7906 92.0153 o
142.343 83.3319 o
111.915 95.7967 o
152.494 91.667 o
87.1322 132.479 o
168.355 87.7616 o
97.0249 87.8378 o
188.551 107.221 o
70.0845 120.521 o
70.0144 103.152 o
93.3928 114.488 o
110.062 115.106 o
85.9728 118.932 o
102.09 86.5892 o
126.714 95.538 o
95.5753 110.403 o
95.5069 106.749 o
94.5353 96.8616 o
83.3358 135.177 o
66.5375 60.7627 o
182.032 96.182 o
61.2753 72.1576 o
160.734 86.8751 o
76.6428 131.185 o
94.138 117.091 o
129.195 104.018 o
71.6516 114.758 o
105.106 85.5694 o
122.939 89.9199 o
186.523 108.676 o
169.477 114.4 o
117.538 71.3214 o
110.534 103.298 o
84.2324 68.7934 o
128.94 84.2999 o
61.8714 99.4262 o
63.5787 110.925 o
118.377 77.7688 o
118.748 92.9534 o
99.6499 98.0616 o
117.12 85.2172 o
89.6775 90.4851 o
144.552 98.7901 o
71.2736 66.8619 o
63.0041 123.482 o
98.6131 127.797 o
76.3686 90.2773 o
197.128 88.6381 o
121.65 105.858 o
60.9066 83.7009 o
89.0297 60.816 o
112.267 94.7915 o
133.405 89.3984 o
90.4328 92.83 o
100.031 95.9267 o
112.201 100.382 o
80.1102 76.4984 o
71.3329 123.587 o
107.885 72.5566 o
189.486 99.672 o
133.07 98.4263 o
127.867 111.815 o
109.04 105.817 o
74.9489 76.3184 o
118.549 94.7205 o
112.876 87.1026 o
175.076 101.422 o
102.476 75.0036 o
75.754 62.1374 o
173.622 95.8805 o
132.478 93.7638 o
111.951 77.1493 o
116.125 94.3153 o
142.141 111.486 o
129.223 73.014 o
104.624 104.451 o
186.557 102.375 o
102.17 112.276 o
147.658 101.871 o
76.7532 126.257 o
89.6448 71.6353 o
75.8366 123.551 o
119.216 104.041 o
86.6679 91.6947 o
79.379 81.9 o
139.86 90.6494 o
109.863 111.316 o
61.5162 123.038 o
95.3865 104.594 o
210.135 86.5271 o
86.835 124.005 o
92.7388 97.6823 o
76.3893 103.804 o
81.9856 100.394 o
74.3221 126.433 o
155.468 93.89 o
102.363 108.16 o
112.069 73.5258 o
135.641 102.617 o
93.8668 127.273 o
115.714 95.4715 o
118.816 99.687 o
160 104.253 o
119.191 107.783 o
151.078 87.1908 o
121.069 97.0353 o
109.642 103.426 o
183.494 105.868 o
112.204 102.121 o
148.191 96.7841 o
82.5931 89.4142 o
78.5739 64.6777 o
71.6394 60.9782 o
103.517 74.5056 o
84.2344 99.4671 o
181.273 104.673 o
90.324 78.7958 o
61.9338 50.2518 o
61.8205 90.2923 o
87.8258 100.461 o
102.207 108.98 o
96.2206 132.913 o
144.337 115.673 o
92.8331 75.2709 o
105.92 81.1065 o
91.9903 116.721 o
76.9946 59.2824 o
95.6776 110.488 o
160.699 85.2778 o
81.0807 65.8764 o
170.837 90.6924 o
70.6876 122.243 o
133.688 106.248 o
180.675 97.6754 o
61.1981 86.4198 o
118.442 117.51 o
109.598 101.092 o
168.685 90.7822 o
86.9279 86.853 o
109.601 106.5 o
193.035 100.237 o
154.958 81.2052 o
194.649 108.308 o
91.9245 86.7461 o
102.618 96.3585 o
170.094 85.9383 o
112.1 82.6965 o
73.2831 85.9745 o
89.6834 91.1368 o
145.274 90.2585 o
118.581 80.18 o
67.4337 82.283 o
177.198 96.8001 o
74.5049 123.917 o
122.094 98.5491 o
105.599 113.133 o
101.783 110.066 o
179.267 102.016 o
107.715 71.9397 o
65.0013 86.0958 o
93.5419 90.2291 o
64.2294 124.702 o
126.45 90.0134 o
116.944 109.311 o
129.416 113.815 o
62.0324 83.8008 o
129.962 114.682 o
83.4031 84.1743 o
88.3668 71.6577 o
69.8806 144.531 o
105.459 77.858 o
69.2128 103.466 o
100.3 123.022 o
119.574 99.5388 o
91.2998 85.2385 o
80.32 82.0453 o
179.449 95.7675 o
112.547 120.783 o
169.47 112.132 o
92.5845 119.41 o
157.157 92.4545 o
157.665 103.266 o
124.567 87.4708 o
109.643 101.142 o
71.8779 94.4405 o
77.5279 90.2526 o
107.587 97.7263 o
72.9395 88.7283 o
85.2453 112.996 o
61.5377 63.1645 o
180.396 97.9696 o
88.4421 76.6879 o
177.769 92.4845 o
107.588 84.532 o
133.843 96.8741 o
87.7764 95.8646 o
65.2601 136.031 o
108.296 122.304 o
107.11 86.5838 o
75.8158 128.664 o
100.57 105.666 o
110.268 93.1123 o
114.888 106.796 o
77.411 79.6625 o
71.41 66.867 o
64.8817 66.5456 o
100.857 92.4868 o
106.857 106.06 o
92.6431 112.79 o
128.963 108.449 o
196.258 104.54 o
170.373 98.488 o
127.374 93.5903 o
72.9416 90.1053 o
64.479 109.262 o
98.7175 112.475 o
96.1437 83.7946 o
162.155 96.3136 o
116.608 92.2987 o
152.113 111.421 o
153.014 93.5591 o
113.108 102.594 o
66.9542 99.749 o
159.518 98.3145 o
147.903 108.679 o
134.709 98.4395 o
150.866 101.762 o
149.045 103.751 o
64.2901 76.9059 o
101.984 92.0831 o
87.3798 85.8628 o
123.257 107.274 o
120.439 67.289 o
91.3789 105.914 o
143.046 120.053 o
129.388 92.9589 o
105.248 114.328 o
87.9556 106.812 o
103.942 98.6875 o
135.447 112.047 o
172.692 92.0793 o
117.298 108.614 o
178.395 99.1222 o
143.788 110.982 o
172.368 99.5348 o
98.976 104.501 o
97.2531 94.4325 o
120.524 95.4208 o
154.765 109.429 o
74.0307 103.604 o
101.562 79.2289 o
140.975 71.8037 o
149.124 112.922 o
182.742 97.3326 o
106.471 90.4109 o
139.505 95.3598 o
145.337 120.062 o
213.668 100.431 o
119.927 95.4774 o
80.3639 83.9195 o
87.742 111.348 o
116.328 92.4312 o
113.195 83.6943 o
125.013 98.8172 o
77.5174 117.747 o
121.868 103.696 o
81.2686 128.829 o
71.4907 131.66 o
89.1991 132.169 o
85.5095 87.8546 o
171.258 97.8644 o
96.0859 127.493 o
62.9411 57.0121 o
106.666 85.5987 o
78.8226 70.9965 o
86.8591 125.614 o
127.66 96.8318 o
62.34 108.482 o
147.224 116.06 o
116.31 118.401 o
74.4164 86.2755 o
75.3338 50.027 o
110.449 108.156 o
124.936 103.728 o
75.7962 64.5147 o
66.568 129.195 o
133.9 106.091 o
69.932 110.625 o
119.265 100.161 o
92.9882 93.4299 o
120.007 94.9735 o
115.938 82.324 o
103.028 100.489 o
104.93 116.338 o
77.7532 92.9906 o
99.9931 117.628 o
83.2636 139.494 o
115.238 100.27 o
116.303 91.5049 o
84.9375 115.346 o
180.398 92.6202 o
135.096 93.1255 o
104.721 100.204 o
97.1824 135.044 o
131.662 110.39 o
116.327 101.894 o
118.624 97.6574 o
81.4212 88.7711 o
107.711 102.515 o
127.224 117.313 o
106.184 92.281 o
123.233 137.937 o
175.098 94.7321 o
103.072 92.019 o
74.3023 119.632 o
108.008 103.326 o
168.893 95.4826 o
123.67 78.4123 o
56.2732 51.4327 o
102.4 67.0163 o
140.019 86.7442 o
172.172 98.9434 o
69.2749 60.615 o
169.07 106.626 o
173.843 91.0002 o
196.044 103.902 o
79.4515 76.0722 o
81.5771 81.242 o
152.167 101.326 o
109.552 89.3451 o
93.6561 92.855 o
107.884 106.769 o
84.6149 84.7688 o
63.9466 141.92 o
153.477 98.03 o
82.6458 123.107 o
85.2936 124.13 o
62.8859 107.445 o
152.313 108.616 o
141.287 116.618 o
136.284 77.7576 o
110.606 116.742 o
79.2214 74.0263 o
106.993 83.4414 o
189.701 110.411 o
57.052 104.38 o
104.192 101.314 o
109.843 85.7775 o
112.233 103.87 o
96.7262 108.508 o
119.909 111.305 o
109.414 96.0372 o
96.1848 138.581 o
116.504 83.408 o
106.207 101.952 o
90.383 75.913 o
78.8134 91.8037 o
113.158 89.7651 o
80.2139 94.553 o
135.302 97.8685 o
115.783 115.312 o
145.017 81.8239 o
67.8044 89.8933 o
86.1892 129.31 o
96.6235 64.5695 o
117.54 71.6603 o
144.155 99.4318 o
170.372 95.65 o
150.442 87.6733 o
95.6795 122.507 o
55.8803 81.3777 o
92.7092 110.317 o
104.777 78.8179 o
140.583 91.7586 o
113.328 110.742 o
91.2967 96.87 o
115.185 92.4741 o
82.3769 128.163 o
67.2787 129.31 o
101.93 91.932 o
146.931 102.506 o
92.0944 66.4107 o
125.17 96.1412 o
121.146 101.211 o
63.083 68.7987 o
109.902 131.551 o
115.641 127.549 o
77.4383 69.1686 o
121.631 101.362 o
110.683 131.605 o
177.37 108.662 o
197.48 105.136 o
158.45 75.4222 o
176.45 111.485 o
113.194 93.7431 o
78.5725 86.6587 o
68.2324 114.541 o
78.2048 120.321 o
100.831 81.3381 o
63.7604 105.97 o
129.201 90.2574 o
169.655 92.7729 o
121.343 95.9485 o
114.269 110.609 o
181.727 91.2562 o
92.9943 100.394 o
89.3611 131.52 o
114.032 99.6205 o
122.304 98.4791 o
133.304 95.5203 o
119.664 110.508 o
66.5842 77.2032 o
119.623 104.275 o
165.372 99.7903 o
105.759 124.164 o
130.989 102.649 o
87.4129 79.2809 o
134.761 97.2641 o
104.218 92.5415 o
91.212 89.6894 o
66.9508 87.683 o
192.405 110.955 o
114.729 74.773 o
119.363 105.646 o
108.406 68.6675 o
92.193 97.1379 o
70.4651 124.24 o
127.568 72.4515 o
124.087 111.913 o
181.971 98.9286 o
125.252 104.195 o
104.901 99.2326 o
118.795 105.135 o
114.574 108.192 o
106.548 116.758 o
62.4434 96.9338 o
118.461 99.445 o
83.7886 66.4771 o
139.056 108.497 o
130.826 90.2167 o
107.533 72.2777 o
125.561 111.583 o
69.9078 71.0615 o
122.56 90.7212 o
95.6664 101.832 o
97.3004 108.528 o
53.0505 94.5 o
148.135 104.994 o
113.238 134.474 o
152.79 105.115 o
122.27 97.8347 o
119.984 114.152 o
103.738 113.715 o
86.6671 111.015 o
75.6984 78.7818 o
176.537 93.6636 o
145.332 93.3606 o
88.915 91.7941 o
89.8585 107.824 o
84.8957 100.247 o
77.003 125.796 o
145.259 90.5602 o
83.3498 67.1552 o
90.9595 81.575 o
93.0038 101.347 o
65.0087 134.107 o
132.658 95.576 o
68.4382 96.2598 o
115.614 101 o
128.642 101.173 o
67.3091 82.8297 o
71.6481 137.558 o
110.552 60.7144 o
66.458 105.108 o
82.6179 63.8702 o
120.437 87.0825 o
83.3117 68.6104 o
164.857 108.84 o
97.8462 109.28 o
72.0855 110.222 o
105.507 68.6854 o
62.2252 103.418 o
141.115 84.5378 o
162.517 106.09 o
60.8544 56.3677 o
81.7758 90.8892 o
66.4447 126.081 o
172.789 101.305 o
95.1863 99.4938 o
154.566 85.3899 o
118.82 109.122 o
102.531 117.665 o
158.544 88.6983 o
163.578 89.1695 o
102.496 88.9271 o
62.2141 111.426 o
129.803 92.2589 o
56.9446 126.109 o
102.395 72.3063 o
170.442 99.7245 o
136.808 107.741 o
59.8374 96.3978 o
105.579 111.442 o
77.9267 105.671 o
101.482 76.0185 o
85.5467 110.704 o
74.444 96.4138 o
80.5277 103.834 o
115.562 106.707 o
127.474 104.507 o
71.157 92.5519 o
72.5685 127.986 o
81.7334 105.454 o
73.5048 85.2648 o
148.39 90.9705 o
79.1419 95.1699 o
146.902 112.253 o
57.1815 64.8043 o
75.5222 92.8227 o
119.801 105.188 o
125.92 90.3301 o
100.015 124.858 o
111.476 115.568 o
138.912 72.0003 o
123.067 111.72 o
120.622 85.6351 o
54.3503 74.655 o
102.789 106.339 o
93.4618 85.6135 o
157.429 99.8851 o
137.825 93.2606 o
115.239 93.9488 o
142.888 85.9301 o
104.803 108.221 o
87.5244 70.5897 o
167.841 92.1163 o
83.1164 128.291 o
133.79 85.7303 o
66.1442 59.6432 o
129.551 90.6584 o
115.484 101.237 o
100.912 94.0847 o
79.8017 134.798 o
154.403 105.026 o
83.4615 72.0816 o
112.709 105.26 o
165.404 93.7395 o
80.4348 130.847 o
110.208 95.8839 o
102.137 111.333 o
127.844 93.159 o
207.846 100.7 o
127.433 90.521 o
129.045 112.916 o
134.627 77.3491 o
110.324 92.7527 o
79.3946 122.847 o
92.5339 105.186 o
102.11 91.8286 o
102.7 125.399 o
143.682 84.2119 o
177.951 90.5406 o
117.279 78.5762 o
108.629 92.127 o
128.974 97.7511 o
75.448 56.4466 o
76.1765 132.689 o
107.194 107.169 o
133.448 104.59 o
170.776 88.9087 o
144.793 112.18 o
105.798 75.9615 o
106.479 91.8876 o
69.7224 82.4767 o
84.9035 97.6947 o
143.07 91.5392 o
96.4369 87.0067 o
66.1619 149.498 o
169.098 98.5082 o
68.1771 124.64 o
132.258 94.9458 o
89.6466 107.982 o
179.048 104.558 o
166.271 81.3579 o
70.225 121.578 o
79.0441 91.0431 o
116.89 90.4828 o
84.2979 70.8055 o
83.4197 102.299 o
91.6926 80.5688 o
176.19 95.0822 o
91.5864 103.456 o
92.0169 82.094 o
68.2363 69.9238 o
155.452 94.3392 o
85.5261 104.73 o
111.209 110.958 o
63.1123 142.253 o
93.1688 95.4808 o
79.3478 75.9288 o
161.765 101.1 o
161.915 90.772 o
65.1287 119.613 o
118.458 94.5169 o
107.255 134.532 o
83.8673 82.0731 o
79.9226 116.349 o
80.3427 123.374 o
138.388 106.136 o
162.278 116.995 o
160.263 84.3744 o
71.3404 97.0781 o
129.436 76.6332 o
162.181 120.465 o
77.2747 130.008 o
135.57 91.5835 o
91.1942 122.454 o
95.2771 78.7023 o
60.2239 59.8763 o
85.7127 104.611 o
96.5488 107.168 o
111.69 105.209 o
87.1803 121.488 o
122.94 125.491 o
64.0747 64.9894 o
79.5561 124.913 o
69.7237 131.855 o
152.475 101.93 o
117.027 92.6698 o
96.3243 114.166 o
56.2147 80.0463 o
109.289 90.5954 o
76.5053 76.3375 o
82.9946 70.3773 o
147.464 66.9717 o
114.586 89.1119 o
144.847 92.6563 o
141.4 79.4104 o
120.04 100.179 o
195.281 100.272 o
115.116 85.8497 o
96.0186 108.157 o
120.452 91.7688 o
148.178 91.0366 o
105.633 112.89 o
89.5847 86.0814 o
110.054 114.688 o
59.9125 83.2113 o
129.776 104.064 o
150.686 103.555 o
85.8704 66.981 o
88.1418 59.2627 o
72.8663 108.235 o
125.753 105.525 o
73.697 93.1725 o
77.7355 82.412 o
59.5444 89.992 o
81.5481 107.953 o
58.8374 83.2334 o
145.486 112.942 o
109.665 108.982 o
119.241 92.929 o
108.481 82.3949 o
166.44 89.6603 o
59.1557 76.5721 o
110.339 73.2814 o
65.0571 132.395 o
118.819 111.212 o
104.205 113.045 o
185.865 107.07 o
101.502 103.039 o
93.1498 112.281 o
117.884 112.233 o
98.2769 119.821 o
162.678 86.291 o
86.9805 123.456 o
160.911 108.281 o
92.3259 132.353 o
109.182 115.093 o
80.1349 64.8463 o
86.1976 107.768 o
131.031 77.5629 o
186.268 94.1724 o
105.247 86.5214 o
115.972 93.2645 o
139.996 101.786 o
63.2611 125.505 o
74.8569 138.521 o
146.792 112.103 o
84.7244 138.143 o
174.253 95.3374 o
63.0261 88.7642 o
174.156 117.709 o
102.575 97.2628 o
171.659 104.729 o
95.426 98.578 o
168.177 85.7553 o
113.654 117.78 o
150.392 100.736 o
114.263 96.9777 o
177.609 94.7826 o
60.2032 138.154 o
102.219 112.279 o
102.755 107.71 o
117.652 118.208 o
155.623 101.438 o
175.782 93.4681 o
67.476 82.4126 o
128.729 103.218 o
144.234 98.1177 o
87.0795 139.492 o
55.2839 65.8536 o
83.7603 106.017 o
87.3241 108.896 o
122.802 65.1697 o
164.012 85.9483 o
173.529 89.7129 o
68.6307 149.172 o
108.643 109.717 o
97.7072 97.7726 o
101.436 117.266 o
129.468 106.526 o
67.0548 133.75 o
100.096 62.2922 o
166.042 99.4055 o
123.362 90.7812 o
100.459 117.519 o
122.825 112.256 o
72.5733 82.919 o
95.0617 82.8547 o
115.838 78.0338 o
158.986 98.3674 o
131.309 117.483 o
147.247 97.6184 o
122.717 97.7836 o
78.5673 131.749 o
175.729 98.9207 o
59.2419 72.5012 o
131.943 104.544 o
170.492 98.1671 o
177.3 101.07 o
111.616 106.351 o
68.1714 72.1784 o
126.636 67.7343 o
67.8178 131.93 o
119.974 92.6058 o
65.9795 135.255 o
89.6491 101.252 o
99.5812 108.794 o
171.312 101.87 o
174.512 102.451 o
112.061 91.6073 o
65.9825 64.8076 o
135.588 83.2486 o
108.608 103.866 o
120.937 113.992 o
100.625 98.673 o
99.7517 81.9536 o
155.876 106.438 o
171.359 94.7231 o
86.5736 135.596 o
111.516 85.8446 o
128.317 83.885 o
111.331 105.485 o
98.9755 121.338 o
111.012 91.3235 o
142.005 97.2461 o
86.0088 83.2146 o
143.5 100.114 o
56.8584 92.4569 o
108.378 100.556 o
124.054 89.0887 o
125.064 106.764 o
135.96 87.1045 o
92.4755 74.9897 o
122.431 93.0754 o
97.9952 122.004 o
90.4393 120.297 o
105.036 88.4839 o
138.002 102.592 o
132.831 116.378 o
59.1926 83.9645 o
56.9595 75.6446 o
122.857 100.552 o
177.149 92.0502 o
146.755 92.8702 o
154.844 81.1458 o
110.284 101.613 o
116.786 86.7324 o
117.444 107.702 o
97.6067 57.9838 o
119.75 99.4608 o
170.013 92.8637 o
126.866 86.1275 o
154.705 92.941 o
89.4687 75.5117 o
97.3139 118.097 o
108.091 69.2939 o
149.841 114.271 o
114.104 102.236 o
94.1497 102.978 o
116.732 90.9217 o
62.7692 68.3055 o
83.7957 91.6127 o
136.663 81.563 o
165.783 86.4849 o
68.5498 133.584 o
88.9199 90.1561 o
135.14 80.1564 o
85.7337 83.8438 o
80.7564 77.8718 o
152.094 87.3666 o
157.852 78.8795 o
87.0776 110.336 o
65.1192 75.1723 o
127.077 122.365 o
109.195 103.366 o
90.316 74.6228 o
79.2784 96.7174 o
75.4056 79.3325 o
142.203 94.8773 o
171.098 104.325 o
103.668 123.543 o
167.374 104.014 o
125.522 89.207 o
156.334 100.378 o
110.673 81.9088 o
161.634 121.591 o
88.2209 71.3417 o
58.9105 105.657 o
114.592 92.2245 o
79.021 124.279 o
104.346 126.263 o
192.918 104.764 o
183.326 94.9243 o
120.112 91.3236 o
106.603 86.253 o
149.952 90.6359 o
61.7846 88.7429 o
130.768 108.438 o
137.887 89.5075 o
69.4469 96.8806 o
70.9714 64.0237 o
76.4013 86.0851 o
97.1003 100.823 o
145.787 93.6195 o
65.9433 84.2876 o
92.8381 116.113 o
104.105 122.515 o
60.6887 58.3128 o
109.163 90.0171 o
91.9612 110.297 o
81.4625 123.804 o
140.291 86.4336 o
99.7369 126.423 o
143.101 97.2079 o
113.308 93.9262 o
98.2537 95.482 o
96.1071 109.101 o
116.445 83.3836 o
63.0014 144.688 o
116.26 131.761 o
150.574 93.8115 o
119.475 91.3511 o
72.3554 97.0125 o
164.954 103.226 o
83.7512 117.454 o
176.704 90.8134 o
73.6272 94.019 o
99.7991 93.0162 o
73.437 124.947 o
93.5425 91.5457 o
72.498 118.054 o
89.2638 101.556 o
125.645 88.2426 o
83.1805 85.8377 o
95.6373 131.87 o
100.472 74.7502 o
179.274 96.7222 o
100.028 91.1273 o
80.6395 72.6619 o
121.408 101.013 o
113.852 112.343 o
146.033 103.755 o
128.774 120.804 o
100.793 87.3443 o
126.865 95.9479 o
85.9974 98.8408 o
155.96 80.495 o
93.1927 105.164 o
150.743 102.593 o
81.8616 81.7496 o
153.729 92.8746 o
86.8216 104.247 o
161.475 102.496 o
113.879 108.72 o
55.9345 69.9952 o
81.9911 109.49 o
129.978 100.252 o
66.955 100.536 o
97.8478 109.458 o
91.7256 78.5167 o
133.91 120.175 o
164.705 86.156 o
111.417 89.4215 o
157.205 128.036 o
166.172 102.213 o
115.234 107.641 o
123.86 95.6066 o
137.235 102.365 o
135.334 106.161 o
111.82 88.2139 o
167.421 88.7296 o
169.827 94.9388 o
176.336 96.4629 o
149.527 109.829 o
91.8786 74.7494 o
106.863 118.436 o
88.2804 119.542 o
95.1834 66.4683 o
88.445 71.602 o
102.944 110.934 o
80.9211 90.0542 o
96.1582 114.131 o
118.528 124.825 o
78.6452 78.857 o
118.348 90.3076 o
103.154 112.808 o
111.214 90.7953 o
112.959 107.804 o
124.456 91.829 o
90.3088 74.3594 o
162.159 74.8271 o
99.8024 101.93 o
152.702 70.6151 o
184.308 100.51 o
138.347 80.7286 o
113.358 91.4124 o
117.346 91.7918 o
135.685 101.025 o
103.216 79.4849 o
53.7587 74.6107 o
144.398 116.624 o
152.96 103.992 o
82.7324 126.723 o
164.093 98.2121 o
202.226 105.129 o
126.93 105.57 o
202.881 104.603 o
112.713 80.4948 o
179.201 91.7306 o
114.281 131.027 o
138.615 75.9905 o
166.845 111.824 o
66.1002 88.1496 o
190.265 101.823 o
152.301 102.599 o
127.356 122.643 o
152.791 94.0777 o
63.6988 125.227 o
86.8064 84.9795 o
155.816 86.8623 o
118.496 103.564 o
136.637 81.7841 o
108.136 98.5014 o
180.293 93.153 o
139.373 82.5135 o
104.512 99.031 o
88.3888 69.4461 o
110.692 99.3949 o
132.637 106.352 o
127.461 90.5976 o
106.074 102.552 o
112.581 113.202 o
111.238 110.116 o
187.94 103.886 o
135.69 93.833 o
75.6379 124.854 o
108.514 105.923 o
112.634 73.0777 o
94.7603 99.0111 o
96.7341 96.3339 o
121.614 109.336 o
65.3698 119.979 o
66.5113 134.046 o
91.3024 109.916 o
119.359 95.5764 o
106.19 127.99 o
108.54 133.583 o
121.024 106.084 o
62.0037 140.79 o
126.194 108.137 o
101.82 121.186 o
108.106 98.3349 o
119.75 116.102 o
174.393 110.991 o
163.027 104.395 o
147.687 112.747 o
140.635 95.6368 o
158.954 92.6952 o
122.945 72.7794 o
66.4233 58.9048 o
89.5161 101.715 o
130.961 93.7399 o
158.418 89.2134 o
107.707 92.8211 o
78.1403 82.4908 o
161.632 89.9472 o
118.782 110.166 o
71.3526 127.428 o
69.1912 104.304 o
177.484 85.5758 o
138.372 94.413 o
113.177 103.746 o
93.0221 119.213 o
84.2747 82.4595 o
148.217 74.8139 o
109.576 102.355 o
90.8323 93.1233 o
87.0164 101.598 o
158.643 106.588 o
120.734 99.8136 o
126.869 91.3891 o
73.8074 131.161 o
106.473 120.163 o
115.951 82.0052 o
162.854 105.948 o
124.656 98.2732 o
88.9155 105.108 o
100.284 74.5216 o
110.169 105.189 o
155.675 93.08 o
71.726 124.116 o
149.905 92.441 o
161.746 97.3641 o
111.619 116.467 o
171.391 93.6814 o
147.325 102.421 o
177.553 94.8743 o
121.818 100.98 o
75.6983 102.249 o
97.9242 86.6671 o
53.846 57.0209 o
59.5517 123.472 o
65.1088 62.6561 o
121.724 109.561 o
146.696 114.476 o
77.2318 75.252 o
156.726 99.5294 o
140.136 105.328 o
105.494 85.6247 o
89.9666 92.4796 o
126.355 98.0503 o
137.195 95.0052 o
82.1894 94.0982 o
170.773 84.5651 o
93.3342 79.4056 o
189.76 87.3398 o
67.2842 62.4164 o
87.2673 113.793 o
118.338 97.2881 o
177.125 108.026 o
89.8519 130.999 o
178.538 92.5139 o
97.7343 107.025 o
124.211 114.709 o
76.8973 88.8318 o
190.719 113.31 o
196.585 93.7489 o
134.103 79.9629 o
150.25 86.6743 o
84.4271 68.2934 o
118.408 92.3844 o
93.2986 66.7283 o
110.533 108.479 o
114.501 85.1427 o
97.2724 124.894 o
126.188 101.578 o
122.791 92.126 o
85.7325 101.047 o
155.496 98.29 o
121.336 101.647 o
139.194 89.1854 o
83.5055 64.74 o
116.171 84.3783 o
121.896 87.6818 o
137.025 102.664 o
141.515 89.1927 o
158.223 119.58 o
90.6148 72.7612 o
95.0009 112.492 o
138.88 101.317 o
64.2163 99.761 o
112.32 85.7887 o
146.417 101.795 o
101.422 90.2188 o
174.766 110.17 o
96.0572 115.324 o
67.7984 95.376 o
116.341 97.4695 o
100.815 76.6911 o
63.6131 141.825 o
102.897 90.9174 o
72.4238 142.077 o
170.2 102.958 o
118.724 86.6142 o
163.127 84.3084 o
87.8948 92.7146 o
98.0454 74.1995 o
57.4623 65.6243 o
114.766 115.266 o
89.6898 90.0048 o
91.928 110.239 o
79.9194 92.272 o
126.72 86.6452 o
116.4 126.405 o
182.105 114.031 o
71.0483 130.856 o
140.107 91.6617 o
126.965 98.6664 o
113.947 94.0532 o
145.541 115.615 o
182.337 105.637 o
133.239 108.558 o
142.392 101.311 o
91.0456 94.0408 o
61.2918 128.179 o
117.775 100.84 o
60.0282 56.4102 o
200.303 106.645 o
79.478 49.5802 o
139.985 122.275 o
91.8647 125.493 o
126.331 93.6294 o
159.03 111.931 o
92.355 87.2209 o
136.772 108.031 o
114.358 82.8112 o
111.123 105.03 o
166.243 101.105 o
89.4243 127.931 o
86.5107 92.5374 o
91.6839 77.785 o
118.169 94.198 o
147.579 103.119 o
174.891 91.4407 o
150.612 105.056 o
101.318 115.541 o
142.159 102.949 o
164.515 100.072 o
111.479 90.4074 o
141.042 109.499 o
148.671 79.3648 o
75.0018 111.405 o
84.8546 110.215 o
115.366 101.927 o
129.794 85.1785 o
167.297 90.623 o
154.015 90.3671 o
120.552 99.455 o
115.184 91.3355 o
102.474 91.3381 o
81.9536 103.882 o
95.3531 118.396 o
160.795 90.2901 o
86.8295 129.511 o
68.6375 68.7664 o
122.415 110.615 o
113.429 117.699 o
107.369 98.177 o
170.82 94.614 o
149.068 94.6262 o
171.812 120.413 o
154.569 100.592 o
71.1939 101.198 o
139.358 82.0628 o
101.712 77.6801 o
194.725 100.009 o
106.738 122.852 o
78.43 84.3405 o
113.699 109.542 o
122.551 103.432 o
121.439 70.9248 o
179.822 92.9309 o
175.45 102.277 o
78.578 76.1572 o
202.086 103.404 o
87.2583 86.76 o
153.272 98.4018 o
80.4734 94.3094 o
125.855 85.5775 o
122.312 108.777 o
130.503 79.1212 o
77.1086 101.337 o
104.575 86.0143 o
104.31 88.6938 o
136.142 86.735 o
175.603 90.7736 o
74.9588 66.2379 o
101.992 86.7083 o
179.612 102.897 o
178.945 77.9446 o
104.659 68.6812 o
103.55 99.3851 o
112.455 96.8545 o
58.8137 77.9536 o
162.738 105.455 o
159.705 81.8623 o
192.695 86.2213 o
95.3318 113.554 o
173.557 88.7644 o
121.228 114.153 o
134.719 111.385 o
67.1676 98.9914 o
76.0278 84.1786 o
69.0718 140.314 o
152.175 96.741 o
130.281 96.7021 o
119.306 86.3064 o
67.6948 87.6985 o
142.708 114.924 o
114.637 96.979 o
129.405 104.063 o
86.6801 115.259 o
166.327 108.193 o
145.936 97.6048 o
76.0622 128.717 o
96.6555 99.0375 o
109.881 114.334 o
156.61 85.3833 o
74.3112 99.1438 o
116.062 92.0893 o
158.041 109.494 o
116.222 103.023 o
113.567 135.851 o
165.388 96.5738 o
143.172 95.9118 o
58.6575 59.4879 o
61.6486 139.704 o
82.9807 82.3216 o
145.675 84.0967 o
92.3253 119.568 o
103.071 115.173 o
105.829 82.3339 o
171.931 96.4032 o
161.954 111.018 o
114.906 111.41 o
98.5254 110.798 o
73.919 136.747 o
151.804 95.9292 o
74.2758 50.0944 o
146.257 98.7265 o
83.9172 115.231 o
214.418 92.3789 o
181.143 97.7611 o
157.829 96.1187 o
108.496 108.799 o
71.3797 125.352 o
86.5855 75.624 o
186.77 110.935 o
97.3165 129.803 o
172.284 93.2837 o
109.684 100.912 o
69.8834 84.4972 o
105.587 93.361 o
86.1387 134.801 o
117.386 99.7252 o
197.631 96.2969 o
59.1143 81.1004 o
127.091 108.233 o
110.402 116.811 o
84.5538 78.4617 o
107.336 101.185 o
111.192 95.7243 o
117.687 125.657 o
130.667 103.436 o
126.709 93.6111 o
81.5402 102.738 o
97.6892 78.8351 o
120.223 121.894 o
148.714 109.191 o
158.347 96.3229 o
127.272 68.6301 o
92.8999 84.5074 o
147.175 101.699 o
131.074 105.789 o
74.9817 138.287 o
118.876 97.2868 o
117.249 99.9138 o
69.2949 59.4352 o
69.7715 101.467 o
172.032 96.7054 o
116.768 85.322 o
71.2933 87.4773 o
128.482 107.517 o
118.358 117.041 o
105.645 94.8446 o
59.7208 63.7214 o
80.8711 133.247 o
183.854 116.942 o
119.042 100.947 o
182.869 81.7058 o
104.963 74.0416 o
159.524 106.572 o
87.724 95.2306 o
102.368 90.4642 o
161.292 89.8295 o
86.7289 115.385 o
79.8155 104.134 o
93.4632 75.7377 o
177.565 92.7334 o
114.68 89.5208 o
166.814 103.358 o
127.709 116.235 o
139.039 95.768 o
138.629 106.772 o
194.549 94.6994 o
87.5114 73.6487 o
144.765 85.396 o
110.069 117.111 o
115.834 91.9056 o
63.8457 141.558 o
92.9952 122.593 o
64.4823 135.069 o
86.2249 135.596 o
149.743 84.7812 o
158.375 102.005 o
114.475 103.426 o
102.597 101.722 o
62.3457 124.156 o
87.5274 85.7913 o
187.22 105.816 o
178.366 94.5019 o
78.1915 97.5007 o
164.466 93.1563 o
56.6719 88.7137 o
114.778 77.254 o
169.736 94.561 o
94.1302 91.337 o
109.277 85.7123 o
86.8507 116.338 o
125.899 79.8776 o
130.002 103.848 o
193.965 87.3036 o
124.81 102.156 o
70.5493 113.576 o
113.624 100.546 o
169.123 95.0492 o
83.5575 117.626 o
105.605 96.6668 o
158.078 91.8378 o
134.157 96.8497 o
107.566 99.2153 o
137.872 111.057 o
114.245 65.8511 o
91.4652 97.4972 o
94.8205 83.6107 o
92.6972 102.941 o
214.377 112.07 o
92.3789 104.574 o
59.0612 107.313 o
119.977 92.6083 o
140.227 104.575 o
89.946 97.669 o
96.0404 103.686 o
81.3604 86.9953 o
140.512 84.509 o
121.172 97.9768 o
106.259 88.1869 o
90.671 112.921 o
119.296 100.558 o
61.7579 107.444 o
163.925 92.2605 o
95.9354 72.8864 o
96.8103 119.691 o
94.8736 103.448 o
152.947 98.8423 o
164.351 97.1853 o
132.63 95.8494 o
173.115 93.7349 o
117.385 71.9727 o
92.7025 69.4936 o
155.388 124.347 o
168.645 116.029 o
91.4109 62.2044 o
183.075 105.455 o
166.873 114.061 o
88.0804 71.1154 o
122.267 91.8615 o
156.585 101.422 o
118.386 114.998 o
101.957 123.629 o
115.336 112.889 o
96.394 82.7541 o
159.009 89.6129 o
177.466 96.8576 o
107.837 82.4296 o
63.4545 99.5286 o
81.5317 122.092 o
150.552 93.6994 o
178.186 109.902 o
97.0955 92.8224 o
106.695 110.131 o
97.895 73.5775 o
109.884 101.829 o
72.7274 139.98 o
99.9829 106.815 o
173.357 99.8459 o
178.244 92.0297 o
155.568 92.6901 o
94.6377 86.9777 o
107.97 124.157 o
132.763 104.457 o
86.755 83.8101 o
127.684 94.3283 o
161.228 89.0361 o
103.394 90.682 o
63.2191 78.3833 o
103.662 123.332 o
92.6304 84.238 o
172.346 88.3527 o
80.7843 98.9543 o
106.125 90.5622 o
53.2588 79.4416 o
154.784 94.6089 o
130.054 107.411 o
188.102 103.732 o
87.6912 118.089 o
84.657 123.439 o
184.602 85.0296 o
86.8804 135.66 o
99.3108 90.3063 o
160.075 99.4102 o
172.138 101.303 o
94.6921 97.1216 o
94.1398 94.8414 o
122.404 103.233 o
167.212 97.9774 o
135.758 100.068 o
129.343 96.1288 o
112.804 96.5453 o
132.389 123.751 o
80.6954 85.7199 o
110.954 82.8683 o
103.363 125.082 o
117.435 85.036 o
79.6683 110.88 o
98.456 68.7502 o
77.5043 132.832 o
99.6652 123.013 o
108.162 106.556 o
75.3182 66.2037 o
57.4527 138.349 o
159.111 92.3251 o
146.593 85.065 o
75.7664 96.1056 o
153.578 114.865 o
104.832 77.4013 o
98.961 106.886 o
80.8931 75.5351 o
97.1956 128.171 o
113.975 89.2366 o
102.555 105.793 o
125.759 83.5616 o
85.9184 84.0812 o
108.107 66.9221 o
112.631 97.1187 o
180.752 101.871 o
106.825 105.249 o
67.7392 124.088 o
101.694 79.1033 o
152.411 85.187 o
129.142 100.15 o
141.524 80.9427 o
118.682 98.0741 o
88.6096 73.5603 o
142.508 95.0674 o
81.1854 107.636 o
174.839 90.8591 o
108.859 93.9353 o
127.22 100.308 o
118.106 101.366 o
103.934 72.7775 o
157.383 93.7153 o
122.923 99.8017 o
169.974 103.73 o
125.743 110.186 o
117.504 106.83 o
132.275 114.063 o
120.234 111.946 o
181.393 104.178 o
122.166 109.68 o
86.2228 93.0883 o
115.732 83.3835 o
113.569 102.42 o
126.165 103.204 o
119.707 82.7465 o
113.19 84.5271 o
103.066 90.2206 o
150.566 73.6882 o
56.8436 103.72 o
61.7973 124.011 o
161.317 104.191 o
164.133 94.1024 o
175.842 88.7062 o
73.3194 76.5777 o
112.495 117.355 o
88.1785 113.318 o
142.956 95.7854 o
89.2033 120.299 o
159.005 101.249 o
54.8193 129.569 o
146.138 88.0458 o
98.0373 92.4168 o
94.647 96.3227 o
141.27 97.7888 o
137.235 98.8155 o
93.2601 79.6688 o
99.5499 101.219 o
127.107 106.168 o
69.0839 81.1679 o
143.704 89.7526 o
126.897 93.6764 o
118.392 107.572 o
92.1794 71.0869 o
170.226 106.796 o
110.719 93.5387 o
130.003 94.9193 o
158.078 96.1069 o
98.2971 102.58 o
108.072 91.576 o
106.491 117.074 o
103.417 96.1271 o
166.219 88.4877 o
193.228 90.0914 o
165.777 91.1528 o
142.515 72.3335 o
112.502 125.353 o
86.2361 93.2746 o
76.7034 58.7058 o
159.392 114.558 o
97.7257 114.655 o
88.2309 70.5846 o
130.647 96.2859 o
131.767 92.2042 o
108.21 127.809 o
176.843 97.0581 o
151.036 83.9197 o
143.066 86.8786 o
162.87 103.607 o
73.9957 86.851 o
137.463 105.625 o
92.3116 105.434 o
90.5679 105.915 o
148.455 115.405 o
155.792 95.4274 o
93.9084 111.456 o
104.233 84.5317 o
106.661 74.8133 o
151.455 120.15 o
140.466 83.6349 o
178.573 94.3716 o
106.791 103.832 o
128.823 96.534 o
98.5544 87.6693 o
187.893 97.0689 o
116.538 83.7397 o
127.984 99.2881 o
96.4114 77.9312 o
166.45 98.8454 o
105.528 91.5065 o
77.2454 106.521 o
90.8856 130.373 o
74.6169 140.833 o
126.884 106.505 o
182.673 87.12 o
86.0415 60.7659 o
73.936 108.98 o
102.89 118.878 o
103.463 89.1426 o
122.321 87.0964 o
85.0392 119.999 o
115.944 78.9995 o
87.381 85.7833 o
200.321 97.1106 o
155.086 102.82 o
96.3344 130.247 o
102.012 92.086 o
115.705 90.2218 o
151.729 102 o
148.697 81.7028 o
78.8624 74.8301 o
110.181 122.138 o
116.358 90.1768 o
142.222 106.115 o
101.575 84.4359 o
123.144 85.0218 o
82.195 107.587 o
127.423 93.9344 o
123.787 100.256 o
60.9071 136.327 o
181.489 113.335 o
86.6054 99.9538 o
128.068 81.5006 o
168.04 103.135 o
105.407 91.5168 o
103.091 113.667 o
154.893 87.3418 o
97.5237 99.0958 o
105.856 105.892 o
101.373 130.412 o
166.562 93.5192 o
83.3006 108.344 o
78.1231 121.631 o
103.009 76.2205 o
159.49 96.8462 o
108.199 107.85 o
185.085 108.75 o
100.979 115.052 o
83.6819 76.8224 o
85.7458 73.5506 o
104.423 90.507 o
88.4163 116.273 o
63.6724 94.8017 o
172.968 90.4123 o
164.739 102.518 o
102.518 95.4761 o
140.269 97.2666 o
62.7465 80.8167 o
125.163 94.169 o
178.984 94.9549 o
113.337 108.364 o
154.525 113.429 o
209.961 100.784 o
75.1653 94.892 o
160.917 98.8906 o
96.4388 111.813 o
103.372 76.0935 o
159.525 87.8881 o
178.921 94.9052 o
62.9238 104.092 o
62.3623 53.8784 o
113.477 88.7008 o
125.357 104.226 o
87.2692 92.2108 o
93.0012 81.4079 o
65.0605 128.258 o
86.9349 93.2608 o
89.2869 98.5961 o
125.182 83.94 o
158.287 93.9223 o
119.824 105.451 o
173.034 96.1369 o
189.906 105.406 o
135.259 97.0892 o
189.26 112.127 o
102.571 130.313 o
103.727 114.756 o
152.169 93.6508 o
115.713 82.2651 o
176.617 94.1578 o
101.163 126.204 o
90.8158 131.948 o
69.9701 64.7619 o
92.0782 100.772 o
154.237 118.924 o
72.585 63.3358 o
174.428 91.1689 o
134.467 91.7078 o
105.307 109.52 o
102.274 76.3061 o
140.484 99.3914 o
67.1781 91.9732 o
67.538 80.7148 o
104.723 77.7684 o
102.679 84.0053 o
146.341 95.8816 o
157.831 103.258 o
80.6892 60.3095 o
66.4755 123.854 o
158.483 87.9102 o
149.612 107.899 o
104.403 90.131 o
121.799 80.3625 o
74.4354 91.5286 o
184.321 104.153 o
86.9259 89.5022 o
132.066 77.0389 o
150.559 106.369 o
75.9789 119.955 o
121.618 108.286 o
90.2681 69.8139 o
71.9331 69.5629 o
87.6935 123.487 o
87.7213 119.343 o
114.717 76.6252 o
95.7457 67.3324 o
149.055 103.812 o
75.4966 65.4591 o
78.111 126.938 o
77.8573 95.4307 o
80.548 72.7387 o
71.7054 106.584 o
164.032 92.4338 o
109.383 127.299 o
136.072 79.4984 o
87.7323 97.328 o
101.18 69.1731 o
88.1209 109.699 o
157.441 106.237 o
135.671 117.378 o
66.5562 76.1781 o
178.016 93.7501 o
94.0634 121.924 o
86.0044 136.607 o
94.2018 88.2704 o
116.062 131.127 o
175.315 75.2445 o
102.072 110.034 o
182.051 92.9942 o
62.1221 121.937 o
69.5514 103.771 o
77.4003 103.009 o
176.769 110.872 o
118.571 89.2557 o
129.405 95.7134 o
80.8276 107.824 o
74.8151 114.552 o
138.563 113.587 o
150.607 97.5298 o
80.1994 74.0095 o
79.6429 87.5981 o
120.604 106.998 o
60.3997 95.8435 o
68.993 113.271 o
181.026 112.365 o
77.9259 97.7981 o
65.096 82.4343 o
79.1092 76.3071 o
115.185 82.9691 o
71.2222 66.9052 o
143.39 76.8893 o
57.3492 91.4373 o
130.199 95.6082 o
106.478 93.592 o
173.857 104.853 o
93.8022 123.703 o
87.892 124.036 o
108.42 66.329 o
grestore
0.000 0.000 1.000 setrgbcolor
gsave
196.6 126 47.88 36 clipbox
/o {
gsave
newpath
translate
0.5 setlinewidth
1 setlinejoin
0 setlinecap
0 -0.25 m
0.0663008 -0.25 0.129895 -0.223658 0.176777 -0.176777 c
0.223658 -0.129895 0.25 -0.0663008 0.25 0 c
0.25 0.0663008 0.223658 0.129895 0.176777 0.176777 c
0.129895 0.223658 0.0663008 0.25 0 0.25 c
-0.0663008 0.25 -0.129895 0.223658 -0.176777 0.176777 c
-0.223658 0.129895 -0.25 0.0663008 -0.25 0 c
-0.25 -0.0663008 -0.223658 -0.129895 -0.176777 -0.176777 c
-0.129895 -0.223658 -0.0663008 -0.25 0 -0.25 c
cl
gsave
0.000 0.000 1.000 setrgbcolor
fill
grestore
stroke
grestore
} bind def
88.1198 90.1888 o
89.3647 93.9856 o
78.4853 91.9118 o
81.6609 109.146 o
82.5712 99.5007 o
80.3078 108.501 o
76.8947 100.263 o
84.9382 112.901 o
78.6142 96.2756 o
79.3275 107.079 o
76.6508 98.9657 o
82.1709 97.7623 o
88.5638 98.3941 o
78.6973 106.36 o
78.2445 79.5739 o
79.6207 102.11 o
90.6321 82.5919 o
78.6487 86.4817 o
89.7305 100.12 o
82.9623 86.6591 o
81.4311 89.2986 o
81.0894 120.715 o
78.9056 107.49 o
88.1905 68.7076 o
91.6086 105.655 o
88.6061 103.094 o
92.6332 100.918 o
78.3571 86.5636 o
77.2221 89.4705 o
91.9165 96.6002 o
91.6763 94.7399 o
89.9835 113.293 o
89.8051 70.7434 o
82.3795 108.237 o
78.0656 116.928 o
85.2047 73.9041 o
79.3102 88.1868 o
87.1322 132.479 o
89.6775 90.4851 o
76.3686 90.2773 o
90.4328 92.83 o
91.9903 116.721 o
86.9279 86.853 o
85.2453 112.996 o
88.4421 76.6879 o
91.3789 105.914 o
79.4515 76.0722 o
92.7092 110.317 o
87.4129 79.2809 o
84.9035 97.6947 o
91.5864 103.456 o
81.4625 123.804 o
83.1805 85.8377 o
91.7256 78.5167 o
90.8323 93.1233 o
89.9666 92.4796 o
86.5107 92.5374 o
81.1854 107.636 o
87.6935 123.487 o
77.9259 97.7981 o
grestore
0.000 1.000 1.000 setrgbcolor
gsave
196.6 126 47.88 36 clipbox
/o {
gsave
newpath
translate
0.5 setlinewidth
1 setlinejoin
0 setlinecap
0 -1 m
0.265203 -1 0.51958 -0.894634 0.707107 -0.707107 c
0.894634 -0.51958 1 -0.265203 1 0 c
1 0.265203 0.894634 0.51958 0.707107 0.707107 c
0.51958 0.894634 0.265203 1 0 1 c
-0.265203 1 -0.51958 0.894634 -0.707107 0.707107 c
-0.894634 0.51958 -1 0.265203 -1 0 c
-1 -0.265203 -0.894634 -0.51958 -0.707107 -0.707107 c
-0.51958 -0.894634 -0.265203 -1 0 -1 c
cl
gsave
0.000 1.000 1.000 setrgbcolor
fill
grestore
stroke
grestore
} bind def
81.9685 68.2232 o
85.8283 95.0619 o
79.6447 58.2815 o
88.0606 89.6483 o
81.0047 129.746 o
80.0971 112.234 o
87.3766 108.524 o
81.9231 73.415 o
79.6583 58.7134 o
88.78 94.4433 o
79.4829 71.4925 o
86.1985 131.396 o
79.5606 119.508 o
85.0979 60.5277 o
83.2327 102.215 o
82.734 80.3287 o
80.9604 131.234 o
83.9326 116.06 o
87.7915 67.0573 o
84.8407 88.874 o
86.5606 59.2495 o
83.4943 125.905 o
85.6702 117.181 o
84.3419 72.8546 o
92.6853 95.5483 o
92.1129 56.335 o
79.9902 102.267 o
86.9655 119.987 o
86.2866 108.487 o
84.705 50.9933 o
82.4168 114.983 o
86.6504 90.6538 o
91.025 98.7159 o
89.1129 57.8942 o
90.3493 130.596 o
89.0499 92.3621 o
83.6659 83.8188 o
88.9841 67.4071 o
87.796 89.4174 o
87.3647 54.7387 o
85.8026 95.065 o
87.3568 82.5757 o
91.025 103.749 o
87.977 110.317 o
89.5757 107.697 o
87.2363 99.8347 o
grestore
1.000 0.000 0.000 setrgbcolor
gsave
196.6 126 47.88 36 clipbox
/o {
gsave
newpath
translate
0.5 setlinewidth
1 setlinejoin
0 setlinecap
0 -1 m
0.265203 -1 0.51958 -0.894634 0.707107 -0.707107 c
0.894634 -0.51958 1 -0.265203 1 0 c
1 0.265203 0.894634 0.51958 0.707107 0.707107 c
0.51958 0.894634 0.265203 1 0 1 c
-0.265203 1 -0.51958 0.894634 -0.707107 0.707107 c
-0.894634 0.51958 -1 0.265203 -1 0 c
-1 -0.265203 -0.894634 -0.51958 -0.707107 -0.707107 c
-0.51958 -0.894634 -0.265203 -1 0 -1 c
cl
gsave
1.000 0.000 0.000 setrgbcolor
fill
grestore
stroke
grestore
} bind def
99.5018 127.35 o
108.782 119.632 o
105.198 121.995 o
99.9176 125.302 o
99.3095 122.468 o
104.367 121.365 o
103.624 115.222 o
107.451 118.373 o
105.531 113.332 o
93.8646 123.57 o
103.106 113.49 o
98.054 124.515 o
108.235 117.9 o
104.97 113.332 o
102.077 116.325 o
101.322 121.522 o
97.939 123.097 o
95.1549 126.248 o
grestore
1.000 setlinewidth
0 setlinejoin
2 setlinecap
0.000 setgray
gsave
47.88 162 m
244.44 162 l
stroke
grestore
gsave
244.44 36 m
244.44 162 l
stroke
grestore
gsave
47.88 36 m
244.44 36 l
stroke
grestore
gsave
47.88 36 m
47.88 162 l
stroke
grestore
0.500 setlinewidth
1 setlinejoin
0 setlinecap
gsave
/o {
gsave
newpath
translate
0.5 setlinewidth
1 setlinejoin
0 setlinecap
0 0 m
0 4 l
gsave
0.000 setgray
fill
grestore
stroke
grestore
} bind def
47.88 36 o
grestore
gsave
/o {
gsave
newpath
translate
0.5 setlinewidth
1 setlinejoin
0 setlinecap
0 0 m
0 -4 l
gsave
0.000 setgray
fill
grestore
stroke
grestore
} bind def
47.88 162 o
grestore
/BitstreamVeraSans-Roman findfont
6.000 scalefont
setfont
gsave
46.364375 27.437500 translate
0.000000 rotate
0.000000 0.000000 m /zero glyphshow
grestore
gsave
/o {
gsave
newpath
translate
0.5 setlinewidth
1 setlinejoin
0 setlinecap
0 0 m
0 4 l
gsave
0.000 setgray
fill
grestore
stroke
grestore
} bind def
75.96 36 o
grestore
gsave
/o {
gsave
newpath
translate
0.5 setlinewidth
1 setlinejoin
0 setlinecap
0 0 m
0 -4 l
gsave
0.000 setgray
fill
grestore
stroke
grestore
} bind def
75.96 162 o
grestore
gsave
72.670938 27.437500 translate
0.000000 rotate
0.000000 0.000000 m /one glyphshow
3.817383 0.000000 m /zero glyphshow
grestore
gsave
/o {
gsave
newpath
translate
0.5 setlinewidth
1 setlinejoin
0 setlinecap
0 0 m
0 4 l
gsave
0.000 setgray
fill
grestore
stroke
grestore
} bind def
104.04 36 o
grestore
gsave
/o {
gsave
newpath
translate
0.5 setlinewidth
1 setlinejoin
0 setlinecap
0 0 m
0 -4 l
gsave
0.000 setgray
fill
grestore
stroke
grestore
} bind def
104.04 162 o
grestore
gsave
100.641562 27.437500 translate
0.000000 rotate
0.000000 0.000000 m /two glyphshow
3.817383 0.000000 m /zero glyphshow
grestore
gsave
/o {
gsave
newpath
translate
0.5 setlinewidth
1 setlinejoin
0 setlinecap
0 0 m
0 4 l
gsave
0.000 setgray
fill
grestore
stroke
grestore
} bind def
132.12 36 o
grestore
gsave
/o {
gsave
newpath
translate
0.5 setlinewidth
1 setlinejoin
0 setlinecap
0 0 m
0 -4 l
gsave
0.000 setgray
fill
grestore
stroke
grestore
} bind def
132.12 162 o
grestore
gsave
128.729375 27.437500 translate
0.000000 rotate
0.000000 0.000000 m /three glyphshow
3.817383 0.000000 m /zero glyphshow
grestore
gsave
/o {
gsave
newpath
translate
0.5 setlinewidth
1 setlinejoin
0 setlinecap
0 0 m
0 4 l
gsave
0.000 setgray
fill
grestore
stroke
grestore
} bind def
160.2 36 o
grestore
gsave
/o {
gsave
newpath
translate
0.5 setlinewidth
1 setlinejoin
0 setlinecap
0 0 m
0 -4 l
gsave
0.000 setgray
fill
grestore
stroke
grestore
} bind def
160.2 162 o
grestore
gsave
156.731250 27.437500 translate
0.000000 rotate
0.000000 0.000000 m /four glyphshow
3.817383 0.000000 m /zero glyphshow
grestore
gsave
/o {
gsave
newpath
translate
0.5 setlinewidth
1 setlinejoin
0 setlinecap
0 0 m
0 4 l
gsave
0.000 setgray
fill
grestore
stroke
grestore
} bind def
188.28 36 o
grestore
gsave
/o {
gsave
newpath
translate
0.5 setlinewidth
1 setlinejoin
0 setlinecap
0 0 m
0 -4 l
gsave
0.000 setgray
fill
grestore
stroke
grestore
} bind def
188.28 162 o
grestore
gsave
184.897187 27.437500 translate
0.000000 rotate
0.000000 0.000000 m /five glyphshow
3.817383 0.000000 m /zero glyphshow
grestore
gsave
/o {
gsave
newpath
translate
0.5 setlinewidth
1 setlinejoin
0 setlinecap
0 0 m
0 4 l
gsave
0.000 setgray
fill
grestore
stroke
grestore
} bind def
216.36 36 o
grestore
gsave
/o {
gsave
newpath
translate
0.5 setlinewidth
1 setlinejoin
0 setlinecap
0 0 m
0 -4 l
gsave
0.000 setgray
fill
grestore
stroke
grestore
} bind def
216.36 162 o
grestore
gsave
212.953750 27.437500 translate
0.000000 rotate
0.000000 0.000000 m /six glyphshow
3.817383 0.000000 m /zero glyphshow
grestore
gsave
/o {
gsave
newpath
translate
0.5 setlinewidth
1 setlinejoin
0 setlinecap
0 0 m
0 4 l
gsave
0.000 setgray
fill
grestore
stroke
grestore
} bind def
244.44 36 o
grestore
gsave
/o {
gsave
newpath
translate
0.5 setlinewidth
1 setlinejoin
0 setlinecap
0 0 m
0 -4 l
gsave
0.000 setgray
fill
grestore
stroke
grestore
} bind def
244.44 162 o
grestore
gsave
241.072812 27.437500 translate
0.000000 rotate
0.000000 0.000000 m /seven glyphshow
3.817383 0.000000 m /zero glyphshow
grestore
gsave
133.660000 15.187500 translate
0.000000 rotate
/Cmr10 findfont
8.0 scalefont
setfont
0.000000 0.000000 moveto
/r glyphshow

/BitstreamVeraSans-Roman findfont
8.0 scalefont
setfont
3.128906 0.000000 moveto
/space glyphshow

/Cmr10 findfont
8.0 scalefont
setfont
5.671875 0.000000 moveto
/parenleft glyphshow

8.777344 0.000000 moveto
/k glyphshow

12.992188 0.000000 moveto
/p glyphshow

17.433594 0.000000 moveto
/c glyphshow

20.984375 0.000000 moveto
/parenright glyphshow


grestore
gsave
/o {
gsave
newpath
translate
0.5 setlinewidth
1 setlinejoin
0 setlinecap
0 0 m
4 0 l
gsave
0.000 setgray
fill
grestore
stroke
grestore
} bind def
47.88 36 o
grestore
gsave
/o {
gsave
newpath
translate
0.5 setlinewidth
1 setlinejoin
0 setlinecap
0 0 m
-4 0 l
gsave
0.000 setgray
fill
grestore
stroke
grestore
} bind def
244.44 36 o
grestore
gsave
28.442500 34.343750 translate
0.000000 rotate
0.000000 0.000000 m /minus glyphshow
5.027344 0.000000 m /four glyphshow
8.844727 0.000000 m /zero glyphshow
12.662109 0.000000 m /zero glyphshow
grestore
gsave
/o {
gsave
newpath
translate
0.5 setlinewidth
1 setlinejoin
0 setlinecap
0 0 m
4 0 l
gsave
0.000 setgray
fill
grestore
stroke
grestore
} bind def
47.88 51.75 o
grestore
gsave
/o {
gsave
newpath
translate
0.5 setlinewidth
1 setlinejoin
0 setlinecap
0 0 m
-4 0 l
gsave
0.000 setgray
fill
grestore
stroke
grestore
} bind def
244.44 51.75 o
grestore
gsave
28.442500 50.093750 translate
0.000000 rotate
0.000000 0.000000 m /minus glyphshow
5.027344 0.000000 m /three glyphshow
8.844727 0.000000 m /zero glyphshow
12.662109 0.000000 m /zero glyphshow
grestore
gsave
/o {
gsave
newpath
translate
0.5 setlinewidth
1 setlinejoin
0 setlinecap
0 0 m
4 0 l
gsave
0.000 setgray
fill
grestore
stroke
grestore
} bind def
47.88 67.5 o
grestore
gsave
/o {
gsave
newpath
translate
0.5 setlinewidth
1 setlinejoin
0 setlinecap
0 0 m
-4 0 l
gsave
0.000 setgray
fill
grestore
stroke
grestore
} bind def
244.44 67.5 o
grestore
gsave
28.442500 65.843750 translate
0.000000 rotate
0.000000 0.000000 m /minus glyphshow
5.027344 0.000000 m /two glyphshow
8.844727 0.000000 m /zero glyphshow
12.662109 0.000000 m /zero glyphshow
grestore
gsave
/o {
gsave
newpath
translate
0.5 setlinewidth
1 setlinejoin
0 setlinecap
0 0 m
4 0 l
gsave
0.000 setgray
fill
grestore
stroke
grestore
} bind def
47.88 83.25 o
grestore
gsave
/o {
gsave
newpath
translate
0.5 setlinewidth
1 setlinejoin
0 setlinecap
0 0 m
-4 0 l
gsave
0.000 setgray
fill
grestore
stroke
grestore
} bind def
244.44 83.25 o
grestore
gsave
28.442500 81.593750 translate
0.000000 rotate
0.000000 0.000000 m /minus glyphshow
5.027344 0.000000 m /one glyphshow
8.844727 0.000000 m /zero glyphshow
12.662109 0.000000 m /zero glyphshow
grestore
gsave
/o {
gsave
newpath
translate
0.5 setlinewidth
1 setlinejoin
0 setlinecap
0 0 m
4 0 l
gsave
0.000 setgray
fill
grestore
stroke
grestore
} bind def
47.88 99 o
grestore
gsave
/o {
gsave
newpath
translate
0.5 setlinewidth
1 setlinejoin
0 setlinecap
0 0 m
-4 0 l
gsave
0.000 setgray
fill
grestore
stroke
grestore
} bind def
244.44 99 o
grestore
gsave
40.848750 97.343750 translate
0.000000 rotate
0.000000 0.000000 m /zero glyphshow
grestore
gsave
/o {
gsave
newpath
translate
0.5 setlinewidth
1 setlinejoin
0 setlinecap
0 0 m
4 0 l
gsave
0.000 setgray
fill
grestore
stroke
grestore
} bind def
47.88 114.75 o
grestore
gsave
/o {
gsave
newpath
translate
0.5 setlinewidth
1 setlinejoin
0 setlinecap
0 0 m
-4 0 l
gsave
0.000 setgray
fill
grestore
stroke
grestore
} bind def
244.44 114.75 o
grestore
gsave
33.489375 113.093750 translate
0.000000 rotate
0.000000 0.000000 m /one glyphshow
3.817383 0.000000 m /zero glyphshow
7.634766 0.000000 m /zero glyphshow
grestore
gsave
/o {
gsave
newpath
translate
0.5 setlinewidth
1 setlinejoin
0 setlinecap
0 0 m
4 0 l
gsave
0.000 setgray
fill
grestore
stroke
grestore
} bind def
47.88 130.5 o
grestore
gsave
/o {
gsave
newpath
translate
0.5 setlinewidth
1 setlinejoin
0 setlinecap
0 0 m
-4 0 l
gsave
0.000 setgray
fill
grestore
stroke
grestore
} bind def
244.44 130.5 o
grestore
gsave
33.270625 128.843750 translate
0.000000 rotate
0.000000 0.000000 m /two glyphshow
3.817383 0.000000 m /zero glyphshow
7.634766 0.000000 m /zero glyphshow
grestore
gsave
/o {
gsave
newpath
translate
0.5 setlinewidth
1 setlinejoin
0 setlinecap
0 0 m
4 0 l
gsave
0.000 setgray
fill
grestore
stroke
grestore
} bind def
47.88 146.25 o
grestore
gsave
/o {
gsave
newpath
translate
0.5 setlinewidth
1 setlinejoin
0 setlinecap
0 0 m
-4 0 l
gsave
0.000 setgray
fill
grestore
stroke
grestore
} bind def
244.44 146.25 o
grestore
gsave
33.286250 144.593750 translate
0.000000 rotate
0.000000 0.000000 m /three glyphshow
3.817383 0.000000 m /zero glyphshow
7.634766 0.000000 m /zero glyphshow
grestore
gsave
/o {
gsave
newpath
translate
0.5 setlinewidth
1 setlinejoin
0 setlinecap
0 0 m
4 0 l
gsave
0.000 setgray
fill
grestore
stroke
grestore
} bind def
47.88 162 o
grestore
gsave
/o {
gsave
newpath
translate
0.5 setlinewidth
1 setlinejoin
0 setlinecap
0 0 m
-4 0 l
gsave
0.000 setgray
fill
grestore
stroke
grestore
} bind def
244.44 162 o
grestore
gsave
33.130000 160.343750 translate
0.000000 rotate
0.000000 0.000000 m /four glyphshow
3.817383 0.000000 m /zero glyphshow
7.634766 0.000000 m /zero glyphshow
grestore
gsave
20.442500 76.000000 translate
90.000000 rotate
/Cmmi10 findfont
8.0 scalefont
setfont
0.000000 0.921875 moveto
/v glyphshow

/BitstreamVeraSans-Roman findfont
8.0 scalefont
setfont
3.871094 0.921875 moveto
/space glyphshow

/Cmr10 findfont
5.6 scalefont
setfont
6.414062 -1.166125 moveto
/G glyphshow

10.805469 -1.166125 moveto
/S glyphshow

13.914453 -1.166125 moveto
/R glyphshow

/BitstreamVeraSans-Roman findfont
8.0 scalefont
setfont
18.035156 0.921875 moveto
/space glyphshow

20.578125 0.921875 moveto
/parenleft glyphshow

23.699219 0.921875 moveto
/k glyphshow

28.332031 0.921875 moveto
/m glyphshow

36.125000 0.921875 moveto
/slash glyphshow

38.695312 0.921875 moveto
/s glyphshow

42.863281 0.921875 moveto
/parenright glyphshow


grestore

end
showpage
