%!PS-Adobe-3.0 EPSF-3.0
%%Title: /Users/iuliasimion/bullock_johnston/denis_erkal/vasily/Figures/69684_1351496.0_lb.eps
%%Creator: matplotlib version 1.4.3, http://matplotlib.org/
%%CreationDate: Sat Aug 19 14:41:38 2017
%%Orientation: portrait
%%BoundingBox: 180 306 432 486
%%EndComments
%%BeginProlog
/mpldict 10 dict def
mpldict begin
/m { moveto } bind def
/l { lineto } bind def
/r { rlineto } bind def
/c { curveto } bind def
/cl { closepath } bind def
/box {
m
1 index 0 r
0 exch r
neg 0 r
cl
} bind def
/clipbox {
box
clip
newpath
} bind def
%!PS-Adobe-3.0 Resource-Font
%%Title: Bitstream Vera Sans
%%Copyright: Copyright (c) 2003 by Bitstream, Inc. All Rights Reserved.
%%Creator: Converted from TrueType to type 3 by PPR
25 dict begin
/_d{bind def}bind def
/_m{moveto}_d
/_l{lineto}_d
/_cl{closepath eofill}_d
/_c{curveto}_d
/_sc{7 -1 roll{setcachedevice}{pop pop pop pop pop pop}ifelse}_d
/_e{exec}_d
/FontName /BitstreamVeraSans-Roman def
/PaintType 0 def
/FontMatrix[.001 0 0 .001 0 0]def
/FontBBox[-183 -236 1287 928]def
/FontType 3 def
/Encoding [ /space /zero /one /three /five /equal /N /minus ] def
/FontInfo 10 dict dup begin
/FamilyName (Bitstream Vera Sans) def
/FullName (Bitstream Vera Sans) def
/Notice (Copyright (c) 2003 by Bitstream, Inc. All Rights Reserved. Bitstream Vera is a trademark of Bitstream, Inc.) def
/Weight (Roman) def
/Version (Release 1.10) def
/ItalicAngle 0.0 def
/isFixedPitch false def
/UnderlinePosition -213 def
/UnderlineThickness 143 def
end readonly def
/CharStrings 8 dict dup begin
/space{318 0 0 0 0 0 _sc
}_d
/zero{636 0 66 -13 570 742 _sc
318 664 _m
267 664 229 639 203 589 _c
177 539 165 464 165 364 _c
165 264 177 189 203 139 _c
229 89 267 64 318 64 _c
369 64 407 89 433 139 _c
458 189 471 264 471 364 _c
471 464 458 539 433 589 _c
407 639 369 664 318 664 _c
318 742 _m
399 742 461 709 505 645 _c
548 580 570 486 570 364 _c
570 241 548 147 505 83 _c
461 19 399 -13 318 -13 _c
236 -13 173 19 130 83 _c
87 147 66 241 66 364 _c
66 486 87 580 130 645 _c
173 709 236 742 318 742 _c
_cl}_d
/one{636 0 110 0 544 729 _sc
124 83 _m
285 83 _l
285 639 _l
110 604 _l
110 694 _l
284 729 _l
383 729 _l
383 83 _l
544 83 _l
544 0 _l
124 0 _l
124 83 _l
_cl}_d
/three{{636 0 76 -13 556 742 _sc
406 393 _m
453 383 490 362 516 330 _c
542 298 556 258 556 212 _c
556 140 531 84 482 45 _c
432 6 362 -13 271 -13 _c
240 -13 208 -10 176 -4 _c
144 1 110 10 76 22 _c
76 117 _l
103 101 133 89 166 81 _c
198 73 232 69 268 69 _c
330 69 377 81 409 105 _c
441 129 458 165 458 212 _c
458 254 443 288 413 312 _c
383 336 341 349 287 349 _c
}_e{202 349 _l
202 430 _l
291 430 _l
339 430 376 439 402 459 _c
428 478 441 506 441 543 _c
441 580 427 609 401 629 _c
374 649 336 659 287 659 _c
260 659 231 656 200 650 _c
169 644 135 635 98 623 _c
98 711 _l
135 721 170 729 203 734 _c
235 739 266 742 296 742 _c
370 742 429 725 473 691 _c
517 657 539 611 539 553 _c
539 513 527 479 504 451 _c
481 423 448 403 406 393 _c
_cl}_e}_d
/five{{636 0 77 -13 549 729 _sc
108 729 _m
495 729 _l
495 646 _l
198 646 _l
198 467 _l
212 472 227 476 241 478 _c
255 480 270 482 284 482 _c
365 482 429 459 477 415 _c
525 370 549 310 549 234 _c
549 155 524 94 475 51 _c
426 8 357 -13 269 -13 _c
238 -13 207 -10 175 -6 _c
143 -1 111 6 77 17 _c
77 116 _l
106 100 136 88 168 80 _c
199 72 232 69 267 69 _c
}_e{323 69 368 83 401 113 _c
433 143 450 183 450 234 _c
450 284 433 324 401 354 _c
368 384 323 399 267 399 _c
241 399 214 396 188 390 _c
162 384 135 375 108 363 _c
108 729 _l
_cl}_e}_d
/equal{838 0 106 172 732 454 _sc
106 454 _m
732 454 _l
732 372 _l
106 372 _l
106 454 _l
106 255 _m
732 255 _l
732 172 _l
106 172 _l
106 255 _l
_cl}_d
/N{748 0 98 0 650 729 _sc
98 729 _m
231 729 _l
554 119 _l
554 729 _l
650 729 _l
650 0 _l
517 0 _l
194 610 _l
194 0 _l
98 0 _l
98 729 _l
_cl}_d
/minus{838 0 106 272 732 355 _sc
106 355 _m
732 355 _l
732 272 _l
106 272 _l
106 355 _l
_cl}_d
end readonly def

/BuildGlyph
 {exch begin
 CharStrings exch
 2 copy known not{pop /.notdef}if
 true 3 1 roll get exec
 end}_d

/BuildChar {
 1 index /Encoding get exch get
 1 index /BuildGlyph get exec
}_d

FontName currentdict end definefont pop
%!PS-Adobe-3.0 Resource-Font
%%Title: cmsy10
%%Copyright: Copyright (C) 1994, Basil K. Malyshev. All Rights Reserved.012BaKoMa Fonts Collection, Level-B.
%%Creator: Converted from TrueType to type 3 by PPR
25 dict begin
/_d{bind def}bind def
/_m{moveto}_d
/_l{lineto}_d
/_cl{closepath eofill}_d
/_c{curveto}_d
/_sc{7 -1 roll{setcachedevice}{pop pop pop pop pop pop}ifelse}_d
/_e{exec}_d
/FontName /Cmsy10 def
/PaintType 0 def
/FontMatrix[.001 0 0 .001 0 0]def
/FontBBox[-29 -960 1123 779]def
/FontType 3 def
/Encoding [ /openbullet ] def
/FontInfo 10 dict dup begin
/FamilyName (cmsy10) def
/FullName (cmsy10) def
/Notice (Copyright (C) 1994, Basil K. Malyshev. All Rights Reserved.012BaKoMa Fonts Collection, Level-B. ) def
/Weight (Regular) def
/Version (1.1/12-Nov-94) def
/ItalicAngle 0.0 def
/isFixedPitch false def
/UnderlinePosition -133 def
/UnderlineThickness 20 def
end readonly def
/CharStrings 1 dict dup begin
/openbullet{{500 0 56 56 443 444 _sc
250 56 _m
215 56 183 64 153 82 _c
123 99 100 123 82 153 _c
64 183 56 216 56 250 _c
56 284 64 316 82 346 _c
100 376 123 400 153 418 _c
183 435 215 444 250 444 _c
284 444 316 435 346 417 _c
376 399 399 376 417 346 _c
434 316 443 284 443 250 _c
443 216 434 184 417 154 _c
399 124 376 100 346 82 _c
316 64 284 56 250 56 _c
250 96 _m
}_e{292 96 328 111 358 142 _c
388 172 403 208 403 250 _c
403 276 396 302 382 326 _c
368 350 349 369 326 383 _c
302 397 277 404 250 404 _c
229 404 209 400 191 392 _c
173 384 156 372 142 358 _c
127 343 116 326 108 308 _c
100 290 96 270 96 250 _c
96 208 111 172 141 142 _c
171 111 208 96 250 96 _c
_cl}_e}_d
end readonly def

/BuildGlyph
 {exch begin
 CharStrings exch
 2 copy known not{pop /.notdef}if
 true 3 1 roll get exec
 end}_d

/BuildChar {
 1 index /Encoding get exch get
 1 index /BuildGlyph get exec
}_d

FontName currentdict end definefont pop
%!PS-Adobe-3.0 Resource-Font
%%Title: cmr10
%%Copyright: Copyright (C) 1994, Basil K. Malyshev. All Rights Reserved.012BaKoMa Fonts Collection, Level-B.
%%Creator: Converted from TrueType to type 3 by PPR
25 dict begin
/_d{bind def}bind def
/_m{moveto}_d
/_l{lineto}_d
/_cl{closepath eofill}_d
/_c{curveto}_d
/_sc{7 -1 roll{setcachedevice}{pop pop pop pop pop pop}ifelse}_d
/_e{exec}_d
/FontName /Cmr10 def
/PaintType 0 def
/FontMatrix[.001 0 0 .001 0 0]def
/FontBBox[-44 -250 1009 750]def
/FontType 3 def
/Encoding [ /b /parenright /l /parenleft ] def
/FontInfo 10 dict dup begin
/FamilyName (cmr10) def
/FullName (cmr10) def
/Notice (Copyright (C) 1994, Basil K. Malyshev. All Rights Reserved.012BaKoMa Fonts Collection, Level-B. ) def
/Weight (Regular) def
/Version (1.1/12-Nov-94) def
/ItalicAngle 0.0 def
/isFixedPitch false def
/UnderlinePosition -133 def
/UnderlineThickness 20 def
end readonly def
/CharStrings 4 dict dup begin
/b{{555 0 26 -10 522 694 _sc
104 0 _m
104 592 _l
104 610 101 623 96 631 _c
90 639 83 643 73 645 _c
63 647 47 648 26 648 _c
26 683 _l
174 694 _l
174 381 _l
184 393 197 403 212 413 _c
227 422 243 429 260 434 _c
277 439 294 442 312 442 _c
342 442 369 436 395 424 _c
421 412 443 395 462 374 _c
480 352 495 328 506 301 _c
516 273 522 245 522 216 _c
522 175 512 137 492 103 _c
}_e{472 68 446 40 412 20 _c
378 0 340 -10 300 -10 _c
274 -10 250 -3 226 9 _c
202 21 182 38 167 60 _c
133 0 _l
104 0 _l
177 98 _m
187 74 203 54 224 38 _c
245 22 268 15 294 15 _c
328 15 356 25 378 45 _c
399 65 414 90 422 120 _c
430 150 435 182 435 216 _c
435 272 427 314 413 344 _c
406 357 397 369 386 380 _c
375 391 363 400 349 406 _c
}_e{335 412 320 416 305 416 _c
278 416 253 409 231 395 _c
208 381 190 362 177 338 _c
177 98 _l
_cl}_e}_d
/parenright{{388 0 56 -249 291 750 _sc
65 -249 _m
59 -249 56 -246 56 -240 _c
56 -237 56 -235 58 -234 _c
172 -122 229 38 229 250 _c
229 462 172 623 60 733 _c
57 734 56 737 56 741 _c
56 743 57 745 59 747 _c
61 749 63 750 65 750 _c
74 750 _l
76 750 77 749 79 748 _c
127 710 167 664 199 610 _c
231 556 254 498 269 437 _c
283 376 291 314 291 250 _c
291 202 287 156 279 110 _c
}_e{271 64 258 20 241 -24 _c
223 -68 201 -108 175 -146 _c
148 -184 116 -217 79 -247 _c
77 -248 76 -249 74 -249 _c
65 -249 _l
_cl}_e}_d
/l{277 0 31 0 257 694 _sc
31 0 _m
31 35 _l
53 35 72 36 87 40 _c
101 44 109 53 109 67 _c
109 592 _l
109 610 106 623 101 631 _c
95 639 88 643 78 645 _c
68 647 52 648 31 648 _c
31 683 _l
179 694 _l
179 67 _l
179 53 186 44 201 40 _c
215 36 234 35 257 35 _c
257 0 _l
31 0 _l
_cl}_d
/parenleft{{388 0 97 -249 332 750 _sc
310 -247 _m
272 -217 240 -184 214 -146 _c
187 -108 165 -67 148 -25 _c
131 17 118 62 110 109 _c
101 155 97 202 97 250 _c
97 298 101 345 110 392 _c
118 438 131 483 149 527 _c
166 570 188 611 215 649 _c
242 687 274 720 310 748 _c
310 749 311 750 315 750 _c
324 750 _l
326 750 327 749 329 747 _c
331 745 332 743 332 741 _c
332 738 331 736 330 735 _c
}_e{297 703 270 668 248 632 _c
226 596 209 557 196 516 _c
183 474 174 432 168 388 _c
162 344 159 298 159 250 _c
159 38 215 -122 329 -232 _c
331 -234 332 -236 332 -240 _c
332 -242 331 -244 329 -246 _c
327 -248 326 -249 324 -249 _c
315 -249 _l
311 -249 310 -248 310 -247 _c
_cl}_e}_d
end readonly def

/BuildGlyph
 {exch begin
 CharStrings exch
 2 copy known not{pop /.notdef}if
 true 3 1 roll get exec
 end}_d

/BuildChar {
 1 index /Encoding get exch get
 1 index /BuildGlyph get exec
}_d

FontName currentdict end definefont pop
end
%%EndProlog
mpldict begin
180 306 translate
252 180 0 0 clipbox
gsave
0 0 m
252 0 l
252 180 l
0 180 l
cl
1.000 setgray
fill
grestore
gsave
47.88 36 m
244.44 36 l
244.44 162 l
47.88 162 l
cl
1.000 setgray
fill
grestore
0.500 setlinewidth
1 setlinejoin
0 setlinecap
[] 0 setdash
0.000 setgray
gsave
196.6 126 47.88 36 clipbox
/o {
gsave
newpath
translate
0.5 setlinewidth
1 setlinejoin
0 setlinecap
0 -0.25 m
0.0663008 -0.25 0.129895 -0.223658 0.176777 -0.176777 c
0.223658 -0.129895 0.25 -0.0663008 0.25 0 c
0.25 0.0663008 0.223658 0.129895 0.176777 0.176777 c
0.129895 0.223658 0.0663008 0.25 0 0.25 c
-0.0663008 0.25 -0.129895 0.223658 -0.176777 0.176777 c
-0.223658 0.129895 -0.25 0.0663008 -0.25 0 c
-0.25 -0.0663008 -0.223658 -0.129895 -0.176777 -0.176777 c
-0.129895 -0.223658 -0.0663008 -0.25 0 -0.25 c
cl
gsave
0.000 setgray
fill
grestore
stroke
grestore
} bind def
138.074 99.8552 o
84.2964 105.684 o
184.926 102.737 o
157.311 103.978 o
155.772 112.777 o
135.928 100.134 o
116.861 100.949 o
166.164 94.8963 o
237.553 88.0031 o
132.151 96.9505 o
214.507 93.3434 o
190.865 97.6909 o
136.605 95.9028 o
136.564 97.0768 o
129.353 94.5059 o
160.927 107.784 o
211.253 99.308 o
176.252 95.4523 o
151.46 113.042 o
150.139 101.461 o
158.048 93.3842 o
147.426 88.4495 o
217.292 99.4725 o
133.779 102.939 o
93.5171 103.609 o
243.022 140.138 o
208.687 102.032 o
119.11 95.5156 o
128.714 113.306 o
151.011 81.825 o
167.776 104.57 o
159.311 97.8226 o
169.093 105.339 o
132.702 85.1939 o
70.8327 101.851 o
155.67 95.8489 o
197.618 122.193 o
148.529 95.8933 o
140.224 101.076 o
146.586 103.359 o
163.024 109.867 o
222.509 61.0242 o
87.1415 143.302 o
158.844 98.9084 o
164.337 92.2126 o
120.026 109.912 o
184.396 94.0869 o
196.724 73.887 o
107.668 96.6329 o
143.581 100.241 o
132.988 105.938 o
173.383 110.579 o
185.093 130.472 o
152.845 85.7038 o
150.332 97.153 o
123.935 106.849 o
95.1551 84.0051 o
183.971 97.5125 o
142.728 107.787 o
156.284 86.2601 o
171.703 78.45 o
184.085 118.528 o
127.643 72.1609 o
140.423 100.063 o
122.402 97.0223 o
141.247 100.762 o
133.751 107.151 o
120.565 107.117 o
127.942 101.602 o
99.9243 92.2808 o
98.1363 95.3484 o
107.981 99.0332 o
206.493 66.1522 o
83.8035 92.6943 o
114.257 97.8554 o
152.517 104.818 o
138.178 100.044 o
128.993 76.6374 o
217.885 104.974 o
135.704 70.1687 o
48.9363 88.7863 o
157.942 98.6951 o
120.297 105.52 o
153.144 91.5699 o
163.542 107.482 o
173.39 104.549 o
109.592 85.5923 o
130.99 94.7784 o
139.441 96.6867 o
181.521 101.503 o
217.707 106.804 o
53.5266 94.4885 o
174.899 105.557 o
195.154 99.805 o
218.298 111.087 o
128.559 98.2692 o
174.82 124.35 o
175.305 114.062 o
66.0687 84.3127 o
124.589 92.3642 o
147.588 102.026 o
106.452 112.539 o
131.19 105.018 o
227.466 105.414 o
183.34 93.2081 o
72.4816 52.7725 o
157.556 67.8451 o
60.257 119.735 o
138.936 107.087 o
182.85 75.7788 o
132.042 102.579 o
146.226 103.012 o
144.558 93.473 o
136.53 65.2772 o
114.117 99.71 o
143.852 87.822 o
147.371 100.044 o
166.896 115.594 o
157.953 93.8713 o
88.4703 115.274 o
146.489 101.673 o
141.692 103.521 o
133.663 98.9285 o
155.445 95.5649 o
176.575 87.4081 o
83.7673 74.6083 o
155.552 89.0721 o
97.209 72.615 o
130.525 99.1633 o
177.424 80.6818 o
159.129 98.0892 o
208.761 103.201 o
216.593 95.4942 o
155.488 99.521 o
186.609 101.676 o
79.0886 137.765 o
156.081 82.2047 o
170.299 94.3923 o
227.201 83.0171 o
148.043 94.099 o
153.858 98.6583 o
86.2384 91.5232 o
109.386 91.354 o
65.4231 145.086 o
95.3923 99.3179 o
230.365 112.608 o
117.122 101.123 o
93.7958 90.7563 o
174.952 105.28 o
176.774 108.553 o
132.649 110.666 o
175.006 79.1056 o
133.205 114.102 o
111.484 86.1198 o
161.01 88.9366 o
152.24 116.655 o
146.557 98.695 o
106.801 106.567 o
243.892 87.8369 o
123.752 47.93 o
171.36 90.2432 o
155.518 95.6789 o
151.198 116.61 o
146.659 76.6808 o
166.7 95.5426 o
130.885 85.3141 o
180.153 106.462 o
124.696 98.0897 o
154.935 107.243 o
54.406 94.8105 o
206.483 123.177 o
134.318 102.252 o
169.861 111.088 o
144.37 97.3476 o
60.9264 136.722 o
133.187 100.259 o
162.649 65.213 o
183.784 108.776 o
139.069 104.732 o
165.679 89.5298 o
65.1749 142.273 o
168.512 66.9293 o
132.577 118.79 o
181.94 90.9878 o
83.4509 102.764 o
238.711 58.1818 o
142.941 127.061 o
115.965 93.638 o
129.456 100.447 o
127.347 91.0594 o
195.918 104.545 o
121.239 71.1623 o
166.843 112.249 o
59.5959 96.6864 o
166.363 114.065 o
200.311 128.138 o
56.413 105.719 o
111.888 90.7491 o
161.169 108.379 o
145.103 133.556 o
110.017 79.3647 o
140.911 101.616 o
156.09 131.08 o
192.371 115.7 o
137.831 108.538 o
67.8341 149.016 o
220.366 133.328 o
143.666 87.9849 o
229.193 137.842 o
68.7476 125.079 o
224.93 81.4881 o
129.281 151.432 o
125.249 128.914 o
117.982 135.832 o
88.8552 78.6507 o
116.605 87.7318 o
201.936 111.867 o
161.921 107.525 o
142.406 90.9675 o
134.59 106.512 o
182.713 97.0419 o
54.1248 81.0325 o
242.425 76.3289 o
186.372 121.723 o
132.394 46.2993 o
82.9837 118.164 o
181.112 85.5973 o
205.433 64.561 o
225.973 82.9512 o
122.715 108.139 o
149.629 96.1995 o
88.1905 158.418 o
165.362 119.88 o
88.1964 118.647 o
100.246 97.0933 o
184.906 95.6649 o
170.979 103.27 o
94.014 60.0535 o
91.9393 96.3895 o
168.425 109.31 o
181.377 57.6929 o
170.352 103.635 o
178.628 103.566 o
188.625 96.5829 o
168.679 97.7037 o
167.761 100.341 o
50.1235 137.461 o
150.225 94.2091 o
165.469 98.2063 o
189.751 94.0605 o
214.357 52.2162 o
134.226 95.6285 o
127.729 124.613 o
99.6223 56.4892 o
86.4882 101.59 o
71.4809 88.4482 o
182.278 110.7 o
48.9191 68.937 o
160.192 85.8387 o
166.265 75.5009 o
74.7129 105.553 o
227.078 109.435 o
207.078 110.386 o
83.8809 118.668 o
133.622 127.539 o
120.474 77.754 o
141.696 76.3965 o
53.8691 94.724 o
138.6 87.4464 o
103.441 124.822 o
138.915 53.6644 o
180.945 98.6728 o
82.9287 75.4652 o
128.503 91.6879 o
217.605 136.97 o
126.079 105.989 o
104.957 89.6112 o
144.995 137.61 o
173.461 88.6754 o
114.949 101.715 o
183.222 106.307 o
173.526 102.226 o
164.853 95.0599 o
150.321 96.1152 o
118.407 84.0146 o
221.94 96.4178 o
159.768 92.9829 o
197.058 127.302 o
161.64 83.8572 o
76.3797 141.607 o
134.365 95.6293 o
127.881 129.588 o
159.774 72.1406 o
153.485 92.4293 o
49.1465 116.943 o
178.526 64.9634 o
133.422 113.469 o
133.59 70.4395 o
73.8772 76.9338 o
164.497 75.1162 o
50.136 76.0651 o
228.736 72.5798 o
153.494 105.897 o
207.639 66.3396 o
177.55 93.9264 o
207.679 69.7349 o
171.697 108.416 o
77.8479 104.848 o
236.712 125.133 o
137.896 85.8852 o
112.817 123.039 o
124.349 127.55 o
172.217 42.6804 o
193.768 82.452 o
191.715 123.04 o
146.439 87.0673 o
216.961 51.5127 o
188.008 111.02 o
156.033 115.04 o
74.4014 100.863 o
185.906 67.4145 o
175.292 96.1389 o
226.177 89.6126 o
217.659 117.531 o
200.272 79.9511 o
200.011 99.9669 o
85.3341 147.75 o
205.405 89.0377 o
156.719 47.5483 o
152.543 88.0932 o
87.0523 113.107 o
139.033 57.2996 o
154.513 85.4074 o
149.649 98.6457 o
173.84 109.269 o
113.116 119.348 o
145.052 93.7398 o
181.138 103.059 o
194.042 110.52 o
221.568 75.7069 o
221.321 110.289 o
178.488 55.8872 o
83.8635 88.7455 o
157.628 106.359 o
136.07 94.7026 o
156.767 101.546 o
225.461 74.19 o
161.389 92.7607 o
227.467 72.5608 o
187.016 115.558 o
126.653 91.0253 o
153.269 67.9009 o
139.765 104.356 o
133.524 129.605 o
131.362 106.844 o
146.798 87.9448 o
197.487 51.4341 o
241.936 84.5914 o
185.36 59.5287 o
150.768 92.0946 o
172.54 121.95 o
238.924 117.27 o
147.684 100.076 o
109.462 107.578 o
168.097 109.326 o
182.669 96.7146 o
139.281 100.981 o
60.4653 116.112 o
140.034 128.467 o
114.68 111.086 o
122.353 94.3412 o
72.2529 139.517 o
168.594 78.7413 o
195.514 93.0906 o
185.12 101.456 o
152.524 104.478 o
193.695 98.7219 o
121.596 98.4459 o
123.832 56.0566 o
227.407 104.242 o
139.698 107.989 o
126.442 90.8653 o
220.794 50.8621 o
152.114 81.6286 o
161.849 113.439 o
73.3622 83.4455 o
157.863 119.365 o
162.62 102.35 o
60.7469 124.538 o
148.715 102.206 o
126.914 109.884 o
125.43 101.068 o
162.471 112.818 o
189.603 103.768 o
115.305 101.027 o
194.483 80.9664 o
186.368 92.5043 o
194.404 80.7845 o
105.066 76.5966 o
162.519 95.9263 o
198.122 90.9283 o
181.723 84.7324 o
151.262 102.743 o
204.266 117.214 o
106.795 137.492 o
168.12 64.389 o
95.1387 81.37 o
150.816 102.052 o
123.709 92.6392 o
113.778 136.208 o
134.448 98.0037 o
163.827 127.779 o
226.282 65.589 o
154.338 68.3657 o
154.98 81.8354 o
142.406 92.5367 o
148.335 94.7155 o
133.016 110.685 o
146.783 81.2428 o
152.864 102.734 o
145.023 78.0786 o
224.06 81.3885 o
142.074 93.5351 o
151.995 131.493 o
126.729 97.955 o
121.778 125.42 o
103.191 105.847 o
76.1073 81.7915 o
229.509 124.626 o
157.409 107.379 o
140.723 80.1975 o
145.964 83.4378 o
116.272 91.4703 o
149.147 107.338 o
90.2586 73.69 o
157.692 96.6676 o
198.045 132.154 o
180.73 100.668 o
64.4847 69.8051 o
141.011 136.957 o
162.479 97.4666 o
146.878 103.005 o
201.626 91.0647 o
113.707 101.129 o
194.364 57.4612 o
192.01 98.5004 o
223.61 120.714 o
201.067 71.2141 o
51.7456 132.131 o
153.356 82.3019 o
140.864 100.275 o
114.894 96.2011 o
50.1998 136.67 o
177.886 113.427 o
155.851 110.754 o
189.676 59.4535 o
49.5472 96.0668 o
197.735 106.846 o
145.44 56.3846 o
149.535 81.4677 o
168.291 69.9161 o
166.143 113.069 o
103.876 71.944 o
191.856 106.142 o
195.483 53.3243 o
135.572 73.3966 o
234.684 97.3391 o
152.626 116.501 o
186.099 95.9946 o
158.805 80.2221 o
142.994 85.6114 o
154.849 98.3763 o
123.626 92.3037 o
144.511 102.299 o
61.7077 59.9811 o
121.927 128.347 o
243.362 100.134 o
125.294 80.8211 o
201.172 115.184 o
112.719 123.636 o
100.304 82.708 o
166.141 118.527 o
167.772 85.9238 o
166.225 103.909 o
184.252 106.925 o
180.578 115.676 o
144.64 155.206 o
135.627 95.8922 o
102.358 71.5448 o
125.449 121.145 o
200.58 94.1574 o
120.288 79.5598 o
101.588 103.362 o
180.192 71.7685 o
55.2293 51.9923 o
233.124 103.506 o
88.9626 61.7129 o
142.16 99.1553 o
152.072 125.425 o
213.474 91.6778 o
227.342 81.0986 o
196.475 103.105 o
134.211 99.5566 o
147.752 108.679 o
121.311 96.8847 o
66.4498 71.9871 o
74.0269 93.1246 o
146.907 95.7005 o
121.549 123.26 o
189.374 145.47 o
128.833 133.794 o
125.507 109.669 o
190.658 115.082 o
159.754 61.3697 o
172.498 136.426 o
125.039 131.693 o
144.185 125.991 o
171.577 100.952 o
240.294 74.3962 o
53.7873 81.2544 o
128.74 87.4178 o
142.216 106.196 o
76.9882 73.4676 o
232.15 116.077 o
154.006 108.65 o
109.179 127.55 o
116.611 105.09 o
152.14 100.743 o
161.298 93.4785 o
137.97 105.99 o
57.3124 65.7271 o
155.874 108.231 o
165.468 92.3249 o
105.801 72.7341 o
157.276 141.017 o
54.1296 131.627 o
53.7441 112.588 o
184.475 104.31 o
185.091 98.757 o
120.538 103.997 o
137.621 96.8242 o
162.914 96.7822 o
100.436 116.116 o
54.9596 54.3751 o
174.748 138.781 o
152.533 136.039 o
224.494 92.8826 o
211.711 77.6053 o
156.572 94.2735 o
54.7694 45.9823 o
59.493 108.51 o
80.8409 90.2299 o
88.725 102.167 o
122.466 89.0503 o
64.5365 106.628 o
130.743 86.2396 o
140.54 54.7011 o
182.594 107.411 o
116.408 113.208 o
179.307 120.821 o
117.197 97.6545 o
170.458 94.9801 o
208.802 86.2645 o
192.103 139.853 o
128.449 117.757 o
140.362 99.29 o
153.454 106.898 o
136.744 104.806 o
155.982 112.282 o
162.83 77.5697 o
215.968 122.764 o
78.9471 83.2526 o
123.377 105.921 o
116.309 116.079 o
198.965 75.1616 o
121.521 134.035 o
186.752 109.53 o
235.008 107.3 o
118.09 88.9274 o
153.694 100.438 o
148.47 94.2813 o
229.471 91.9742 o
113.292 93.9025 o
182.796 107.703 o
129.795 115.696 o
206.856 99.3001 o
227.329 75.3024 o
177.966 122.117 o
94.5427 122.265 o
140.65 97.6588 o
124.929 98.4168 o
117.659 141.921 o
101.894 79.5001 o
200.353 96.6035 o
114.257 107.761 o
122.801 158.289 o
133.137 100.613 o
142.195 149.492 o
124.174 90.4569 o
156.938 60.1897 o
138.587 89.9382 o
48.6444 77.6171 o
183.484 99.9086 o
67.2707 65.0732 o
127.23 96.7343 o
89.3578 102.248 o
163.404 101.804 o
115.363 98.7029 o
134.616 145.288 o
176.186 81.6735 o
92.2296 66.5985 o
134.878 110.729 o
164.559 121.563 o
144.365 102.011 o
85.9733 73.1059 o
204.255 72.7727 o
189.306 69.5734 o
101.015 114.555 o
135.664 104.98 o
236.231 120.858 o
128.165 99.4053 o
164.45 96.4804 o
151.277 113.756 o
142.288 122.352 o
190.642 120.226 o
166.563 97.4503 o
199.131 53.1571 o
136.35 106.013 o
53.7286 137.256 o
128.44 133.511 o
64.6782 63.6001 o
175.151 68.9885 o
177.746 119.099 o
159.339 104.336 o
143.825 89.5665 o
131.699 85.7327 o
198.686 93.2132 o
182.366 125.939 o
214.687 85.957 o
189.19 98.686 o
145.255 80.7781 o
159.021 133.065 o
199.085 106.315 o
60.761 94.3539 o
101.721 127.584 o
158.128 99.2472 o
178.257 125.074 o
148.967 104.958 o
131.624 111.034 o
120.885 118.216 o
192.213 125.823 o
209.265 52.841 o
54.2657 87.533 o
149.798 72.7477 o
165.076 110.773 o
103.59 68.5561 o
123.99 100.87 o
50.1859 41.6984 o
49.3467 95.5394 o
239.929 65.6541 o
110.689 52.3992 o
141.966 80.1293 o
158.361 104.904 o
129.794 109.089 o
131.402 104.562 o
183.335 94.9888 o
166.067 134.176 o
123.264 146.738 o
162.02 84.5352 o
153.221 79.4475 o
134.213 74.4919 o
126.583 117.417 o
210.116 82.7937 o
162.345 77.3269 o
104.37 86.9397 o
153.444 97.5409 o
108.537 53.4532 o
148.41 101.133 o
76.7816 98.1688 o
155.862 111.605 o
67.3664 140.903 o
92.7907 76.3831 o
158.395 102.054 o
242.556 51.8214 o
82.6457 160.162 o
235.053 136.727 o
176.259 93.042 o
96.4671 90.1316 o
161.818 59.0258 o
137.664 109.436 o
149.254 106.87 o
141.12 104.331 o
185.085 82.5352 o
162.667 98.7949 o
201.377 78.3976 o
166.119 91.9474 o
149.623 93.717 o
162.957 92.9593 o
102.463 83.5021 o
91.9961 79.7069 o
121.501 99.941 o
188.526 91.3973 o
108.81 76.6402 o
135.527 58.5992 o
177.496 90.6487 o
141.799 141.719 o
144.965 72.7184 o
205.657 78.7976 o
63.296 97.7956 o
161.47 127.016 o
179.638 65.27 o
109.351 100.801 o
127.759 78.4834 o
124.307 78.3312 o
112.195 87.4859 o
164.034 123.004 o
172.997 95.6737 o
178.193 100.541 o
169.151 81.7349 o
129.824 83.9486 o
187.357 100.846 o
136.642 88.8681 o
138.842 97.664 o
200.185 152.754 o
144.04 101.033 o
134.248 125.448 o
189.48 89.7193 o
118.741 107.621 o
126.792 95.0112 o
146.198 87.997 o
112.417 124.82 o
163.326 126.172 o
149.022 94.8632 o
97.3542 110.638 o
104.717 104.718 o
52.6545 127.39 o
172.562 85.6291 o
172.744 78.8212 o
127.301 90.7457 o
243.943 126.696 o
182.221 86.3967 o
164.21 113.321 o
224.147 143.048 o
125.369 98.4689 o
99.2753 111.847 o
86.2394 110.571 o
167.28 83.7301 o
82.4611 135.971 o
150.304 114.385 o
238.268 93.086 o
108.492 115.115 o
201.188 100.095 o
144.406 94.1486 o
131.281 98.0573 o
175.649 102.416 o
158.449 141.465 o
151.689 72.4358 o
132.069 71.5361 o
102.598 83.4608 o
97.7082 113.635 o
79.3714 99.6588 o
244.121 59.3918 o
138.555 92.3293 o
143.746 116.216 o
161.551 59.5703 o
200.688 129.82 o
96.3251 96.3853 o
102.625 133.677 o
157.955 103.567 o
221.458 121.685 o
129.847 58.6147 o
146.719 108.489 o
148.191 97.3029 o
93.092 73.8408 o
124.234 83.5913 o
230.264 105.026 o
146.541 137.883 o
163.184 123.941 o
113.021 112.207 o
154.516 81.707 o
201.593 109.617 o
131.145 108.381 o
146.735 91.6198 o
141.504 92.0424 o
69.568 90.7162 o
139.811 108.877 o
137.374 105.575 o
167.974 123.656 o
141.586 130.809 o
98.0114 91.7882 o
130.558 112.494 o
110.912 114.609 o
137.843 136.283 o
169.192 115.909 o
108.567 101.264 o
117.601 105.865 o
168.763 98.6483 o
50.6933 116.574 o
77.8489 130.047 o
103.58 110.172 o
166.375 101.112 o
102.029 117.542 o
158.288 118.723 o
124.031 86.3338 o
50.5523 56.2767 o
126.885 101.739 o
128.484 102.339 o
48.2664 109.265 o
167.061 113.995 o
162.657 104.111 o
128.043 78.9684 o
85.6731 103.563 o
115.706 121.317 o
211.186 62.7292 o
147.39 80.1976 o
193.426 107.189 o
204.444 108.775 o
134.509 121.225 o
102.716 87.7073 o
231.079 50.2407 o
121.376 94.0417 o
49.4822 82.9492 o
178.547 69.2812 o
149.808 105.546 o
104.832 110.82 o
241.318 87.8544 o
224.893 99.4558 o
161.183 100.776 o
106.594 87.733 o
165.581 88.7731 o
157.517 112.988 o
53.7943 76.4784 o
161.462 101.781 o
123.128 131.684 o
166.813 96.3755 o
172.597 97.2896 o
128.485 100.042 o
157.011 93.1894 o
153.783 100.491 o
115.199 101.153 o
147.135 115.516 o
233.539 61.4878 o
115.376 126.119 o
118.811 111.98 o
132.035 100.439 o
107.336 88.6087 o
133.859 148.03 o
176.712 143.35 o
79.7163 88.0985 o
175.494 70.8928 o
148.01 99.6229 o
136.856 101.23 o
148.423 148.677 o
165.138 87.4276 o
154.084 85.9374 o
133.402 113.858 o
137.377 112.67 o
137.732 119.951 o
74.0185 121.916 o
49.7502 156.208 o
123.563 83.9569 o
100.38 96.4541 o
90.1485 123.163 o
128.746 51.6899 o
53.5103 122.231 o
85.101 56.5867 o
212.94 99.478 o
242.024 97.2325 o
104.552 103.342 o
141.48 114.767 o
222.992 95.1821 o
79.4593 94.4836 o
150.534 88.4341 o
127.467 113.033 o
143.263 85.9483 o
149.905 126.87 o
172.564 58.3028 o
180.941 62.3156 o
114.689 111.238 o
147.84 72.9331 o
150.92 40.5187 o
150.187 96.378 o
56.5252 75.9001 o
110.677 107.808 o
48.6831 71.6944 o
175.013 50.8924 o
110.45 137.784 o
103.023 142.793 o
160.065 114.477 o
182.866 106.719 o
157.193 99.1179 o
135.386 69.1478 o
169.709 62.9647 o
217.537 84.3084 o
200.829 89.8544 o
147.281 101.978 o
146.696 89.5458 o
139.598 78.011 o
145.474 114.483 o
126.006 115.999 o
208.11 102.877 o
130.471 62.548 o
166.658 134.727 o
156.02 107.017 o
69.1562 80.107 o
240.473 69.2382 o
158.403 109.564 o
156.37 96.1804 o
197.619 101.739 o
134.466 114.685 o
135.356 119.855 o
146.783 78.1242 o
116.924 102.16 o
92.3328 126.885 o
207.778 85.6273 o
133.728 98.763 o
145.438 92.3528 o
230.565 77.108 o
159.532 107.826 o
156.903 111.066 o
235.295 68.2206 o
191.806 100.306 o
167.471 101.027 o
99.9769 114.899 o
153.595 91.91 o
109.084 99.0394 o
203.373 103.533 o
171.162 98.6239 o
182.683 105.894 o
144.696 76.317 o
127.424 118.767 o
152.864 83.4643 o
67.1893 67.3322 o
51.9111 121.644 o
171.61 142.176 o
195.633 95.7424 o
135.779 95.8219 o
234.682 108.232 o
176.354 84.2763 o
138.165 133.144 o
235.034 99.1846 o
151.843 108.755 o
138.595 81.3892 o
137.044 108.993 o
202.943 67.0675 o
159.96 70.4538 o
50.3297 108.708 o
164.872 97.7302 o
136.96 107.639 o
118.952 86.632 o
99.094 77.2049 o
152.097 94.3611 o
97.2102 93.6275 o
145.325 106.841 o
142.283 107.319 o
196.277 113.091 o
190.898 99.7218 o
134.459 103.86 o
141.054 103.621 o
160.336 94.2595 o
134.44 78.8386 o
236.84 83.952 o
178.019 118.852 o
109.364 118.65 o
140.721 126.459 o
167.871 97.2061 o
146.642 98.5375 o
63.3697 44.8767 o
170.825 98.3832 o
163.227 95.5001 o
148.896 103.863 o
55.9071 102.8 o
147.445 118.665 o
115.312 85.5191 o
166.534 54.5995 o
163.869 111.749 o
96.1103 128.768 o
145.185 81.5994 o
235.917 112.786 o
137.764 37.8316 o
148.664 85.2261 o
241.956 78.6368 o
150.45 66.2006 o
124.183 97.2646 o
133.029 92.273 o
154.234 97.7787 o
232.893 94.8759 o
181.614 113.967 o
117.662 113.415 o
143.829 156.973 o
72.695 123.04 o
176.497 87.1553 o
134.767 93.3662 o
179.268 56.1553 o
191.868 97.9025 o
157.873 98.8056 o
229.584 91.3259 o
149.275 139.498 o
130.168 121.758 o
148.592 107.69 o
157.658 83.1495 o
136.639 104.434 o
128.471 104.561 o
52.6292 90.7453 o
140.623 105.789 o
96.0782 130.479 o
205.124 57.9563 o
133.957 96.0834 o
215.042 66.8015 o
155.761 91.3506 o
92.9508 82.5654 o
198.164 88.9686 o
149.139 112.462 o
110.022 97.6269 o
227.012 99.8585 o
132.585 68.7639 o
56.8349 139.586 o
132.842 125.443 o
87.1888 150.067 o
96.6326 107.467 o
76.7448 98.5113 o
226.311 66.9117 o
134.866 113.932 o
166.153 97.9876 o
143.339 123.515 o
95.9248 84.7461 o
124.791 99.7355 o
134.994 150.031 o
145.678 99.9079 o
235.738 115.422 o
110.61 106.248 o
135.804 105.867 o
192.929 77.0383 o
69.4156 128.244 o
152.343 90.9163 o
64.4584 98.8014 o
80.8752 73.9043 o
145.775 95.2372 o
94.3733 78.1386 o
157.441 100.834 o
201.538 101.533 o
152.899 83.8596 o
141.913 102.091 o
85.2051 155.355 o
119.194 106.42 o
48.5784 113.219 o
196.557 89.2378 o
210.755 89.2301 o
56.707 148.233 o
189.177 67.1739 o
109.91 116.505 o
173.241 131.867 o
147.282 47.2681 o
176.366 77.3221 o
160.647 107.782 o
132.672 86.1266 o
140.424 96.7847 o
66.8842 105.539 o
176.584 106.314 o
186.922 100.077 o
146.649 100.251 o
139.767 77.1988 o
127.01 96.486 o
228.163 102.37 o
172.399 81.136 o
184.238 92.6872 o
186.865 79.2253 o
199.977 73.7104 o
146.478 104.396 o
139.359 111.707 o
69.8864 99.8281 o
124.74 97.2494 o
162.38 78.4743 o
167.881 97.6357 o
161.648 102.985 o
105.978 83.4618 o
153.406 93.9304 o
165.648 112.175 o
168.284 92.9683 o
158.716 93.5741 o
165.449 76.97 o
130.609 117.923 o
177.748 101.102 o
226.817 96.1682 o
229.887 114.852 o
139.676 101.241 o
191.779 114.928 o
153.661 91.6638 o
161.688 117.145 o
199.56 103.227 o
134.625 118.189 o
153.704 97.1952 o
151.914 101.392 o
107.775 103.203 o
175.818 122.147 o
90.7293 103.552 o
117.284 114.086 o
241.866 139.328 o
130.772 107.965 o
162.506 101.736 o
153.955 86.0608 o
85.4078 84.807 o
105.99 89.0376 o
143.555 81.0657 o
159.147 95.4932 o
66.1113 128.68 o
213.259 138.685 o
190.502 97.4382 o
144.789 102.066 o
179.08 106.535 o
146.784 87.0768 o
157.033 121.711 o
157.547 100.628 o
67.6817 156.517 o
156.249 107.724 o
160.87 102.877 o
146.831 105.996 o
171.32 105.808 o
127.183 93.5803 o
203.054 113.473 o
162.892 104.877 o
134.91 111.017 o
141.54 74.7123 o
112.327 84.0689 o
209.583 130.079 o
142 102.605 o
178.944 122.694 o
212.162 101.557 o
213.056 97.3252 o
232.786 52.666 o
105.574 107.036 o
147.317 98.1577 o
101.728 111.669 o
158.268 115.737 o
162.985 107.982 o
229.439 71.1981 o
109.172 118.974 o
67.9032 114.475 o
153.909 94.3228 o
102.116 73.7172 o
55.5532 45.8758 o
210.686 107.029 o
109.439 129.955 o
85.978 110.189 o
179.64 86.8265 o
142.521 75.9859 o
145.314 98.0935 o
119.953 77.8631 o
82.9632 102.758 o
80.7748 111.27 o
50.5659 56.3807 o
138.871 78.3182 o
146.536 121.567 o
169.295 82.412 o
237.219 64.2913 o
159.797 79.4853 o
147.732 102.125 o
146.386 91.9109 o
142.742 123.729 o
162.948 103.148 o
111.879 86.9686 o
93.6057 99.5669 o
143.407 98.0519 o
80.3306 127.738 o
228.545 97.2607 o
132.223 113.53 o
72.884 144.002 o
142.699 133.121 o
169.681 87.6078 o
171.179 99.9204 o
115.996 104.036 o
183.357 67.7532 o
191.355 84.143 o
147.145 101.807 o
183.779 40.54 o
151.691 104.932 o
129.356 110.579 o
201.799 69.9891 o
113.958 115.754 o
129.096 90.3547 o
176.181 104.453 o
198.375 92.6319 o
132.058 85.2746 o
129.783 98.492 o
107.984 144.267 o
108.607 104.958 o
138.725 95.3914 o
222.835 88.5544 o
202.68 58.1067 o
172.896 101.403 o
239.36 134.107 o
200.252 71.6731 o
79.84 69.9716 o
184.672 78.606 o
211.73 85.8419 o
160.498 96.941 o
236.176 109.165 o
153.853 81.9334 o
159.633 101.562 o
49.3526 130.949 o
170.891 88.6688 o
160.368 90.2367 o
125.937 102.41 o
58.6123 148.306 o
240.377 133.925 o
142.235 115.876 o
186.163 89.6744 o
164.888 75.2685 o
136.811 101.658 o
144.82 99.3164 o
133.811 40.0425 o
146.322 84.4936 o
187.51 93.6405 o
202.645 60.51 o
223.191 153.08 o
119.099 77.8793 o
184.785 101.422 o
161.601 101.62 o
152.104 58.6859 o
175.757 111.302 o
113.013 129.797 o
141.16 114.031 o
148.995 95.1223 o
145.773 127.887 o
190.914 81.2212 o
216.018 76.7901 o
152.927 76.3532 o
120.372 135.552 o
199.604 108.755 o
155.208 81.4269 o
214.753 104.874 o
71.8534 91.2046 o
232.221 77.5663 o
167.073 78.6676 o
231.824 131.409 o
162.666 132.656 o
187.442 105.192 o
142.237 100.801 o
130.768 80.3709 o
180.547 90.6154 o
106.113 111.832 o
140.932 121.369 o
141.036 76.9314 o
123.898 66.3125 o
116.08 103.724 o
163.208 84.8865 o
122.961 92.9915 o
70.953 101.624 o
180.442 117.927 o
181.984 90.0067 o
48.4634 131.833 o
103.986 96.9258 o
235.606 86.3475 o
94.4993 128.754 o
237.635 79.8222 o
119.625 80.0662 o
184.334 105.808 o
76.9901 132.258 o
160.395 126.935 o
140.673 94.944 o
74.3163 95.8924 o
137.34 97.0443 o
227.085 69.544 o
73.1303 129.605 o
162.328 91.5201 o
174.338 69.608 o
168.366 102.923 o
113.045 80.5639 o
130.411 95.6811 o
178.334 90.2493 o
238.832 78.6351 o
185.472 138.721 o
137.473 110.717 o
187.404 124.935 o
190.329 129.818 o
191.004 144.457 o
196.549 103.62 o
144.49 101.401 o
159.477 151.097 o
133.94 47.8939 o
124.45 145.112 o
106.526 133.417 o
124.521 75.9402 o
152.561 95.1408 o
164.46 108.192 o
120.901 71.797 o
84.1961 105.43 o
130.493 80.3162 o
167.796 64.8193 o
174.61 72.2988 o
165.524 91.8205 o
119.796 48.2997 o
178.463 86.606 o
171.452 62.8277 o
134.394 97.1471 o
243.889 86.0034 o
163.645 122.58 o
163.722 111.751 o
216.894 81.3658 o
132.074 110.602 o
67.668 135.779 o
157.814 96.6644 o
97.4092 105.477 o
102.275 61.2689 o
153.053 93.1072 o
96.2722 139.84 o
102.746 79.985 o
195.24 119.014 o
167.678 97.9822 o
198.252 125.996 o
144.673 123.698 o
198.001 66.0867 o
130.205 79.6003 o
210.623 101.222 o
124.133 108.893 o
191.106 140.051 o
115.211 98.0763 o
57.2426 72.041 o
180.741 114.811 o
149.274 86.5884 o
223.098 114.299 o
136.626 83.3708 o
155.871 94.2475 o
222.643 96.6821 o
189.234 110.309 o
159.862 75.1672 o
215.525 141.936 o
163.573 99.1792 o
118.758 146.089 o
158.094 86.9984 o
124.756 103.514 o
118.859 91.899 o
190.571 60.0488 o
141.923 95.774 o
191.561 83.2567 o
150.35 85.7549 o
56.0428 120.859 o
194.81 105.39 o
165.193 46.5306 o
175.827 97.0747 o
161.504 90.9422 o
194.392 74.5787 o
140.796 92.7802 o
141.46 100.151 o
99.268 110.759 o
161.597 132.115 o
166.665 109.008 o
82.6029 78.4151 o
210.748 155.963 o
141.13 123.979 o
161.825 85.8157 o
163.977 114.161 o
167.098 74.4118 o
96.5889 56.9592 o
177.75 104.971 o
55.7385 105.588 o
216.873 143.825 o
186.375 95.6566 o
133.384 96.2709 o
197.442 54.7638 o
206.519 118.648 o
141.4 112.312 o
152.129 117.308 o
133.846 102.165 o
230.326 82.906 o
79.6032 95.3796 o
130.767 99.9211 o
117.567 47.0417 o
188.046 103.673 o
149.013 91.6877 o
97.1431 110.375 o
137.392 77.4964 o
191.24 157.897 o
72.9174 50.3257 o
185.967 99.7165 o
163.639 133.936 o
146.724 97.7344 o
157.106 89.129 o
128.444 106.696 o
158.556 113.225 o
139.797 57.6912 o
137.266 117.525 o
188.038 125.223 o
169.983 89.6842 o
186.299 106.419 o
157.203 101.001 o
165.633 105.664 o
127.278 85.4627 o
156.216 91.3906 o
189.93 94.3793 o
130.731 88.2482 o
118.416 129.35 o
100.923 132.199 o
162.848 100.184 o
130.49 109.576 o
156.515 101.99 o
75.4738 126 o
132.135 96.6359 o
168.997 110.734 o
182.675 71.6336 o
183.773 94.835 o
112.605 97.4325 o
172.611 75.8682 o
174.54 98.6356 o
140.16 39.9212 o
151.993 83.2519 o
170.424 116.07 o
97.1298 105.308 o
113.859 100.742 o
198.525 97.3152 o
152.192 101.44 o
118.452 91.2931 o
106.803 103.858 o
142.536 70.6265 o
163.818 83.9829 o
160.052 103.289 o
151.497 92.6993 o
153.135 98.6701 o
170.963 77.8393 o
204.566 99.5664 o
87.1733 88.4176 o
126.623 58.792 o
153.029 115.195 o
66.3727 102.36 o
233.54 115.865 o
69.3212 86.1717 o
133.604 106.332 o
134.016 93.0918 o
149.597 54.7394 o
194.292 103.707 o
194.618 136.857 o
193.985 132.195 o
89.1456 83.3932 o
161.572 150.079 o
186.176 67.0826 o
88.7295 65.9098 o
129.731 99.7897 o
198.787 99.0613 o
76.5992 119.167 o
163.27 119.303 o
209.179 132.959 o
234.985 113.747 o
86.1361 77.7921 o
232.655 136.328 o
165.291 90.534 o
147.14 111.623 o
93.2414 105.012 o
218.685 85.4365 o
93.0228 108.345 o
180.824 116.971 o
57.3427 72.5521 o
189.583 110.222 o
128.686 87.0698 o
194.913 67.4436 o
112.611 106.488 o
138.669 109.951 o
111.847 101.376 o
91.1802 133.905 o
95.0095 143.512 o
103.147 127.093 o
144.007 60.738 o
178.445 79.5443 o
85.4638 119.245 o
161.589 97.9314 o
159.846 103.843 o
239.97 46.3221 o
95.1775 150.48 o
145.19 102.104 o
134.304 101.74 o
198.411 90.3737 o
121.313 79.5622 o
184.652 103.225 o
135.428 95.216 o
53.8064 139.603 o
178.201 117.377 o
60.1281 66.5651 o
181.776 139.968 o
149.008 41.1356 o
195.23 89.9314 o
157.288 100.291 o
99.6373 115.921 o
159.819 128.354 o
175.4 112.176 o
184.704 142.715 o
114.412 82.4339 o
157.458 101.567 o
153.702 98.2696 o
172.989 51.9767 o
215.223 95.8638 o
150.254 91.292 o
166.052 93.6041 o
111.689 51.5233 o
168.15 97.353 o
198.196 47.9877 o
138.461 117.123 o
151.378 89.4132 o
149.566 103.389 o
97.8934 137.617 o
100.239 121.964 o
183.288 115.501 o
169.033 109.647 o
61.8767 91.1729 o
130.807 55.8649 o
89.5806 112.607 o
128.627 139.583 o
191.543 112.189 o
128.131 98.9208 o
132.079 80.0032 o
93.2234 61.5051 o
230.11 132.559 o
108.205 87.7315 o
121.463 86.7891 o
105.649 149.256 o
161.884 119.05 o
214.486 92.863 o
163.201 99.1818 o
138.039 94.4543 o
69.6043 125.297 o
143.827 95.1309 o
215.281 72.9482 o
144.391 116.062 o
136.141 104.389 o
130.426 107.163 o
200.589 125.786 o
157.463 109.915 o
233.61 88.3662 o
156.272 103.771 o
57.1272 47.2898 o
158.966 62.0514 o
228.496 116.428 o
111.248 92.4267 o
139.537 86.0872 o
202.044 58.1937 o
56.5257 61.7367 o
109.4 123.387 o
201.943 74.5964 o
87.1456 116.313 o
147.302 96.8205 o
127.508 102.482 o
169.301 104.59 o
212.334 122.755 o
200.895 102.785 o
196.842 119.647 o
140.742 86.6431 o
109.459 109.641 o
241.187 102.694 o
116.702 102.982 o
147.666 104.18 o
61.6138 131.438 o
151.975 68.7244 o
190.876 75.6882 o
134.708 80.8569 o
160.838 93.9447 o
200.79 130.629 o
123.404 100.431 o
170.08 82.389 o
155.992 94.1648 o
229.309 115.098 o
149.578 96.0158 o
207.659 141.845 o
182.261 111.546 o
167.381 97.644 o
164.646 86.2228 o
153.53 101.962 o
172.867 99.8633 o
214.607 73.576 o
117.538 42.8224 o
129.871 108.492 o
162.077 86.5157 o
63.728 49.3494 o
169.303 66.8146 o
117.569 91.6664 o
149.333 102.252 o
112.175 86.0764 o
142.463 97.6636 o
108.697 125.363 o
114.454 53.1548 o
231.308 50.177 o
179.056 98.8143 o
173.431 47.8753 o
96.5683 116.728 o
155.791 95.3786 o
56.0506 48.2969 o
105.519 114.389 o
96.9718 95.4345 o
132.334 88.4422 o
183.486 112.291 o
105.669 91.4272 o
153.229 95.1486 o
118.344 80.0046 o
195.962 64.8713 o
147.246 86.2572 o
122.014 88.2253 o
81.8552 98.3597 o
58.2774 87.1828 o
150.603 70.2545 o
54.0797 117.168 o
152.824 93.2766 o
166.274 124.436 o
211.825 119.11 o
239.096 129.556 o
159.697 99.3634 o
100.243 128.02 o
125.949 82.7793 o
57.6098 130.323 o
189.257 96.9774 o
183.886 63.0752 o
168.186 105.144 o
140.53 111.58 o
131.763 107.421 o
119.182 132.605 o
128.346 108.682 o
184.108 67.2502 o
150.136 87.4385 o
85.1222 54.0269 o
126.249 87.574 o
124.115 135.485 o
135.078 98.8398 o
145.712 96.9092 o
166.155 55.6469 o
172.486 146.602 o
155.599 100.403 o
171.324 103.944 o
99.5581 56.3787 o
65.076 111.781 o
159.038 126.735 o
187.556 138.419 o
159.811 106.288 o
166.951 92.436 o
108.823 84.3482 o
63.8837 105.013 o
172.981 149.713 o
141.869 93.6338 o
139.349 83.2588 o
47.9213 123.473 o
180.467 76.5821 o
135.54 108.233 o
136.37 103.279 o
129.169 108.371 o
197.336 104.884 o
136.438 112.116 o
68.0552 72.2368 o
98.6409 77.1695 o
137.278 84.7274 o
130.167 84.6328 o
177.947 87.2529 o
134.651 101.932 o
195.469 66.2675 o
150.215 97.3603 o
192.746 86.2652 o
173.83 83.8909 o
166.294 102.554 o
157.363 118.03 o
239.746 134.19 o
190.547 76.8068 o
126.773 92.8621 o
153.732 90.3681 o
128.11 80.405 o
152.66 60.7652 o
144.199 95.8306 o
117.253 106.345 o
73.2592 117.973 o
156.508 94.8863 o
174.194 107.113 o
139.059 99.0012 o
118.81 96.3718 o
165.066 121.94 o
153.462 103.646 o
127.922 92.7167 o
163.233 80.5419 o
128.536 95.9763 o
164.664 72.43 o
199.217 100.926 o
108.402 118.93 o
67.0829 67.2379 o
114.318 52.1658 o
131.514 96.9763 o
182.442 139.51 o
203.225 98.6832 o
157.221 102.847 o
49.26 60.8463 o
69.9102 74.6434 o
84.8456 62.2765 o
115.3 91.1884 o
195.44 78.7745 o
100.81 144.082 o
214.215 141.001 o
111.881 115.294 o
195.804 92.9139 o
132.11 55.2252 o
102.543 97.5489 o
196.252 117.942 o
210.977 115.8 o
54.6883 88.5651 o
174.053 88.4734 o
161.026 103.172 o
140.668 60.8583 o
196.007 71.7283 o
199.992 97.9345 o
171.14 111.847 o
60.9577 83.3382 o
218.112 89.3049 o
144.237 127.187 o
154.233 113.294 o
153.16 146.884 o
147.898 97.9202 o
104.263 104.174 o
148.129 85.3346 o
173.124 118.56 o
140.773 119.103 o
242.18 55.4907 o
149.314 93.1254 o
146.35 70.3844 o
153.921 66.8908 o
132.635 43.2354 o
104.857 57.0156 o
163.489 98.524 o
212.95 135.815 o
159.251 101.572 o
210.525 133.486 o
210.23 82.564 o
244.195 100.647 o
135.038 121.694 o
243.905 145.114 o
123.751 87.5346 o
217.682 118.959 o
204.434 117.32 o
160.184 107.536 o
172.534 96.8607 o
175.598 82.4065 o
153.339 98.1872 o
148.908 101.038 o
152.231 98.2477 o
144.153 99.5696 o
206.653 105.092 o
211.025 79.9046 o
62.1892 62.5104 o
136.676 66.6306 o
96.5524 103.052 o
171.816 112.201 o
127.246 145.471 o
149.555 99.2585 o
168.907 112.543 o
166.59 122.325 o
173.007 110.096 o
123.015 74.2989 o
135.978 97.1411 o
130.624 88.366 o
144.636 109.768 o
128.164 59.8965 o
133.028 106.415 o
164.427 104.706 o
108.229 85.1094 o
75.4444 61.9195 o
151.501 70.9208 o
130.67 135.59 o
133.62 105.758 o
144.231 86.526 o
124.24 82.4609 o
127.435 75.7469 o
98.1447 114.047 o
175.747 113.183 o
166.867 100.033 o
73.5455 93.3454 o
157.448 96.2128 o
51.0831 115.043 o
80.7524 118.466 o
129.689 103.074 o
169.378 74.9755 o
132.93 57.6721 o
128.813 92.9498 o
150.852 83.5174 o
181.011 116.394 o
138.732 110.667 o
141.099 98.5944 o
58.496 122.25 o
129.723 120.747 o
63.2026 104.129 o
51.7429 134.038 o
155.444 93.829 o
102.793 88.3054 o
95.9263 121.294 o
102.038 91.9364 o
137.629 75.6018 o
150.056 89.5967 o
157.627 100.896 o
71.6243 114.798 o
70.0708 109.553 o
106.225 95.8012 o
139.657 97.8672 o
183.155 104.5 o
54.7358 89.6295 o
68.2732 97.853 o
172.446 94.2082 o
147.44 95.263 o
68.7621 106.221 o
229.184 58.8229 o
117.517 83.6632 o
162.017 92.1262 o
68.8943 91.71 o
102.27 102.372 o
57.8505 138.585 o
233.975 93.4488 o
102.829 76.465 o
161.454 139.689 o
148.277 121.978 o
154.818 116.474 o
117.322 119.838 o
179.174 140.915 o
109.225 60.5099 o
112.275 102.573 o
136.971 101.226 o
73.3525 101.472 o
161.982 87.7371 o
124.465 90.6029 o
163.756 140.662 o
222.988 114.921 o
98.3411 116.651 o
120.654 104.816 o
112.803 121.135 o
165.48 108.227 o
162.322 129.222 o
93.9689 110.846 o
230.458 131.853 o
113.878 114.541 o
94.8554 114.525 o
153.672 124.116 o
178.696 88.2106 o
179.343 62.5401 o
194.511 105.023 o
142.966 97.8838 o
151.391 91.9834 o
85.0497 100.068 o
216.018 75.5992 o
179.017 113.611 o
118.756 107.637 o
110.469 125.382 o
147.422 90.7783 o
111.036 76.3472 o
239.694 110.34 o
110.4 81.6493 o
144.876 98.0129 o
195.547 85.8297 o
125.894 146.424 o
191.351 132.297 o
81.674 97.4517 o
144.544 109.041 o
103.868 97.1845 o
146.244 136.922 o
186.408 94.9521 o
167.771 116.683 o
210.556 107.757 o
169.892 96.1324 o
131.82 101.866 o
151.841 103.232 o
135.33 54.1299 o
139.231 80.8282 o
233.061 113.641 o
121.208 83.9374 o
135.345 135.689 o
147.181 91.3981 o
184.543 95.0726 o
157.457 65.9363 o
102.876 89.9906 o
186.206 134.788 o
208.211 90.9408 o
131.269 78.99 o
163.937 84.3848 o
132.58 57.7676 o
138.569 91.3652 o
206.507 112.372 o
157.852 105.494 o
161.757 77.9014 o
124.19 83.7262 o
138.954 100.677 o
128.813 114.719 o
161.203 109.319 o
142.895 113.669 o
137.807 101.996 o
234.241 133.165 o
150.853 92.8468 o
155.085 123.898 o
87.5218 116.98 o
191.628 72.0225 o
176.279 88.7846 o
214.458 77.8693 o
217.001 114.312 o
181.216 105.68 o
119.071 111.879 o
223.142 52.6924 o
63.6837 91.0552 o
141.916 105.64 o
177.101 61.6742 o
75.0716 53.6314 o
176.564 131.086 o
145.349 96.3587 o
213.42 65.5899 o
136.335 154.287 o
160.378 104.889 o
142.387 120.75 o
187.193 91.4411 o
156.296 100.171 o
153.949 93.3443 o
173.003 99.7665 o
115.555 95.2112 o
88.464 91.1641 o
231.838 89.9793 o
121.134 111.611 o
193.024 111.592 o
149.136 94.2536 o
120.235 77.207 o
120.35 77.8826 o
119.156 70.6374 o
145.807 102.281 o
126.368 91.4847 o
192.284 88.7531 o
64.7279 64.2134 o
169.205 92.7866 o
156.629 146.711 o
142.315 92.8656 o
226.864 74.1303 o
167.315 134.931 o
180.177 73.5863 o
131.856 125.514 o
194.94 100.212 o
174.92 82.3679 o
187.264 109.042 o
82.9602 89.04 o
143.039 129.901 o
116.609 82.5292 o
162.149 103.681 o
67.3225 99.2522 o
78.6627 88.4671 o
145.315 85.2239 o
167.295 103.823 o
125.047 89.0024 o
139.329 96.8488 o
228.948 102.045 o
151.947 82.1514 o
201.283 97.9853 o
96.9158 132.474 o
150.901 51.8506 o
84.6285 119.538 o
119.07 91.0447 o
168.26 93.9785 o
68.9794 92.2235 o
145.876 91.7527 o
156.802 119.567 o
119.622 107.208 o
138.182 100.527 o
170.092 95.3111 o
162.107 95.9087 o
139.758 96.0291 o
211.71 77.6531 o
242.279 83.9633 o
57.4667 98.3459 o
74.7099 140.445 o
232.365 96.379 o
104.484 71.0987 o
188.495 59.6939 o
80.2487 87.2658 o
140.134 107.253 o
173.765 95.5514 o
228.697 100.072 o
146.745 61.6771 o
124.338 99.5191 o
127.898 101.147 o
182.479 101.483 o
149.349 108.241 o
48.9639 124.04 o
103.61 132.572 o
127.899 98.8715 o
135.342 103.767 o
156.648 93.7676 o
150.499 98.0833 o
138.888 66.2756 o
151.229 89.8248 o
99.2745 80.1494 o
227.633 137.13 o
232.421 77.034 o
241.268 105.205 o
121.112 101.613 o
85.3943 103.343 o
201.917 85.0923 o
59.4995 81.421 o
147.337 96.5497 o
172.714 98.98 o
191.342 93.561 o
173.84 51.7906 o
140.382 114.291 o
208.521 53.3632 o
173.244 129.739 o
149.482 98.5759 o
138.609 105.466 o
160.192 102.482 o
148.485 103.253 o
76.5623 48.9159 o
83.4845 153.018 o
214.673 79.1958 o
226.555 114.026 o
204.853 81.4803 o
181.953 74.6165 o
184.553 100.086 o
126.014 102.595 o
142.328 100.489 o
123.867 126.557 o
185.626 78.7147 o
74.9839 71.3566 o
213.746 123.856 o
171.891 112.457 o
158.232 100.25 o
85.9444 142.244 o
135.757 116.615 o
73.4672 71.195 o
150.451 118.486 o
194.805 125.921 o
136.456 105.145 o
162.718 79.8038 o
110.588 112.733 o
121.437 148.459 o
105.632 115.596 o
129.202 111.975 o
156.271 87.8498 o
187.447 91.8779 o
117.692 110.794 o
126.356 114.195 o
146.163 80.616 o
164.338 93.1128 o
109.346 119.388 o
126.775 113.728 o
131.487 88.8099 o
70.2639 88.9249 o
121.481 93.4934 o
111.803 109.259 o
134.3 116.949 o
210.862 63.7911 o
146.608 115.067 o
105.33 108.384 o
221.25 72.7936 o
118.558 124.296 o
113.764 139.792 o
220.289 124.689 o
120.177 96.8397 o
191.681 71.1467 o
126.138 131.454 o
96.4776 83.3512 o
199.198 113.02 o
140.077 101.794 o
140.763 99.496 o
167.039 122.287 o
140.445 101.162 o
113.121 78.2819 o
187.905 80.4514 o
201.947 101.685 o
140.888 69.2814 o
217.828 104.346 o
145.427 114.152 o
214.158 103.167 o
151.906 111.798 o
143.248 115.414 o
188.422 62.8049 o
125.314 92.6836 o
183.717 152.72 o
177.215 69.5426 o
125.831 76.6466 o
136.282 107.788 o
141.047 71.0722 o
103.17 103.487 o
203.473 87.9759 o
147.963 101.523 o
144.605 96.1435 o
229.277 73.2312 o
131.321 91.9184 o
172.946 99.8333 o
224.055 115.566 o
148.13 96.362 o
128.392 95.0381 o
128.922 104.436 o
138.867 101.556 o
131.183 89.3973 o
220.794 87.5219 o
147.739 126.717 o
124.914 106.448 o
147.097 86.8507 o
190.702 100.366 o
136.933 105.314 o
137.155 77.5605 o
130.652 75.422 o
134.458 101.757 o
190.022 79.9397 o
187.286 54.9314 o
147.608 72.0074 o
159.728 83.3603 o
115.379 149.973 o
54.3617 119.135 o
131.253 117.746 o
205.662 128.455 o
121.12 122.038 o
196.805 112.431 o
190.315 72.7433 o
154.266 95.5673 o
98.2879 84.8391 o
234.592 81.3174 o
171.633 95.122 o
141.638 99.3599 o
224.29 97.5643 o
141.582 86.6512 o
187.612 65.1948 o
90.0538 102.019 o
75.1212 109.408 o
61.9575 48.9741 o
207.092 102.295 o
142.359 108.363 o
108.988 86.8805 o
195.445 93.3395 o
175.538 87.342 o
174.572 98.8056 o
147.554 98.5358 o
138.559 106.803 o
162.216 102.378 o
175.656 87.7293 o
196.044 86.9445 o
126.156 106.623 o
96.5248 106.451 o
145.832 96.9076 o
237.847 100.023 o
224.178 82.6724 o
148.519 94.383 o
177.379 98.5775 o
142.169 87.4741 o
155.776 96.0791 o
65.2963 90.1926 o
198.13 72.1432 o
137.302 121.141 o
176.188 100.557 o
148.635 127.601 o
141.784 95.7134 o
111.261 89.9328 o
58.4441 68.1588 o
111.48 82.0982 o
192.532 84.2267 o
135.643 103.141 o
116.634 88.9605 o
108.721 144.725 o
220.477 58.6638 o
144.775 89.8024 o
237.636 109.39 o
61.6272 39.5145 o
142.734 90.6781 o
198.206 62.8755 o
144.794 111.714 o
226.707 75.5744 o
156.362 107.786 o
124.596 102.593 o
148.36 101.204 o
175.932 115.835 o
67.0372 125.336 o
154.461 81.4794 o
98.5538 133.923 o
241.802 99.4394 o
162.119 77.6983 o
145.84 92.8669 o
136.987 113.281 o
209.231 87.0025 o
195.209 106.048 o
87.8028 83.6206 o
126.666 53.1342 o
174.8 91.1493 o
201.237 104.114 o
184.203 94.7351 o
157.972 91.2763 o
64.7832 115.937 o
153.757 94.615 o
221.569 104.283 o
161.293 84.6412 o
137.864 83.0738 o
145.369 44.1229 o
151.281 101.463 o
96.1975 140.353 o
139.61 93.431 o
98.3314 89.6124 o
174.24 93.4591 o
213.603 51.0743 o
156.834 101.721 o
134.818 98.0684 o
150.645 69.1862 o
143.401 70.4128 o
108.109 135.138 o
145.891 99.7046 o
242.598 86.874 o
189.214 130.044 o
133.75 87.4264 o
154.701 69.18 o
101.855 82.8526 o
138.281 104.47 o
88.7099 136.949 o
54.7053 81.9193 o
161.094 93.9136 o
144.516 98.2371 o
152.766 71.8887 o
90.7928 95.8602 o
211.698 84.6908 o
132.256 94.5894 o
126.052 107.458 o
198.524 50.1891 o
240.272 65.6911 o
82.9194 104.509 o
152.172 103.466 o
132.318 94.4776 o
177.92 96.1707 o
165.4 80.5204 o
85.1481 99.1692 o
121.253 85.641 o
238.712 145.135 o
235.756 102.52 o
181.397 105.542 o
119.974 112.468 o
140.009 92.733 o
215.217 105.701 o
244.105 93.4837 o
90.6594 139.166 o
165.48 50.941 o
225.419 85.3136 o
154.935 94.735 o
101.912 87.2337 o
81.317 84.2248 o
84.2678 87.0445 o
142.123 107.281 o
134.24 105.661 o
159.772 98.5189 o
71.1876 114.91 o
107.799 101.817 o
166.095 106.061 o
141.684 86.2353 o
151.256 134.621 o
112.18 111.147 o
170.445 66.4211 o
132.433 110.412 o
138.001 95.6926 o
155.814 115.945 o
200.471 92.5564 o
214.28 111.533 o
191.066 130.275 o
150.892 92.8403 o
123.51 64.69 o
173.1 97.5979 o
101.296 95.7413 o
165.673 82.8648 o
156.83 79.6503 o
137.627 101.187 o
140.033 120.762 o
139.207 87.0729 o
170.921 91.6182 o
93.9059 145.176 o
140.865 95.1015 o
168.105 141.618 o
165.254 102.496 o
237.582 79.6988 o
110.782 61.5546 o
160.449 98.6328 o
160.205 111.45 o
129.497 103.231 o
135.802 108.118 o
110.602 81.5489 o
191.92 139.532 o
122.468 100.591 o
101.786 85.6947 o
186.066 62.4201 o
162.413 131.25 o
115.576 85.6839 o
147.732 107.975 o
156.059 95.4822 o
139.89 99.3389 o
226.941 46.4567 o
162.046 79.8446 o
109.466 59.3973 o
66.507 72.971 o
119.12 43.0346 o
138.375 122.131 o
160.452 96.646 o
170.842 101.763 o
163.985 86.73 o
122.015 129.836 o
95.9128 82.6524 o
218.065 127.129 o
194.399 83.1142 o
131.184 112.886 o
59.833 153.074 o
153.768 80.3992 o
87.5605 99.1442 o
212.477 75.0954 o
178.44 53.4346 o
134.975 127.595 o
79.6788 93.1555 o
144.345 109.927 o
217.943 65.9127 o
143.143 124.625 o
177.661 112.982 o
188.402 93.6864 o
100.715 49.3166 o
82.8751 122.347 o
207.601 122.464 o
91.2752 153.812 o
98.5179 138.591 o
54.9706 142.757 o
199.856 114.016 o
156.44 129.946 o
139.238 121.501 o
147.77 86.4498 o
86.8659 118.515 o
86.4577 114.713 o
122.198 102.994 o
68.6581 102.549 o
135.325 93.2436 o
200.897 114.559 o
167.023 81.8964 o
84.8763 80.6911 o
139.43 98.0042 o
135.783 99.0575 o
136.593 82.6298 o
142.996 96.5821 o
123.504 106.234 o
149.798 113.607 o
113.716 124.416 o
168.206 75.621 o
113.283 129.056 o
182.409 86.7549 o
136.673 90.1318 o
187.846 53.4557 o
73.1312 71.9196 o
161.891 128.447 o
84.0718 102.966 o
157.535 108.557 o
172.383 139.057 o
102.339 123.501 o
132.168 82.3102 o
129.418 86.0391 o
186.795 88.5629 o
230.093 47.4643 o
152.06 101.478 o
109.57 135.887 o
155.104 102.78 o
80.9493 90.7577 o
215.209 145.117 o
65.1037 40.0492 o
49.7276 98.86 o
163.959 110.798 o
220.166 137.777 o
147.582 108.121 o
209.847 121.966 o
118.529 148.657 o
238.246 101.57 o
188.723 86.3478 o
107.157 93.8189 o
199.163 90.3213 o
152.096 99.0635 o
132.351 116.921 o
167.055 148.324 o
201.783 69.0915 o
206.109 120.102 o
151.254 99.391 o
178.781 101.186 o
160.48 63.5832 o
232.134 105.877 o
190.085 65.6718 o
146.192 105.128 o
164.931 128.301 o
89.1742 118.709 o
216.937 140.615 o
113.322 132.258 o
134.967 90.0706 o
138.228 94.1501 o
184.034 116.357 o
135.624 91.1395 o
101.436 86.3214 o
158.022 105.482 o
200.368 99.3725 o
203.007 142.564 o
180.102 64.4717 o
100.505 133.818 o
241.522 87.5025 o
109.573 105.594 o
128.631 108.588 o
108.845 125.877 o
210.842 72.4072 o
156.267 134.326 o
148.54 117.066 o
128.579 78.5956 o
203.102 52.2515 o
132.287 95.7907 o
186.393 100.416 o
112.819 122.398 o
153.707 119.926 o
166.574 64.0265 o
175.455 81.7365 o
156.327 92.8197 o
97.9064 113.51 o
118.185 88.2452 o
129.722 142.146 o
174.092 90.1969 o
153.015 65.6975 o
133.041 75.8028 o
110.172 97.4342 o
174.784 78.5501 o
141.424 116.872 o
107.087 97.6764 o
69.2462 147.853 o
115.114 117.88 o
131.698 87.0775 o
139.287 74.9992 o
146.588 128.494 o
119.398 89.3869 o
114.754 114.076 o
124.701 71.9082 o
207.367 107.125 o
141.01 118.153 o
142.409 125.036 o
160.948 107.092 o
148.207 102.909 o
221.098 127.152 o
231.899 136.742 o
140.008 103.759 o
124.233 50.415 o
189.011 58.5696 o
97.704 38.4405 o
77.0146 93.1238 o
143.82 70.1619 o
131.531 79.1874 o
152.66 96.0976 o
237.238 54.2792 o
51.644 97.223 o
144.081 87.8243 o
180.372 100.311 o
214.688 105.152 o
117.155 65.6468 o
175.669 88.1426 o
117.671 77.7097 o
142.51 70.2481 o
158.459 76.0673 o
156.284 102.029 o
55.7681 132.838 o
156.91 102.174 o
142.401 115.31 o
186.076 78.4037 o
198.711 73.1627 o
160.721 97.3705 o
151.189 104.287 o
131.907 74.2245 o
175.811 64.893 o
173.069 76.5907 o
159.049 106.405 o
176.145 115.597 o
222.486 128.135 o
159.372 82.9904 o
134.457 97.2427 o
164.68 84.1082 o
83.4395 85.1513 o
156.094 129.97 o
147.535 143.341 o
82.432 110.15 o
57.636 155.993 o
128.84 59.3944 o
161.696 78.1709 o
174.244 138.044 o
84.6677 100.682 o
236.937 124.618 o
187.342 149.063 o
166.162 107.621 o
57.6283 144.789 o
189.918 105.1 o
145.492 94.2796 o
120.66 99.7142 o
111.368 98.6893 o
130.881 106.488 o
124.918 85.3858 o
175.972 102.516 o
173.543 75.9597 o
141.667 114.355 o
156.576 74.1704 o
160.244 125.333 o
53.9112 88.4567 o
149.246 99.3719 o
183.73 101.336 o
133.882 69.2253 o
53.6732 70.9684 o
91.1436 109.198 o
129.275 139.956 o
74.7027 111.317 o
87.5117 68.2921 o
137.2 94.5093 o
143.307 83.5442 o
110.45 94.7875 o
241.415 146.278 o
164.014 103.38 o
127.687 79.5629 o
229.604 106.375 o
175.519 97.5917 o
151.347 106.123 o
197.909 122.692 o
147.688 98.9892 o
139.968 101.285 o
50.7232 147.348 o
128.475 103.589 o
144.918 94.1083 o
151.015 117.356 o
139.797 81.1531 o
171.475 106.513 o
116.731 89.5385 o
134.55 78.3328 o
156.267 106.215 o
186.005 89.1625 o
137.311 74.4112 o
129.882 67.8693 o
150.948 126.829 o
163.746 60.8722 o
138.764 107.87 o
125.497 116.396 o
149.833 72.2558 o
121.531 107.285 o
103.404 91.5474 o
177.972 92.5785 o
157.547 77.2229 o
149.917 71.6518 o
114.705 113.336 o
149.767 100.217 o
150.602 101.144 o
102.422 114.117 o
131.603 114.415 o
161.003 88.7609 o
157.033 83.7173 o
133.113 112.422 o
167.608 81.6564 o
142.762 100.434 o
61.6075 103.074 o
145.778 115.887 o
149.566 106.997 o
155.815 69.6961 o
120.082 116.87 o
167.763 54.7036 o
168.389 83.7973 o
64.6892 82.6209 o
114.8 101.517 o
55.4133 93.247 o
68.788 123.712 o
106.275 102.061 o
111.971 78.9361 o
149.814 99.3358 o
201.813 112.271 o
182.67 103.387 o
200.96 71.4206 o
189.332 94.6017 o
196.008 126.964 o
115.012 87.865 o
181.195 82.0302 o
218.487 83.9179 o
65.0066 124.135 o
215.691 110.862 o
127.511 106.74 o
127.053 69.9566 o
144.974 92.7 o
136.377 95.618 o
177.58 101.442 o
169.509 94.4011 o
75.1779 87.9629 o
241.88 72.9889 o
163.834 93.2509 o
161.365 72.9399 o
168.486 127.46 o
162.932 114.53 o
131.565 87.7606 o
93.7083 105.071 o
170.054 71.5014 o
140.96 123.915 o
134.775 105.947 o
146.411 105.756 o
155.1 91.2072 o
185.865 87.1104 o
188.513 124.619 o
224.289 111.151 o
113.863 99.3742 o
150.799 120.177 o
129.246 111.483 o
233.368 110.15 o
144.032 79.9447 o
85.0003 87.4103 o
240.139 93.5668 o
110.339 108.028 o
189.131 121.126 o
185.854 96.0735 o
137.949 108.968 o
141.965 91.7459 o
155.317 92.6097 o
148.767 93.5128 o
139.491 95.557 o
77.6139 106.258 o
218.073 82.9669 o
157.106 101.29 o
136.996 107.133 o
142.777 129.277 o
188.114 90.1009 o
119.012 81.5811 o
160.732 102.963 o
222.441 75.2939 o
174.771 66.8573 o
229.82 140.486 o
164.813 70.8554 o
126.463 87.3245 o
199.516 62.3871 o
202.078 124.585 o
211.226 133.865 o
187.813 137.78 o
164.528 63.3324 o
132.966 72.0484 o
97.9046 96.104 o
150.353 99.5874 o
116.438 84.5917 o
183.29 79.7806 o
224.62 146.287 o
111.534 37.1364 o
136.446 81.9532 o
195.054 102.455 o
167.841 113.299 o
186.289 148.745 o
171.809 66.1418 o
197.56 71.3586 o
157.02 102.136 o
118.396 102.743 o
142.699 79.9482 o
136.654 69.7711 o
136.498 103.06 o
135.477 70.5074 o
208.311 50.3439 o
191.09 93.8047 o
188.377 117.379 o
132.387 83.1098 o
115.281 145.784 o
144.242 101.044 o
87.3297 71.9667 o
169.163 115.969 o
168.059 112.317 o
143.948 95.0124 o
218.32 119.868 o
161.091 118.543 o
152.129 101.908 o
134.836 122.758 o
167.481 85.1712 o
142.086 63.2365 o
166.438 54.8452 o
191.369 78.6026 o
191.379 89.5742 o
222.774 113.071 o
154.184 105.975 o
212.223 110.913 o
157.411 93.6639 o
174.677 86.0919 o
137.564 78.4702 o
144.182 94.9889 o
151.86 106.14 o
162.181 134.586 o
190.385 98.0896 o
150.481 89.622 o
130.003 108.48 o
185.999 89.8904 o
162.702 85.1065 o
120.12 109.09 o
74.8688 99.3196 o
137.073 103.712 o
139.437 92.4548 o
145.345 115.244 o
90.1551 153.167 o
158.161 101.59 o
68.3838 55.6381 o
166.879 119.606 o
98.2802 98.7415 o
161.358 67.2845 o
154.496 113.464 o
108.922 89.8106 o
135.746 120.501 o
202.564 104.194 o
176.888 106.97 o
204.465 136.575 o
75.1787 93.5504 o
158.202 82.2055 o
167.151 95.4513 o
156.253 87.631 o
123.28 102.816 o
155.034 52.2666 o
207.649 106.456 o
174.148 77.764 o
63.0263 62.0269 o
179.737 103.178 o
136.043 81.9294 o
120.787 74.1253 o
170.099 100.399 o
108.296 86.0789 o
156.362 115.223 o
213.668 156.153 o
118.704 65.6832 o
123.201 140.576 o
111.329 100.418 o
187.554 120.138 o
150.433 103.97 o
143.403 91.1881 o
130.521 131.084 o
105.386 86.773 o
183.576 79.677 o
241.507 135.549 o
154.549 105.455 o
122.727 112.676 o
127.911 94.5503 o
61.3554 54.6407 o
144.445 94.9624 o
63.9751 37.9334 o
189.668 131.934 o
141.744 141.845 o
214.77 81.9233 o
225.631 93.8535 o
73.5525 97.6409 o
172.234 56.4577 o
127.86 143.174 o
55.3236 109.471 o
158.232 117.047 o
154.442 105.154 o
137.94 109.079 o
224.675 70.6601 o
201.018 107.865 o
95.3153 90.052 o
94.3733 131.365 o
141.411 72.474 o
132.472 74.8476 o
143.489 90.4434 o
123.566 88.148 o
128.182 120.849 o
111.922 69.7284 o
68.2988 94.88 o
153.954 100.686 o
118.412 110.337 o
154.341 58.1811 o
53.7454 87.0624 o
135.859 119.391 o
175.095 101.669 o
192.595 86.7873 o
148.521 113.028 o
169.308 65.0464 o
180.921 96.1777 o
152.711 99.9966 o
162.913 135.241 o
144.43 101.111 o
170.692 131.487 o
134.628 107.519 o
233.253 112.919 o
150.257 79.2203 o
124.836 107.726 o
162.31 120.44 o
93.3484 81.079 o
86.8651 130.895 o
163.263 104.956 o
234.392 108.791 o
74.2931 74.3029 o
161.381 101.08 o
95.1922 128.859 o
146.619 91.4088 o
206.658 104.067 o
49.1042 127.025 o
119.283 108.847 o
203.674 113.843 o
142.723 91.4389 o
218.15 141.551 o
132.44 92.0349 o
195.202 106.658 o
178.251 95.1045 o
118.75 102.984 o
142.469 59.2285 o
73.9627 138.241 o
90.7976 132.899 o
160.988 103.705 o
106.786 65.1024 o
84.8718 135.008 o
140.799 113.623 o
114.81 118.287 o
158.271 96.4589 o
161.582 97.2567 o
135.421 100.075 o
168.05 90.6722 o
168.852 109.95 o
202.634 80.3811 o
182.017 107.596 o
96.6415 114.848 o
144.75 60.864 o
145.693 89.896 o
141.765 110.829 o
114.653 106.009 o
69.5565 58.5207 o
69.3984 103.923 o
73.368 81.1452 o
64.1285 59.4915 o
151.902 107.663 o
137.247 88.5164 o
85.4164 65.4404 o
121.543 103.139 o
135.841 102.938 o
140.806 117.714 o
107.823 78.5902 o
223.623 87.5962 o
191.515 118.243 o
138.561 90.3257 o
149.786 104.999 o
156.895 106.024 o
140.859 101.69 o
182.339 105.506 o
69.2057 50.4538 o
156.635 91.9003 o
137.599 125.351 o
239.531 81.6666 o
150.914 42.32 o
127.417 92.7646 o
138.902 110.386 o
190.818 93.8381 o
144.661 107.248 o
108.161 90.348 o
158.246 97.4752 o
173.642 60.4334 o
155.587 105.778 o
64.9576 151.932 o
101.031 99.2972 o
107.518 123.768 o
154.833 77.5439 o
97.8666 99.3335 o
153.471 108.202 o
126.183 91.64 o
91.781 78.142 o
116.602 118.543 o
114.741 89.113 o
131.156 89.2963 o
105.298 59.9945 o
225.286 115.466 o
56.0212 63.5741 o
86.6801 84.5193 o
209.518 66.2532 o
147.637 95.8211 o
227.807 55.2844 o
112.452 77.8101 o
158.019 108.279 o
118.422 91.6474 o
143.227 73.424 o
49.4689 79.8136 o
212.83 98.4235 o
167.041 90.4571 o
129.522 94.0799 o
107.573 76.085 o
154.599 78.5469 o
107.715 87.1782 o
164.908 83.4647 o
183.196 130.476 o
84.3952 78.2419 o
161.969 139.24 o
142.909 77.1875 o
150.224 126.526 o
180.724 103.461 o
134.219 103.625 o
138.282 98.9194 o
152.323 109.892 o
146.839 100.802 o
170.925 93.3601 o
197.066 72.4916 o
105.248 63.8409 o
53.8551 103.373 o
159.566 105.823 o
174.262 103.405 o
56.9917 136.951 o
169.738 95.0961 o
100.988 118.069 o
163.882 55.5303 o
136.758 76.7365 o
96.4139 70.4828 o
172.645 103.161 o
110.102 124.627 o
142.75 87.1694 o
138.406 102.207 o
152.741 106.756 o
55.5028 136.237 o
160.618 91.4238 o
82.0725 134.775 o
138.949 94.4566 o
174.037 105.703 o
141.931 99.6722 o
109.904 103.063 o
55.2025 134.979 o
207.822 57.8391 o
137.312 108.65 o
207.993 50.3772 o
101.931 103.807 o
148.337 62.2243 o
179.514 67.5511 o
114.477 66.246 o
189.732 106.002 o
145.188 134.499 o
114.763 95.8478 o
96.4675 126.663 o
104.092 103.713 o
179.468 157.459 o
79.9529 99.6998 o
48.9493 81.3455 o
144.437 98.0498 o
193.677 145.089 o
241.579 135.361 o
156.128 117.776 o
124.997 84.5222 o
128.264 70.7659 o
240.776 91.0195 o
144.4 121.647 o
168.758 101.523 o
158.164 101.129 o
203.437 138.004 o
130.11 118.691 o
96.122 115.441 o
155.586 104.762 o
135.913 90.6581 o
189.801 82.2376 o
190.473 123.323 o
165.865 90.1751 o
138.448 133.923 o
184.31 103.497 o
121.026 57.5365 o
105.074 122.658 o
197.974 121.84 o
96.3612 135.345 o
97.4762 72.4263 o
133.242 108.893 o
143.186 107.457 o
190.022 90.9966 o
157.941 104.055 o
146.392 99.3008 o
166.68 95.9697 o
99.5539 105.493 o
147.275 100.87 o
216.922 87.2842 o
88.6366 101.235 o
133.02 92.0656 o
228.82 138.525 o
151.313 96.6572 o
121.496 55.2919 o
178.245 87.512 o
104.531 137.591 o
177.267 108.122 o
201.163 132.752 o
191.161 90.7979 o
89.0386 85.7373 o
160.319 94.2826 o
135.06 115.122 o
84.9424 97.6378 o
163.57 134.36 o
137.944 105.584 o
155.523 49.4414 o
178.418 87.9641 o
76.0744 106.472 o
123.761 92.8939 o
145.786 97.796 o
181.607 81.2939 o
70.1567 135.25 o
154.877 101.661 o
152.393 108.969 o
50.9226 111.602 o
155.89 67.9261 o
196.022 112.546 o
55.7601 111.298 o
134.372 123.5 o
167.844 105.737 o
241.244 53.9317 o
203.784 82.6739 o
176.779 135.813 o
236.938 107.205 o
122.064 129.419 o
143.6 75.5896 o
150.097 103.358 o
157.119 87.3214 o
128.135 71.6346 o
156.175 58.5741 o
213.647 102.852 o
132.064 95.1864 o
98.7188 79.673 o
175.194 89.8743 o
160.181 94.9385 o
136.243 101.838 o
154.052 110.097 o
152.69 122.298 o
210.623 136.862 o
152.158 111.574 o
204.173 98.4683 o
124.418 92.7062 o
154.676 114.374 o
148.847 100.498 o
119.976 113.488 o
93.0752 104.763 o
170.84 77.5867 o
137.062 120.973 o
90.4947 118.023 o
121.447 79.5587 o
85.3962 101.591 o
180.06 97.4675 o
155.156 93.1021 o
201.883 93.1672 o
141.169 62.3235 o
215.138 58.4872 o
151.893 98.9196 o
103.64 60.9894 o
124.034 85.9252 o
146.983 105.537 o
139.123 91.3191 o
131.736 149.126 o
100.293 98.2607 o
129.84 56.0428 o
124.188 119.436 o
204.927 118.376 o
243.403 141.117 o
137.831 100.085 o
217.184 85.2711 o
105.277 116.67 o
146.057 93.2486 o
114.981 96.8059 o
135.288 103.456 o
147.082 105.375 o
80.623 81.4883 o
112.782 81.1485 o
217.42 105.086 o
192.404 64.6165 o
120.466 92.2918 o
159.991 91.3312 o
126.346 106.377 o
166.81 117.887 o
228.492 109.217 o
89.6387 99.171 o
126.929 108.865 o
166.958 95.6677 o
193.798 108.725 o
154.338 92.1461 o
116.438 71.4133 o
182.533 96.9654 o
138.377 120.458 o
194.362 87.6751 o
149.979 121.385 o
135.658 111.754 o
125.705 115.146 o
106.564 105.341 o
125.584 128.888 o
151.819 138.383 o
171.726 76.5262 o
138.446 78.2116 o
99.9844 77.0528 o
201.759 90.7516 o
149.987 113.888 o
94.2486 154.062 o
108.504 84.594 o
149.607 112.226 o
108.175 82.1029 o
181.689 39.939 o
115.32 116.823 o
94.7836 109.884 o
51.3318 82.8257 o
157.151 72.1417 o
178.268 154.294 o
187.914 100.377 o
202.4 100.432 o
89.9632 95.3286 o
212.078 114.062 o
146.887 106.664 o
81.0632 97.3035 o
142.714 99.2388 o
99.8674 128.024 o
151.052 77.0907 o
151.038 87.761 o
125.889 115.902 o
177.492 111.203 o
92.8926 130.279 o
202.403 131.537 o
54.339 132.876 o
188.112 84.499 o
198.92 144.121 o
205.072 78.7646 o
158.447 103.192 o
148.683 79.4817 o
153.158 111.35 o
75.7181 154.682 o
113.323 104.704 o
134.036 118.624 o
197.741 115.494 o
143.791 100.044 o
199.027 61.271 o
154.31 93.7547 o
177.199 58.2876 o
155.195 115.283 o
213.875 90.9397 o
67.988 106.431 o
229.424 151.718 o
191.248 95.3086 o
176.041 85.4395 o
139.404 105.012 o
77.6502 74.4992 o
205.645 85.9733 o
198.263 80.5184 o
89.7274 99.9614 o
137.336 108.944 o
159.365 96.6616 o
113.281 109.867 o
138.963 95.4421 o
107.464 70.9766 o
127.996 103.602 o
152.365 85.8605 o
174.565 62.1772 o
133.433 103.862 o
133.784 154.448 o
74.0158 91.8864 o
147.284 120.644 o
155.555 83.3171 o
240.922 95.4994 o
152.968 100.493 o
162.476 95.2956 o
132.292 111.248 o
145.976 99.7062 o
187.399 102.524 o
210.288 77.2372 o
188.075 94.2013 o
139.784 115.16 o
182.574 92.314 o
136.715 106.833 o
139.341 112.036 o
142.931 79.2102 o
149.097 51.5396 o
197.506 105.765 o
125.891 87.7826 o
108.786 107.678 o
211.05 53.4397 o
146.395 106.54 o
137.487 101.106 o
190.079 90.8085 o
145.062 91.6968 o
150.502 115.582 o
78.1278 83.9475 o
189.24 99.4467 o
71.2235 57.5955 o
159.044 82.179 o
119.128 119.867 o
157.009 80.4671 o
184.558 136.275 o
51.7507 53.1491 o
181.682 76.286 o
181.494 105.074 o
121.133 111.418 o
83.1731 133.5 o
145.526 108.621 o
103.552 55.7515 o
179.665 99.5408 o
115.958 109.921 o
172.721 110.684 o
137.111 96.3884 o
101.607 109.611 o
135.417 120.289 o
77.5259 88.344 o
147.248 91.5126 o
164.016 111.11 o
154.564 75.4351 o
177.524 126.435 o
181.262 112.116 o
150.984 121.1 o
151.43 75.208 o
194.912 85.4566 o
58.1401 135.699 o
227.581 80.5858 o
158.693 106.117 o
222.714 115.899 o
156.647 96.7777 o
152.122 105.456 o
73.4179 37.9741 o
197.725 95.1103 o
151.692 95.3051 o
133.64 95.4277 o
119.455 96.3806 o
99.5735 83.1929 o
231.655 108.82 o
120.812 92.8077 o
156.358 73.3387 o
140.189 81.1652 o
106.567 86.8235 o
157.129 110.836 o
167.207 81.1254 o
181.544 73.7167 o
143.012 104.864 o
155.125 58.0303 o
187.789 106.246 o
143.173 119.768 o
110.819 91.3194 o
60.9532 65.1067 o
156.656 68.0424 o
170.094 57.7177 o
121.021 108.651 o
146.502 116.033 o
137.068 92.2788 o
108.473 75.504 o
140.161 94.3217 o
69.1893 153.069 o
170.576 98.6858 o
236.506 98.5494 o
128.36 85.278 o
190.817 107.617 o
128.158 108.018 o
140.919 98.4064 o
238.449 105.272 o
108.09 108.201 o
116.754 67.4575 o
142.073 110.79 o
118.983 90.4923 o
134.983 96.4145 o
139.831 90.5694 o
136.412 93.217 o
238.762 59.0226 o
131.976 108.698 o
181.508 111.709 o
166.533 115.693 o
243.512 79.0661 o
182.558 133.036 o
169.118 103.517 o
131.833 113.792 o
97.2854 136.742 o
105.534 80.6058 o
195.584 134.072 o
141.032 70.2441 o
102.767 82.8846 o
229.952 68.7206 o
168.85 125.205 o
116.133 92.9861 o
153.742 110.931 o
154.349 109.961 o
197.273 103.652 o
240.21 73.8568 o
78.1891 94.5753 o
101.675 103.822 o
218.971 93.8275 o
150.579 93.8639 o
124.606 146.922 o
169.774 97.2283 o
114.99 123.462 o
148.835 104.886 o
142.587 58.263 o
54.0595 104.347 o
131.546 94.3088 o
109.821 123.075 o
140.979 107.508 o
140.983 94.8451 o
120.273 97.7083 o
174.516 88.218 o
183.996 67.955 o
120.565 103.237 o
137.733 85.0465 o
186.201 94.2971 o
153.741 43.163 o
119.658 125.529 o
75.6689 73.0627 o
133.738 109.446 o
180.648 99.565 o
139.66 91.4035 o
181.146 100.043 o
148.911 82.8582 o
132.844 83.2784 o
79.2323 67.8984 o
121.936 76.5836 o
147.767 90.5607 o
63.8338 128.291 o
140.687 121.157 o
169.424 121.679 o
157.319 73.5634 o
165.597 65.1899 o
122.189 100.859 o
93.5915 113.077 o
93.2157 87.1049 o
75.5136 97.6727 o
146.432 96.4958 o
223.309 110.581 o
188.5 136.19 o
178.391 99.3977 o
142.37 105.536 o
149.516 64.6448 o
65.6461 130.702 o
151.635 95.3665 o
124.466 83.1072 o
200.539 99.1496 o
114.663 123.377 o
141.683 83.1024 o
131.238 103.433 o
193.752 92.1654 o
141.102 76.9207 o
236.049 135.176 o
132.161 99.7671 o
123.521 105.29 o
129.309 89.0044 o
161.948 100.021 o
177.901 72.1779 o
215.971 93.3787 o
194.464 128.567 o
218.414 91.1421 o
150.495 105.52 o
173.091 104.595 o
143.926 95.1929 o
140.475 77.6784 o
grestore
0.502 setgray
gsave
196.6 126 47.88 36 clipbox
/o {
gsave
newpath
translate
0.5 setlinewidth
1 setlinejoin
0 setlinecap
0 -0.25 m
0.0663008 -0.25 0.129895 -0.223658 0.176777 -0.176777 c
0.223658 -0.129895 0.25 -0.0663008 0.25 0 c
0.25 0.0663008 0.223658 0.129895 0.176777 0.176777 c
0.129895 0.223658 0.0663008 0.25 0 0.25 c
-0.0663008 0.25 -0.129895 0.223658 -0.176777 0.176777 c
-0.223658 0.129895 -0.25 0.0663008 -0.25 0 c
-0.25 -0.0663008 -0.223658 -0.129895 -0.176777 -0.176777 c
-0.129895 -0.223658 -0.0663008 -0.25 0 -0.25 c
cl
gsave
0.502 setgray
fill
grestore
stroke
grestore
} bind def
175.006 79.1056 o
162.649 65.213 o
162.345 77.3269 o
165.449 76.97 o
174.61 72.2988 o
172.611 75.8682 o
163.818 83.9829 o
169.378 74.9755 o
177.215 69.5426 o
162.119 77.6983 o
165.4 80.5204 o
170.445 66.4211 o
165.673 82.8648 o
164.68 84.1082 o
170.054 71.5014 o
171.809 66.1418 o
grestore
0.000 1.000 1.000 setrgbcolor
gsave
196.6 126 47.88 36 clipbox
/o {
gsave
newpath
translate
0.5 setlinewidth
1 setlinejoin
0 setlinecap
0 -1 m
0.265203 -1 0.51958 -0.894634 0.707107 -0.707107 c
0.894634 -0.51958 1 -0.265203 1 0 c
1 0.265203 0.894634 0.51958 0.707107 0.707107 c
0.51958 0.894634 0.265203 1 0 1 c
-0.265203 1 -0.51958 0.894634 -0.707107 0.707107 c
-0.894634 0.51958 -1 0.265203 -1 0 c
-1 -0.265203 -0.894634 -0.51958 -0.707107 -0.707107 c
-0.51958 -0.894634 -0.265203 -1 0 -1 c
cl
gsave
0.000 1.000 1.000 setrgbcolor
fill
grestore
stroke
grestore
} bind def
168.815 77.1884 o
174.455 69.3244 o
165.823 77.5326 o
176.102 75.5223 o
168.078 80.1133 o
162.719 76.8656 o
171.852 69.4511 o
165.744 74.3932 o
166.273 78.7075 o
174.208 76.4502 o
165.485 80.351 o
174.901 72.7658 o
167.77 81.793 o
170.512 67.5226 o
173.083 77.9281 o
171.093 76.2275 o
165.78 73.5086 o
170.241 72.4631 o
175.466 82.6705 o
173.238 81.6271 o
171.677 79.9003 o
169.921 79.6303 o
169.81 71.3602 o
172.992 77.8986 o
174.275 70.0319 o
175.252 70.1823 o
167.971 80.0584 o
166.785 78.0445 o
168.302 70.2093 o
165.367 69.5935 o
164.541 71.8031 o
173.051 76.2637 o
174.607 73.3402 o
171.714 81.2607 o
175.847 83.1852 o
175.822 78.606 o
169.874 78.5329 o
172.013 72.5567 o
169.021 74.4727 o
171.186 78.4385 o
167.514 77.8917 o
171.426 74.9117 o
174.607 73.3402 o
174.535 80.2517 o
174.884 75.432 o
172.347 69.8667 o
grestore
1.000 0.000 0.000 setrgbcolor
gsave
196.6 126 47.88 36 clipbox
/o {
gsave
newpath
translate
0.5 setlinewidth
1 setlinejoin
0 setlinecap
0 -1 m
0.265203 -1 0.51958 -0.894634 0.707107 -0.707107 c
0.894634 -0.51958 1 -0.265203 1 0 c
1 0.265203 0.894634 0.51958 0.707107 0.707107 c
0.51958 0.894634 0.265203 1 0 1 c
-0.265203 1 -0.51958 0.894634 -0.707107 0.707107 c
-0.894634 0.51958 -1 0.265203 -1 0 c
-1 -0.265203 -0.894634 -0.51958 -0.707107 -0.707107 c
-0.51958 -0.894634 -0.265203 -1 0 -1 c
cl
gsave
1.000 0.000 0.000 setrgbcolor
fill
grestore
stroke
grestore
} bind def
99.6532 140.432 o
102.274 138.929 o
101.862 141.227 o
104.932 139.837 o
103.686 144.657 o
107.457 141.224 o
107.085 142.315 o
108.154 140.869 o
108.212 141.933 o
108.238 141.926 o
109.395 140.639 o
110.07 140.739 o
109.203 144.153 o
111.575 137.044 o
110.328 147.153 o
111.613 142.866 o
114.452 143.74 o
116.359 142.822 o
grestore
1.000 setlinewidth
0 setlinejoin
2 setlinecap
0.000 setgray
gsave
47.88 162 m
244.44 162 l
stroke
grestore
gsave
244.44 36 m
244.44 162 l
stroke
grestore
gsave
47.88 36 m
244.44 36 l
stroke
grestore
gsave
47.88 36 m
47.88 162 l
stroke
grestore
0.500 setlinewidth
1 setlinejoin
0 setlinecap
gsave
/o {
gsave
newpath
translate
0.5 setlinewidth
1 setlinejoin
0 setlinecap
0 0 m
0 4 l
gsave
0.000 setgray
fill
grestore
stroke
grestore
} bind def
64.26 36 o
grestore
gsave
/o {
gsave
newpath
translate
0.5 setlinewidth
1 setlinejoin
0 setlinecap
0 0 m
0 -4 l
gsave
0.000 setgray
fill
grestore
stroke
grestore
} bind def
64.26 162 o
grestore
/BitstreamVeraSans-Roman findfont
6.000 scalefont
setfont
gsave
56.541250 27.437500 translate
0.000000 rotate
0.000000 0.000000 m /minus glyphshow
5.027344 0.000000 m /one glyphshow
8.844727 0.000000 m /five glyphshow
12.662109 0.000000 m /zero glyphshow
grestore
gsave
/o {
gsave
newpath
translate
0.5 setlinewidth
1 setlinejoin
0 setlinecap
0 0 m
0 4 l
gsave
0.000 setgray
fill
grestore
stroke
grestore
} bind def
91.56 36 o
grestore
gsave
/o {
gsave
newpath
translate
0.5 setlinewidth
1 setlinejoin
0 setlinecap
0 0 m
0 -4 l
gsave
0.000 setgray
fill
grestore
stroke
grestore
} bind def
91.56 162 o
grestore
gsave
83.841250 27.437500 translate
0.000000 rotate
0.000000 0.000000 m /minus glyphshow
5.027344 0.000000 m /one glyphshow
8.844727 0.000000 m /zero glyphshow
12.662109 0.000000 m /zero glyphshow
grestore
gsave
/o {
gsave
newpath
translate
0.5 setlinewidth
1 setlinejoin
0 setlinecap
0 0 m
0 4 l
gsave
0.000 setgray
fill
grestore
stroke
grestore
} bind def
118.86 36 o
grestore
gsave
/o {
gsave
newpath
translate
0.5 setlinewidth
1 setlinejoin
0 setlinecap
0 0 m
0 -4 l
gsave
0.000 setgray
fill
grestore
stroke
grestore
} bind def
118.86 162 o
grestore
gsave
113.047500 27.437500 translate
0.000000 rotate
0.000000 0.000000 m /minus glyphshow
5.027344 0.000000 m /five glyphshow
8.844727 0.000000 m /zero glyphshow
grestore
gsave
/o {
gsave
newpath
translate
0.5 setlinewidth
1 setlinejoin
0 setlinecap
0 0 m
0 4 l
gsave
0.000 setgray
fill
grestore
stroke
grestore
} bind def
146.16 36 o
grestore
gsave
/o {
gsave
newpath
translate
0.5 setlinewidth
1 setlinejoin
0 setlinecap
0 0 m
0 -4 l
gsave
0.000 setgray
fill
grestore
stroke
grestore
} bind def
146.16 162 o
grestore
gsave
144.644375 27.437500 translate
0.000000 rotate
0.000000 0.000000 m /zero glyphshow
grestore
gsave
/o {
gsave
newpath
translate
0.5 setlinewidth
1 setlinejoin
0 setlinecap
0 0 m
0 4 l
gsave
0.000 setgray
fill
grestore
stroke
grestore
} bind def
173.46 36 o
grestore
gsave
/o {
gsave
newpath
translate
0.5 setlinewidth
1 setlinejoin
0 setlinecap
0 0 m
0 -4 l
gsave
0.000 setgray
fill
grestore
stroke
grestore
} bind def
173.46 162 o
grestore
gsave
170.077188 27.437500 translate
0.000000 rotate
0.000000 0.000000 m /five glyphshow
3.817383 0.000000 m /zero glyphshow
grestore
gsave
/o {
gsave
newpath
translate
0.5 setlinewidth
1 setlinejoin
0 setlinecap
0 0 m
0 4 l
gsave
0.000 setgray
fill
grestore
stroke
grestore
} bind def
200.76 36 o
grestore
gsave
/o {
gsave
newpath
translate
0.5 setlinewidth
1 setlinejoin
0 setlinecap
0 0 m
0 -4 l
gsave
0.000 setgray
fill
grestore
stroke
grestore
} bind def
200.76 162 o
grestore
gsave
195.564687 27.437500 translate
0.000000 rotate
0.000000 0.000000 m /one glyphshow
3.817383 0.000000 m /zero glyphshow
7.634766 0.000000 m /zero glyphshow
grestore
gsave
/o {
gsave
newpath
translate
0.5 setlinewidth
1 setlinejoin
0 setlinecap
0 0 m
0 4 l
gsave
0.000 setgray
fill
grestore
stroke
grestore
} bind def
228.06 36 o
grestore
gsave
/o {
gsave
newpath
translate
0.5 setlinewidth
1 setlinejoin
0 setlinecap
0 0 m
0 -4 l
gsave
0.000 setgray
fill
grestore
stroke
grestore
} bind def
228.06 162 o
grestore
gsave
222.864688 27.437500 translate
0.000000 rotate
0.000000 0.000000 m /one glyphshow
3.817383 0.000000 m /five glyphshow
7.634766 0.000000 m /zero glyphshow
grestore
gsave
136.160000 14.187500 translate
0.000000 rotate
/Cmr10 findfont
8.0 scalefont
setfont
0.000000 0.557937 moveto
/l glyphshow

/BitstreamVeraSans-Roman findfont
8.0 scalefont
setfont
2.214844 0.557937 moveto
/space glyphshow

4.757812 0.557937 moveto
/space glyphshow

/Cmr10 findfont
8.0 scalefont
setfont
7.300781 0.557937 moveto
/parenleft glyphshow

/Cmsy10 findfont
5.6 scalefont
setfont
11.389531 4.517188 moveto
/openbullet glyphshow

/Cmr10 findfont
8.0 scalefont
setfont
15.898937 0.557937 moveto
/parenright glyphshow


grestore
gsave
/o {
gsave
newpath
translate
0.5 setlinewidth
1 setlinejoin
0 setlinecap
0 0 m
4 0 l
gsave
0.000 setgray
fill
grestore
stroke
grestore
} bind def
47.88 64 o
grestore
gsave
/o {
gsave
newpath
translate
0.5 setlinewidth
1 setlinejoin
0 setlinecap
0 0 m
-4 0 l
gsave
0.000 setgray
fill
grestore
stroke
grestore
} bind def
244.44 64 o
grestore
gsave
32.255000 62.343750 translate
0.000000 rotate
0.000000 0.000000 m /minus glyphshow
5.027344 0.000000 m /five glyphshow
8.844727 0.000000 m /zero glyphshow
grestore
gsave
/o {
gsave
newpath
translate
0.5 setlinewidth
1 setlinejoin
0 setlinecap
0 0 m
4 0 l
gsave
0.000 setgray
fill
grestore
stroke
grestore
} bind def
47.88 99 o
grestore
gsave
/o {
gsave
newpath
translate
0.5 setlinewidth
1 setlinejoin
0 setlinecap
0 0 m
-4 0 l
gsave
0.000 setgray
fill
grestore
stroke
grestore
} bind def
244.44 99 o
grestore
gsave
40.848750 97.343750 translate
0.000000 rotate
0.000000 0.000000 m /zero glyphshow
grestore
gsave
/o {
gsave
newpath
translate
0.5 setlinewidth
1 setlinejoin
0 setlinecap
0 0 m
4 0 l
gsave
0.000 setgray
fill
grestore
stroke
grestore
} bind def
47.88 134 o
grestore
gsave
/o {
gsave
newpath
translate
0.5 setlinewidth
1 setlinejoin
0 setlinecap
0 0 m
-4 0 l
gsave
0.000 setgray
fill
grestore
stroke
grestore
} bind def
244.44 134 o
grestore
gsave
37.114375 132.343750 translate
0.000000 rotate
0.000000 0.000000 m /five glyphshow
3.817383 0.000000 m /zero glyphshow
grestore
gsave
25.255000 88.000000 translate
90.000000 rotate
/Cmr10 findfont
8.0 scalefont
setfont
0.000000 0.557937 moveto
/b glyphshow

/BitstreamVeraSans-Roman findfont
8.0 scalefont
setfont
4.441406 0.557937 moveto
/space glyphshow

6.984375 0.557937 moveto
/space glyphshow

/Cmr10 findfont
8.0 scalefont
setfont
9.527344 0.557937 moveto
/parenleft glyphshow

/Cmsy10 findfont
5.6 scalefont
setfont
13.616094 4.517188 moveto
/openbullet glyphshow

/Cmr10 findfont
8.0 scalefont
setfont
18.125500 0.557937 moveto
/parenright glyphshow


grestore
/BitstreamVeraSans-Roman findfont
14.400 scalefont
setfont
gsave
112.472500 167.000000 translate
0.000000 rotate
0.000000 0.000000 m /N glyphshow
10.753174 0.000000 m /space glyphshow
15.322571 0.000000 m /equal glyphshow
27.367249 0.000000 m /space glyphshow
31.936646 0.000000 m /three glyphshow
41.082458 0.000000 m /three glyphshow
50.228271 0.000000 m /zero glyphshow
59.374084 0.000000 m /three glyphshow
grestore

end
showpage
