%!PS-Adobe-3.0 EPSF-3.0
%%Title: /Users/iuliasimion/bullock_johnston/denis_erkal/vasily/Figures/69684_1351496.0_rvr.eps
%%Creator: matplotlib version 1.4.3, http://matplotlib.org/
%%CreationDate: Sat Aug 19 14:41:39 2017
%%Orientation: portrait
%%BoundingBox: 180 306 432 486
%%EndComments
%%BeginProlog
/mpldict 10 dict def
mpldict begin
/m { moveto } bind def
/l { lineto } bind def
/r { rlineto } bind def
/c { curveto } bind def
/cl { closepath } bind def
/box {
m
1 index 0 r
0 exch r
neg 0 r
cl
} bind def
/clipbox {
box
clip
newpath
} bind def
%!PS-Adobe-3.0 Resource-Font
%%Title: Bitstream Vera Sans
%%Copyright: Copyright (c) 2003 by Bitstream, Inc. All Rights Reserved.
%%Creator: Converted from TrueType to type 3 by PPR
25 dict begin
/_d{bind def}bind def
/_m{moveto}_d
/_l{lineto}_d
/_cl{closepath eofill}_d
/_c{curveto}_d
/_sc{7 -1 roll{setcachedevice}{pop pop pop pop pop pop}ifelse}_d
/_e{exec}_d
/FontName /BitstreamVeraSans-Roman def
/PaintType 0 def
/FontMatrix[.001 0 0 .001 0 0]def
/FontBBox[-183 -236 1287 928]def
/FontType 3 def
/Encoding [ /space /parenleft /parenright /slash /zero /one /two /four /six /eight /k /m /s /minus ] def
/FontInfo 10 dict dup begin
/FamilyName (Bitstream Vera Sans) def
/FullName (Bitstream Vera Sans) def
/Notice (Copyright (c) 2003 by Bitstream, Inc. All Rights Reserved. Bitstream Vera is a trademark of Bitstream, Inc.) def
/Weight (Roman) def
/Version (Release 1.10) def
/ItalicAngle 0.0 def
/isFixedPitch false def
/UnderlinePosition -213 def
/UnderlineThickness 143 def
end readonly def
/CharStrings 14 dict dup begin
/space{318 0 0 0 0 0 _sc
}_d
/parenleft{390 0 86 -131 310 759 _sc
310 759 _m
266 683 234 609 213 536 _c
191 463 181 389 181 314 _c
181 238 191 164 213 91 _c
234 17 266 -56 310 -131 _c
232 -131 _l
183 -54 146 20 122 94 _c
98 168 86 241 86 314 _c
86 386 98 459 122 533 _c
146 607 182 682 232 759 _c
310 759 _l
_cl}_d
/parenright{390 0 80 -131 304 759 _sc
80 759 _m
158 759 _l
206 682 243 607 267 533 _c
291 459 304 386 304 314 _c
304 241 291 168 267 94 _c
243 20 206 -54 158 -131 _c
80 -131 _l
123 -56 155 17 177 91 _c
198 164 209 238 209 314 _c
209 389 198 463 177 536 _c
155 609 123 683 80 759 _c
_cl}_d
/slash{337 0 0 -92 337 729 _sc
254 729 _m
337 729 _l
83 -92 _l
0 -92 _l
254 729 _l
_cl}_d
/zero{636 0 66 -13 570 742 _sc
318 664 _m
267 664 229 639 203 589 _c
177 539 165 464 165 364 _c
165 264 177 189 203 139 _c
229 89 267 64 318 64 _c
369 64 407 89 433 139 _c
458 189 471 264 471 364 _c
471 464 458 539 433 589 _c
407 639 369 664 318 664 _c
318 742 _m
399 742 461 709 505 645 _c
548 580 570 486 570 364 _c
570 241 548 147 505 83 _c
461 19 399 -13 318 -13 _c
236 -13 173 19 130 83 _c
87 147 66 241 66 364 _c
66 486 87 580 130 645 _c
173 709 236 742 318 742 _c
_cl}_d
/one{636 0 110 0 544 729 _sc
124 83 _m
285 83 _l
285 639 _l
110 604 _l
110 694 _l
284 729 _l
383 729 _l
383 83 _l
544 83 _l
544 0 _l
124 0 _l
124 83 _l
_cl}_d
/two{{636 0 73 0 536 742 _sc
192 83 _m
536 83 _l
536 0 _l
73 0 _l
73 83 _l
110 121 161 173 226 239 _c
290 304 331 346 348 365 _c
380 400 402 430 414 455 _c
426 479 433 504 433 528 _c
433 566 419 598 392 622 _c
365 646 330 659 286 659 _c
255 659 222 653 188 643 _c
154 632 117 616 78 594 _c
78 694 _l
118 710 155 722 189 730 _c
223 738 255 742 284 742 _c
}_e{359 742 419 723 464 685 _c
509 647 532 597 532 534 _c
532 504 526 475 515 449 _c
504 422 484 390 454 354 _c
446 344 420 317 376 272 _c
332 227 271 164 192 83 _c
_cl}_e}_d
/four{636 0 49 0 580 729 _sc
378 643 _m
129 254 _l
378 254 _l
378 643 _l
352 729 _m
476 729 _l
476 254 _l
580 254 _l
580 172 _l
476 172 _l
476 0 _l
378 0 _l
378 172 _l
49 172 _l
49 267 _l
352 729 _l
_cl}_d
/six{{636 0 70 -13 573 742 _sc
330 404 _m
286 404 251 388 225 358 _c
199 328 186 286 186 234 _c
186 181 199 139 225 109 _c
251 79 286 64 330 64 _c
374 64 409 79 435 109 _c
461 139 474 181 474 234 _c
474 286 461 328 435 358 _c
409 388 374 404 330 404 _c
526 713 _m
526 623 _l
501 635 476 644 451 650 _c
425 656 400 659 376 659 _c
310 659 260 637 226 593 _c
}_e{192 549 172 482 168 394 _c
187 422 211 444 240 459 _c
269 474 301 482 336 482 _c
409 482 467 459 509 415 _c
551 371 573 310 573 234 _c
573 159 550 99 506 54 _c
462 9 403 -13 330 -13 _c
246 -13 181 19 137 83 _c
92 147 70 241 70 364 _c
70 479 97 571 152 639 _c
206 707 280 742 372 742 _c
396 742 421 739 447 735 _c
472 730 498 723 526 713 _c
_cl}_e}_d
/eight{{636 0 68 -13 568 742 _sc
318 346 _m
271 346 234 333 207 308 _c
180 283 167 249 167 205 _c
167 161 180 126 207 101 _c
234 76 271 64 318 64 _c
364 64 401 76 428 102 _c
455 127 469 161 469 205 _c
469 249 455 283 429 308 _c
402 333 365 346 318 346 _c
219 388 _m
177 398 144 418 120 447 _c
96 476 85 511 85 553 _c
85 611 105 657 147 691 _c
188 725 245 742 318 742 _c
}_e{390 742 447 725 489 691 _c
530 657 551 611 551 553 _c
551 511 539 476 515 447 _c
491 418 459 398 417 388 _c
464 377 501 355 528 323 _c
554 291 568 251 568 205 _c
568 134 546 80 503 43 _c
459 5 398 -13 318 -13 _c
237 -13 175 5 132 43 _c
89 80 68 134 68 205 _c
68 251 81 291 108 323 _c
134 355 171 377 219 388 _c
183 544 _m
183 506 194 476 218 455 _c
}_e{242 434 275 424 318 424 _c
360 424 393 434 417 455 _c
441 476 453 506 453 544 _c
453 582 441 611 417 632 _c
393 653 360 664 318 664 _c
275 664 242 653 218 632 _c
194 611 183 582 183 544 _c
_cl}_e}_d
/k{579 0 91 0 576 760 _sc
91 760 _m
181 760 _l
181 311 _l
449 547 _l
564 547 _l
274 291 _l
576 0 _l
459 0 _l
181 267 _l
181 0 _l
91 0 _l
91 760 _l
_cl}_d
/m{{974 0 91 0 889 560 _sc
520 442 _m
542 482 569 511 600 531 _c
631 550 668 560 711 560 _c
767 560 811 540 842 500 _c
873 460 889 403 889 330 _c
889 0 _l
799 0 _l
799 327 _l
799 379 789 418 771 444 _c
752 469 724 482 686 482 _c
639 482 602 466 575 435 _c
548 404 535 362 535 309 _c
535 0 _l
445 0 _l
445 327 _l
445 379 435 418 417 444 _c
398 469 369 482 331 482 _c
}_e{285 482 248 466 221 435 _c
194 404 181 362 181 309 _c
181 0 _l
91 0 _l
91 547 _l
181 547 _l
181 462 _l
201 495 226 520 255 536 _c
283 552 317 560 357 560 _c
397 560 430 550 458 530 _c
486 510 506 480 520 442 _c
_cl}_e}_d
/s{{521 0 54 -13 472 560 _sc
443 531 _m
443 446 _l
417 458 391 468 364 475 _c
336 481 308 485 279 485 _c
234 485 200 478 178 464 _c
156 450 145 430 145 403 _c
145 382 153 366 169 354 _c
185 342 217 330 265 320 _c
296 313 _l
360 299 405 279 432 255 _c
458 230 472 195 472 151 _c
472 100 452 60 412 31 _c
372 1 316 -13 246 -13 _c
216 -13 186 -10 154 -5 _c
}_e{122 0 89 8 54 20 _c
54 113 _l
87 95 120 82 152 74 _c
184 65 216 61 248 61 _c
290 61 323 68 346 82 _c
368 96 380 117 380 144 _c
380 168 371 187 355 200 _c
339 213 303 226 247 238 _c
216 245 _l
160 257 119 275 95 299 _c
70 323 58 356 58 399 _c
58 450 76 490 112 518 _c
148 546 200 560 268 560 _c
301 560 332 557 362 552 _c
391 547 418 540 443 531 _c
}_e{_cl}_e}_d
/minus{838 0 106 272 732 355 _sc
106 355 _m
732 355 _l
732 272 _l
106 272 _l
106 355 _l
_cl}_d
end readonly def

/BuildGlyph
 {exch begin
 CharStrings exch
 2 copy known not{pop /.notdef}if
 true 3 1 roll get exec
 end}_d

/BuildChar {
 1 index /Encoding get exch get
 1 index /BuildGlyph get exec
}_d

FontName currentdict end definefont pop
%!PS-Adobe-3.0 Resource-Font
%%Title: cmr10
%%Copyright: Copyright (C) 1994, Basil K. Malyshev. All Rights Reserved.012BaKoMa Fonts Collection, Level-B.
%%Creator: Converted from TrueType to type 3 by PPR
25 dict begin
/_d{bind def}bind def
/_m{moveto}_d
/_l{lineto}_d
/_cl{closepath eofill}_d
/_c{curveto}_d
/_sc{7 -1 roll{setcachedevice}{pop pop pop pop pop pop}ifelse}_d
/_e{exec}_d
/FontName /Cmr10 def
/PaintType 0 def
/FontMatrix[.001 0 0 .001 0 0]def
/FontBBox[-44 -250 1009 750]def
/FontType 3 def
/Encoding [ /k /S /parenright /R /G /parenleft /c /p /r ] def
/FontInfo 10 dict dup begin
/FamilyName (cmr10) def
/FullName (cmr10) def
/Notice (Copyright (C) 1994, Basil K. Malyshev. All Rights Reserved.012BaKoMa Fonts Collection, Level-B. ) def
/Weight (Regular) def
/Version (1.1/12-Nov-94) def
/ItalicAngle 0.0 def
/isFixedPitch false def
/UnderlinePosition -133 def
/UnderlineThickness 20 def
end readonly def
/CharStrings 9 dict dup begin
/k{{527 0 26 0 511 694 _sc
26 0 _m
26 35 _l
48 35 67 36 82 40 _c
96 44 104 53 104 67 _c
104 592 _l
104 610 101 623 96 631 _c
90 639 83 643 73 645 _c
63 647 47 648 26 648 _c
26 683 _l
174 694 _l
174 219 _l
308 337 _l
321 349 328 361 328 372 _c
328 380 325 386 320 390 _c
314 394 308 396 300 396 _c
300 431 _l
488 431 _l
488 396 _l
}_e{442 396 397 376 352 337 _c
281 275 _l
408 94 _l
426 69 440 53 452 46 _c
464 38 483 35 511 35 _c
511 0 _l
312 0 _l
312 35 _l
334 35 346 42 346 56 _c
346 66 340 78 328 94 _c
232 231 _l
171 178 _l
171 67 _l
171 53 178 44 193 40 _c
207 36 226 35 249 35 _c
249 0 _l
26 0 _l
_cl}_e}_d
/S{{555 0 56 -21 499 705 _sc
56 -13 _m
56 219 _l
56 224 59 227 65 227 _c
77 227 _l
79 227 80 226 82 224 _c
84 222 85 221 85 219 _c
85 153 105 103 146 67 _c
186 31 239 13 305 13 _c
328 13 349 19 369 33 _c
388 46 403 63 414 85 _c
425 107 431 129 431 153 _c
431 173 427 192 419 211 _c
411 230 399 247 384 261 _c
368 275 351 284 332 289 _c
202 321 _l
}_e{159 332 124 355 97 391 _c
69 426 56 466 56 510 _c
56 544 64 577 82 607 _c
100 637 123 660 153 678 _c
183 696 215 705 250 705 _c
316 705 369 682 409 637 _c
450 702 _l
452 704 454 705 457 705 _c
464 705 _l
466 705 467 704 469 703 _c
471 701 472 699 472 697 _c
472 465 _l
472 459 469 456 464 456 _c
452 456 _l
446 456 443 459 443 465 _c
443 481 440 500 434 520 _c
}_e{428 540 421 560 411 578 _c
401 596 390 612 378 624 _c
346 656 303 673 250 673 _c
227 673 206 667 187 655 _c
167 643 152 628 141 608 _c
129 588 124 568 124 546 _c
124 517 132 491 150 468 _c
168 444 191 429 220 422 _c
350 390 _l
371 384 391 375 410 362 _c
429 348 445 333 458 315 _c
471 297 481 277 488 255 _c
495 233 499 210 499 187 _c
499 151 490 117 474 85 _c
}_e{457 53 434 27 404 8 _c
374 -11 341 -21 305 -21 _c
283 -21 260 -18 237 -13 _c
214 -8 193 -1 173 8 _c
153 18 136 31 120 47 _c
78 -18 _l
76 -20 73 -21 71 -21 _c
65 -21 _l
59 -21 56 -18 56 -13 _c
_cl}_e}_d
/parenright{{388 0 56 -249 291 750 _sc
65 -249 _m
59 -249 56 -246 56 -240 _c
56 -237 56 -235 58 -234 _c
172 -122 229 38 229 250 _c
229 462 172 623 60 733 _c
57 734 56 737 56 741 _c
56 743 57 745 59 747 _c
61 749 63 750 65 750 _c
74 750 _l
76 750 77 749 79 748 _c
127 710 167 664 199 610 _c
231 556 254 498 269 437 _c
283 376 291 314 291 250 _c
291 202 287 156 279 110 _c
}_e{271 64 258 20 241 -24 _c
223 -68 201 -108 175 -146 _c
148 -184 116 -217 79 -247 _c
77 -248 76 -249 74 -249 _c
65 -249 _l
_cl}_e}_d
/R{{736 0 33 -21 732 683 _sc
33 0 _m
33 35 _l
101 35 136 45 136 67 _c
136 616 _l
136 637 101 648 33 648 _c
33 683 _l
347 683 _l
384 683 423 676 465 663 _c
506 649 540 629 568 601 _c
596 573 610 540 610 502 _c
610 474 601 449 585 427 _c
568 405 546 386 520 372 _c
494 357 467 346 440 340 _c
470 329 496 312 518 290 _c
540 267 554 241 559 212 _c
573 123 _l
}_e{579 83 586 53 593 33 _c
600 13 616 4 641 4 _c
661 4 677 13 687 33 _c
697 52 703 73 703 96 _c
703 98 704 100 706 102 _c
708 104 710 105 713 105 _c
722 105 _l
728 105 732 100 732 92 _c
732 73 728 55 721 38 _c
713 20 703 6 690 -4 _c
676 -15 660 -21 642 -21 _c
594 -21 552 -9 518 14 _c
483 38 466 73 466 119 _c
466 208 _l
466 241 454 269 431 293 _c
}_e{407 317 379 329 346 329 _c
226 329 _l
226 67 _l
226 45 260 35 329 35 _c
329 0 _l
33 0 _l
226 355 _m
333 355 _l
388 355 430 366 459 388 _c
488 410 503 448 503 502 _c
503 555 488 593 460 615 _c
431 637 389 648 333 648 _c
277 648 _l
265 648 255 647 249 646 _c
242 645 236 642 232 638 _c
228 633 226 626 226 616 _c
226 355 _l
_cl}_e}_d
/G{{784 0 56 -21 735 705 _sc
230 107 _m
254 77 283 54 318 38 _c
352 21 389 13 427 13 _c
463 13 497 22 527 41 _c
557 60 573 87 573 122 _c
573 206 _l
573 227 531 238 448 238 _c
448 273 _l
735 273 _l
735 238 _l
713 238 696 236 684 232 _c
672 228 666 220 666 206 _c
666 9 _l
666 6 665 4 663 2 _c
661 0 659 0 657 0 _c
651 0 640 7 626 22 _c
}_e{611 36 600 49 592 61 _c
575 33 549 12 515 -1 _c
480 -14 444 -21 406 -21 _c
341 -21 282 -4 229 28 _c
175 61 133 106 102 162 _c
71 218 56 278 56 342 _c
56 389 65 435 83 479 _c
101 523 126 563 158 597 _c
190 631 227 657 270 676 _c
312 695 358 705 406 705 _c
440 705 473 697 504 683 _c
534 668 562 647 586 620 _c
644 702 _l
648 704 650 705 651 705 _c
658 705 _l
}_e{660 705 661 704 663 702 _c
665 700 666 699 666 697 _c
666 427 _l
666 421 663 418 658 418 _c
640 418 _l
634 418 631 421 631 427 _c
631 446 627 467 619 491 _c
611 515 602 537 590 559 _c
578 580 564 599 549 615 _c
511 651 468 670 420 670 _c
382 670 347 661 313 645 _c
279 628 251 605 228 576 _c
203 544 186 509 177 469 _c
167 429 163 387 163 342 _c
163 239 185 161 230 107 _c
}_e{_cl}_e}_d
/parenleft{{388 0 97 -249 332 750 _sc
310 -247 _m
272 -217 240 -184 214 -146 _c
187 -108 165 -67 148 -25 _c
131 17 118 62 110 109 _c
101 155 97 202 97 250 _c
97 298 101 345 110 392 _c
118 438 131 483 149 527 _c
166 570 188 611 215 649 _c
242 687 274 720 310 748 _c
310 749 311 750 315 750 _c
324 750 _l
326 750 327 749 329 747 _c
331 745 332 743 332 741 _c
332 738 331 736 330 735 _c
}_e{297 703 270 668 248 632 _c
226 596 209 557 196 516 _c
183 474 174 432 168 388 _c
162 344 159 298 159 250 _c
159 38 215 -122 329 -232 _c
331 -234 332 -236 332 -240 _c
332 -242 331 -244 329 -246 _c
327 -248 326 -249 324 -249 _c
315 -249 _l
311 -249 310 -248 310 -247 _c
_cl}_e}_d
/c{{444 0 33 -10 415 448 _sc
249 -10 _m
208 -10 171 0 139 21 _c
106 41 80 69 61 104 _c
42 139 33 176 33 216 _c
33 255 42 293 61 329 _c
79 365 105 393 138 415 _c
171 437 208 448 249 448 _c
288 448 324 440 356 425 _c
388 409 404 384 404 350 _c
404 337 399 326 390 316 _c
380 306 369 302 356 302 _c
342 302 331 306 322 316 _c
312 326 308 337 308 350 _c
}_e{308 362 311 372 319 381 _c
327 389 336 395 347 397 _c
324 411 292 419 250 419 _c
218 419 192 408 173 387 _c
153 365 140 339 132 308 _c
124 277 120 246 120 216 _c
120 183 124 152 134 122 _c
144 92 159 67 181 47 _c
202 27 229 18 261 18 _c
293 18 320 27 342 47 _c
364 66 379 91 387 123 _c
387 127 389 129 395 129 _c
407 129 _l
409 129 410 128 412 126 _c
}_e{414 124 415 122 415 120 _c
415 117 _l
405 77 385 46 355 24 _c
325 1 289 -10 249 -10 _c
_cl}_e}_d
/p{{555 0 26 -193 522 442 _sc
26 -193 _m
26 -158 _l
48 -158 67 -156 82 -152 _c
96 -148 104 -139 104 -126 _c
104 355 _l
104 373 97 384 84 389 _c
71 393 52 396 26 396 _c
26 431 _l
174 442 _l
174 380 _l
192 400 213 415 237 426 _c
261 436 287 442 315 442 _c
354 442 389 431 421 410 _c
453 388 477 360 495 326 _c
513 291 522 254 522 216 _c
522 175 512 137 492 103 _c
}_e{472 68 446 40 412 20 _c
378 0 340 -10 300 -10 _c
251 -10 210 9 177 48 _c
177 -126 _l
177 -139 184 -148 199 -152 _c
213 -156 232 -158 255 -158 _c
255 -193 _l
26 -193 _l
177 97 _m
188 73 204 54 225 38 _c
246 22 269 15 294 15 _c
317 15 337 21 355 33 _c
373 45 388 62 400 83 _c
412 104 420 126 426 149 _c
432 172 435 194 435 216 _c
435 242 430 271 420 302 _c
}_e{410 333 396 359 376 381 _c
356 402 333 413 305 413 _c
278 413 253 406 231 392 _c
208 378 190 360 177 336 _c
177 97 _l
_cl}_e}_d
/r{{391 0 26 0 364 442 _sc
26 0 _m
26 35 _l
48 35 67 36 82 40 _c
96 44 104 53 104 67 _c
104 340 _l
104 358 101 371 96 379 _c
90 387 83 391 73 393 _c
63 395 47 396 26 396 _c
26 431 _l
169 442 _l
169 344 _l
179 373 195 397 215 415 _c
235 433 259 442 287 442 _c
307 442 324 436 340 424 _c
356 412 364 397 364 378 _c
364 366 359 355 351 346 _c
}_e{342 337 331 333 319 333 _c
306 333 295 337 287 346 _c
278 354 274 365 274 378 _c
274 396 280 408 293 416 _c
287 416 _l
260 416 238 406 221 386 _c
203 366 191 342 184 314 _c
177 285 174 257 174 231 _c
174 67 _l
174 45 206 35 271 35 _c
271 0 _l
26 0 _l
_cl}_e}_d
end readonly def

/BuildGlyph
 {exch begin
 CharStrings exch
 2 copy known not{pop /.notdef}if
 true 3 1 roll get exec
 end}_d

/BuildChar {
 1 index /Encoding get exch get
 1 index /BuildGlyph get exec
}_d

FontName currentdict end definefont pop
%!PS-Adobe-3.0 Resource-Font
%%Title: cmmi10
%%Copyright: Copyright (C) 1994, Basil K. Malyshev. All Rights Reserved.012BaKoMa Fonts Collection, Level-B.
%%Creator: Converted from TrueType to type 3 by PPR
25 dict begin
/_d{bind def}bind def
/_m{moveto}_d
/_l{lineto}_d
/_cl{closepath eofill}_d
/_c{curveto}_d
/_sc{7 -1 roll{setcachedevice}{pop pop pop pop pop pop}ifelse}_d
/_e{exec}_d
/FontName /Cmmi10 def
/PaintType 0 def
/FontMatrix[.001 0 0 .001 0 0]def
/FontBBox[-34 -250 1048 750]def
/FontType 3 def
/Encoding [ /v ] def
/FontInfo 10 dict dup begin
/FamilyName (cmmi10) def
/FullName (cmmi10) def
/Notice (Copyright (C) 1994, Basil K. Malyshev. All Rights Reserved.012BaKoMa Fonts Collection, Level-B. ) def
/Weight (Regular) def
/Version (1.1/12-Nov-94) def
/ItalicAngle 0.0 def
/isFixedPitch false def
/UnderlinePosition -133 def
/UnderlineThickness 20 def
end readonly def
/CharStrings 1 dict dup begin
/v{{484 0 27 -10 467 443 _sc
107 113 _m
107 127 108 144 112 162 _c
116 180 119 194 123 206 _c
126 218 134 240 147 274 _c
160 307 167 324 167 326 _c
175 350 180 370 180 386 _c
180 406 172 416 158 416 _c
132 416 110 402 93 375 _c
75 347 63 317 55 284 _c
53 280 51 278 47 278 _c
35 278 _l
29 278 27 281 27 287 _c
27 290 _l
37 330 54 365 76 396 _c
}_e{98 426 126 442 160 442 _c
184 442 204 434 220 418 _c
236 402 245 383 245 359 _c
245 346 242 333 237 320 _c
223 286 213 258 206 238 _c
198 218 191 195 185 170 _c
179 144 176 121 176 100 _c
176 75 181 55 193 39 _c
204 23 222 15 247 15 _c
293 15 334 50 372 122 _c
384 145 395 172 405 203 _c
415 234 421 260 421 280 _c
421 300 417 315 411 327 _c
}_e{404 338 395 350 385 362 _c
375 374 370 383 370 391 _c
370 404 375 416 386 427 _c
396 437 408 443 422 443 _c
438 443 449 435 456 421 _c
463 406 467 389 467 371 _c
467 349 463 322 457 292 _c
451 261 442 229 431 196 _c
419 163 409 137 400 119 _c
356 33 304 -10 246 -10 _c
204 -10 170 0 145 21 _c
119 41 107 72 107 113 _c
_cl}_e}_d
end readonly def

/BuildGlyph
 {exch begin
 CharStrings exch
 2 copy known not{pop /.notdef}if
 true 3 1 roll get exec
 end}_d

/BuildChar {
 1 index /Encoding get exch get
 1 index /BuildGlyph get exec
}_d

FontName currentdict end definefont pop
end
%%EndProlog
mpldict begin
180 306 translate
252 180 0 0 clipbox
gsave
0 0 m
252 0 l
252 180 l
0 180 l
cl
1.000 setgray
fill
grestore
gsave
47.88 36 m
244.44 36 l
244.44 162 l
47.88 162 l
cl
1.000 setgray
fill
grestore
0.500 setlinewidth
1 setlinejoin
0 setlinecap
[] 0 setdash
0.000 setgray
gsave
196.6 126 47.88 36 clipbox
/o {
gsave
newpath
translate
0.5 setlinewidth
1 setlinejoin
0 setlinecap
0 -0.25 m
0.0663008 -0.25 0.129895 -0.223658 0.176777 -0.176777 c
0.223658 -0.129895 0.25 -0.0663008 0.25 0 c
0.25 0.0663008 0.223658 0.129895 0.176777 0.176777 c
0.129895 0.223658 0.0663008 0.25 0 0.25 c
-0.0663008 0.25 -0.129895 0.223658 -0.176777 0.176777 c
-0.223658 0.129895 -0.25 0.0663008 -0.25 0 c
-0.25 -0.0663008 -0.223658 -0.129895 -0.176777 -0.176777 c
-0.129895 -0.223658 -0.0663008 -0.25 0 -0.25 c
cl
gsave
0.000 setgray
fill
grestore
stroke
grestore
} bind def
51.4537 132.927 o
77.5122 98.2854 o
77.8779 103.174 o
77.0924 100.96 o
53.8354 85.23 o
84.3623 92.4849 o
75.4666 89.5226 o
72.3416 99.7316 o
85.2938 96.4919 o
82.4686 106.513 o
82.3479 85.933 o
72.2057 109.678 o
52.4889 136.302 o
86.7206 96.2993 o
69.0823 121.696 o
65.5693 76.079 o
68.2231 78.5225 o
64.8933 72.113 o
61.5496 115.521 o
74.1259 119.613 o
77.0521 85.837 o
88.9906 94.9683 o
72.0663 84.3198 o
77.5954 114.301 o
72.6048 92.5111 o
81.5469 97.022 o
80.5197 101.983 o
67.4977 120.204 o
83.9431 101.35 o
59.98 73.9882 o
75.1859 111.522 o
69.9075 82.5578 o
57.8378 78.5877 o
55.6773 132.359 o
71.1291 114.691 o
64.8053 74.288 o
83.0605 102.108 o
72.7583 102.096 o
50.9694 115.631 o
73.3249 110.418 o
64.8577 79.3835 o
85.7691 94.8319 o
61.692 105.019 o
76.174 96.7101 o
59.669 65.469 o
78.5179 96.9328 o
69.4444 118.851 o
76.6995 102.34 o
71.4895 95.5105 o
60.7917 126.91 o
79.7477 110.388 o
79.5554 102.434 o
61.1067 107.967 o
78.7342 94.9725 o
73.8663 114.282 o
62.2488 122.877 o
70.4429 98.6352 o
61.6546 102.117 o
85.2993 99.5933 o
86.6957 112.144 o
58.9392 93.2459 o
74.0442 102.354 o
84.4158 104.081 o
53.603 73.9135 o
76.0977 103.776 o
71.292 109.883 o
108.289 109.79 o
82.6033 102.097 o
65.6902 119.885 o
68.9415 116.161 o
79.3656 105.721 o
66.7209 117.767 o
101.994 98.9493 o
79.5069 95.0751 o
70.4686 116.609 o
72.5254 101.723 o
55.8837 130.045 o
57.7989 86.8119 o
91.7287 112.438 o
83.6637 92.1848 o
67.2023 119.677 o
72.1751 93.3031 o
69.0585 85.6295 o
76.3962 112.054 o
72.4716 83.1084 o
69.2756 83.2501 o
78.8404 105.738 o
77.2816 85.2359 o
73.3043 122.919 o
77.1835 89.8313 o
73.7162 109.686 o
81.702 97.061 o
83.4396 93.1561 o
71.2319 114.968 o
96.4642 94.495 o
61.4832 127.442 o
100.741 98.7344 o
60.7755 92.3834 o
80.8874 102.495 o
90.3612 101.779 o
80.0559 112.745 o
69.0848 117.165 o
57.2311 91.1411 o
83.4355 88.4707 o
72.3116 111.286 o
78.8164 110.941 o
103.009 95.8087 o
102.14 106.965 o
73.7607 119.303 o
73.1359 100.498 o
70.156 119.385 o
75.3341 119.634 o
62.7027 71.4173 o
102.737 101.904 o
81.8208 97.3929 o
100.577 97.8587 o
49.4131 127.041 o
78.7971 103.337 o
107.638 101.685 o
89.8826 87.1857 o
49.8425 92.6304 o
66.7084 80.5508 o
53.0076 78.189 o
68.8075 72.7635 o
63.9139 85.5142 o
73.7657 103.991 o
53.0844 96.1709 o
77.2445 107.285 o
79.9235 94.3285 o
84.8982 104.625 o
110.626 100.214 o
69.0878 71.8696 o
68.6754 91.769 o
55.7872 66.5273 o
80.6376 99.2312 o
111.155 102.596 o
82.7403 104.947 o
87.9121 92.3104 o
74.2745 95.6655 o
58.419 124.884 o
61.6659 71.6272 o
63.2052 98.8028 o
75.1707 100.56 o
121.185 99.5006 o
73.0255 106.828 o
86.8104 92.7186 o
72.0576 94.0194 o
94.6816 97.9054 o
81.5121 91.1712 o
85.7439 99.2622 o
117.562 100.259 o
70.8673 107.499 o
95.76 108.84 o
85.1315 107.675 o
57.453 72.4779 o
56.9283 78.2829 o
75.9979 79.5506 o
68.2635 92.6264 o
70.5007 88.917 o
105.674 90.8255 o
80.9049 93.0215 o
80.6776 86.3666 o
87.0257 92.929 o
93.6391 100.551 o
58.7753 106.301 o
117.623 101.941 o
118.822 100.282 o
59.3993 72.8205 o
52.5181 64.9305 o
74.3125 98.4956 o
66.3621 102.333 o
80.3225 99.9708 o
73.6167 107.632 o
52.0779 116.097 o
78.0738 103.972 o
61.2511 125.635 o
65.216 94.5715 o
77.3796 103.118 o
92.0298 101.937 o
75.9543 87.8688 o
107.467 102.098 o
83.4435 94.4504 o
92.7089 90.6931 o
73.1797 89.5495 o
108.689 98.2493 o
100.638 90.4692 o
94.8981 99.0855 o
69.2972 119.228 o
65.4864 71.1597 o
71.7777 96.1065 o
83.1305 85.201 o
85.7905 95.0092 o
101.242 101.93 o
86.0719 99.9976 o
80.8833 109.18 o
83.9492 103.324 o
77.5337 78.3562 o
62.405 92.5058 o
69.7794 88.1619 o
95.1997 96.2344 o
69.6148 102.721 o
55.2488 86.9532 o
58.7997 60.7416 o
67.2007 105.694 o
61.0346 119.642 o
90.2789 93.0416 o
140.925 101.968 o
72.5283 85.2916 o
77.615 112.651 o
68.3607 110.901 o
111.334 97.7597 o
66.2723 132.356 o
62.4786 116.924 o
91.5482 90.6722 o
91.6777 105.155 o
99.4114 105.762 o
82.4904 101.76 o
90.4202 108.234 o
74.3485 83.0254 o
78.7335 80.9439 o
107.501 86.5617 o
71.2583 83.9818 o
73.595 73.5041 o
65.6126 104.84 o
69.8756 74.1753 o
80.424 98.9762 o
104.28 95.0352 o
99.5742 102.434 o
106.052 102.254 o
131.491 93.653 o
70.5477 93.168 o
82.5388 102.252 o
109.237 93.3564 o
75.3238 112.365 o
93.9395 82.5923 o
61.9061 78.0002 o
75.7824 116.274 o
80.99 87.2799 o
66.8969 82.7593 o
57.9216 103.141 o
77.8528 102.657 o
62.4185 116.813 o
82.6245 103.724 o
102.142 93.1198 o
86.4362 99.2809 o
58.8243 124.92 o
86.0846 98.327 o
67.5398 64.7055 o
70.8665 86.3102 o
69.0276 106.632 o
114.119 94.5333 o
70.0859 84.9009 o
62.1755 96.879 o
77.4732 94.4903 o
99.1635 105.192 o
74.8909 106.943 o
82.835 108.257 o
82.6346 95.6518 o
55.6154 87.2561 o
109.74 95.2814 o
70.3989 129.189 o
89.3421 106.495 o
74.4104 102.499 o
85.2104 93.3397 o
70.2301 97.9494 o
106.3 104.437 o
90.748 101.067 o
87.6023 95.9337 o
58.0741 100.543 o
88.912 104.364 o
89.0875 107.884 o
78.9697 89.0941 o
83.2217 91.7936 o
58.7487 73.4864 o
118.002 95.9671 o
72.8615 114.396 o
73.0432 99.4997 o
91.7965 105.694 o
119.884 101.884 o
100.306 89.096 o
61.9413 95.0186 o
81.9778 101.4 o
58.0864 107.454 o
59.4798 61.5144 o
107.974 98.3419 o
68.7325 113.642 o
77.1026 105.089 o
100.448 101.214 o
80.7957 93.3798 o
78.3963 100.394 o
89.9701 118.507 o
59.5022 114.835 o
80.4798 93.4084 o
60.5966 126.94 o
69.2516 99.7008 o
115.688 97.0381 o
63.7243 74.9015 o
59.3807 107.92 o
69.7871 116.294 o
96.697 106.951 o
85.3754 87.6414 o
76.6449 92.8532 o
101.412 86.9435 o
107.722 97.3142 o
59.0169 96.0611 o
84.5626 104.664 o
63.1796 105.64 o
68.9977 124.519 o
68.2555 110.401 o
93.3238 108.377 o
76.8363 112.408 o
59.3926 121.993 o
73.196 82.5212 o
63.7605 107.963 o
90.5291 102.307 o
80.4212 107.533 o
72.5212 98.9019 o
68.4328 113.483 o
98.3951 83.6967 o
112.801 101.413 o
87.0674 93.8274 o
61.4236 115.465 o
97.9424 106.608 o
97.5538 94.173 o
90.8603 87.8642 o
101.738 84.636 o
89.6227 109.482 o
72.692 108.771 o
118.364 99.2574 o
72.8507 88.6264 o
86.7434 121.149 o
106.185 81.9526 o
97.7938 103.052 o
51.2261 145.762 o
61.5716 118.831 o
115.384 101.641 o
72.1997 113.114 o
71.4285 68.1519 o
88.1732 117.389 o
91.2301 93.663 o
69.3485 114.861 o
84.9942 94.4886 o
68.0059 113.903 o
53.0885 72.7008 o
75.1333 99.2982 o
69.9134 82.237 o
83.3374 91.4104 o
83.3086 105.953 o
95.4157 103.417 o
83.1992 90.4883 o
115.738 91.9231 o
68.3098 85.3643 o
57.2779 64.1131 o
82.5247 91.9962 o
70.9505 72.3342 o
103.209 108.134 o
97.4794 106.076 o
86.4558 99.56 o
101.927 94.3876 o
104.205 83.9624 o
62.5365 120.513 o
67.3512 85.63 o
57.2554 64.8245 o
111.116 94.8076 o
60.8324 81.2603 o
71.5427 101.056 o
51.8817 122.928 o
87.7824 104.701 o
67.2789 93.8164 o
76.222 108.636 o
74.4092 99.3234 o
127.663 99.5705 o
75.8303 94.6899 o
89.7772 96.2043 o
80.0179 88.4387 o
77.6279 86.015 o
80.8495 102.715 o
99.6434 99.5972 o
99.7507 111.986 o
79.8689 81.8765 o
72.1894 98.0638 o
100.331 104.077 o
82.9596 94.0069 o
72.537 85.819 o
62.3061 80.9646 o
70.6749 99.5584 o
92.0133 96.9066 o
92.1567 104.268 o
111.827 98.5376 o
49.8707 58.18 o
72.8279 89.9196 o
126.026 102.888 o
62.5179 116.359 o
88.7027 119.738 o
59.0967 102.838 o
77.1462 95.4482 o
79.1455 86.0172 o
81.2342 111.575 o
105.049 102.798 o
75.8174 99.936 o
89.365 109.001 o
87.9086 88.5472 o
56.5943 144.618 o
80.372 91.9732 o
76.3055 100.496 o
85.4745 97.4759 o
109.01 92.8351 o
61.8966 69.724 o
71.9768 90.7635 o
106.601 100.194 o
57.4067 79.1174 o
83.3168 107.54 o
65.0709 93.2531 o
66.1518 88.1246 o
141.141 103.743 o
85.1896 86.2126 o
77.7461 109.504 o
65.9391 119.395 o
63.3704 120.142 o
70.4407 90.5936 o
56.0977 94.8244 o
109.056 107.63 o
70.0143 113.685 o
57.7385 130.889 o
99.7706 99.65 o
82.6484 104.753 o
117.996 108.849 o
102.281 109.507 o
83.0567 86.0412 o
53.7702 134.614 o
54.5607 134.181 o
78.6332 118.777 o
68.263 87.8816 o
82.4536 108.705 o
78.9681 89.8322 o
52.8331 53.4829 o
87.14 100.014 o
61.3674 100.302 o
80.9356 110.002 o
72.3613 80.2512 o
67.3966 117.312 o
55.474 56.2214 o
68.9862 101.773 o
100.428 85.4865 o
85.6352 96.5461 o
71.2553 87.9226 o
75.7757 97.3112 o
96.5007 99.1072 o
102.945 94.8625 o
57.4111 122.026 o
61.4876 120.405 o
82.6997 101.714 o
106.831 103.16 o
59.271 90.4721 o
100.408 107.353 o
76.3574 86.2797 o
86.195 111.371 o
105.907 103.241 o
99.7526 94.7552 o
100.33 99.7602 o
81.1713 96.659 o
90.7999 104.914 o
117.208 94.519 o
69.3604 84.0792 o
75.5595 97.758 o
78.2231 102.892 o
67.9274 118.929 o
107.162 99.7256 o
97.658 91.2708 o
87.4851 93.9003 o
53.1519 53.408 o
72.4327 119.196 o
56.9964 99.3503 o
96.6101 102.879 o
103.456 96.4309 o
88.2074 103.719 o
107.378 92.9621 o
63.4214 104.396 o
96.8619 100.411 o
100.304 107.176 o
76.8754 107.008 o
96.3702 101.423 o
81.9664 101.969 o
85.9116 98.746 o
64.6346 122.795 o
72.6068 107.372 o
89.6397 111.888 o
62.4529 73.2526 o
93.3895 98.7451 o
95.3337 99.2077 o
84.4985 79.9373 o
73.5847 107.829 o
97.608 103.629 o
94.65 97.3259 o
94.0689 102.611 o
105.878 111.196 o
76.1643 101.388 o
49.7446 118.86 o
81.6034 93.1091 o
76.9758 102.323 o
127.224 99.3287 o
103.35 105.044 o
74.5293 105.398 o
90.8826 114.897 o
61.9372 122.796 o
78.3482 102.38 o
82.5693 96.0787 o
66.2404 74.8723 o
60.796 101.975 o
105.172 98.1886 o
103.765 101.536 o
60.4104 123.277 o
83.9222 105.438 o
104.681 104.141 o
62.2597 127.901 o
59.2426 121.449 o
70.181 94.5352 o
79.0158 71.245 o
73.5749 92.5767 o
78.3526 108.555 o
82.2799 106.108 o
73.9846 110.067 o
76.9453 104.948 o
80.5378 109.414 o
106.218 95.0858 o
93.0182 103.438 o
68.7421 110.522 o
51.1338 140.648 o
70.0821 73.4694 o
51.9582 55.9044 o
81.6796 100.716 o
52.8634 70.5275 o
65.6723 118.982 o
84.8 105.119 o
110.384 97.8127 o
132.639 100.439 o
104.537 103.424 o
73.2456 110.466 o
72.7813 91.3956 o
69.3653 76.4444 o
80.2084 104.839 o
79.949 87.1423 o
104.783 105.825 o
92.2983 104.879 o
66.5376 116.958 o
114.51 97.4222 o
68.1652 85.9109 o
71.0293 104.55 o
83.7575 91.9325 o
99.7588 104.571 o
117.947 101.901 o
112.455 98.0322 o
87.2352 113.165 o
67.9874 119.07 o
73.9784 123.243 o
79.9206 90.1748 o
83.9907 89.82 o
72.4014 74.9054 o
58.8695 110.955 o
69.2371 89.7871 o
106.462 87.9379 o
74.0761 103.548 o
71.6623 108.548 o
111.631 94.4046 o
70.9368 97.3449 o
75.7592 101.677 o
51.9023 143.073 o
94.1385 106.857 o
53.6235 65.7985 o
58.9187 109.184 o
97.8891 98.7665 o
73.3363 91.4997 o
59.7689 97.587 o
128.637 95.1383 o
76.0939 105.777 o
69.5949 103.339 o
70.4297 90.2909 o
89.013 97.1826 o
97.7408 82.4591 o
118.544 102.742 o
84.4083 96.1805 o
79.6138 81.2174 o
77.4116 101.975 o
76.3197 103.068 o
64.3413 89.9796 o
77.2535 106.481 o
98.7466 98.2229 o
90.2621 102.22 o
81.9487 97.6711 o
53.57 83.3638 o
123.721 103.844 o
103.563 92.5023 o
68.9167 118.358 o
114.662 88.2282 o
63.69 118.005 o
65.7942 96.2184 o
53.845 107.266 o
79.191 122.499 o
115.979 108.79 o
102.042 93.2737 o
56.2011 138.167 o
90.4129 101.594 o
91.8904 87.1377 o
98.7 101.043 o
65.9889 124.672 o
74.4147 93.438 o
65.2797 112.488 o
111.326 92.258 o
149.658 97.0556 o
76.6692 84.4266 o
120.071 95.4901 o
56.7636 65.7699 o
81.55 106.317 o
81.3142 91.4308 o
94.4226 95.4935 o
133.783 90.1386 o
115.902 96.7614 o
73.5635 106.763 o
52.6561 102.241 o
88.0557 115.588 o
77.5138 119.091 o
56.5658 110.065 o
76.417 115.256 o
74.8251 98.0069 o
96.6877 92.4453 o
93.4736 97.3146 o
72.45 91.7792 o
77.3368 73.5898 o
66.6475 96.6504 o
73.0281 90.303 o
83.6499 103.684 o
96.3311 99.9918 o
69.0552 97.93 o
131.235 99.9755 o
62.8937 131.452 o
55.0864 83.233 o
77.6583 113.839 o
75.0467 98.5009 o
105.241 109.043 o
91.7541 85.8042 o
70.3717 92.8631 o
78.9654 114.827 o
89.2732 111.353 o
101.281 107.42 o
74.9848 104.499 o
54.067 79.318 o
70.7264 90.2414 o
83.1133 116.179 o
81.0535 77.6173 o
85.1341 99.836 o
64.3516 86.6252 o
99.4879 101.009 o
118.017 100.199 o
64.2137 101.03 o
66.5232 105.872 o
71.5974 84.0068 o
87.8254 82.3266 o
86.3229 97.3228 o
97.3338 83.7192 o
82.0035 99.9092 o
106.933 85.5185 o
94.9236 103.627 o
65.8522 73.6982 o
106.937 99.0986 o
71.5277 83.8636 o
112 98.5366 o
97.3568 96.0397 o
69.5472 84.0952 o
83.0218 106.94 o
93.0181 107.742 o
82.8099 94.1572 o
129.529 88.4347 o
104.927 99.2637 o
65.9187 92.7564 o
65.3421 119.926 o
86.7312 105.197 o
95.4905 100.11 o
51.4788 79.3009 o
77.2468 97.8533 o
54.3638 102.289 o
108.933 97.4165 o
68.4078 84.6056 o
62.1522 69.6025 o
138.781 95.0469 o
99.9057 95.9222 o
87.327 105.362 o
61.4198 75.7448 o
100.381 100.73 o
93.9317 103.553 o
54.5042 130.278 o
71.2257 86.2224 o
68.3544 85.7465 o
126.565 93.7453 o
71.9837 113.485 o
113.061 98.2369 o
81.1507 98.7095 o
54.8295 126.371 o
60.4574 100.203 o
111.318 101.319 o
65.8304 86.9733 o
70.2988 118.903 o
63.823 87.0968 o
81.4234 100.663 o
86.0933 86.5139 o
73.1011 88.5662 o
116.678 98.4113 o
115.402 102.397 o
74.0701 81.5272 o
78.827 83.1945 o
84.616 100.078 o
75.8979 100.783 o
112.832 100.468 o
126.553 97.6438 o
58.2992 137.988 o
83.84 109.57 o
57.4892 98.1225 o
95.4031 103.552 o
75.2628 114.868 o
61.8519 124.103 o
63.7626 83.6782 o
73.2219 116.656 o
66.6313 109.859 o
72.5928 92.2443 o
89.9372 93.5912 o
50.4272 62.002 o
84.5699 97.1605 o
106.256 93.9736 o
70.7069 120.089 o
60.1659 106.148 o
73.8956 116.989 o
116.302 92.9336 o
57.6811 132.285 o
52.7979 122.279 o
74.3084 114.35 o
102.245 93.4886 o
74.9369 84.8214 o
59.0864 84.8695 o
97.8915 93.3155 o
79.0386 98.8751 o
72.8877 111.604 o
61.553 77.193 o
103.416 83.3205 o
122.674 100.155 o
85.3899 105.639 o
74.9139 114.428 o
78.3006 114.468 o
82.4437 94.9374 o
70.1831 102.332 o
81.1316 94.2107 o
91.4308 84.3406 o
60.397 108.023 o
106.609 97.9528 o
50.3583 93.776 o
69.4515 72.2465 o
64.6297 103.898 o
109.276 92.282 o
83.9767 101.477 o
94.1499 103.507 o
83.1 80.3554 o
62.9333 114.297 o
99.1962 93.8219 o
109.944 99.7507 o
91.9226 113.535 o
73.4766 103.539 o
61.5261 79.1897 o
108.934 97.5828 o
62.8307 120.441 o
96.1995 103.728 o
134.908 98.4811 o
78.9585 84.1172 o
74.4012 85.1464 o
98.1461 102.505 o
51.4744 109.459 o
83.0881 85.5805 o
70.0196 131.399 o
70.9288 86.0897 o
60.2079 119.147 o
58.2162 90.8891 o
70.2531 101.897 o
54.3521 104.42 o
92.5416 86.7613 o
77.8664 95.356 o
51.91 130.465 o
67.228 73.0282 o
95.8625 86.4906 o
107.026 96.8194 o
92.7976 116.552 o
76.1275 102.16 o
70.1651 88.0541 o
64.2356 75.1653 o
95.0726 106.211 o
67.9946 105.483 o
84.8001 93.4463 o
70.0802 87.3305 o
68.6276 84.3535 o
79.6064 97.4394 o
57.1002 70.1069 o
97.7125 108.098 o
97.6138 101.193 o
102.762 113.621 o
75.7556 105.862 o
75.2723 86.7396 o
108.547 102.954 o
59.006 94.8615 o
117.47 97.0471 o
66.7669 110.204 o
92.3047 96.9836 o
116.406 110.302 o
61.7224 88.9768 o
86.4657 115.035 o
81.5329 102.527 o
69.4367 115.935 o
78.1428 93.8465 o
115.749 99.1915 o
53.8339 116.963 o
87.0952 105.987 o
74.3785 99.4295 o
81.5734 105.764 o
79.2109 104.334 o
99.8794 102.902 o
76.1792 102.842 o
109.043 106.006 o
103.83 102.277 o
51.6672 115.131 o
84.4245 117.786 o
80.3075 98.0785 o
114.311 97.5508 o
70.9146 109.068 o
103.583 105.421 o
65.0532 84.1398 o
89.3536 93.166 o
98.4088 97.6121 o
60.0671 82.8052 o
127.531 96.9368 o
113.236 98.9235 o
74.6972 83.8543 o
105.044 105.605 o
61.0386 129.797 o
71.5488 93.0049 o
76.012 89.5455 o
122.977 97.077 o
108.918 98.211 o
72.3153 103.576 o
78.4482 97.3398 o
54.4004 91.9937 o
66.6739 101.814 o
68.5004 124.397 o
78.9448 107.288 o
71.7932 110.355 o
113.401 101.782 o
57.5641 68.0027 o
56.4095 134.252 o
85.8889 115.583 o
71.3186 89.402 o
89.1436 102.783 o
55.4902 77.0383 o
74.5619 85.5345 o
76.4505 95.0543 o
106.144 106.929 o
110.143 89.467 o
77.0727 97.5386 o
81.34 109.463 o
82.6455 98.6649 o
106.607 89.5947 o
77.8783 98.841 o
126.105 99.0005 o
101.826 113.443 o
109.261 106.497 o
68.4184 97.7493 o
102.579 92.0337 o
114.271 91.5131 o
83.163 107.385 o
54.4204 123.086 o
80.6928 112.302 o
57.5072 107.522 o
111.866 91.5678 o
113.771 102.146 o
85.7371 99.7764 o
90.608 94.9842 o
63.5855 89.6108 o
77.5489 99.6278 o
57.2901 83.3675 o
104.785 90.1746 o
74.8589 83.881 o
110.035 96.1567 o
105.385 87.3033 o
87.853 97.6991 o
67.6688 107.931 o
55.1722 104.008 o
101.338 87.7112 o
69.7873 81.2445 o
79.4232 107.402 o
97.193 102.75 o
108.154 89.0709 o
93.0883 89.5363 o
110.982 84.7321 o
73.2223 89.4008 o
118.027 97.0045 o
63.0952 103.66 o
78.8467 99.6664 o
79.4745 86.8742 o
91.0842 113.702 o
92.2239 93.2589 o
54.2866 136.852 o
92.2681 106.081 o
74.6449 97.131 o
79.933 103.907 o
60.8022 117.601 o
70.4981 89.444 o
82.3912 110.6 o
57.5964 61.6531 o
54.8236 140.746 o
70.5671 91.2933 o
69.0922 94.3685 o
75.227 100.385 o
80.1077 109.19 o
72.6094 105.132 o
113.932 94.4622 o
56.8134 92.0239 o
54.058 104.161 o
86.6537 102.782 o
77.6386 88.1314 o
56.2765 95.72 o
80.2243 108.353 o
81.4014 93.2809 o
63.2121 118.807 o
68.2316 102.47 o
75.7711 94.448 o
78.9611 84.8766 o
93.0804 96.5839 o
95.7422 97.6205 o
56.0176 79.8844 o
98.2588 100.673 o
109.728 107.405 o
83.8446 111.573 o
69.4048 82.2037 o
71.4153 113.415 o
70.9882 101.836 o
63.1688 108.89 o
88.258 99.2779 o
108.948 90.6258 o
72.8748 109.261 o
112.162 98.6211 o
60.8711 86.6311 o
92.6846 100.51 o
57.7261 115.066 o
86.4761 118.875 o
68.5805 110.81 o
69.4274 114.053 o
108.953 95.5208 o
66.5358 98.1895 o
53.4403 69.2064 o
63.4838 81.843 o
50.6837 104.892 o
121.627 99.4478 o
64.3887 84.8507 o
72.5595 95.8208 o
67.5764 85.0424 o
51.7283 85.2582 o
54.0756 138.471 o
99.8793 96.2138 o
72.1871 98.587 o
76.4053 89.8413 o
72.1487 108.528 o
78.3361 92.4999 o
62.2955 74.8149 o
52.0785 141.456 o
93.3016 101.295 o
83.7802 120.192 o
55.487 129.313 o
74.7399 114.812 o
71.191 92.7558 o
56.4203 121.575 o
87.4383 108.785 o
66.1193 88.6368 o
81.4581 85.8047 o
95.9436 99.6673 o
56.8857 68.3583 o
69.852 85.4748 o
76.4234 83.5447 o
133.655 100.841 o
110.115 98.0968 o
66.0799 116.903 o
74.767 87.9709 o
85.8047 98.7409 o
84.7054 103.701 o
122.691 99.9523 o
167.889 99.0258 o
125.444 93.9413 o
64.1936 118.985 o
67.5884 104.788 o
62.3575 92.0042 o
72.6713 112.284 o
91.2471 94.5889 o
71.9264 107.494 o
60.9035 68.8537 o
81.1173 100.959 o
108.551 108.963 o
100.348 92.2373 o
84.2968 112.169 o
57.4274 78.3532 o
69.9702 120.171 o
72.9667 114.949 o
101.363 114.102 o
62.0983 75.9572 o
73.1778 90.5973 o
111.333 95.5499 o
62.922 121.454 o
94.2843 99.1098 o
71.1783 91.831 o
71.3146 95.4016 o
74.8073 106.131 o
90.1965 81.8047 o
82.0258 93.0434 o
75.8765 118.433 o
80.9708 97.8565 o
101.258 99.2182 o
115.12 92.7709 o
101.885 108.924 o
71.1823 89.4042 o
76.5591 120.712 o
98.311 102.325 o
100.683 88.3656 o
62.1788 116.01 o
57.4631 80.1395 o
72.6705 101.221 o
91.8888 97.9826 o
106.974 86.89 o
79.3187 97.8645 o
101.582 106.006 o
75.8521 106.115 o
53.1717 108.512 o
116.127 105.852 o
115.977 100.484 o
51.5223 98.03 o
73.7836 108.429 o
112.905 97.343 o
61.0161 73.9699 o
74.7428 101.699 o
75.5543 111.559 o
66.3612 112.655 o
76.9844 100.998 o
51.7406 135.951 o
97.0309 112.007 o
65.5661 76.9658 o
80.1499 122.224 o
73.6281 87.5714 o
115.897 106.804 o
71.0783 87.639 o
63.9065 101.792 o
84.1605 93.4172 o
121.907 96.6501 o
114.334 110.706 o
87.2668 106.973 o
77.0904 105.984 o
69.8334 85.587 o
63.3911 80.0837 o
97.9977 95.6848 o
73.4052 105.09 o
81.0408 109.826 o
107.077 109.164 o
98.2762 103.333 o
55.5101 119.651 o
80.8466 76.3757 o
59.4111 92.0523 o
90.0442 103.694 o
66.9286 95.9307 o
68.2485 95.2225 o
91.7587 85.4195 o
76.2138 95.9183 o
96.3936 107.181 o
65.4491 122.409 o
92.3138 94.5407 o
57.1016 60.2903 o
60.1348 114.473 o
89.8727 95.9955 o
63.4816 125.796 o
57.5211 80.2749 o
81.8868 93.9868 o
57.3237 119.552 o
68.3357 106.942 o
66.2755 112.905 o
67.3118 109.818 o
91.1235 84.1918 o
111.849 99.8637 o
58.2958 131.683 o
72.1288 81.305 o
68.7767 94.3394 o
63.0777 104.054 o
74.1481 92.1824 o
58.0811 94.9698 o
85.9576 100.73 o
65.8221 79.6023 o
73.6565 108.436 o
60.1453 91.3526 o
84.8404 104.617 o
58.8491 97.7854 o
76.0813 107.195 o
79.6944 99.7803 o
56.5698 119.039 o
58.9645 109.405 o
99.9124 103.751 o
75.7324 81.5286 o
87.8696 104.551 o
53.7574 116.495 o
108.655 98.8001 o
79.2342 97.3258 o
83.2173 93.3288 o
73.239 109.209 o
101.418 100.408 o
63.0587 87.8123 o
56.8225 95.2537 o
70.8594 85.5198 o
67.8953 91.2998 o
84.4806 105.244 o
81.0293 92.9406 o
62.3856 130.633 o
73.4921 91.3684 o
64.819 120.029 o
79.5839 75.5581 o
54.8221 103.675 o
68.6239 84.1963 o
132.709 99.8208 o
79.6763 104.379 o
82.1287 105.791 o
50.2574 101.353 o
77.764 96.9069 o
101.678 88.0522 o
123.181 106.357 o
100.394 95.3021 o
67.213 111.818 o
55.7445 60.694 o
83.8518 78.7116 o
163.462 98.1431 o
68.9481 80.3079 o
88.7955 96.1227 o
123.684 88.5199 o
108.676 94.9434 o
89.5677 103.079 o
89.0924 92.3281 o
89.8588 83.5791 o
118.044 95.4686 o
64.4615 128.321 o
109.725 87.6352 o
60.454 99.7828 o
64.4519 97.7639 o
64.5429 114.999 o
75.8238 102.865 o
79.7948 92.5533 o
78.2459 121.257 o
78.2911 94.1952 o
148.383 99.7203 o
85.4171 93.3821 o
81.6897 90.5476 o
103.415 94.9862 o
94.345 103.3 o
49.8389 74.9353 o
81.0344 82.5463 o
55.5842 139.489 o
85.4296 79.3927 o
100.566 94.5215 o
108.054 93.1911 o
50.21 96.0449 o
112.679 102.57 o
88.3786 78.8914 o
94.3716 109.497 o
100.414 93.8836 o
91.3015 107.745 o
57.589 114.78 o
74.8214 89.7326 o
81.3979 91.1874 o
90.4743 99.2216 o
85.3762 111.283 o
87.9156 89.6667 o
117.064 103.742 o
54.6116 129.141 o
55.8873 101.756 o
100.53 106.481 o
99.4086 110.758 o
67.0948 97.1717 o
62.6979 114.034 o
88.0218 93.2956 o
120.545 92.9741 o
68.8669 92.803 o
71.2349 85.1716 o
95.6633 110.629 o
51.2972 139.14 o
74.0527 93.2773 o
127.754 96.6884 o
66.3661 86.0842 o
105.266 96.0056 o
96.2826 108.046 o
92.0786 99.2739 o
96.6415 97.4793 o
116.531 107.84 o
76.4157 82.6152 o
102.837 88.5779 o
54.0323 131.792 o
53.5161 92.7043 o
117.808 100.895 o
65.3299 64.7805 o
71.0023 106.735 o
144.408 94.5579 o
117.096 105.68 o
81.5135 107.77 o
111.437 87.5584 o
82.2065 93.3793 o
109.001 98.9553 o
53.2409 127.62 o
53.2046 57.4784 o
90.2171 121.818 o
98.2337 89.8194 o
69.5333 104.645 o
78.411 104.896 o
76.5928 91.7874 o
110.165 112.861 o
66.3571 88.9772 o
54.1581 112.151 o
64.9071 77.8335 o
106.786 89.2281 o
82.3024 96.1013 o
57.727 87.3329 o
102.035 87.1643 o
77.703 98.4211 o
93.8339 95.7645 o
76.6884 96.9038 o
72.4138 101.21 o
60.6691 66.644 o
69.8133 89.1158 o
54.3988 124.273 o
114.173 92.0895 o
73.4671 92.6615 o
88.0713 90.2898 o
77.3733 95.489 o
108.017 99.8458 o
94.6195 94.0271 o
73.1786 91.9991 o
49.9558 119.236 o
73.4103 102.568 o
79.3293 85.2052 o
61.484 97.0947 o
81.1432 97.6189 o
66.7672 104.274 o
98.2601 96.8663 o
70.5099 108.875 o
96.7548 104.196 o
88.4264 101.909 o
107.518 87.0646 o
81.8406 90.1787 o
109.758 95.5058 o
94.6827 101.007 o
73.0466 89.9964 o
92.746 89.8669 o
71.3416 103.743 o
107.56 104.351 o
78.7704 105.209 o
76.9796 104.033 o
93.9334 103.197 o
59.4494 69.0512 o
54.1888 136.775 o
74.1731 95.3835 o
110.68 90.2062 o
106.959 93.1967 o
76.6972 93.1522 o
108.819 97.4933 o
107.225 99.3359 o
71.9782 90.8953 o
95.6658 84.3742 o
55.016 69.9664 o
70.0041 87.6902 o
86.0593 88.7796 o
108.394 92.2573 o
53.4322 138.077 o
113.421 98.8824 o
68.0635 94.2626 o
84.2585 93.048 o
68.2401 87.0008 o
52.1748 57.7177 o
122.299 96.7242 o
117.72 89.5245 o
73.1822 99.6267 o
108.741 100.82 o
58.1807 71.6159 o
70.7979 87.2104 o
58.5771 111.062 o
78.4053 99.0861 o
70.6612 98.8974 o
78.2653 98.46 o
110.74 101.127 o
70.9426 104.586 o
79.918 112.499 o
79.1393 78.8841 o
59.577 91.1701 o
73.1424 114.146 o
77.218 91.2604 o
143.438 98.2538 o
58.6566 92.7856 o
58.2959 106.694 o
104.747 96.5995 o
62.3654 120.119 o
103.115 104.069 o
66.481 109.617 o
71.6663 91.5739 o
74.08 98.6952 o
62.3442 136.48 o
84.8455 102.998 o
78.9072 117.046 o
67.3777 94.9213 o
97.9443 111.792 o
90.6059 98.0612 o
55.8605 125.341 o
67.7432 102.812 o
78.1773 89.9978 o
92.1708 116.125 o
62.7504 93.7904 o
95.3773 97.1783 o
76.9513 102.047 o
96.6708 93.9394 o
67.071 119.409 o
58.7786 124.763 o
86.4021 89.2503 o
67.5936 113.934 o
71.327 123.378 o
73.7951 82.9218 o
80.1642 94.7355 o
108.245 98.0599 o
99.5166 101.252 o
61.9312 123.193 o
82.1595 85.8815 o
78.6298 98.9417 o
79.5325 111.371 o
79.3912 81.2447 o
63.7931 109.36 o
50.7965 52.1878 o
107.947 101.807 o
57.1364 84.3148 o
119.453 96.9577 o
97.3834 110.892 o
61.3492 88.2023 o
81.1406 95.903 o
85.9223 115.866 o
114.06 98.0079 o
67.4435 116.414 o
65.5817 85.7285 o
105.291 104.721 o
92.7202 103.305 o
86.6177 106.604 o
71.371 103.856 o
91.5142 119.196 o
93.0297 103.932 o
137.725 99.0965 o
87.7535 106.404 o
78.6301 100.04 o
73.8729 85.3614 o
63.6844 131.006 o
72.1351 104.242 o
101.94 101.348 o
83.9064 97.9946 o
62.6771 82.1699 o
87.1829 98.3888 o
69.2725 113.812 o
58.5145 94.5259 o
122.409 96.7744 o
57.9409 98.35 o
72.6934 95.112 o
69.4299 117.715 o
65.1599 86.2167 o
127.269 98.8719 o
71.2249 91.5985 o
59.88 61.8025 o
72 89.5838 o
77.7561 104.832 o
87.2419 79.6745 o
65.601 97.3371 o
79.7101 107.237 o
77.0322 95.4586 o
58.4958 126.511 o
54.1004 136.176 o
59.1468 111.513 o
59.6845 106.645 o
74.5646 80.1303 o
54.7909 60.8853 o
70.7565 98.7496 o
62.1431 110.225 o
72.541 90.2763 o
84.3761 103.949 o
57.3816 80.5193 o
68.0373 85.5055 o
56.6282 120.564 o
111.42 99.7032 o
70.0492 92.7287 o
112.617 101.348 o
87.2532 97.7964 o
78.5844 76.8259 o
55.3197 75.6297 o
84.111 114.3 o
71.6979 91.4798 o
73.1532 88.4262 o
71.3368 94.0323 o
85.9585 98.4534 o
85.0487 94.6159 o
71.3693 86.9103 o
68.9597 99.3429 o
64.644 120.732 o
90.2534 116.714 o
69.9388 110.141 o
66.5879 73.4475 o
115.426 101.938 o
72.4629 112.791 o
115.549 112.352 o
70.9016 93.873 o
132.371 93.0769 o
64.894 113.256 o
99.6849 95.9786 o
70.9919 80.0717 o
55.0382 129.248 o
52.8476 58.8281 o
51.1013 50.5484 o
88.0498 98.7299 o
69.8242 91.8815 o
81.5857 95.5918 o
73.3706 77.9405 o
87.0391 89.9266 o
91.5005 96.421 o
115.171 93.6785 o
68.0166 90.6479 o
75.7088 100.323 o
54.7304 135.311 o
166.767 93.17 o
71.7994 86.7873 o
83.983 94.8729 o
97.0536 99.7581 o
103.439 106.605 o
111.314 103.022 o
60.8898 82.6059 o
93.6664 100.148 o
60.8561 129.831 o
73.7111 88.8925 o
114.13 100.681 o
76.5246 101.551 o
91.1659 92.7802 o
75.6643 96.0583 o
92.8028 94.3916 o
109.792 97.08 o
60.2082 82.8113 o
52.0581 134.538 o
70.6422 100.384 o
73.1345 106.815 o
88.2111 96.4333 o
101.685 92.0613 o
121.463 98.7396 o
85.2133 95.4177 o
107.534 98.6237 o
140.187 101.857 o
60.7611 101.021 o
72.9236 104.285 o
102.894 84.951 o
109.219 97.2865 o
100.974 94.8713 o
71.8272 100.342 o
89.4714 91.1519 o
119.513 103.539 o
72.7017 84.658 o
63.7949 74.6007 o
53.6234 79.4739 o
73.2617 92.0822 o
90.6691 89.2984 o
50.0116 53.4753 o
65.2417 125.477 o
110.028 104.647 o
96.0523 103.122 o
71.3289 104.281 o
83.0358 107.828 o
136.867 97.3528 o
80.7033 103.241 o
110.393 96.5634 o
108.421 97.3963 o
100.134 109.127 o
69.8065 92.6366 o
60.5048 72.3997 o
73.3887 111.692 o
120.733 99.024 o
58.7454 98.537 o
87.2073 118.597 o
63.3032 87.7772 o
69.2118 82.4631 o
51.1425 79.0878 o
71.8241 82.4209 o
114.139 102.493 o
66.0522 78.9728 o
59.1802 70.0987 o
66.8946 122.123 o
76.5618 102.63 o
129.289 99.6515 o
54.6961 123.559 o
66.9985 78.3138 o
88.0824 92.561 o
78.2578 103.126 o
100.769 98.3318 o
97.1095 104.983 o
108.521 105.849 o
98.9793 108.793 o
113.59 104.255 o
68.8304 105.527 o
75.3001 112.544 o
74.6961 95.0656 o
71.7596 102.924 o
103.972 102.807 o
106.666 97.1977 o
109.536 102.52 o
84.7243 105.176 o
67.9268 95.7581 o
102.718 94.7279 o
62.4807 89.9288 o
88.941 113.992 o
69.6796 116.233 o
59.3954 134.393 o
74.3405 96.7741 o
50.4726 115.339 o
104.778 102.232 o
60.2175 73.6548 o
112.634 102.349 o
107.517 88.9116 o
84.0322 96.5583 o
80.8707 95.4599 o
85.4258 104.019 o
86.7695 98.1149 o
112.418 104.38 o
70.8852 79.227 o
74.8578 102.142 o
89.8896 91.3656 o
78.5888 93.109 o
82.4574 84.1032 o
81.4821 99.1248 o
70.1671 115.797 o
101.991 97.2439 o
86.4215 108.521 o
57.7247 126.693 o
63.2608 99.4475 o
65.9371 92.6077 o
66.8457 101.128 o
79.2335 84.5745 o
111.024 93.5279 o
57.1325 110.285 o
65.5776 92.4633 o
86.1641 82.1022 o
129.41 95.9693 o
67.952 128.482 o
94.121 100.168 o
57.1389 128.544 o
86.801 100.801 o
81.7029 93.6147 o
56.8468 115.665 o
68.6418 91.6895 o
83.9637 101.578 o
107.105 97.1802 o
76.255 91.2874 o
116.077 109.66 o
59.6173 67.8455 o
122.835 95.7595 o
98.7463 108.103 o
79.6769 103.519 o
77.7139 103.074 o
51.5448 72.3932 o
86.769 93.1379 o
129.484 99.9938 o
97.2005 119.912 o
77.5169 119.915 o
114.191 96.5711 o
96.3434 108.639 o
105.374 93.1195 o
89.6687 90.8659 o
99.5719 83.1838 o
77.3235 109.935 o
60.802 69.5123 o
93.1627 98.7394 o
152.378 100.239 o
80.7253 84.2925 o
76.362 105.37 o
91.7663 108.38 o
82.0645 100.566 o
53.0141 94.9734 o
107.237 106.693 o
76.3394 91.3672 o
100.793 84.0107 o
64.8613 83.893 o
75.665 97.3267 o
64.4283 87.5307 o
66.9222 79.4768 o
60.2677 115.918 o
67.771 90.8204 o
66.1555 123.01 o
67.1932 77.8672 o
92.4783 86.7872 o
104.465 104.048 o
60.4158 113.787 o
75.7245 103.958 o
51.257 126.291 o
80.4707 92.2811 o
114.624 98.2497 o
101.145 95.08 o
59.0426 132.132 o
148.628 95.818 o
97.3278 107.939 o
115.245 100.466 o
63.426 84.8776 o
107.488 107.315 o
62.2293 80.1716 o
123.95 94.277 o
64.267 123.41 o
77.3794 96.5418 o
65.2418 92.8985 o
62.6936 120.131 o
70.4607 95.318 o
109.538 96.438 o
56.7651 113.471 o
84.8843 112.177 o
76.642 87.9001 o
86.369 92.2369 o
84.7281 102.982 o
77.1344 115.498 o
53.2527 128.192 o
73.2348 94.2819 o
63.7605 91.143 o
83.1401 113.004 o
80.7609 103 o
93.5159 95.1232 o
57.2131 118.762 o
77.9459 87.582 o
86.1086 80.7791 o
64.8779 83.8649 o
76.9877 86.7188 o
52.2183 135.219 o
56.6501 96.3155 o
76.7314 100.696 o
89.5526 105.427 o
81.4812 74.8241 o
53.2328 87.9444 o
101.893 102.68 o
76.5182 86.8832 o
54.4692 114.608 o
87.5728 88.8119 o
110.362 96.5583 o
82.2847 101.824 o
74.2572 97.8624 o
84.5759 96.1367 o
111.951 83.4116 o
79.7255 102.953 o
49.7327 140.372 o
86.4237 97.1285 o
89.8304 105.457 o
110.326 88.8534 o
57.8634 95.1549 o
120.415 100.4 o
106.589 109.566 o
70.0557 122.277 o
70.8246 99.5403 o
73.2542 94.2046 o
70.7899 89.0505 o
86.2576 90.1344 o
88.1605 96.1621 o
67.6541 120.947 o
63.6028 76.661 o
62.3349 120.968 o
51.4684 129.873 o
83.2885 116.996 o
61.9639 99.4676 o
106.149 100.065 o
102.022 107.705 o
56.6729 125.174 o
61.3881 65.4116 o
122.597 93.2504 o
62.1319 98.9546 o
95.8381 99.7327 o
91.0561 102.155 o
91.8845 105.425 o
111.483 103.911 o
66.1434 108.828 o
106.135 96.6021 o
63.4874 75.453 o
112.387 97.4825 o
129.375 98.6128 o
66.4146 103.334 o
101.104 102.775 o
94.8759 101.174 o
89.3443 91.1709 o
139.542 102.014 o
66.8484 101.335 o
83.4126 104.981 o
109.909 86.1643 o
68.5217 115.49 o
72.7423 112.855 o
67.102 90.4067 o
77.6506 125.254 o
112.039 98.5291 o
58.386 62.3978 o
97.5449 112.211 o
125.141 99.0556 o
65.3755 75.9719 o
65.8248 83.4737 o
77.6136 99.8153 o
79.9743 107.061 o
61.2664 105.279 o
74.5697 103.272 o
90.6707 96.5335 o
56.2415 127.026 o
82.0261 104.197 o
53.6338 90.557 o
65.7074 84.5279 o
55.9868 122.076 o
109.523 98.2624 o
111.124 87.4004 o
109.997 105.913 o
105.305 99.7024 o
137.659 101.773 o
98.5316 86.7653 o
65.5081 83.1641 o
73.9732 97.8979 o
80.8509 107.851 o
99.7353 104.953 o
86.0957 99.9212 o
121.96 105.778 o
76.476 98.502 o
75.9633 108.467 o
62.5767 121.309 o
102.025 102.821 o
100.903 100.652 o
65.0818 107.736 o
96.6941 115.79 o
99.3507 95.4725 o
81.0932 84.5472 o
124.701 86.5253 o
51.8674 54.5891 o
49.5826 133.706 o
72.1692 109.721 o
98.5143 104.915 o
99.2694 100.75 o
104.274 99.2979 o
73.927 122.2 o
77.7807 105.591 o
93.8916 93.3047 o
88.4482 114.402 o
78.231 96.1827 o
87.3628 90.8028 o
66.4741 110.814 o
104.666 113.429 o
63.6063 118.876 o
72.717 88.0011 o
159.897 108.951 o
102.809 107.059 o
66.7599 118.076 o
63.7557 82.4165 o
80.2303 76.9385 o
105.202 97.6027 o
57.6286 121.731 o
63.3818 64.0404 o
84.5843 98.4698 o
53.4015 89.4688 o
126.207 104.95 o
83.7436 88.8524 o
76.1614 121.033 o
66.5208 104.249 o
66.3137 84.7993 o
69.1599 124.435 o
64.2938 128.866 o
72.8764 93.6554 o
96.478 95.8795 o
59.0129 132.262 o
73.846 108.393 o
105.778 96.5202 o
101.604 83.3383 o
84.2484 89.0457 o
162.294 100.474 o
87.1288 103.407 o
69.5532 94.7907 o
78.2015 95.5146 o
88.9685 94.8723 o
84.7732 123.64 o
95.9571 100.392 o
76.3403 117.505 o
67.4661 94.0206 o
114.18 101.613 o
65.7828 114.599 o
111.408 105.573 o
91.2375 111.622 o
67.4284 83.8357 o
98.9527 107.329 o
96.9806 84.708 o
65.8074 90.9673 o
79.7567 84.1615 o
85.0793 76.1755 o
112.203 94.0162 o
99.9648 94.7387 o
93.3148 103.492 o
80.7446 94.9426 o
95.2207 84.6551 o
94.2977 109.372 o
63.7825 109.838 o
132.281 94.1879 o
112.48 95.3667 o
64.4487 75.0302 o
111.053 105.523 o
107.015 98.2372 o
135.683 100.729 o
138.942 93.3993 o
63.5957 88.2548 o
54.5054 124.381 o
62.3019 113.217 o
63.6651 84.9225 o
63.1268 96.2198 o
72.2091 107.942 o
76.1954 98.2633 o
67.3073 130.779 o
55.0682 93.5108 o
141.786 96.3621 o
104.188 93.745 o
97.7501 97.0172 o
78.3819 91.0592 o
68.881 114.233 o
75.516 105.951 o
92.9202 111.646 o
115.543 97.9697 o
112.543 94.8568 o
115.78 96.0005 o
114.344 94.4078 o
89.0869 102.589 o
71.2098 102.574 o
98.8665 94.9523 o
83.9206 95.9115 o
93.6368 92.3843 o
77.8141 113.849 o
62.5098 130.769 o
67.4092 83.1586 o
81.1242 97.6256 o
73.7476 96.5363 o
68.4308 87.6476 o
112.744 96.1209 o
63.1907 78.3952 o
119.894 94.4937 o
70.2144 85.1478 o
102.263 104.22 o
48.9615 69.3987 o
74.2441 102.626 o
60.9114 70.7464 o
100.565 99.8415 o
126.224 91.4493 o
76.9877 79.4281 o
85.3743 101.981 o
79.0714 101.658 o
78.9491 117.83 o
112.529 89.9738 o
91.5113 105.237 o
74.4694 100.715 o
78.3935 99.4549 o
61.3946 75.8289 o
94.9817 102.539 o
94.0117 103.65 o
108.878 88.571 o
76.4807 94.6387 o
80.1428 82.3041 o
61.9965 77.3081 o
65.5757 110.622 o
81.2134 114.385 o
73.2387 103.699 o
101.129 93.1788 o
74.1551 110.37 o
63.9411 103.462 o
76.4388 120.934 o
110.794 104.968 o
127.509 104.824 o
108.401 108.583 o
66.7933 84.6691 o
58.4233 95.4448 o
63.0236 88.3329 o
65.4496 115.651 o
129.068 91.1603 o
68.547 84.4294 o
52.7394 115.948 o
57.7091 77.2056 o
66.1109 84.5069 o
51.1484 70.9338 o
140.727 95.4465 o
89.6745 107.418 o
122.246 98.5966 o
99.0054 110.061 o
118.67 96.0953 o
69.3738 113.537 o
60.2785 125.81 o
64.2976 114.306 o
81.9843 101.122 o
102.226 113.135 o
50.7473 133.663 o
124.537 99.209 o
89.0911 92.6839 o
113.587 98.4467 o
50.1646 109.621 o
93.0894 104.438 o
79.6005 89.9005 o
65.9036 125.984 o
106.879 88.4866 o
71.4126 96.0316 o
52.3364 130.353 o
70.1046 119.709 o
74.0294 130.405 o
75.2709 84.9475 o
104.819 98.5631 o
137.383 110.03 o
64.81 79.3723 o
176.331 112.334 o
105.621 108.366 o
76.4168 115.325 o
59.1673 66.4935 o
73.8073 108.237 o
76.1387 85.3486 o
73.3556 110.861 o
64.4396 91.8822 o
84.6377 94.0465 o
79.4032 79.7925 o
108.72 112.294 o
101.693 110.513 o
96.1675 105.092 o
96.5002 93.7446 o
97.6658 95.3316 o
112.1 97.7221 o
65.5063 105.365 o
80.3267 102.076 o
106.204 103.85 o
116.399 93.4033 o
62.8643 121.138 o
74.0594 96.2042 o
56.4804 119.532 o
118.89 104.014 o
127.114 103.029 o
52.437 75.4251 o
72.8376 103.922 o
77.1511 95.4478 o
50.8924 128.589 o
70.9917 67.0582 o
128.479 98.1766 o
108.231 85.9822 o
67.9016 100.7 o
92.3991 98.0723 o
84.1365 102.839 o
130.059 109.037 o
131.833 105.288 o
103.724 98.446 o
93.322 90.823 o
72.5782 104.477 o
72.1321 89.8916 o
57.2918 73.4291 o
59.5959 76.9169 o
110.603 99.1695 o
52.9446 125.503 o
67.6583 105.959 o
93.4627 105.272 o
69.331 113.448 o
80.1747 105.611 o
124.245 96.6598 o
71.327 99.2452 o
85.6135 112.161 o
72.7678 102.793 o
52.1802 109.125 o
77.1355 106.507 o
76.57 85.656 o
58.3908 122.377 o
62.9324 80.8201 o
67.3507 117.159 o
97.6706 96.7266 o
63.1057 82.6604 o
83.4304 105.66 o
104.327 101.831 o
72.7771 91.3465 o
80.9881 113.075 o
80.1536 101.321 o
63.2019 118.113 o
90.9437 98.8898 o
94.1085 98.3058 o
75.9037 102.616 o
80.1557 103.616 o
107.304 92.8888 o
100.795 93.0884 o
81.9798 103.945 o
75.4911 94.0754 o
123.498 107.608 o
98.4275 109.725 o
51.1084 147.084 o
78.9612 100.907 o
76.6216 102.913 o
93.5038 87.5666 o
140.661 99.7772 o
83.1985 102.114 o
71.5432 104.847 o
70.412 96.0749 o
94.9113 103.647 o
57.8155 114.548 o
67.3382 68.7026 o
73.6074 102.704 o
105.855 106.974 o
64.509 111.132 o
68.7803 116.038 o
80.7145 88.2416 o
106.764 105.192 o
60.3401 104.491 o
78.0835 112.11 o
94.346 79.0495 o
66.0669 98.5102 o
86.6921 106.029 o
66.6146 100.283 o
81.6368 105.23 o
60.3809 80.1255 o
84.1078 99.4974 o
102.153 96.2803 o
91.5523 91.3681 o
68.7152 99.0181 o
86.2649 97.4872 o
100.438 97.1837 o
52.7827 84.833 o
84.6248 108.439 o
62.2237 92.8988 o
64.4818 80.7156 o
128.848 104.031 o
83.1569 93.1339 o
53.424 72.1291 o
68.3514 117.266 o
74.1511 116.418 o
69.2767 112.752 o
68.9819 116.259 o
101.837 98.7115 o
71.8272 87.7919 o
62.971 111.575 o
68.0135 86.1722 o
96.6616 91.2264 o
68.6125 114.284 o
80.182 97.2734 o
77.1869 97.4049 o
139.596 95.5634 o
108.678 103.46 o
61.5433 108.273 o
77.3956 102.172 o
73.9682 100.247 o
68.602 88.5648 o
128.659 100.51 o
58.135 83.9811 o
76.8255 101.838 o
97.4808 97.4066 o
71.77 111.404 o
74.6264 109.928 o
75.6633 91.2519 o
62.393 113.799 o
102.648 101.641 o
56.7453 124.392 o
126.369 98.3963 o
98.5734 111.978 o
138.388 90.0671 o
161.857 103.509 o
116.556 104.416 o
102.136 100.578 o
99.0441 82.8991 o
80.6525 112.032 o
96.088 107.398 o
90.9208 98.2811 o
77.4546 102.171 o
63.9536 71.2678 o
73.471 102.676 o
147.716 99.168 o
90.6596 102.419 o
57.5839 72.6972 o
72.997 94.0876 o
71.2503 83.7475 o
74.5436 109.569 o
57.4602 70.7317 o
72.9793 85.0068 o
117.096 86.3768 o
69.5133 79.1424 o
90.1206 92.9476 o
52.8198 54.9952 o
68.5771 109.774 o
59.6635 109.474 o
85.3362 77.5418 o
66.294 114.185 o
118.143 99.783 o
82.379 97.7681 o
57.7719 81.2646 o
98.7781 85.361 o
71.6044 93.7129 o
84.3078 106.12 o
64.5833 96.4577 o
67.387 106.427 o
57.338 122.199 o
97.3657 100.518 o
96.8258 111.746 o
100.477 98.0943 o
84.4533 113.505 o
139.743 92.6626 o
89.0834 96.346 o
78.4764 89.5335 o
104.075 101.594 o
74.9487 109.731 o
78.0002 102.154 o
61.208 102.885 o
54.228 124.572 o
103.896 101.218 o
150.668 92.7737 o
59.0808 90.9938 o
54.1263 62.9033 o
133.966 102.31 o
96.2477 115.71 o
81.8447 104.335 o
142.769 102.496 o
123.903 105.002 o
76.5668 96.375 o
74.493 84.6084 o
52.089 63.7249 o
83.8531 93.9908 o
68.8601 112.008 o
69.8703 102.269 o
72.5117 98.2457 o
75.0904 75.3827 o
89.9237 86.3307 o
54.3863 77.6798 o
66.2214 114.921 o
78.4773 97.928 o
61.479 79.4844 o
71.127 115.764 o
62.0421 66.8849 o
113.352 106.602 o
66.5941 106.653 o
54.0643 78.8039 o
66.8297 103.402 o
52.0365 56.2846 o
57.484 103.415 o
72.6024 92.0289 o
77.6334 104.332 o
75.7269 94.8163 o
76.4013 85.8764 o
85.3154 100.025 o
85.6503 120.482 o
83.9039 105.095 o
75.253 96.6849 o
131.584 100.537 o
86.6265 79.3294 o
75.8873 95.3128 o
150.901 97.085 o
68.7163 111.558 o
105.606 107.041 o
74.5591 97.7575 o
71.7243 105.042 o
111.925 109.543 o
50.9384 56.0737 o
76.7555 99.464 o
60.1114 111.586 o
100.34 92.523 o
58.097 115.951 o
62.6588 121.302 o
78.0278 91.1259 o
89.967 102.129 o
87.259 101.447 o
77.2785 102.812 o
72.812 96.6991 o
80.4031 78.0416 o
70.6846 100.376 o
50.1327 55.5409 o
60.175 113.406 o
79.6245 99.4684 o
83.1109 81.2228 o
87.8072 96.58 o
108.507 113.941 o
91.5913 83.6379 o
133.218 89.6851 o
73.3233 93.4075 o
169.812 107.104 o
94.1527 121.609 o
51.9961 60.5093 o
86.7728 99.4398 o
71.5977 106.443 o
107.188 101.107 o
87.8778 83.8668 o
75.2471 101.862 o
103.175 98.3823 o
52.6609 134.353 o
105.969 90.7126 o
68.9852 100.326 o
75.2852 77.2362 o
70.3929 97.8832 o
159.935 105.538 o
97.6351 88.0778 o
102.229 98.8838 o
93.5265 102.919 o
74.461 89.8308 o
116.689 95.5922 o
104.777 96.5662 o
122.838 98.7563 o
89.3341 99.4367 o
62.8588 88.7536 o
69.5848 116.136 o
90.0642 103.587 o
65.2472 95.3249 o
54.0967 90.8569 o
93.3014 89.5804 o
104.501 101.055 o
75.1484 108.224 o
100.054 108.869 o
80.38 115.851 o
102.066 93.7974 o
70.0781 123.103 o
87.3156 93.9066 o
95.1316 116.158 o
58.8449 125.886 o
59.4421 125.032 o
64.6612 107.414 o
73.5711 106.906 o
121.829 108.962 o
57.7363 116.842 o
107.301 94.8579 o
98.5715 117.31 o
82.7796 80.2064 o
98.9192 111.168 o
53.6351 131.616 o
77.2548 103.793 o
101.775 100.982 o
101.206 102.062 o
123.092 100.81 o
72.0372 107.382 o
74.9676 88.0188 o
82.491 100.98 o
109.049 97.2567 o
93.4313 102.398 o
53.2288 108.397 o
68.3704 75.6713 o
63.1472 126.867 o
96.6033 100.248 o
60.6701 113.98 o
62.5956 109.164 o
58.9955 109.057 o
89.1202 95.721 o
79.051 76.6029 o
72.0072 103.006 o
71.3875 110.752 o
65.381 121.89 o
57.2447 121.641 o
97.8219 107.528 o
74.7305 98.2953 o
68.8667 96.5078 o
89.2981 84.2449 o
76.2754 98.8491 o
68.4035 95.1299 o
84.9537 101.731 o
71.1227 97.1106 o
89.5737 99.3758 o
72.8853 90.6064 o
154.291 101.274 o
82.245 107.541 o
66.1023 100.294 o
65.9288 111.008 o
52.2041 133.785 o
110.485 94.1285 o
71.2858 106.204 o
116.546 94.7724 o
88.656 87.0718 o
71.787 79.947 o
57.8878 85.3388 o
59.9393 115.639 o
102.725 84.2826 o
107.5 94.0013 o
72.0776 114.649 o
78.2612 107.111 o
81.7108 105.199 o
117.75 101.101 o
93.0777 89.5079 o
96.6517 106.727 o
97.8091 93.736 o
70.6745 87.621 o
57.3718 125.182 o
109.44 107.065 o
132.646 107.201 o
65.6695 105.658 o
105.535 99.0239 o
79.728 116.523 o
107.818 102.598 o
62.2603 82.1536 o
76.8919 81.1207 o
124.212 113.451 o
105.732 94.2058 o
96.2963 92.587 o
71.3267 108.243 o
74.0252 101.92 o
63.0775 111.668 o
103.924 93.0189 o
101.346 100.339 o
99.0779 112.085 o
76.9084 95.7352 o
105.497 104.524 o
69.8747 102.18 o
117.914 97.6761 o
92.2548 81.9559 o
109.662 107.749 o
81.4737 92.1055 o
68.7707 103.136 o
79.4307 114.56 o
167.716 96.6608 o
85.1125 101.07 o
70.888 101.944 o
70.8282 93.1983 o
127.095 99.0989 o
89.7086 98.5693 o
79.5238 87.5835 o
77.2001 105.373 o
80.9055 104.087 o
81.6333 97.569 o
66.4559 91.1463 o
75.1927 105.984 o
57.3426 126.222 o
128.219 88.5437 o
95.3228 85.4626 o
73.5249 105.178 o
98.8851 96.1612 o
104.334 93.5433 o
64.6234 86.3278 o
69.9805 83.9652 o
147.034 103.717 o
88.6134 101.383 o
91.5212 114.946 o
105.38 106.405 o
103.751 107.63 o
108.743 110.952 o
60.0933 90.9 o
60.2512 87.694 o
55.8847 77.8011 o
74.0229 73.5146 o
82.623 101.528 o
90.9752 98.3683 o
110.145 104.038 o
53.5033 104.782 o
122.072 100.573 o
68.8381 97.5765 o
55.2926 119.036 o
132.599 104.572 o
68.0158 112.027 o
79.5217 88.5106 o
94.2668 91.7831 o
100.066 101.409 o
62.1535 130.166 o
63.0221 110.668 o
202.179 97.8057 o
125.863 95.2407 o
64.9443 84.0295 o
71.4524 86.5212 o
97.7292 96.9483 o
65.7068 89.5125 o
89.1465 102.847 o
107.886 110.078 o
85.8243 98.3255 o
70.489 97.701 o
64.4121 91.4873 o
119.432 83.703 o
74.0506 85.0948 o
134.641 98.5433 o
92.8188 98.9722 o
94.7278 103.853 o
82.9195 99.3494 o
59.2179 129.812 o
60.7165 96.6582 o
112.988 98.4316 o
95.5545 90.3305 o
84.6977 98.7961 o
49.9183 135.013 o
65.4439 92.675 o
88.3619 96.5159 o
119.01 99.5136 o
60.5243 97.8932 o
79.3132 85.1342 o
65.9955 72.6199 o
64.8352 91.4317 o
57.6734 141.416 o
63.0467 113.472 o
73.7394 90.3905 o
81.3146 91.7546 o
66.4861 105.227 o
98.0351 106.549 o
64.5622 105.332 o
96.0009 96.4755 o
149.386 101.664 o
66.9403 98.1639 o
60.5102 86.3108 o
81.7662 107.982 o
70.8241 83.7875 o
104.304 92.5735 o
110.884 106.317 o
81.3617 84.1688 o
54.0785 66.3255 o
71.3179 86.9132 o
99.9432 87.0493 o
85.486 97.8792 o
82.2538 105.011 o
99.9891 113.32 o
74.7326 84.5339 o
65.1915 96.9259 o
85.587 75.9491 o
64.4428 75.9235 o
62.9024 105.001 o
78.032 97.3974 o
58.352 112.872 o
79.3016 98.4789 o
74.7338 91.1315 o
64.73 80.5284 o
66.8281 92.3431 o
107.95 101.032 o
89.9035 96.1836 o
116.426 96.697 o
61.6505 93.576 o
98.1961 99.3112 o
60.0699 104.184 o
101.78 106.894 o
63.7238 97.1002 o
75.9798 98.1576 o
77.1942 109.05 o
78.0078 89.0748 o
60.7557 119.232 o
62.4619 107.639 o
75.6609 95.9383 o
88.9499 95.7712 o
115.014 92.6271 o
82.8327 104.749 o
122.962 97.6724 o
87.3938 80.4683 o
114.094 101.736 o
75.7756 94.9125 o
106.737 103.978 o
70.4651 103.401 o
147.036 102.808 o
83.1512 111.634 o
79.2458 117.193 o
71.5493 100.049 o
79.1071 106.461 o
65.6853 94.89 o
79.9957 98.2439 o
76.8151 101.753 o
85.1971 104.445 o
79.4043 99.551 o
54.1049 78.3553 o
134.187 98.2751 o
54.0116 90.6019 o
53.7129 101.649 o
110.555 105.716 o
96.394 102.346 o
86.6159 84.305 o
77.6168 99.1075 o
70.1697 104.384 o
81.0285 109.315 o
61.0397 109.624 o
65.6278 99.345 o
88.9779 111.387 o
65.7169 116.375 o
110.007 97.5728 o
85.3055 86.499 o
67.8804 99.1655 o
73.8295 105.193 o
81.2243 103.604 o
101.774 80.7546 o
68.4785 120.942 o
100.352 94.5553 o
150.905 96.8238 o
76.1189 99.3336 o
76.6309 97.095 o
110.465 101.114 o
140.588 99.0865 o
76.7564 92.3273 o
72.3813 107.278 o
203.282 96.8851 o
64.0433 112.939 o
77.9137 125.761 o
75.4784 95.9411 o
73.3803 121.966 o
78.5084 97.183 o
71.9731 92.0465 o
80.9275 104.204 o
63.3564 100.2 o
67.3312 87.5707 o
70.1032 95.5857 o
71.714 95.6848 o
111.092 98.7562 o
115.102 94.1085 o
72.6695 82.5247 o
69.2572 101.72 o
120.041 102.372 o
67.2282 106.529 o
75.5936 117.134 o
84.6611 81.6164 o
68.5587 101.603 o
52.8832 80.628 o
59.2639 90.5245 o
67.1693 94.0463 o
68.2439 90.7861 o
62.9912 71.7579 o
66.4327 92.3172 o
104.858 107.974 o
66.163 79.4149 o
61.6192 96.5718 o
78.3545 98.8517 o
83.4714 75.6067 o
95.5183 78.1071 o
93.8467 105.353 o
83.9934 122.424 o
51.355 101.183 o
79.1671 73.3101 o
115.432 102.525 o
62.3738 97.1892 o
118.94 88.2242 o
76.0333 102.388 o
58.0566 118.737 o
88.335 113.027 o
130.197 101.159 o
85.5155 83.5377 o
88.3271 100.139 o
96.1561 109.355 o
122.42 89.9721 o
68.4256 104.015 o
108.172 94.6464 o
85.6373 116.676 o
75.3498 98.014 o
67.3163 114.517 o
63.622 87.2438 o
56.3559 137.514 o
59.2244 104.492 o
52.3044 138.769 o
67.539 108.595 o
109.149 101.9 o
73.1549 93.0352 o
98.5605 114.31 o
78.2208 86.5039 o
96.7892 98.7591 o
57.5558 102.544 o
137.293 95.2107 o
74.904 96.9266 o
83.606 106.885 o
76.727 102.469 o
95.9689 96.3967 o
62.6899 97.1362 o
74.2519 110.245 o
62.2677 106.846 o
80.3627 102.908 o
62.3902 113.943 o
70.2607 127.804 o
70.9294 91.7288 o
61.4689 93.922 o
138.199 99.0989 o
65.4122 120.236 o
93.7183 99.7258 o
66.6202 71.5332 o
69.7454 95.8293 o
69.1387 111.643 o
63.8484 111.518 o
81.5486 109.107 o
67.4329 105.769 o
129.308 105.143 o
77.0421 118.548 o
125.53 107.445 o
63.6673 86.2477 o
73.2547 99.9551 o
53.1851 140.668 o
55.9718 136.059 o
69.9273 87.9002 o
73.9804 91.3018 o
71.7416 91.7271 o
95.1271 101.631 o
85.5065 91.2911 o
115.15 101.734 o
71.3162 103.686 o
68.6792 100.042 o
64.1203 83.0492 o
101.958 87.6485 o
71.5027 100.748 o
90.115 100.288 o
54.1069 115.76 o
53.9238 53.4886 o
61.5273 73.5726 o
63.3789 92.2081 o
99.4092 101.371 o
61.7173 71.3218 o
73.257 113.526 o
115.753 98.4112 o
60.3827 65.9584 o
112.785 97.3451 o
62.3028 93.5873 o
88.6871 112.382 o
74.9045 88.5385 o
61.1256 97.9951 o
79.5978 95.1308 o
132.963 105.478 o
115.75 104.254 o
85.1294 74.5525 o
62.441 100.922 o
62.9565 72.5881 o
76.0948 109.601 o
106.447 94.2429 o
77.0186 94.1056 o
52.4525 89.7939 o
57.3226 132.994 o
112.824 98.4142 o
93.0733 120.365 o
90.3137 85.5326 o
73.522 90.9931 o
90.7984 96.8278 o
97.5023 99.1697 o
116.013 100.048 o
58.755 100.593 o
142.012 104.955 o
116.712 98.9041 o
91.1532 99.7743 o
114.38 96.4818 o
104.736 94.3054 o
157.836 95.7708 o
74.9536 91.9876 o
79.187 94.6988 o
81.8317 104.498 o
102.238 99.9191 o
118.244 101.197 o
100.048 91.2257 o
118.184 91.0147 o
74.846 90.5987 o
74.1695 108.885 o
85.0071 111.682 o
73.5579 126.303 o
70.8616 115.944 o
103.454 95.9676 o
59.0767 67.0216 o
95.3978 104.941 o
118.972 95.1866 o
109.843 107.114 o
52.1498 107.296 o
68.8116 99.8189 o
74.3746 115.752 o
115.569 103.604 o
86.7106 87.9096 o
65.5459 92.26 o
75.8053 107.636 o
50.7583 62.8826 o
159.655 100.788 o
73.4944 86.7985 o
68.0596 106.079 o
68.3827 83.9622 o
100.271 115.603 o
56.1809 126.998 o
50.8828 129.411 o
75.1866 97.985 o
63.4685 120.786 o
69.1953 127.723 o
75.5585 101.41 o
94.4038 95.309 o
94.8013 87.2115 o
80.6607 114.223 o
151.765 97.3855 o
73.836 110.503 o
62.5744 94.4549 o
80.2592 99.1534 o
133.706 104.385 o
73.1814 107.984 o
51.377 110.936 o
76.2342 94.0852 o
118.028 100.907 o
97.2536 103.054 o
115.302 86.4216 o
63.2126 105.939 o
104.151 111.043 o
86.9833 116.955 o
99.8137 109.069 o
72.1222 109.434 o
60.5082 124.25 o
62.7212 104.154 o
235.467 91.0327 o
67.3022 72.47 o
83.8411 100.737 o
86.7613 98.1507 o
84.5125 118.67 o
62.2425 138.288 o
78.3691 104.824 o
61.2251 102.52 o
127.347 99.4021 o
88.4566 83.379 o
63.9681 74.6823 o
118.321 104.534 o
99.7778 91.2663 o
63.6513 96.8334 o
67.2803 120.667 o
99.9403 90.546 o
56.6945 108.968 o
122.194 99.1609 o
69.4133 90.2634 o
59.7693 85.3264 o
81.5919 100.732 o
77.0056 95.2032 o
60.8156 122.631 o
66.3846 87.7594 o
125.606 102.96 o
81.7881 84.7913 o
81.1286 78.5462 o
71.8148 120.825 o
141.744 101.938 o
64.2603 82.2695 o
68.1747 100.791 o
73.0668 109.175 o
63.9522 77.5666 o
70.7473 110.764 o
68.9801 73.4162 o
77.7474 81.17 o
65.3063 97.3375 o
126.746 101.046 o
52.1509 101.055 o
134.007 105.474 o
109.099 99.3961 o
84.5767 98.3372 o
49.8113 49.9676 o
147.165 103.891 o
86.9567 98.8194 o
97.2713 87.5246 o
97.9528 79.348 o
94.0723 109.037 o
123.665 91.4404 o
68.6108 91.0127 o
96.6008 106.71 o
69.8032 83.5533 o
87.0864 104.578 o
59.7078 74.1188 o
79.8876 99.1428 o
71.3366 96.2715 o
84.2856 108.316 o
66.7274 119.237 o
96.906 96.5573 o
80.8814 104.768 o
76.0255 96.1417 o
83.3425 80.4806 o
63.518 96.0471 o
65.0656 125.561 o
67.6716 97.426 o
75.0013 99.1125 o
81.1934 98.4844 o
79.3798 109.703 o
94.9543 95.2434 o
125.592 100.52 o
71.4438 86.4702 o
103.473 88.4154 o
113.861 106.571 o
56.5828 112.336 o
110.505 90.7913 o
86.2617 81.8656 o
134.436 97.2544 o
116.335 105.536 o
56.8788 75.5757 o
96.8246 92.881 o
96.7269 110.899 o
71.9066 114.358 o
57.0698 110.344 o
61.7068 79.2503 o
113.192 98.4567 o
102.031 98.8631 o
109.58 97.9609 o
100.581 91.9662 o
126.379 98.3789 o
66.8622 88.7499 o
71.3511 87.7198 o
132.201 92.4054 o
81.1556 99.0333 o
103.28 108.137 o
120.384 96.9316 o
137.603 103.515 o
65.687 106.074 o
71.2351 84.9019 o
107.399 101.627 o
79.517 108.285 o
69.3241 109.228 o
89.7604 92.3818 o
58.4944 131.15 o
61.4244 133.381 o
70.7464 96.859 o
170.847 100.588 o
69.1922 88.322 o
117.175 100.904 o
90.7436 104.776 o
76.9445 107.696 o
142.067 100.997 o
76.7083 103.51 o
54.5167 76.9957 o
78.0782 90.6951 o
58.0792 138.333 o
59.6634 84.2275 o
93.0182 97.602 o
119.325 99.7309 o
90.948 99.8571 o
114.336 93.7669 o
72.2134 105.881 o
52.2763 136.171 o
100.461 97.9144 o
86.0538 98.0582 o
72.9256 104.447 o
105.208 107.294 o
91.5685 102.05 o
56.0232 113.495 o
59.7447 85.0062 o
191.693 101.955 o
64.8362 111.513 o
52.3635 70.9279 o
110.243 111.786 o
103.229 104.563 o
119.222 100.131 o
66.0795 128.933 o
130.75 89.9079 o
50.4902 139.974 o
70.4964 82.8256 o
70.6765 77.0323 o
64.5239 91.2723 o
166.596 105.24 o
55.4457 134.414 o
95.3342 104.973 o
96.253 94.8622 o
83.9719 100.831 o
70.9402 102.331 o
80.3882 85.8913 o
74.7217 102.607 o
84.8149 80.8553 o
105.022 87.8127 o
62.8635 102.072 o
107.033 107.476 o
71.6591 117.406 o
103.897 106.042 o
63.2448 88.8229 o
81.8432 97.8514 o
105.786 106.633 o
111.118 110.196 o
52.1552 80.0163 o
70.7538 106.877 o
96.2647 98.1077 o
64.2238 96.5445 o
94.7154 113.307 o
100.188 93.6497 o
116.045 99.6723 o
92.8515 95.9835 o
84.6171 104.144 o
83.9218 97.1292 o
127.282 94.2396 o
58.2961 66.832 o
114.027 98.6456 o
64.2476 83.1543 o
75.8569 80.2322 o
58.1485 95.5015 o
128.051 102.665 o
102.909 92.5368 o
87.5415 82.8708 o
81.7149 97.2959 o
133.046 103.952 o
79.3138 97.5644 o
85.8883 99.9555 o
71.6205 98.9969 o
109.555 101.655 o
110.517 95.6752 o
115.567 92.5035 o
70.5831 84.9354 o
63.499 90.8927 o
97.1083 91.028 o
62.2483 91.0704 o
53.1412 126.22 o
53.705 132.573 o
64.6121 81.8626 o
78.3374 107.125 o
76.0187 80.7322 o
76.4132 87.171 o
73.1272 90.7836 o
79.5814 105.141 o
55.9169 102.571 o
98.1236 92.3742 o
100.561 102.492 o
102.628 93.4382 o
66.5889 103.493 o
145.328 93.0228 o
83.51 105.981 o
111.511 95.8593 o
66.985 93.0215 o
66.1635 92.1435 o
56.2749 90.3535 o
144.534 99.1119 o
51.5856 105.747 o
91.1968 102.21 o
54.2394 49.5213 o
102.022 98.5737 o
57.3842 71.8955 o
63.3702 131.519 o
51.4737 142.951 o
105.018 87.1117 o
104.075 96.5204 o
67.9326 101.145 o
76.566 104.563 o
66.8567 84.3922 o
74.5695 107.186 o
128.699 95.7243 o
61.1068 97.8398 o
64.115 91.8189 o
72.9896 103.588 o
95.9247 99.978 o
62.7606 82.3683 o
71.4393 93.9713 o
75.4918 105.985 o
62.4524 110.293 o
92.2668 88.0293 o
75.8863 91.5777 o
120.669 111.533 o
100.542 93.8551 o
79.8655 105.606 o
58.1445 91.0469 o
96.1333 91.2217 o
127.643 94.6908 o
72.9693 101.94 o
55.0294 133.132 o
72.7383 100.723 o
84.0926 115.9 o
74.5573 96.5158 o
67.0606 82.5986 o
76.0209 97.9598 o
58.3651 71.6664 o
54.7047 104.504 o
77.9203 100.315 o
81.3819 94.8283 o
56.4815 98.2987 o
85.8683 90.7479 o
105.879 88.6219 o
110.296 110.683 o
65.2778 93.01 o
89.1546 93.2616 o
70.0689 102.293 o
75.8016 98.866 o
66.9741 111.631 o
108.575 86.9352 o
118.44 101.487 o
74.3367 94.8076 o
68.1661 77.6615 o
56.6514 116.141 o
73.5101 91.7465 o
49.0427 108.404 o
94.0787 89.5374 o
108.707 100.933 o
72.0768 96.9265 o
116.504 96.8901 o
75.7908 112.49 o
64.6446 70.3856 o
81.6645 109.051 o
62.0385 96.3876 o
73.2739 106.904 o
121.464 95.832 o
117.566 101.708 o
89.4863 95.7376 o
56.2011 134.018 o
54.6408 111.864 o
70.4393 122.626 o
117.422 104.657 o
96.7259 99.5076 o
91.7399 117.672 o
64.5483 89.9756 o
68.4585 124.457 o
89.4816 78.6472 o
48.4794 76.5953 o
77.1418 92.2212 o
94.3586 99.8782 o
70.4728 90.9953 o
67.5166 82.1719 o
135.722 92.0265 o
83.2643 96.7142 o
133.049 103.993 o
70.8441 86.3122 o
82.3569 100.078 o
128.495 106.86 o
127.132 95.6414 o
154.353 101.27 o
116.288 98.8147 o
81.6643 109.08 o
83.6472 101.794 o
78.378 91.0467 o
109.213 93.5453 o
71.9482 103.334 o
111.395 109.899 o
120.067 103.445 o
78.0508 92.2904 o
63.5247 131.367 o
88.362 85.6939 o
108.624 102.104 o
73.2465 93.4541 o
56.6583 122.654 o
101.192 86.7808 o
140.714 92.9963 o
80.3813 91.9571 o
53.817 84.9669 o
65.2503 86.0726 o
157.814 97.0249 o
105.22 106.877 o
72.4795 129.453 o
78.9691 88.0392 o
83.5038 109.003 o
89.9471 95.5716 o
163.587 99.6089 o
112.019 100.669 o
75.5755 104.409 o
124.175 97.6056 o
65.9038 105.55 o
52.634 118.665 o
104.33 98.335 o
99.4246 98.5865 o
99.2647 95.0234 o
67.862 79.8293 o
69.9551 98.8401 o
118.191 103.981 o
109.612 87.7449 o
54.2307 61.6007 o
80.7951 79.9653 o
100.927 114.498 o
87.5142 108.126 o
87.5524 79.0721 o
103.503 101.664 o
116.354 105.113 o
63.4823 122.598 o
118.469 104.166 o
90.4951 94.3189 o
63.6381 103.309 o
99.19 91.9224 o
84.8028 102.623 o
72.634 109.64 o
76.2456 104.852 o
94.8342 86.5065 o
77.3773 103.923 o
134.022 97.6207 o
75.37 87.5502 o
67.4414 109.957 o
69.3609 111.915 o
66.7667 99.1053 o
135.755 106.834 o
74.7002 98.8035 o
74.7626 88.9434 o
67.6628 79.8018 o
88.1548 87.7893 o
73.8046 94.8375 o
81.8807 101.001 o
72.2034 78.201 o
100.243 85.5622 o
80.8996 103.134 o
88.3102 99.5292 o
54.6557 70.2003 o
78.4401 99.5648 o
68.847 117.076 o
91.8117 86.8223 o
100.521 98.5628 o
128.558 98.0835 o
120.436 107.008 o
63.2139 114.525 o
71.439 111.555 o
69.3861 105.517 o
71.6984 77.3116 o
61.4394 90.9431 o
52.3402 135.983 o
63.2422 97.5273 o
159.785 97.2618 o
60.5789 93.675 o
88.36 85.434 o
113.429 89.0967 o
111.971 94.7956 o
94.481 90.1755 o
65.4141 106.249 o
103.735 108.865 o
120.64 97.7643 o
94.8049 95.3257 o
158.802 95.9753 o
81.2506 93.1774 o
51.6029 141.213 o
63.3407 100.564 o
126.617 106.536 o
151.199 108.963 o
86.2426 109.596 o
67.8043 90.3116 o
63.5681 102.429 o
70.7434 102.043 o
79.2584 101.151 o
71.6687 91.5411 o
70.809 89.4486 o
82.9445 111.9 o
109.524 99.5115 o
64.9089 86.0823 o
110.123 89.2338 o
70.4323 94.2789 o
69.1655 116.907 o
70.2307 95.7843 o
73.6493 119 o
49.4191 94.6855 o
67.1642 102.898 o
69.4106 107.742 o
86.1163 104.739 o
70.6757 120.685 o
94.3365 115.763 o
74.9286 110.911 o
109.986 97.7326 o
73.5591 96.7082 o
69.0171 75.5232 o
60.3537 121.387 o
89.282 98.2905 o
70.7088 99.6442 o
70.6374 94.1125 o
93.2927 101.143 o
66.8669 81.192 o
74.0523 88.7249 o
63.8869 82.0972 o
98.9073 90.7337 o
105.069 98.7743 o
66.6284 81.3142 o
54.5654 129.86 o
80.9287 95.8561 o
74.3179 99.8806 o
104.977 94.1665 o
72.7875 126.431 o
110.002 93.5855 o
70.592 102.13 o
85.0086 120.281 o
50.8781 75.5341 o
70.1445 86.0133 o
67.1165 68.0077 o
60.8587 123.856 o
119.659 103.408 o
64.2323 104.3 o
81.6385 111.249 o
106.049 89.6491 o
67.5046 119.823 o
68.3174 118.766 o
54.271 82.3056 o
77.9571 95.5121 o
86.2698 80.0392 o
79.1799 92.5074 o
61.0619 99.0341 o
76.5396 106.168 o
154.849 100.228 o
50.3964 107.173 o
71.6124 77.6021 o
113.385 99.9392 o
50.4186 55.8638 o
53.4705 118.407 o
72.9743 91.1053 o
118.804 99.0974 o
111.768 97.9363 o
62.3417 87.6382 o
95.4275 98.9323 o
66.6894 124.986 o
75.3673 92.0639 o
113.895 91.0633 o
125.714 100.388 o
75.9837 124.968 o
73.8252 97.9732 o
74.5331 96.4124 o
74.0863 120.775 o
108.424 99.3156 o
110.748 92.8163 o
111.087 101.103 o
78.54 84.6657 o
51.8264 77.2177 o
96.3625 88.3323 o
72.7577 114.312 o
89.0658 105.719 o
56.9354 64.2458 o
63.0716 79.7809 o
106.724 98.4075 o
59.791 103.103 o
66.1301 89.174 o
120.983 96.5538 o
58.2234 89.9154 o
77.3781 121.847 o
110.188 98.1295 o
116.046 103.313 o
54.3074 110.917 o
112.248 110.221 o
90.1272 93.525 o
53.3614 97.0137 o
105.522 90.8039 o
97.4301 87.5559 o
71.4233 115.313 o
53.1107 128.059 o
71.1436 124.04 o
75.1802 97.2768 o
139.772 109.795 o
97.9087 88.0465 o
66.6799 98.126 o
54.7992 136.242 o
101.908 90.6898 o
55.0106 62.3981 o
92.6019 112.02 o
95.1998 95.0398 o
54.4122 80.6571 o
113.483 92.4174 o
82.2211 75.8723 o
80.9061 105.536 o
94.7856 93.4507 o
122.683 99.3131 o
84.3339 99.4403 o
86.2644 96.3092 o
58.5168 85.7033 o
107.554 92.6252 o
81.9014 91.4976 o
80.5596 100.107 o
51.5585 65.5325 o
134.809 93.4681 o
77.8215 98.2713 o
120.994 99.8602 o
80.2069 98.8921 o
63.9147 89.6933 o
63.5169 98.2605 o
50.8073 118.602 o
80.3473 110.073 o
75.1648 108.831 o
81.9999 91.5601 o
56.0922 84.8342 o
111.614 88.5201 o
52.938 76.6434 o
85.8609 81.8328 o
88.6083 95.3483 o
99.2205 101.655 o
59.612 77.8265 o
72.4246 86.915 o
69.7999 104.297 o
91.1417 94.6599 o
149.63 96.4796 o
76.933 95.2656 o
62.5393 69.7402 o
64.2242 109.229 o
97.1468 94.6535 o
146.634 100.061 o
56.8636 73.6609 o
68.8843 94.6696 o
69.6064 109.665 o
76.9668 91.7567 o
70.1489 109.539 o
69.7542 97.7979 o
78.7704 94.3653 o
79.3576 99.3185 o
99.9559 93.4073 o
112.315 84.8825 o
67.3703 124.138 o
88.8473 83.8825 o
74.0204 103.643 o
66.5493 116.981 o
92.6287 118.814 o
122.68 104.337 o
57.3936 117.216 o
74.4036 111.56 o
63.6179 133.147 o
75.7936 84.0612 o
61.7667 104.578 o
70.4219 88.2605 o
136.324 91.3153 o
133.457 102.238 o
103.514 89.5188 o
98.8365 95.1612 o
57.82 123.07 o
128.185 101.859 o
63.1685 100.642 o
68.0594 70.2237 o
68.2695 99.0763 o
106.958 97.0626 o
70.9502 88.5635 o
73.634 110.927 o
152.522 101.236 o
74.7448 113.09 o
132.976 106.066 o
55.0469 57.8839 o
88.6077 97.01 o
86.0119 98.5885 o
60.7986 67.7777 o
75.407 91.5465 o
55.2927 58.371 o
141.297 99.8237 o
78.9283 96.6345 o
114.632 98.8896 o
76.8811 112.866 o
82.3842 83.0442 o
116.844 95.4002 o
99.0615 117.484 o
51.2286 123.292 o
86.5986 90.8244 o
108.679 98.6254 o
62.3763 112.988 o
113.27 105.03 o
77.8725 97.2798 o
119.185 97.86 o
52.1419 124.637 o
88.3216 98.585 o
91.7185 92.1445 o
179.031 101.977 o
72.7211 107.957 o
55.0433 111.983 o
83.4271 77.5534 o
120.72 95.129 o
66.3174 93.3036 o
53.8849 121.688 o
70.0734 77.8114 o
76.626 88.2951 o
72.0838 81.2907 o
89.7853 94.2477 o
101.769 108.557 o
105.354 99.3217 o
103.858 97.9496 o
79.2029 121.152 o
83.0952 83.4381 o
58.6337 65.2311 o
129.454 103.117 o
grestore
0.502 setgray
gsave
196.6 126 47.88 36 clipbox
/o {
gsave
newpath
translate
0.5 setlinewidth
1 setlinejoin
0 setlinecap
0 -0.25 m
0.0663008 -0.25 0.129895 -0.223658 0.176777 -0.176777 c
0.223658 -0.129895 0.25 -0.0663008 0.25 0 c
0.25 0.0663008 0.223658 0.129895 0.176777 0.176777 c
0.129895 0.223658 0.0663008 0.25 0 0.25 c
-0.0663008 0.25 -0.129895 0.223658 -0.176777 0.176777 c
-0.223658 0.129895 -0.25 0.0663008 -0.25 0 c
-0.25 -0.0663008 -0.223658 -0.129895 -0.176777 -0.176777 c
-0.129895 -0.223658 -0.0663008 -0.25 0 -0.25 c
cl
gsave
0.502 setgray
fill
grestore
stroke
grestore
} bind def
70.8673 107.499 o
65.216 94.5715 o
65.9187 92.7564 o
68.3357 106.942 o
70.9426 104.586 o
68.9597 99.3429 o
70.9919 80.0717 o
73.846 108.393 o
73.471 102.676 o
70.6846 100.376 o
73.5711 106.906 o
72.0072 103.006 o
71.1227 97.1106 o
67.8804 99.1655 o
71.5027 100.748 o
70.8616 115.944 o
grestore
0.000 1.000 1.000 setrgbcolor
gsave
196.6 126 47.88 36 clipbox
/o {
gsave
newpath
translate
0.5 setlinewidth
1 setlinejoin
0 setlinecap
0 -1 m
0.265203 -1 0.51958 -0.894634 0.707107 -0.707107 c
0.894634 -0.51958 1 -0.265203 1 0 c
1 0.265203 0.894634 0.51958 0.707107 0.707107 c
0.51958 0.894634 0.265203 1 0 1 c
-0.265203 1 -0.51958 0.894634 -0.707107 0.707107 c
-0.894634 0.51958 -1 0.265203 -1 0 c
-1 -0.265203 -0.894634 -0.51958 -0.707107 -0.707107 c
-0.51958 -0.894634 -0.265203 -1 0 -1 c
cl
gsave
0.000 1.000 1.000 setrgbcolor
fill
grestore
stroke
grestore
} bind def
67.7649 78.4821 o
70.0165 96.3746 o
66.4094 71.8543 o
71.3187 92.7655 o
67.2028 119.497 o
66.6733 107.823 o
70.9197 105.349 o
67.7385 81.9433 o
66.4173 72.1422 o
71.7383 95.9622 o
66.315 80.6617 o
70.2325 120.597 o
66.3603 112.672 o
69.5905 73.3518 o
68.5024 101.143 o
68.2115 86.5525 o
67.1769 120.489 o
68.9107 110.373 o
71.1617 77.7049 o
69.4404 92.2493 o
70.4437 72.4997 o
68.655 116.937 o
69.9243 111.12 o
69.1495 81.5697 o
74.0164 96.6989 o
73.6825 70.5567 o
66.6109 101.178 o
70.6798 112.992 o
70.2839 105.325 o
69.3612 66.9955 o
68.0265 109.655 o
70.4961 93.4359 o
73.0479 98.8106 o
71.9325 71.5961 o
72.6537 120.064 o
71.8958 94.5748 o
68.7551 88.8792 o
71.8574 77.938 o
71.1643 92.6116 o
70.9128 69.4925 o
70.0015 96.3767 o
70.9081 88.0504 o
73.0479 102.166 o
71.2699 106.544 o
72.2025 104.798 o
70.8378 99.5565 o
grestore
1.000 0.000 0.000 setrgbcolor
gsave
196.6 126 47.88 36 clipbox
/o {
gsave
newpath
translate
0.5 setlinewidth
1 setlinejoin
0 setlinecap
0 -1 m
0.265203 -1 0.51958 -0.894634 0.707107 -0.707107 c
0.894634 -0.51958 1 -0.265203 1 0 c
1 0.265203 0.894634 0.51958 0.707107 0.707107 c
0.51958 0.894634 0.265203 1 0 1 c
-0.265203 1 -0.51958 0.894634 -0.707107 0.707107 c
-0.894634 0.51958 -1 0.265203 -1 0 c
-1 -0.265203 -0.894634 -0.51958 -0.707107 -0.707107 c
-0.51958 -0.894634 -0.265203 -1 0 -1 c
cl
gsave
1.000 0.000 0.000 setrgbcolor
fill
grestore
stroke
grestore
} bind def
77.9927 117.9 o
83.4061 112.755 o
81.3157 114.33 o
78.2353 116.535 o
77.8806 114.645 o
80.8306 113.91 o
80.3974 109.815 o
82.6296 111.915 o
81.5099 108.555 o
74.7044 115.38 o
80.0949 108.66 o
77.1482 116.01 o
83.0873 111.6 o
81.1828 108.555 o
79.4951 110.55 o
79.0545 114.015 o
77.0811 115.065 o
75.457 117.165 o
grestore
1.000 setlinewidth
0 setlinejoin
2 setlinecap
0.000 setgray
gsave
47.88 162 m
244.44 162 l
stroke
grestore
gsave
244.44 36 m
244.44 162 l
stroke
grestore
gsave
47.88 36 m
244.44 36 l
stroke
grestore
gsave
47.88 36 m
47.88 162 l
stroke
grestore
0.500 setlinewidth
1 setlinejoin
0 setlinecap
gsave
/o {
gsave
newpath
translate
0.5 setlinewidth
1 setlinejoin
0 setlinecap
0 0 m
0 4 l
gsave
0.000 setgray
fill
grestore
stroke
grestore
} bind def
47.88 36 o
grestore
gsave
/o {
gsave
newpath
translate
0.5 setlinewidth
1 setlinejoin
0 setlinecap
0 0 m
0 -4 l
gsave
0.000 setgray
fill
grestore
stroke
grestore
} bind def
47.88 162 o
grestore
/BitstreamVeraSans-Roman findfont
6.000 scalefont
setfont
gsave
46.364375 27.437500 translate
0.000000 rotate
0.000000 0.000000 m /zero glyphshow
grestore
gsave
/o {
gsave
newpath
translate
0.5 setlinewidth
1 setlinejoin
0 setlinecap
0 0 m
0 4 l
gsave
0.000 setgray
fill
grestore
stroke
grestore
} bind def
80.64 36 o
grestore
gsave
/o {
gsave
newpath
translate
0.5 setlinewidth
1 setlinejoin
0 setlinecap
0 0 m
0 -4 l
gsave
0.000 setgray
fill
grestore
stroke
grestore
} bind def
80.64 162 o
grestore
gsave
77.241563 27.437500 translate
0.000000 rotate
0.000000 0.000000 m /two glyphshow
3.817383 0.000000 m /zero glyphshow
grestore
gsave
/o {
gsave
newpath
translate
0.5 setlinewidth
1 setlinejoin
0 setlinecap
0 0 m
0 4 l
gsave
0.000 setgray
fill
grestore
stroke
grestore
} bind def
113.4 36 o
grestore
gsave
/o {
gsave
newpath
translate
0.5 setlinewidth
1 setlinejoin
0 setlinecap
0 0 m
0 -4 l
gsave
0.000 setgray
fill
grestore
stroke
grestore
} bind def
113.4 162 o
grestore
gsave
109.931250 27.437500 translate
0.000000 rotate
0.000000 0.000000 m /four glyphshow
3.817383 0.000000 m /zero glyphshow
grestore
gsave
/o {
gsave
newpath
translate
0.5 setlinewidth
1 setlinejoin
0 setlinecap
0 0 m
0 4 l
gsave
0.000 setgray
fill
grestore
stroke
grestore
} bind def
146.16 36 o
grestore
gsave
/o {
gsave
newpath
translate
0.5 setlinewidth
1 setlinejoin
0 setlinecap
0 0 m
0 -4 l
gsave
0.000 setgray
fill
grestore
stroke
grestore
} bind def
146.16 162 o
grestore
gsave
142.753750 27.437500 translate
0.000000 rotate
0.000000 0.000000 m /six glyphshow
3.817383 0.000000 m /zero glyphshow
grestore
gsave
/o {
gsave
newpath
translate
0.5 setlinewidth
1 setlinejoin
0 setlinecap
0 0 m
0 4 l
gsave
0.000 setgray
fill
grestore
stroke
grestore
} bind def
178.92 36 o
grestore
gsave
/o {
gsave
newpath
translate
0.5 setlinewidth
1 setlinejoin
0 setlinecap
0 0 m
0 -4 l
gsave
0.000 setgray
fill
grestore
stroke
grestore
} bind def
178.92 162 o
grestore
gsave
175.505937 27.437500 translate
0.000000 rotate
0.000000 0.000000 m /eight glyphshow
3.817383 0.000000 m /zero glyphshow
grestore
gsave
/o {
gsave
newpath
translate
0.5 setlinewidth
1 setlinejoin
0 setlinecap
0 0 m
0 4 l
gsave
0.000 setgray
fill
grestore
stroke
grestore
} bind def
211.68 36 o
grestore
gsave
/o {
gsave
newpath
translate
0.5 setlinewidth
1 setlinejoin
0 setlinecap
0 0 m
0 -4 l
gsave
0.000 setgray
fill
grestore
stroke
grestore
} bind def
211.68 162 o
grestore
gsave
206.484687 27.437500 translate
0.000000 rotate
0.000000 0.000000 m /one glyphshow
3.817383 0.000000 m /zero glyphshow
7.634766 0.000000 m /zero glyphshow
grestore
gsave
/o {
gsave
newpath
translate
0.5 setlinewidth
1 setlinejoin
0 setlinecap
0 0 m
0 4 l
gsave
0.000 setgray
fill
grestore
stroke
grestore
} bind def
244.44 36 o
grestore
gsave
/o {
gsave
newpath
translate
0.5 setlinewidth
1 setlinejoin
0 setlinecap
0 0 m
0 -4 l
gsave
0.000 setgray
fill
grestore
stroke
grestore
} bind def
244.44 162 o
grestore
gsave
239.244687 27.437500 translate
0.000000 rotate
0.000000 0.000000 m /one glyphshow
3.817383 0.000000 m /two glyphshow
7.634766 0.000000 m /zero glyphshow
grestore
gsave
133.660000 15.187500 translate
0.000000 rotate
/Cmr10 findfont
8.0 scalefont
setfont
0.000000 0.000000 moveto
/r glyphshow

/BitstreamVeraSans-Roman findfont
8.0 scalefont
setfont
3.128906 0.000000 moveto
/space glyphshow

/Cmr10 findfont
8.0 scalefont
setfont
5.671875 0.000000 moveto
/parenleft glyphshow

8.777344 0.000000 moveto
/k glyphshow

12.992188 0.000000 moveto
/p glyphshow

17.433594 0.000000 moveto
/c glyphshow

20.984375 0.000000 moveto
/parenright glyphshow


grestore
gsave
/o {
gsave
newpath
translate
0.5 setlinewidth
1 setlinejoin
0 setlinecap
0 0 m
4 0 l
gsave
0.000 setgray
fill
grestore
stroke
grestore
} bind def
47.88 36 o
grestore
gsave
/o {
gsave
newpath
translate
0.5 setlinewidth
1 setlinejoin
0 setlinecap
0 0 m
-4 0 l
gsave
0.000 setgray
fill
grestore
stroke
grestore
} bind def
244.44 36 o
grestore
gsave
28.442500 34.343750 translate
0.000000 rotate
0.000000 0.000000 m /minus glyphshow
5.027344 0.000000 m /six glyphshow
8.844727 0.000000 m /zero glyphshow
12.662109 0.000000 m /zero glyphshow
grestore
gsave
/o {
gsave
newpath
translate
0.5 setlinewidth
1 setlinejoin
0 setlinecap
0 0 m
4 0 l
gsave
0.000 setgray
fill
grestore
stroke
grestore
} bind def
47.88 57 o
grestore
gsave
/o {
gsave
newpath
translate
0.5 setlinewidth
1 setlinejoin
0 setlinecap
0 0 m
-4 0 l
gsave
0.000 setgray
fill
grestore
stroke
grestore
} bind def
244.44 57 o
grestore
gsave
28.442500 55.343750 translate
0.000000 rotate
0.000000 0.000000 m /minus glyphshow
5.027344 0.000000 m /four glyphshow
8.844727 0.000000 m /zero glyphshow
12.662109 0.000000 m /zero glyphshow
grestore
gsave
/o {
gsave
newpath
translate
0.5 setlinewidth
1 setlinejoin
0 setlinecap
0 0 m
4 0 l
gsave
0.000 setgray
fill
grestore
stroke
grestore
} bind def
47.88 78 o
grestore
gsave
/o {
gsave
newpath
translate
0.5 setlinewidth
1 setlinejoin
0 setlinecap
0 0 m
-4 0 l
gsave
0.000 setgray
fill
grestore
stroke
grestore
} bind def
244.44 78 o
grestore
gsave
28.442500 76.343750 translate
0.000000 rotate
0.000000 0.000000 m /minus glyphshow
5.027344 0.000000 m /two glyphshow
8.844727 0.000000 m /zero glyphshow
12.662109 0.000000 m /zero glyphshow
grestore
gsave
/o {
gsave
newpath
translate
0.5 setlinewidth
1 setlinejoin
0 setlinecap
0 0 m
4 0 l
gsave
0.000 setgray
fill
grestore
stroke
grestore
} bind def
47.88 99 o
grestore
gsave
/o {
gsave
newpath
translate
0.5 setlinewidth
1 setlinejoin
0 setlinecap
0 0 m
-4 0 l
gsave
0.000 setgray
fill
grestore
stroke
grestore
} bind def
244.44 99 o
grestore
gsave
40.848750 97.343750 translate
0.000000 rotate
0.000000 0.000000 m /zero glyphshow
grestore
gsave
/o {
gsave
newpath
translate
0.5 setlinewidth
1 setlinejoin
0 setlinecap
0 0 m
4 0 l
gsave
0.000 setgray
fill
grestore
stroke
grestore
} bind def
47.88 120 o
grestore
gsave
/o {
gsave
newpath
translate
0.5 setlinewidth
1 setlinejoin
0 setlinecap
0 0 m
-4 0 l
gsave
0.000 setgray
fill
grestore
stroke
grestore
} bind def
244.44 120 o
grestore
gsave
33.270625 118.343750 translate
0.000000 rotate
0.000000 0.000000 m /two glyphshow
3.817383 0.000000 m /zero glyphshow
7.634766 0.000000 m /zero glyphshow
grestore
gsave
/o {
gsave
newpath
translate
0.5 setlinewidth
1 setlinejoin
0 setlinecap
0 0 m
4 0 l
gsave
0.000 setgray
fill
grestore
stroke
grestore
} bind def
47.88 141 o
grestore
gsave
/o {
gsave
newpath
translate
0.5 setlinewidth
1 setlinejoin
0 setlinecap
0 0 m
-4 0 l
gsave
0.000 setgray
fill
grestore
stroke
grestore
} bind def
244.44 141 o
grestore
gsave
33.130000 139.343750 translate
0.000000 rotate
0.000000 0.000000 m /four glyphshow
3.817383 0.000000 m /zero glyphshow
7.634766 0.000000 m /zero glyphshow
grestore
gsave
/o {
gsave
newpath
translate
0.5 setlinewidth
1 setlinejoin
0 setlinecap
0 0 m
4 0 l
gsave
0.000 setgray
fill
grestore
stroke
grestore
} bind def
47.88 162 o
grestore
gsave
/o {
gsave
newpath
translate
0.5 setlinewidth
1 setlinejoin
0 setlinecap
0 0 m
-4 0 l
gsave
0.000 setgray
fill
grestore
stroke
grestore
} bind def
244.44 162 o
grestore
gsave
33.255000 160.343750 translate
0.000000 rotate
0.000000 0.000000 m /six glyphshow
3.817383 0.000000 m /zero glyphshow
7.634766 0.000000 m /zero glyphshow
grestore
gsave
20.442500 76.000000 translate
90.000000 rotate
/Cmmi10 findfont
8.0 scalefont
setfont
0.000000 0.921875 moveto
/v glyphshow

/BitstreamVeraSans-Roman findfont
8.0 scalefont
setfont
3.871094 0.921875 moveto
/space glyphshow

/Cmr10 findfont
5.6 scalefont
setfont
6.414062 -1.166125 moveto
/G glyphshow

10.805469 -1.166125 moveto
/S glyphshow

13.914453 -1.166125 moveto
/R glyphshow

/BitstreamVeraSans-Roman findfont
8.0 scalefont
setfont
18.035156 0.921875 moveto
/space glyphshow

20.578125 0.921875 moveto
/parenleft glyphshow

23.699219 0.921875 moveto
/k glyphshow

28.332031 0.921875 moveto
/m glyphshow

36.125000 0.921875 moveto
/slash glyphshow

38.695312 0.921875 moveto
/s glyphshow

42.863281 0.921875 moveto
/parenright glyphshow


grestore

end
showpage
