%!PS-Adobe-3.0 EPSF-3.0
%%Title: /Users/iuliasimion/bullock_johnston/denis_erkal/vasily/Figures/69684_1515571.0_rvr.eps
%%Creator: matplotlib version 1.4.3, http://matplotlib.org/
%%CreationDate: Sat Aug 19 14:41:44 2017
%%Orientation: portrait
%%BoundingBox: 180 306 432 486
%%EndComments
%%BeginProlog
/mpldict 10 dict def
mpldict begin
/m { moveto } bind def
/l { lineto } bind def
/r { rlineto } bind def
/c { curveto } bind def
/cl { closepath } bind def
/box {
m
1 index 0 r
0 exch r
neg 0 r
cl
} bind def
/clipbox {
box
clip
newpath
} bind def
%!PS-Adobe-3.0 Resource-Font
%%Title: Bitstream Vera Sans
%%Copyright: Copyright (c) 2003 by Bitstream, Inc. All Rights Reserved.
%%Creator: Converted from TrueType to type 3 by PPR
25 dict begin
/_d{bind def}bind def
/_m{moveto}_d
/_l{lineto}_d
/_cl{closepath eofill}_d
/_c{curveto}_d
/_sc{7 -1 roll{setcachedevice}{pop pop pop pop pop pop}ifelse}_d
/_e{exec}_d
/FontName /BitstreamVeraSans-Roman def
/PaintType 0 def
/FontMatrix[.001 0 0 .001 0 0]def
/FontBBox[-183 -236 1287 928]def
/FontType 3 def
/Encoding [ /space /parenleft /parenright /slash /zero /one /two /three /four /five /six /seven /k /m /s /minus ] def
/FontInfo 10 dict dup begin
/FamilyName (Bitstream Vera Sans) def
/FullName (Bitstream Vera Sans) def
/Notice (Copyright (c) 2003 by Bitstream, Inc. All Rights Reserved. Bitstream Vera is a trademark of Bitstream, Inc.) def
/Weight (Roman) def
/Version (Release 1.10) def
/ItalicAngle 0.0 def
/isFixedPitch false def
/UnderlinePosition -213 def
/UnderlineThickness 143 def
end readonly def
/CharStrings 16 dict dup begin
/space{318 0 0 0 0 0 _sc
}_d
/parenleft{390 0 86 -131 310 759 _sc
310 759 _m
266 683 234 609 213 536 _c
191 463 181 389 181 314 _c
181 238 191 164 213 91 _c
234 17 266 -56 310 -131 _c
232 -131 _l
183 -54 146 20 122 94 _c
98 168 86 241 86 314 _c
86 386 98 459 122 533 _c
146 607 182 682 232 759 _c
310 759 _l
_cl}_d
/parenright{390 0 80 -131 304 759 _sc
80 759 _m
158 759 _l
206 682 243 607 267 533 _c
291 459 304 386 304 314 _c
304 241 291 168 267 94 _c
243 20 206 -54 158 -131 _c
80 -131 _l
123 -56 155 17 177 91 _c
198 164 209 238 209 314 _c
209 389 198 463 177 536 _c
155 609 123 683 80 759 _c
_cl}_d
/slash{337 0 0 -92 337 729 _sc
254 729 _m
337 729 _l
83 -92 _l
0 -92 _l
254 729 _l
_cl}_d
/zero{636 0 66 -13 570 742 _sc
318 664 _m
267 664 229 639 203 589 _c
177 539 165 464 165 364 _c
165 264 177 189 203 139 _c
229 89 267 64 318 64 _c
369 64 407 89 433 139 _c
458 189 471 264 471 364 _c
471 464 458 539 433 589 _c
407 639 369 664 318 664 _c
318 742 _m
399 742 461 709 505 645 _c
548 580 570 486 570 364 _c
570 241 548 147 505 83 _c
461 19 399 -13 318 -13 _c
236 -13 173 19 130 83 _c
87 147 66 241 66 364 _c
66 486 87 580 130 645 _c
173 709 236 742 318 742 _c
_cl}_d
/one{636 0 110 0 544 729 _sc
124 83 _m
285 83 _l
285 639 _l
110 604 _l
110 694 _l
284 729 _l
383 729 _l
383 83 _l
544 83 _l
544 0 _l
124 0 _l
124 83 _l
_cl}_d
/two{{636 0 73 0 536 742 _sc
192 83 _m
536 83 _l
536 0 _l
73 0 _l
73 83 _l
110 121 161 173 226 239 _c
290 304 331 346 348 365 _c
380 400 402 430 414 455 _c
426 479 433 504 433 528 _c
433 566 419 598 392 622 _c
365 646 330 659 286 659 _c
255 659 222 653 188 643 _c
154 632 117 616 78 594 _c
78 694 _l
118 710 155 722 189 730 _c
223 738 255 742 284 742 _c
}_e{359 742 419 723 464 685 _c
509 647 532 597 532 534 _c
532 504 526 475 515 449 _c
504 422 484 390 454 354 _c
446 344 420 317 376 272 _c
332 227 271 164 192 83 _c
_cl}_e}_d
/three{{636 0 76 -13 556 742 _sc
406 393 _m
453 383 490 362 516 330 _c
542 298 556 258 556 212 _c
556 140 531 84 482 45 _c
432 6 362 -13 271 -13 _c
240 -13 208 -10 176 -4 _c
144 1 110 10 76 22 _c
76 117 _l
103 101 133 89 166 81 _c
198 73 232 69 268 69 _c
330 69 377 81 409 105 _c
441 129 458 165 458 212 _c
458 254 443 288 413 312 _c
383 336 341 349 287 349 _c
}_e{202 349 _l
202 430 _l
291 430 _l
339 430 376 439 402 459 _c
428 478 441 506 441 543 _c
441 580 427 609 401 629 _c
374 649 336 659 287 659 _c
260 659 231 656 200 650 _c
169 644 135 635 98 623 _c
98 711 _l
135 721 170 729 203 734 _c
235 739 266 742 296 742 _c
370 742 429 725 473 691 _c
517 657 539 611 539 553 _c
539 513 527 479 504 451 _c
481 423 448 403 406 393 _c
_cl}_e}_d
/four{636 0 49 0 580 729 _sc
378 643 _m
129 254 _l
378 254 _l
378 643 _l
352 729 _m
476 729 _l
476 254 _l
580 254 _l
580 172 _l
476 172 _l
476 0 _l
378 0 _l
378 172 _l
49 172 _l
49 267 _l
352 729 _l
_cl}_d
/five{{636 0 77 -13 549 729 _sc
108 729 _m
495 729 _l
495 646 _l
198 646 _l
198 467 _l
212 472 227 476 241 478 _c
255 480 270 482 284 482 _c
365 482 429 459 477 415 _c
525 370 549 310 549 234 _c
549 155 524 94 475 51 _c
426 8 357 -13 269 -13 _c
238 -13 207 -10 175 -6 _c
143 -1 111 6 77 17 _c
77 116 _l
106 100 136 88 168 80 _c
199 72 232 69 267 69 _c
}_e{323 69 368 83 401 113 _c
433 143 450 183 450 234 _c
450 284 433 324 401 354 _c
368 384 323 399 267 399 _c
241 399 214 396 188 390 _c
162 384 135 375 108 363 _c
108 729 _l
_cl}_e}_d
/six{{636 0 70 -13 573 742 _sc
330 404 _m
286 404 251 388 225 358 _c
199 328 186 286 186 234 _c
186 181 199 139 225 109 _c
251 79 286 64 330 64 _c
374 64 409 79 435 109 _c
461 139 474 181 474 234 _c
474 286 461 328 435 358 _c
409 388 374 404 330 404 _c
526 713 _m
526 623 _l
501 635 476 644 451 650 _c
425 656 400 659 376 659 _c
310 659 260 637 226 593 _c
}_e{192 549 172 482 168 394 _c
187 422 211 444 240 459 _c
269 474 301 482 336 482 _c
409 482 467 459 509 415 _c
551 371 573 310 573 234 _c
573 159 550 99 506 54 _c
462 9 403 -13 330 -13 _c
246 -13 181 19 137 83 _c
92 147 70 241 70 364 _c
70 479 97 571 152 639 _c
206 707 280 742 372 742 _c
396 742 421 739 447 735 _c
472 730 498 723 526 713 _c
_cl}_e}_d
/seven{636 0 82 0 551 729 _sc
82 729 _m
551 729 _l
551 687 _l
286 0 _l
183 0 _l
432 646 _l
82 646 _l
82 729 _l
_cl}_d
/k{579 0 91 0 576 760 _sc
91 760 _m
181 760 _l
181 311 _l
449 547 _l
564 547 _l
274 291 _l
576 0 _l
459 0 _l
181 267 _l
181 0 _l
91 0 _l
91 760 _l
_cl}_d
/m{{974 0 91 0 889 560 _sc
520 442 _m
542 482 569 511 600 531 _c
631 550 668 560 711 560 _c
767 560 811 540 842 500 _c
873 460 889 403 889 330 _c
889 0 _l
799 0 _l
799 327 _l
799 379 789 418 771 444 _c
752 469 724 482 686 482 _c
639 482 602 466 575 435 _c
548 404 535 362 535 309 _c
535 0 _l
445 0 _l
445 327 _l
445 379 435 418 417 444 _c
398 469 369 482 331 482 _c
}_e{285 482 248 466 221 435 _c
194 404 181 362 181 309 _c
181 0 _l
91 0 _l
91 547 _l
181 547 _l
181 462 _l
201 495 226 520 255 536 _c
283 552 317 560 357 560 _c
397 560 430 550 458 530 _c
486 510 506 480 520 442 _c
_cl}_e}_d
/s{{521 0 54 -13 472 560 _sc
443 531 _m
443 446 _l
417 458 391 468 364 475 _c
336 481 308 485 279 485 _c
234 485 200 478 178 464 _c
156 450 145 430 145 403 _c
145 382 153 366 169 354 _c
185 342 217 330 265 320 _c
296 313 _l
360 299 405 279 432 255 _c
458 230 472 195 472 151 _c
472 100 452 60 412 31 _c
372 1 316 -13 246 -13 _c
216 -13 186 -10 154 -5 _c
}_e{122 0 89 8 54 20 _c
54 113 _l
87 95 120 82 152 74 _c
184 65 216 61 248 61 _c
290 61 323 68 346 82 _c
368 96 380 117 380 144 _c
380 168 371 187 355 200 _c
339 213 303 226 247 238 _c
216 245 _l
160 257 119 275 95 299 _c
70 323 58 356 58 399 _c
58 450 76 490 112 518 _c
148 546 200 560 268 560 _c
301 560 332 557 362 552 _c
391 547 418 540 443 531 _c
}_e{_cl}_e}_d
/minus{838 0 106 272 732 355 _sc
106 355 _m
732 355 _l
732 272 _l
106 272 _l
106 355 _l
_cl}_d
end readonly def

/BuildGlyph
 {exch begin
 CharStrings exch
 2 copy known not{pop /.notdef}if
 true 3 1 roll get exec
 end}_d

/BuildChar {
 1 index /Encoding get exch get
 1 index /BuildGlyph get exec
}_d

FontName currentdict end definefont pop
%!PS-Adobe-3.0 Resource-Font
%%Title: cmr10
%%Copyright: Copyright (C) 1994, Basil K. Malyshev. All Rights Reserved.012BaKoMa Fonts Collection, Level-B.
%%Creator: Converted from TrueType to type 3 by PPR
25 dict begin
/_d{bind def}bind def
/_m{moveto}_d
/_l{lineto}_d
/_cl{closepath eofill}_d
/_c{curveto}_d
/_sc{7 -1 roll{setcachedevice}{pop pop pop pop pop pop}ifelse}_d
/_e{exec}_d
/FontName /Cmr10 def
/PaintType 0 def
/FontMatrix[.001 0 0 .001 0 0]def
/FontBBox[-44 -250 1009 750]def
/FontType 3 def
/Encoding [ /k /S /parenright /R /G /parenleft /c /p /r ] def
/FontInfo 10 dict dup begin
/FamilyName (cmr10) def
/FullName (cmr10) def
/Notice (Copyright (C) 1994, Basil K. Malyshev. All Rights Reserved.012BaKoMa Fonts Collection, Level-B. ) def
/Weight (Regular) def
/Version (1.1/12-Nov-94) def
/ItalicAngle 0.0 def
/isFixedPitch false def
/UnderlinePosition -133 def
/UnderlineThickness 20 def
end readonly def
/CharStrings 9 dict dup begin
/k{{527 0 26 0 511 694 _sc
26 0 _m
26 35 _l
48 35 67 36 82 40 _c
96 44 104 53 104 67 _c
104 592 _l
104 610 101 623 96 631 _c
90 639 83 643 73 645 _c
63 647 47 648 26 648 _c
26 683 _l
174 694 _l
174 219 _l
308 337 _l
321 349 328 361 328 372 _c
328 380 325 386 320 390 _c
314 394 308 396 300 396 _c
300 431 _l
488 431 _l
488 396 _l
}_e{442 396 397 376 352 337 _c
281 275 _l
408 94 _l
426 69 440 53 452 46 _c
464 38 483 35 511 35 _c
511 0 _l
312 0 _l
312 35 _l
334 35 346 42 346 56 _c
346 66 340 78 328 94 _c
232 231 _l
171 178 _l
171 67 _l
171 53 178 44 193 40 _c
207 36 226 35 249 35 _c
249 0 _l
26 0 _l
_cl}_e}_d
/S{{555 0 56 -21 499 705 _sc
56 -13 _m
56 219 _l
56 224 59 227 65 227 _c
77 227 _l
79 227 80 226 82 224 _c
84 222 85 221 85 219 _c
85 153 105 103 146 67 _c
186 31 239 13 305 13 _c
328 13 349 19 369 33 _c
388 46 403 63 414 85 _c
425 107 431 129 431 153 _c
431 173 427 192 419 211 _c
411 230 399 247 384 261 _c
368 275 351 284 332 289 _c
202 321 _l
}_e{159 332 124 355 97 391 _c
69 426 56 466 56 510 _c
56 544 64 577 82 607 _c
100 637 123 660 153 678 _c
183 696 215 705 250 705 _c
316 705 369 682 409 637 _c
450 702 _l
452 704 454 705 457 705 _c
464 705 _l
466 705 467 704 469 703 _c
471 701 472 699 472 697 _c
472 465 _l
472 459 469 456 464 456 _c
452 456 _l
446 456 443 459 443 465 _c
443 481 440 500 434 520 _c
}_e{428 540 421 560 411 578 _c
401 596 390 612 378 624 _c
346 656 303 673 250 673 _c
227 673 206 667 187 655 _c
167 643 152 628 141 608 _c
129 588 124 568 124 546 _c
124 517 132 491 150 468 _c
168 444 191 429 220 422 _c
350 390 _l
371 384 391 375 410 362 _c
429 348 445 333 458 315 _c
471 297 481 277 488 255 _c
495 233 499 210 499 187 _c
499 151 490 117 474 85 _c
}_e{457 53 434 27 404 8 _c
374 -11 341 -21 305 -21 _c
283 -21 260 -18 237 -13 _c
214 -8 193 -1 173 8 _c
153 18 136 31 120 47 _c
78 -18 _l
76 -20 73 -21 71 -21 _c
65 -21 _l
59 -21 56 -18 56 -13 _c
_cl}_e}_d
/parenright{{388 0 56 -249 291 750 _sc
65 -249 _m
59 -249 56 -246 56 -240 _c
56 -237 56 -235 58 -234 _c
172 -122 229 38 229 250 _c
229 462 172 623 60 733 _c
57 734 56 737 56 741 _c
56 743 57 745 59 747 _c
61 749 63 750 65 750 _c
74 750 _l
76 750 77 749 79 748 _c
127 710 167 664 199 610 _c
231 556 254 498 269 437 _c
283 376 291 314 291 250 _c
291 202 287 156 279 110 _c
}_e{271 64 258 20 241 -24 _c
223 -68 201 -108 175 -146 _c
148 -184 116 -217 79 -247 _c
77 -248 76 -249 74 -249 _c
65 -249 _l
_cl}_e}_d
/R{{736 0 33 -21 732 683 _sc
33 0 _m
33 35 _l
101 35 136 45 136 67 _c
136 616 _l
136 637 101 648 33 648 _c
33 683 _l
347 683 _l
384 683 423 676 465 663 _c
506 649 540 629 568 601 _c
596 573 610 540 610 502 _c
610 474 601 449 585 427 _c
568 405 546 386 520 372 _c
494 357 467 346 440 340 _c
470 329 496 312 518 290 _c
540 267 554 241 559 212 _c
573 123 _l
}_e{579 83 586 53 593 33 _c
600 13 616 4 641 4 _c
661 4 677 13 687 33 _c
697 52 703 73 703 96 _c
703 98 704 100 706 102 _c
708 104 710 105 713 105 _c
722 105 _l
728 105 732 100 732 92 _c
732 73 728 55 721 38 _c
713 20 703 6 690 -4 _c
676 -15 660 -21 642 -21 _c
594 -21 552 -9 518 14 _c
483 38 466 73 466 119 _c
466 208 _l
466 241 454 269 431 293 _c
}_e{407 317 379 329 346 329 _c
226 329 _l
226 67 _l
226 45 260 35 329 35 _c
329 0 _l
33 0 _l
226 355 _m
333 355 _l
388 355 430 366 459 388 _c
488 410 503 448 503 502 _c
503 555 488 593 460 615 _c
431 637 389 648 333 648 _c
277 648 _l
265 648 255 647 249 646 _c
242 645 236 642 232 638 _c
228 633 226 626 226 616 _c
226 355 _l
_cl}_e}_d
/G{{784 0 56 -21 735 705 _sc
230 107 _m
254 77 283 54 318 38 _c
352 21 389 13 427 13 _c
463 13 497 22 527 41 _c
557 60 573 87 573 122 _c
573 206 _l
573 227 531 238 448 238 _c
448 273 _l
735 273 _l
735 238 _l
713 238 696 236 684 232 _c
672 228 666 220 666 206 _c
666 9 _l
666 6 665 4 663 2 _c
661 0 659 0 657 0 _c
651 0 640 7 626 22 _c
}_e{611 36 600 49 592 61 _c
575 33 549 12 515 -1 _c
480 -14 444 -21 406 -21 _c
341 -21 282 -4 229 28 _c
175 61 133 106 102 162 _c
71 218 56 278 56 342 _c
56 389 65 435 83 479 _c
101 523 126 563 158 597 _c
190 631 227 657 270 676 _c
312 695 358 705 406 705 _c
440 705 473 697 504 683 _c
534 668 562 647 586 620 _c
644 702 _l
648 704 650 705 651 705 _c
658 705 _l
}_e{660 705 661 704 663 702 _c
665 700 666 699 666 697 _c
666 427 _l
666 421 663 418 658 418 _c
640 418 _l
634 418 631 421 631 427 _c
631 446 627 467 619 491 _c
611 515 602 537 590 559 _c
578 580 564 599 549 615 _c
511 651 468 670 420 670 _c
382 670 347 661 313 645 _c
279 628 251 605 228 576 _c
203 544 186 509 177 469 _c
167 429 163 387 163 342 _c
163 239 185 161 230 107 _c
}_e{_cl}_e}_d
/parenleft{{388 0 97 -249 332 750 _sc
310 -247 _m
272 -217 240 -184 214 -146 _c
187 -108 165 -67 148 -25 _c
131 17 118 62 110 109 _c
101 155 97 202 97 250 _c
97 298 101 345 110 392 _c
118 438 131 483 149 527 _c
166 570 188 611 215 649 _c
242 687 274 720 310 748 _c
310 749 311 750 315 750 _c
324 750 _l
326 750 327 749 329 747 _c
331 745 332 743 332 741 _c
332 738 331 736 330 735 _c
}_e{297 703 270 668 248 632 _c
226 596 209 557 196 516 _c
183 474 174 432 168 388 _c
162 344 159 298 159 250 _c
159 38 215 -122 329 -232 _c
331 -234 332 -236 332 -240 _c
332 -242 331 -244 329 -246 _c
327 -248 326 -249 324 -249 _c
315 -249 _l
311 -249 310 -248 310 -247 _c
_cl}_e}_d
/c{{444 0 33 -10 415 448 _sc
249 -10 _m
208 -10 171 0 139 21 _c
106 41 80 69 61 104 _c
42 139 33 176 33 216 _c
33 255 42 293 61 329 _c
79 365 105 393 138 415 _c
171 437 208 448 249 448 _c
288 448 324 440 356 425 _c
388 409 404 384 404 350 _c
404 337 399 326 390 316 _c
380 306 369 302 356 302 _c
342 302 331 306 322 316 _c
312 326 308 337 308 350 _c
}_e{308 362 311 372 319 381 _c
327 389 336 395 347 397 _c
324 411 292 419 250 419 _c
218 419 192 408 173 387 _c
153 365 140 339 132 308 _c
124 277 120 246 120 216 _c
120 183 124 152 134 122 _c
144 92 159 67 181 47 _c
202 27 229 18 261 18 _c
293 18 320 27 342 47 _c
364 66 379 91 387 123 _c
387 127 389 129 395 129 _c
407 129 _l
409 129 410 128 412 126 _c
}_e{414 124 415 122 415 120 _c
415 117 _l
405 77 385 46 355 24 _c
325 1 289 -10 249 -10 _c
_cl}_e}_d
/p{{555 0 26 -193 522 442 _sc
26 -193 _m
26 -158 _l
48 -158 67 -156 82 -152 _c
96 -148 104 -139 104 -126 _c
104 355 _l
104 373 97 384 84 389 _c
71 393 52 396 26 396 _c
26 431 _l
174 442 _l
174 380 _l
192 400 213 415 237 426 _c
261 436 287 442 315 442 _c
354 442 389 431 421 410 _c
453 388 477 360 495 326 _c
513 291 522 254 522 216 _c
522 175 512 137 492 103 _c
}_e{472 68 446 40 412 20 _c
378 0 340 -10 300 -10 _c
251 -10 210 9 177 48 _c
177 -126 _l
177 -139 184 -148 199 -152 _c
213 -156 232 -158 255 -158 _c
255 -193 _l
26 -193 _l
177 97 _m
188 73 204 54 225 38 _c
246 22 269 15 294 15 _c
317 15 337 21 355 33 _c
373 45 388 62 400 83 _c
412 104 420 126 426 149 _c
432 172 435 194 435 216 _c
435 242 430 271 420 302 _c
}_e{410 333 396 359 376 381 _c
356 402 333 413 305 413 _c
278 413 253 406 231 392 _c
208 378 190 360 177 336 _c
177 97 _l
_cl}_e}_d
/r{{391 0 26 0 364 442 _sc
26 0 _m
26 35 _l
48 35 67 36 82 40 _c
96 44 104 53 104 67 _c
104 340 _l
104 358 101 371 96 379 _c
90 387 83 391 73 393 _c
63 395 47 396 26 396 _c
26 431 _l
169 442 _l
169 344 _l
179 373 195 397 215 415 _c
235 433 259 442 287 442 _c
307 442 324 436 340 424 _c
356 412 364 397 364 378 _c
364 366 359 355 351 346 _c
}_e{342 337 331 333 319 333 _c
306 333 295 337 287 346 _c
278 354 274 365 274 378 _c
274 396 280 408 293 416 _c
287 416 _l
260 416 238 406 221 386 _c
203 366 191 342 184 314 _c
177 285 174 257 174 231 _c
174 67 _l
174 45 206 35 271 35 _c
271 0 _l
26 0 _l
_cl}_e}_d
end readonly def

/BuildGlyph
 {exch begin
 CharStrings exch
 2 copy known not{pop /.notdef}if
 true 3 1 roll get exec
 end}_d

/BuildChar {
 1 index /Encoding get exch get
 1 index /BuildGlyph get exec
}_d

FontName currentdict end definefont pop
%!PS-Adobe-3.0 Resource-Font
%%Title: cmmi10
%%Copyright: Copyright (C) 1994, Basil K. Malyshev. All Rights Reserved.012BaKoMa Fonts Collection, Level-B.
%%Creator: Converted from TrueType to type 3 by PPR
25 dict begin
/_d{bind def}bind def
/_m{moveto}_d
/_l{lineto}_d
/_cl{closepath eofill}_d
/_c{curveto}_d
/_sc{7 -1 roll{setcachedevice}{pop pop pop pop pop pop}ifelse}_d
/_e{exec}_d
/FontName /Cmmi10 def
/PaintType 0 def
/FontMatrix[.001 0 0 .001 0 0]def
/FontBBox[-34 -250 1048 750]def
/FontType 3 def
/Encoding [ /v ] def
/FontInfo 10 dict dup begin
/FamilyName (cmmi10) def
/FullName (cmmi10) def
/Notice (Copyright (C) 1994, Basil K. Malyshev. All Rights Reserved.012BaKoMa Fonts Collection, Level-B. ) def
/Weight (Regular) def
/Version (1.1/12-Nov-94) def
/ItalicAngle 0.0 def
/isFixedPitch false def
/UnderlinePosition -133 def
/UnderlineThickness 20 def
end readonly def
/CharStrings 1 dict dup begin
/v{{484 0 27 -10 467 443 _sc
107 113 _m
107 127 108 144 112 162 _c
116 180 119 194 123 206 _c
126 218 134 240 147 274 _c
160 307 167 324 167 326 _c
175 350 180 370 180 386 _c
180 406 172 416 158 416 _c
132 416 110 402 93 375 _c
75 347 63 317 55 284 _c
53 280 51 278 47 278 _c
35 278 _l
29 278 27 281 27 287 _c
27 290 _l
37 330 54 365 76 396 _c
}_e{98 426 126 442 160 442 _c
184 442 204 434 220 418 _c
236 402 245 383 245 359 _c
245 346 242 333 237 320 _c
223 286 213 258 206 238 _c
198 218 191 195 185 170 _c
179 144 176 121 176 100 _c
176 75 181 55 193 39 _c
204 23 222 15 247 15 _c
293 15 334 50 372 122 _c
384 145 395 172 405 203 _c
415 234 421 260 421 280 _c
421 300 417 315 411 327 _c
}_e{404 338 395 350 385 362 _c
375 374 370 383 370 391 _c
370 404 375 416 386 427 _c
396 437 408 443 422 443 _c
438 443 449 435 456 421 _c
463 406 467 389 467 371 _c
467 349 463 322 457 292 _c
451 261 442 229 431 196 _c
419 163 409 137 400 119 _c
356 33 304 -10 246 -10 _c
204 -10 170 0 145 21 _c
119 41 107 72 107 113 _c
_cl}_e}_d
end readonly def

/BuildGlyph
 {exch begin
 CharStrings exch
 2 copy known not{pop /.notdef}if
 true 3 1 roll get exec
 end}_d

/BuildChar {
 1 index /Encoding get exch get
 1 index /BuildGlyph get exec
}_d

FontName currentdict end definefont pop
end
%%EndProlog
mpldict begin
180 306 translate
252 180 0 0 clipbox
gsave
0 0 m
252 0 l
252 180 l
0 180 l
cl
1.000 setgray
fill
grestore
gsave
47.88 36 m
244.44 36 l
244.44 162 l
47.88 162 l
cl
1.000 setgray
fill
grestore
0.500 setlinewidth
1 setlinejoin
0 setlinecap
[] 0 setdash
0.000 setgray
gsave
196.6 126 47.88 36 clipbox
/o {
gsave
newpath
translate
0.5 setlinewidth
1 setlinejoin
0 setlinecap
0 -0.25 m
0.0663008 -0.25 0.129895 -0.223658 0.176777 -0.176777 c
0.223658 -0.129895 0.25 -0.0663008 0.25 0 c
0.25 0.0663008 0.223658 0.129895 0.176777 0.176777 c
0.129895 0.223658 0.0663008 0.25 0 0.25 c
-0.0663008 0.25 -0.129895 0.223658 -0.176777 0.176777 c
-0.223658 0.129895 -0.25 0.0663008 -0.25 0 c
-0.25 -0.0663008 -0.223658 -0.129895 -0.176777 -0.176777 c
-0.129895 -0.223658 -0.0663008 -0.25 0 -0.25 c
cl
gsave
0.000 setgray
fill
grestore
stroke
grestore
} bind def
91.7249 95.1451 o
103.099 101.192 o
108.288 108.075 o
103.769 90.0725 o
102.626 102.145 o
85.4574 105.547 o
81.4803 70.8923 o
81.3099 121.686 o
109.689 92.4105 o
112.365 89.8597 o
87.6418 110.927 o
106.984 90.0139 o
65.6612 76.0974 o
102.947 96.9921 o
104.546 114.231 o
76.6194 87.6756 o
77.9471 116.86 o
103.775 83.948 o
102.881 98.7417 o
90.878 80.5864 o
104.189 85.307 o
110.59 91.1644 o
113.083 89.7458 o
105.079 83.9175 o
55.3875 82.8334 o
92.0014 107.069 o
100.943 88.4292 o
107.779 85.2641 o
94.4374 95.1794 o
110.684 86.068 o
108.271 96.5395 o
102.286 101.596 o
106.697 110.953 o
101.513 106.672 o
98.973 94.2732 o
105.465 96.5948 o
83.5565 124.398 o
113.683 98.6023 o
71.9295 131.954 o
65.6453 72.7592 o
92.7551 87.0064 o
107.668 100.032 o
89.0546 93.6829 o
109.057 90.0119 o
93.6916 99.328 o
105.938 110.235 o
98.6216 84.1474 o
105.172 83.5306 o
66.2513 102.757 o
106.383 103.885 o
86.1572 115.229 o
107.328 96.3106 o
96.0384 119.174 o
107.153 91.722 o
80.1713 129.109 o
113.095 106.298 o
99.6542 120.133 o
117.791 92.6147 o
107.902 93.9022 o
108.767 96.1349 o
75.0412 116.266 o
80.0085 86.0107 o
58.8725 124.405 o
100.163 106.342 o
56.8917 68.9802 o
69.0999 126.282 o
93.6861 96.4134 o
82.539 91.0533 o
74.3913 81.2039 o
67.9267 109.522 o
113.955 86.1877 o
76.4264 105.107 o
106.598 94.1956 o
110.498 101.528 o
85.477 103.149 o
112.188 105.825 o
83.8294 123.62 o
83.8251 89.4277 o
116.65 95.2356 o
68.6364 140.708 o
70.9563 99.5004 o
63.3136 127.038 o
88.1531 91.8168 o
98.7708 105.188 o
101.467 103.198 o
92.3499 97.5288 o
84.1637 122.481 o
73.1607 117.112 o
93.9602 103.662 o
72.4309 134.834 o
106.838 84.7792 o
66.5264 104.947 o
101.019 97.1921 o
118.475 92.5835 o
103.933 92.2778 o
69.3469 72.7248 o
88.1865 109.81 o
85.848 90.5669 o
92.5676 112.277 o
69.8327 124.948 o
86.9814 85.9279 o
113.988 98.6907 o
88.0844 104.174 o
92.9911 79.4903 o
94.3379 113.873 o
102.923 87.9812 o
111.564 107.201 o
86.7367 114.68 o
71.8936 85.0289 o
110.228 113.424 o
62.8616 100.444 o
91.6618 112.175 o
104.863 109.041 o
98.1502 105.212 o
101.725 81.1762 o
92.7567 110.286 o
85.5836 90.1745 o
109.865 86.0817 o
100.46 104.036 o
113.591 104.189 o
78.5658 91.653 o
75.3285 81.6813 o
68.3416 81.2536 o
79.0447 131.783 o
68.9305 111.974 o
108.002 106.574 o
76.4537 98.8296 o
102.315 92.4163 o
91.6326 99.693 o
108.703 86.79 o
94.2196 118.04 o
77.5504 105.896 o
69.3504 111.984 o
64.5457 80.3825 o
114.175 90.3598 o
59.0413 79.0492 o
66.745 78.6161 o
117.035 87.4871 o
82.2892 113.231 o
75.3161 135.503 o
107.673 82.1025 o
86.0993 101.301 o
104.746 106.476 o
62.0173 101.347 o
65.5504 70.1761 o
112.868 91.7197 o
68.573 134.632 o
86.8092 84.4583 o
79.4267 109.309 o
66.8171 114.726 o
107.666 109.993 o
71.432 69.4765 o
111.964 81.3539 o
110.091 91.1339 o
84.2601 118.654 o
84.7299 111.088 o
63.85 85.9783 o
110.415 84.2494 o
88.084 114.018 o
67.1175 118.862 o
113.977 87.9197 o
68.9604 103.749 o
105.929 101.492 o
99.7405 104.242 o
108.622 86.4366 o
99.6316 117.667 o
97.3421 93.8332 o
103.8 102.317 o
89.3626 103.362 o
84.9739 103.407 o
94.5933 118.084 o
78.6659 111.736 o
120.602 107.212 o
94.0908 102.022 o
93.658 106.728 o
114.774 112.044 o
88.9988 86.3233 o
87.6031 97.6892 o
87.2945 112.177 o
82.572 118.012 o
73.3556 87.2224 o
90.4304 78.8388 o
76.8204 113.405 o
84.9612 87.1923 o
85.3032 111.947 o
110.056 87.4976 o
83.9988 81.5104 o
112.95 86.3464 o
103.98 87.2148 o
69.8081 128.37 o
66.9433 79.213 o
106.671 97.7496 o
110.714 83.5885 o
108.922 90.1271 o
61.5484 137.905 o
98.6083 101.876 o
72.1415 70.4052 o
107.059 90.8894 o
102.405 88.602 o
109.645 111.067 o
111.291 104.662 o
104.253 99.4261 o
109.25 100.153 o
80.2247 75.3618 o
62.6578 94.6296 o
88.4717 102.411 o
96.5099 111.327 o
55.6768 123.767 o
87.8837 93.9941 o
85.3825 119.636 o
75.442 70.4564 o
122.206 101.154 o
85.5404 111.828 o
74.8076 99.8111 o
92.2872 101.788 o
97.8851 98.7777 o
88.7804 94.1528 o
75.8959 70.2967 o
89.3766 96.7563 o
104.65 89.4465 o
61.7557 125.236 o
76.7066 76.0452 o
82.1185 89.1967 o
111.414 87.5291 o
61.644 95.2796 o
110.646 87.0732 o
87.0749 103.349 o
110.573 97.3007 o
71.1025 110.042 o
93.5107 114.794 o
111.752 87.4104 o
90.192 87.3925 o
91.6912 84.2294 o
105.343 90.0081 o
94.7321 92.5017 o
59.5096 55.803 o
70.1268 88.4262 o
100.589 110.209 o
102.589 87.8616 o
63.5544 83.2278 o
114.555 109.316 o
97.2698 103.965 o
93.6475 123.459 o
104.518 84.8498 o
105.023 100.145 o
105.579 83.7378 o
107.034 85.9858 o
102.412 99.561 o
97.1025 109.185 o
86.6252 113.366 o
104.808 98.5697 o
101.982 97.8975 o
91.099 108.703 o
95.7608 116.922 o
88.7134 71.1933 o
82.425 112.532 o
99.5989 92.8062 o
114.708 92.7894 o
57.8705 127.359 o
108.242 96.0835 o
99.2974 75.5092 o
97.7394 112.006 o
73.0179 116.586 o
110.941 87.7145 o
98.0801 108.458 o
73.9755 90.5079 o
78.4336 89.0752 o
86.2344 95.664 o
98.9632 87.6438 o
103.231 88.5748 o
89.9154 109.063 o
87.1931 68.3769 o
110.785 94.1025 o
60.6763 86.4444 o
85.6348 111.109 o
92.3565 101.059 o
99.4706 97.5127 o
81.9301 88.6695 o
108.745 90.0711 o
100.067 112.801 o
68.302 132.98 o
110.145 89.7069 o
79.0261 101.588 o
114.721 82.6705 o
99.4989 105.102 o
89.8658 91.3921 o
67.4272 109.241 o
82.4348 100.341 o
92.804 75.0614 o
87.2209 107.35 o
79.3236 127.173 o
101.63 91.4545 o
66.2069 56.9531 o
123.232 106.655 o
117.626 105.065 o
60.1633 132.932 o
86.8851 80.3516 o
75.8422 88.5613 o
62.993 121.127 o
85.0295 89.062 o
109.915 93.4401 o
72.6931 135.049 o
104.36 101.202 o
117.3 103.527 o
61.3407 80.4865 o
93.062 118.853 o
115.205 95.6782 o
67.4746 68.2946 o
112.75 109.097 o
90.5323 96.3333 o
64.9432 82.4977 o
92.5841 120.623 o
86.0068 72.5551 o
88.1775 104.661 o
69.4584 114.178 o
118.091 106.19 o
86.3335 88.2289 o
85.6146 109.233 o
58.1477 106.642 o
108.014 85.0338 o
115.421 106.068 o
113.756 87.2151 o
85.9211 81.0242 o
110.447 93.4058 o
127.845 111.184 o
101.044 94.0144 o
114.225 113.554 o
80.1176 74.0272 o
89.0808 74.9396 o
79.1539 81.3709 o
86.0188 103.824 o
107.65 92.932 o
65.4095 93.0341 o
115.109 87.9074 o
87.5668 90.2246 o
85.3323 103.514 o
109.657 95.0197 o
107.257 88.6438 o
100.864 113.854 o
108.503 99.6443 o
117.873 104.569 o
107.76 81.205 o
90.7165 93.6342 o
87.6184 96.1164 o
104.024 101.517 o
102.329 86.3435 o
74.3345 103.651 o
102.33 96.5111 o
62.8542 67.4316 o
85.6391 100.526 o
95.7789 89.9016 o
91.0564 94.0417 o
70.0727 111.722 o
59.9023 78.3678 o
88.1543 106.735 o
84.5569 118.813 o
58.9893 111.143 o
86.5235 110.358 o
95.2081 116.576 o
77.4095 93.533 o
72.9264 105.814 o
71.1307 76.0346 o
117.007 90.5482 o
105.641 78.7659 o
67.8978 72.0697 o
86.0689 90.8417 o
101.292 116.095 o
104.925 96.3353 o
115.808 108.626 o
94.0186 86.0594 o
105.073 115.154 o
68.9557 99.5351 o
106.648 89.2916 o
107.756 92.9604 o
113.121 103.717 o
115.05 101.542 o
68.8222 137.403 o
104.981 96.5632 o
94.5094 121.041 o
94.833 91.3083 o
114.426 98.0678 o
56.5718 114.158 o
116.634 104.39 o
135.875 95.6147 o
85.8409 83.1505 o
105.962 121.702 o
90.1763 83.9663 o
64.1744 116.201 o
105.985 95.9383 o
103.501 100.733 o
92.2991 94.1034 o
88.1994 112.552 o
79.5346 117.027 o
73.0736 79.0917 o
79.1787 103.395 o
74.531 98.7123 o
121.731 83.7785 o
113.611 87.0446 o
85.2207 79.0905 o
91.8834 88.7215 o
75.0716 104.725 o
85.7219 111.175 o
101.007 86.9557 o
74.6641 77.1742 o
66.9333 125.626 o
118.621 95.2723 o
64.0191 98.7557 o
60.6141 79.0576 o
98.9623 105.437 o
85.9507 88.1935 o
92.0621 119.563 o
93.2506 86.398 o
88.6355 121.207 o
105.688 106.008 o
93.532 80.8219 o
64.6549 136.544 o
84.8865 84.5369 o
81.8908 117.186 o
139.855 88.5921 o
63.7884 81.5039 o
74.9289 117.776 o
59.3637 120.117 o
98.7734 81.5971 o
104.615 113.368 o
89.3781 111.529 o
87.3607 96.8882 o
82.5609 106.088 o
95.5778 124.542 o
73.1178 121.952 o
112.669 112.516 o
79.7749 67.4846 o
123.364 81.7984 o
124.26 80.7964 o
110.133 81.3566 o
80.4332 119.196 o
92.7505 116.555 o
64.0248 128.563 o
70.7636 92.2107 o
91.139 85.4036 o
63.9866 117.961 o
125.858 106.81 o
86.512 83.6859 o
73.0881 104.27 o
62.6429 137.875 o
92.8293 117.681 o
81.8238 122.23 o
72.8881 135.599 o
93.8348 81.6218 o
76.1587 70.2027 o
73.5119 92.4421 o
109.251 81.8519 o
106.887 103.647 o
100.582 116.677 o
115.456 86.5165 o
115.307 112.06 o
95.0733 94.6239 o
87.968 99.3685 o
82.6595 75.2039 o
97.5419 80.4794 o
113.186 93.1344 o
67.7986 62.8437 o
115.306 90.5513 o
94.771 98.1799 o
92.4163 87.5093 o
83.4576 90.5064 o
121.071 93.0456 o
55.966 54.3108 o
113.965 110.941 o
106.304 94.1954 o
66.3472 60.1468 o
58.9531 127.534 o
76.2192 98.6451 o
126.302 111.361 o
99.5598 104.062 o
67.4866 80.6978 o
102.655 97.926 o
80.9512 84.6245 o
80.3672 124.212 o
76.9269 91.168 o
86.9378 105.245 o
102.44 107.177 o
103.837 114.976 o
68.5695 65.6138 o
73.2807 134.975 o
111.045 97.6391 o
100.913 103.101 o
71.9488 105.237 o
95.7718 89.3089 o
75.3417 75.5447 o
111.641 108.996 o
116.651 99.6763 o
80.654 86.7223 o
95.4067 85.5767 o
80.3092 103.804 o
83.9069 86.1955 o
73.8958 136.997 o
88.6611 119.006 o
65.5264 107.903 o
93.218 96.0775 o
66.2879 68.4859 o
105.734 104.365 o
106.033 102.521 o
131.586 82.825 o
76.1846 100.55 o
77.4655 109.371 o
113.411 88.5041 o
90.3909 71.9845 o
75.3943 96.2158 o
57.2025 88.6101 o
59.6887 100.144 o
91.16 71.6248 o
116.838 97.4293 o
107.009 95.4102 o
116.987 89.4501 o
68.8729 89.2739 o
63.6474 133.022 o
74.2327 132.662 o
82.2651 85.1295 o
118.842 112.399 o
88.043 104.766 o
107.603 118.705 o
55.8294 102.384 o
68.4546 128.734 o
73.0957 107.395 o
82.1007 108.262 o
100.234 76.5206 o
65.638 116.003 o
100.109 87.3806 o
68.3932 93.2686 o
70.7212 112.447 o
102.954 79.1033 o
92.2156 112.426 o
108.591 101.396 o
70.4774 83.2643 o
93.2795 106.934 o
56.5902 107.126 o
110.395 102.596 o
66.9332 108.356 o
112.503 115.747 o
96.9748 83.1949 o
88.6661 89.7611 o
86.0342 105.372 o
133.154 103.862 o
64.2265 133.349 o
108.896 78.8605 o
99.7601 81.6699 o
69.2794 61.3359 o
87.7147 85.4536 o
109.043 100.222 o
94.7371 114.566 o
72.2073 120.929 o
79.6422 83.8743 o
59.2511 141.062 o
113.723 89.4011 o
83.707 88.912 o
102.356 79.6835 o
83.2134 93.2215 o
72.1353 112.587 o
94.2714 94.3549 o
93.4206 88.0302 o
81.943 82.2532 o
124.555 114.804 o
105.991 119.004 o
76.4529 93.8171 o
111.88 91.8566 o
67.5984 78.5606 o
65.5007 122.122 o
72.2762 92.2977 o
110.805 103.744 o
81.809 121.884 o
115.437 85.0007 o
86.1306 86.0575 o
106.713 111.716 o
61.3759 56.8602 o
105.872 97.009 o
115.948 91.1998 o
76.4853 64.2079 o
109.062 98.0746 o
110.423 108.987 o
115.407 101.781 o
62.8906 99.2481 o
72.263 84.2077 o
81.5277 120.125 o
103.32 85.0929 o
83.5092 108.484 o
104.711 116.26 o
109.471 92.217 o
77.733 72.303 o
115.517 112.376 o
111.895 87.9382 o
100.978 108.697 o
60.0663 88.7584 o
109.905 113.547 o
92.8288 106.683 o
87.4806 79.402 o
141.08 95.0435 o
85.5637 118.771 o
90.7997 85.1705 o
87.7953 108.588 o
104.424 98.5897 o
81.9511 67.2818 o
110.27 92.2572 o
67.1474 66.9922 o
80.5134 68.5062 o
86.1713 114.505 o
110.573 114.735 o
88.655 89.4696 o
91.8536 86.7629 o
111.654 120.997 o
96.0637 110.3 o
74.5467 91.1361 o
103.229 107.496 o
93.038 92.0814 o
75.7813 77.6826 o
98.468 76.0254 o
71.415 63.7196 o
77.1107 90.5367 o
76.5723 123.66 o
116.61 107.892 o
76.4848 122.099 o
86.2953 92.4062 o
80.8308 93.7582 o
103.476 117.063 o
101.609 93.6924 o
69.1736 91.85 o
102.608 82.1514 o
91.8618 98.7349 o
87.5349 110.037 o
91.5597 92.8524 o
65.9681 79.1914 o
74.2955 121.911 o
133.585 98.9163 o
70.9062 62.1564 o
91.9148 113.371 o
115.5 106.376 o
90.1866 96.2634 o
65.8237 90.3057 o
127.319 113.149 o
82.3235 117.364 o
106.89 84.5904 o
78.1433 95.3082 o
78.4273 88.0373 o
80.2943 81.4915 o
119.907 105.464 o
96.841 105.349 o
87.0459 72.4661 o
94.4193 105.647 o
108.255 95.8076 o
95.5584 79.6897 o
88.3189 85.4491 o
142.733 103.724 o
60.26 68.8148 o
65.6322 107.775 o
98.4063 121.303 o
86.5791 109.373 o
113.453 101.81 o
92.862 94.8238 o
95.014 85.5941 o
112.617 98.7472 o
92.32 92.9185 o
95.8309 118.489 o
75.047 123.62 o
142.649 109.355 o
117.389 117.478 o
72.9368 111.21 o
57.8968 65.2533 o
83.6697 115.32 o
104.026 117.273 o
95.0836 100.052 o
64.2133 102.114 o
77.2197 102.746 o
95.3421 81.2263 o
79.9243 96.3787 o
89.8397 93.0122 o
85.8743 110.272 o
79.3674 121.05 o
71.5455 69.4861 o
62.2843 112.318 o
133.538 83.8896 o
114.43 92.0021 o
68.6163 81.4996 o
83.5924 106.918 o
99.7266 81.8346 o
54.3016 90.8075 o
65.8955 63.192 o
102.959 107.077 o
79.5503 105.8 o
74.7673 92.1782 o
79.3683 87.83 o
81.866 70.4125 o
78.4866 130.292 o
88.3936 88.9436 o
103.386 101.393 o
74.8114 132.913 o
65.356 114.017 o
88.1083 81.5564 o
71.9856 116.274 o
103.204 109.538 o
78.8838 98.6558 o
102.923 84.4777 o
114.597 94.7421 o
106.43 116.412 o
110.538 94.4484 o
81.5121 98.6496 o
67.1694 118.422 o
117.579 97.3974 o
127.935 109.11 o
55.689 88.2115 o
85.4311 73.1884 o
98.9899 88.3265 o
73.0301 127.398 o
91.7353 70.6878 o
79.3977 74.11 o
110.199 89.4808 o
88.7612 75.5454 o
87.0033 74.6257 o
72.5386 116.376 o
101.726 101.834 o
99.5043 87.3886 o
81.563 94.9824 o
95.4734 126.364 o
63.436 136.224 o
102.356 110.234 o
80.3046 71.2106 o
80.7537 74.0687 o
87.1743 69.0901 o
106.395 110.649 o
112.732 116.723 o
99.3786 112.617 o
74.4159 97.2364 o
87.9831 124.592 o
83.4163 95.1636 o
65.4412 117.943 o
77.0872 119.532 o
114.532 85.336 o
87.4401 123.03 o
110.551 95.3787 o
95.5431 90.7415 o
96.0622 108.747 o
91.5803 92.6549 o
88.2503 105.981 o
111.468 112.958 o
77.4418 66.6902 o
97.8002 120.014 o
66.9404 123.391 o
88.5755 87.7319 o
81.7517 110.243 o
85.6033 117.865 o
72.1884 71.1079 o
84.1774 109.845 o
97.3249 125.649 o
75.1926 78.7881 o
113.07 113.539 o
75.3115 109.711 o
78.4078 105.833 o
72.6277 122.27 o
94.4989 92.4155 o
100.611 97.6855 o
106.505 111.657 o
118.349 76.8748 o
70.5379 122.932 o
71.2301 127.929 o
89.5764 72.9548 o
91.6063 83.5749 o
74.3892 104.531 o
119.042 110.049 o
138.722 95.4814 o
101.031 87.5739 o
62.5587 87.295 o
115.598 103.597 o
71.4643 104.534 o
112.095 85.3412 o
65.0164 125.304 o
99.4393 114.364 o
70.2233 130.463 o
124.653 83.7868 o
87.2441 129.476 o
83.0297 89.5857 o
84.9166 108.418 o
84.9755 72.0863 o
87.492 100.39 o
104.59 96.5947 o
89.3131 106.118 o
61.5051 125.404 o
86.1315 79.235 o
90.9148 123.938 o
91.6525 113.841 o
121.496 81.1984 o
69.9268 120.141 o
115.251 106.913 o
87.0873 98.645 o
91.9725 92.0722 o
110.941 100.994 o
88.6097 91.2445 o
77.8405 89.5776 o
93.7341 71.7906 o
84.5509 86.4008 o
69.8106 89.9364 o
95.2263 101.062 o
56.3821 63.0512 o
73.4586 119.558 o
84.1807 109.449 o
91.4014 104.279 o
70.5884 78.2528 o
85.1038 89.4496 o
70.0336 77.6002 o
86.4963 129.409 o
80.393 101.216 o
113.252 81.9711 o
94.7988 103.264 o
91.8751 96.7535 o
103.05 102.349 o
61.7874 127.681 o
59.6306 140.173 o
85.7741 96.9299 o
66.5189 87.3216 o
117.625 93.1149 o
130.796 81.151 o
105.616 102.221 o
74.0049 110.19 o
87.8609 97.5409 o
92.9568 77.4328 o
74.4206 98.2213 o
116.668 88.2632 o
106.634 107.964 o
68.4228 113.817 o
86.4346 99.3835 o
117.503 93.8771 o
54.9871 78.7278 o
78.8635 110.955 o
114.236 113.278 o
60.3026 111.18 o
122.887 91.789 o
113.092 92.0587 o
97.2713 78.9868 o
117.834 85.2274 o
61.059 125.044 o
85.2208 98.2048 o
74.9107 114.917 o
113.824 94.4927 o
113.049 105.724 o
73.4521 119.811 o
96.1943 80.4183 o
120.341 111.569 o
91.9703 103.769 o
116.22 86.7415 o
114.895 88.6911 o
87.0476 94.5191 o
102.784 115.003 o
115.602 99.3994 o
88.0382 72.6081 o
92.1547 106.876 o
110.827 113.515 o
120.6 86.7404 o
94.8469 111.611 o
104.886 87.3692 o
91.5697 110.94 o
77.7243 78.0952 o
80.7129 73.3745 o
109.667 81.1775 o
91.9968 109.438 o
101.167 114.679 o
91.4108 117.785 o
108.292 90.3564 o
62.6072 132.321 o
103.247 117.099 o
93.4331 105.788 o
95.2304 92.2615 o
109.526 95.5752 o
92.6817 101.337 o
74.5572 131.39 o
79.4167 94.2981 o
93.0976 95.0267 o
90.8878 115.813 o
95.1937 87.4257 o
63.2834 73.7417 o
89.2582 83.7422 o
113.413 113.248 o
114.478 101.718 o
58.0546 94.6009 o
92.5175 108.539 o
103.573 101.355 o
93.9663 90.5602 o
117.22 104.651 o
71.1183 111.466 o
107.158 79.7773 o
90.0406 92.7114 o
61.445 118.064 o
69.2775 86.0304 o
83.1759 92.6138 o
91.3801 111.432 o
109.486 98.2481 o
104.133 105.728 o
90.0341 84.3408 o
81.4989 115.301 o
58.2617 49.6354 o
108.338 110.464 o
121.623 115.085 o
90.3776 125.987 o
67.5429 123.431 o
100.054 100.139 o
76.29 102.512 o
89.4446 93.2923 o
72.348 72.517 o
70.8783 121.202 o
76.8417 110.259 o
103.108 83.6585 o
100.321 119.359 o
102.137 97.2982 o
86.4926 111.994 o
64.9357 138.175 o
159.556 97.36 o
73.5825 114.145 o
95.5415 86.8942 o
85.3109 103.828 o
60.1343 137.406 o
108.471 102.731 o
90.9757 90.3621 o
90.7279 92.2542 o
77.0673 83.1729 o
77.4664 125.889 o
88.6935 95.8912 o
94.0903 94.9509 o
125.681 91.8811 o
118.781 77.5912 o
79.0406 81.4662 o
85.5891 108.013 o
122.754 90.297 o
72.8519 105.846 o
100.498 100.829 o
105.057 89.3428 o
88.7989 117.709 o
84.4462 69.7406 o
81.9169 110.964 o
79.2769 63.9482 o
93.6526 117.141 o
93.8221 86.3234 o
89.6192 110.017 o
93.9731 118.05 o
92.7591 76.8307 o
88.7548 85.835 o
107.976 88.6237 o
123.16 98.6201 o
71.7093 115.479 o
116.784 87.7004 o
87.47 88.352 o
108.203 117.1 o
92.1008 113.95 o
84.2734 120.089 o
92.2599 116.038 o
94.2848 109.429 o
65.3165 75.5413 o
75.5363 99.097 o
113.511 112.267 o
69.381 72.8026 o
84.8873 84.3499 o
87.9175 101.968 o
92.4047 105.699 o
219.031 100.791 o
93.0278 103.541 o
93.8161 78.4591 o
89.2704 100.001 o
74.4955 90.5054 o
66.0582 100.85 o
65.6759 74.5494 o
79.8826 80.6806 o
89.4222 90.9513 o
98.9196 110.322 o
98.8272 78.1494 o
103.399 112.504 o
70.1239 117.803 o
116.385 111.425 o
113.53 110.048 o
70.2167 63.0415 o
75.6531 98.9338 o
61.1188 88.585 o
108.639 112.497 o
82.5177 89.9221 o
104.359 84.036 o
99.372 76.7895 o
118.729 101.248 o
80.4353 114.008 o
104.309 74.7665 o
115.006 101.283 o
80.9829 114.375 o
88.1469 116.014 o
90.2945 112.595 o
123.846 79.6026 o
63.4549 58.2476 o
94.5531 91.1343 o
103.315 117.555 o
81.7125 113.572 o
120.45 95.2924 o
95.8614 87.0042 o
117.724 111.651 o
100.47 92.6504 o
66.1384 128.295 o
80.3456 103.372 o
113.173 107.825 o
114.6 109.107 o
87.2531 86.8156 o
113.03 109.321 o
117.88 90.9072 o
87.6924 88.8253 o
85.6586 86.7989 o
118.462 90.0793 o
63.1508 81.32 o
70.3068 74.2228 o
83.6781 93.7466 o
49.9566 85.8578 o
75.446 105.73 o
79.0936 93.3057 o
96.8501 75.8487 o
74.0338 115.845 o
108.245 94.7915 o
152.281 88.2245 o
129.938 113.533 o
69.4683 131.983 o
91.7857 100.522 o
89.3886 106.004 o
112.139 100.657 o
79.1186 112.62 o
76.2199 70.4705 o
76.9299 67.0164 o
83.78 98.1371 o
78.2435 89.664 o
123.909 97.6734 o
81.2607 109.372 o
86.0003 123.721 o
64.6961 104.057 o
110.663 83.3785 o
90.6763 74.8694 o
99.0425 114.575 o
82.5885 125.937 o
86.546 84.2203 o
86.0305 66.6508 o
102.769 92.5676 o
90.9056 88.3859 o
105.148 84.1887 o
104.548 89.5524 o
91.5463 85.3259 o
73.8795 122.992 o
69.6724 59.7553 o
95.4246 99.4609 o
75.5735 106.125 o
82.4222 73.5513 o
104.662 114.41 o
79.4431 84.2016 o
81.298 109.652 o
96.8427 113.406 o
112.808 117.136 o
68.4681 93.4808 o
70.2746 120.162 o
112.145 103.712 o
98.9268 101.017 o
103.989 110.722 o
96.3792 77.6725 o
107.284 72.5526 o
83.9276 82.0338 o
83.8213 107.377 o
74.0602 136.339 o
65.3289 97.2927 o
62.0639 67.4491 o
76.7543 95.3588 o
105.433 116.447 o
94.3063 94.5876 o
113.294 110.547 o
97.7096 85.8347 o
98.3297 124.978 o
64.5794 134.798 o
125.002 80.8176 o
122.079 78.7396 o
64.1801 123.246 o
74.8961 123.123 o
82.6771 80.0097 o
101.064 95.1037 o
107.001 106.227 o
83.2366 76.7657 o
75.3687 84.7106 o
76.7884 119.789 o
116.919 101.241 o
91.4482 114.547 o
85.7167 95.6613 o
92.6823 74.7275 o
111.078 96.5279 o
77.1821 98.7585 o
66.2168 61.42 o
56.9276 96.6337 o
84.516 121.771 o
81.3163 99.9231 o
88.0782 85.5221 o
70.9553 123.59 o
72.2539 94.4446 o
107.996 93.7561 o
73.2061 91.5936 o
76.9127 66.4501 o
63.5776 100.699 o
94.0024 97.3492 o
84.184 89.9199 o
121.885 97.2398 o
64.2515 107.789 o
117.839 97.9437 o
62.6383 108.135 o
94.9124 77.478 o
66.2463 62.9249 o
60.6362 94.5409 o
82.8674 108.413 o
91.2038 100.827 o
122.451 117.141 o
88.7278 87.3286 o
93.5849 125.949 o
72.1091 120.546 o
102.482 107.404 o
89.4808 109.915 o
92.1997 120.687 o
119.278 106.273 o
108.703 89.4451 o
120.735 98.54 o
68.9648 67.6606 o
78.0784 86.4149 o
110.574 91.3309 o
84.8316 119.488 o
87.7216 90.7997 o
71.5382 103.404 o
89.8862 90.2419 o
63.112 135.96 o
71.7827 111.358 o
108.289 85.4512 o
103.239 86.024 o
121.358 106.822 o
117.54 93.4654 o
86.8588 102.103 o
63.2075 69.3269 o
67.3555 85.5236 o
76.651 84.709 o
81.1247 109.471 o
80.8202 117.169 o
89.7571 99.6953 o
75.784 82.353 o
94.5749 74.0137 o
107.517 96.9433 o
76.1619 112.392 o
74.3507 110.827 o
88.8793 92.5119 o
56.5649 124.297 o
114.35 84.7593 o
105.825 79.8279 o
89.0716 96.5925 o
112.693 79.5077 o
114.779 85.2891 o
85.2356 113.57 o
87.9211 94.9117 o
109.46 106.177 o
62.4386 74.0936 o
86.8926 86.2742 o
99.6891 106.608 o
71.5142 72.5406 o
92.5347 98.0089 o
113.264 81.1354 o
86.5668 91.7727 o
86.3694 105.164 o
88.6919 97.7137 o
95.1156 108.303 o
88.4061 114.803 o
124.871 101.387 o
78.2815 93.395 o
57.2808 48.3618 o
140.695 108.295 o
84.7478 69.3165 o
66.7246 77.6517 o
111.108 88.0243 o
76.505 102.068 o
113.735 99.126 o
101.284 94.5193 o
91.8539 107.064 o
93.6026 111.646 o
64.4004 69.2065 o
118.189 97.6803 o
88.3193 104.755 o
83.5604 112.515 o
81.7031 88.8069 o
111.325 103.286 o
83.4809 115.989 o
82.8384 110.829 o
90.5907 91.7815 o
97.7907 124.487 o
83.4642 117.418 o
101.527 81.5914 o
103.317 84.2317 o
111.379 80.404 o
102.178 110.902 o
64.8179 132.917 o
61.557 73.6111 o
81.6537 92.4245 o
115.047 115.881 o
86.5764 99.7431 o
88.5012 102.049 o
135.293 115.715 o
60.4883 95.0896 o
127.376 96.2697 o
85.4599 115.36 o
60.5447 130.942 o
84.0788 89.1414 o
87.727 94.3116 o
111.951 82.9297 o
87.6696 89.2617 o
102.437 123.249 o
125 86.6968 o
79.7734 80.0548 o
83.8545 106.692 o
112.474 107.812 o
95.4159 78.0616 o
61.5774 87.1456 o
58.5682 104.518 o
80.3685 82.9442 o
74.4486 107.833 o
75.0819 118.92 o
115.011 99.4063 o
97.527 119.334 o
115.187 115.384 o
114.827 92.9278 o
86.6179 91.8783 o
64.1335 140.978 o
92.4809 104.342 o
100.02 84.6041 o
121.851 111.975 o
87.8131 89.0954 o
65.8685 93.3513 o
83.3673 78.7488 o
64.8519 126.781 o
87.697 108.93 o
82.1399 131.842 o
111.603 106.887 o
72.8869 71.9405 o
93.5424 102.04 o
69.7768 87.1562 o
117.676 111.609 o
104.312 119.187 o
74.0062 90.4471 o
56.7937 85.2937 o
76.2865 80.8854 o
90.2686 87.2411 o
109.728 109.537 o
112.958 103.897 o
103.566 85.9677 o
101.347 99.2022 o
74.0652 116.051 o
99.1553 97.1429 o
111.452 105.649 o
128.373 98.939 o
102.8 94.4317 o
76.0433 107.25 o
58.9016 73.0437 o
83.5581 103.167 o
95.474 85.4722 o
106.461 84.5073 o
99.2791 84.0919 o
91.1001 113.63 o
131.657 82.9565 o
86.3019 78.5689 o
112.905 78.1896 o
96.2497 117.602 o
124.203 106.54 o
80.858 85.1506 o
90.0489 126.2 o
94.0389 104.784 o
62.0114 69.433 o
59.1525 97.6276 o
83.1147 103.552 o
114.044 112.077 o
73.9459 123.174 o
83.7751 83.3404 o
142.491 105.779 o
102.736 118.58 o
66.0866 75.4074 o
91.0588 91.8647 o
69.1027 111.645 o
104.46 82.5416 o
85.0486 113.358 o
77.6405 69.3438 o
90.38 81.8685 o
92.6666 95.1863 o
106.63 107.859 o
105.715 92.1685 o
103.473 116.956 o
67.4708 100.618 o
55.7946 106.588 o
75.085 124.347 o
74.2226 124.303 o
60.2598 109.6 o
73.5916 71.2188 o
69.3229 98.5814 o
115.366 101.001 o
130.323 111.368 o
99.2421 124.376 o
78.0999 95.8259 o
88.3525 101.911 o
119.075 88.4398 o
117.341 108.583 o
75.7357 65.8725 o
108.296 113.09 o
115.156 98.5463 o
81.7013 97.685 o
125.243 101.09 o
107.036 76.1058 o
62.779 99.1277 o
89.7592 110.881 o
110.713 112.844 o
81.5021 82.8909 o
110.198 95.7058 o
88.9699 104.729 o
84.5377 96.8385 o
92.155 78.2279 o
120.055 109.138 o
102.627 90.159 o
117.19 98.7798 o
92.4656 101.427 o
103.966 99.5589 o
68.8031 95.7155 o
83.6777 87.4951 o
78.6712 77.7998 o
115.552 89.9835 o
119.745 94.9768 o
75.3141 95.5014 o
91.3421 102.421 o
115.558 86.5054 o
71.1196 118.631 o
110.075 90.4345 o
87.5714 80.3368 o
110.733 98.6052 o
95.1746 104.4 o
99.1102 125.642 o
73.4358 79.0741 o
69.3186 81.8385 o
90.1986 89.9489 o
102.231 117.876 o
113.052 101.633 o
101.444 116.771 o
60.7133 124.989 o
81.9489 93.1911 o
67.6087 106.972 o
81.3723 104.285 o
115.715 77.5014 o
68.2596 83.7771 o
81.8704 118.873 o
76.7263 73.6749 o
81.6146 78.3867 o
72.578 62.6008 o
73.3932 110.02 o
121.236 103.649 o
102.435 99.0636 o
119.032 98.2696 o
104.364 93.0584 o
112.645 79.8498 o
113.357 118.208 o
106.468 75.7593 o
139.177 90.9638 o
63.3703 84.2706 o
112.925 117.472 o
84.9203 104.784 o
137.654 82.4812 o
84.2949 79.5164 o
110.552 116.679 o
86.8534 100.038 o
69.399 119.632 o
90.6249 95.6554 o
91.303 113.752 o
113.143 105.382 o
88.5988 102.615 o
94.2512 108.317 o
122.607 93.4529 o
116.301 115.21 o
68.3183 107.309 o
89.2626 89.2412 o
74.9313 91.3829 o
127.824 112.212 o
78.4405 89.8377 o
89.2965 114.544 o
74.2344 66.8479 o
108.689 75.8103 o
119.843 78.6678 o
72.8649 125.275 o
87.7021 113.814 o
142.346 88.3536 o
102.836 110.344 o
60.2568 70.2087 o
141.484 109.243 o
142.074 91.4686 o
75.8561 77.407 o
119.623 100.404 o
86.1223 95.5767 o
67.2909 65.6244 o
83.9493 84.6245 o
91.7584 103.086 o
62.9748 71.8804 o
119.01 85.8446 o
83.0614 80.3317 o
94.1931 88.1188 o
81.1955 112.005 o
112.702 107.915 o
63.9307 140.61 o
85.8366 80.754 o
94.7171 102.531 o
63.3488 122.228 o
111.061 86.9683 o
88.9754 114.262 o
90.639 95.4776 o
71.4999 59.3339 o
100.271 100.151 o
84.7025 114.654 o
67.1861 71.6399 o
106.464 106.435 o
79.6752 109.071 o
81.0966 104.057 o
120.811 89.8706 o
117.974 80.8482 o
102.671 112.563 o
97.0479 97.361 o
114.435 100.267 o
115.422 93.9302 o
97.5604 112.993 o
124.945 115.149 o
83.3309 117.31 o
143.896 88.9282 o
89.6153 83.4138 o
122.42 101.501 o
67.5069 124.842 o
66.1524 108.101 o
61.0753 141.586 o
116.403 100.317 o
87.2973 92.223 o
101.652 108.131 o
74.8387 121.385 o
85.754 78.7538 o
101.282 90.8026 o
104.173 83.2498 o
100.827 98.672 o
119.308 96.7346 o
88.136 117.367 o
104.356 77.2898 o
74.6047 101.745 o
84.7776 81.5636 o
69.1648 125.682 o
93.2513 117.605 o
108.775 116.126 o
84.1956 116.468 o
63.2657 92.4309 o
81.7316 98.1813 o
115.092 87.1882 o
123.818 84.395 o
74.977 63.4321 o
92.6446 110.698 o
101.866 82.2219 o
120.59 80.5081 o
69.4662 128.796 o
77.7434 117.36 o
66.3025 129.061 o
88.6905 107.49 o
68.2877 77.5238 o
118.129 109.134 o
113.606 95.2124 o
71.9232 76.1037 o
104.873 110.657 o
122.024 77.4994 o
68.4556 86.5064 o
121.48 105.696 o
92.5253 97.0448 o
108.049 85.3785 o
70.8691 69.8158 o
105.815 114.81 o
93.0557 106.074 o
82.713 112.842 o
76.904 62.4472 o
136.234 91.5239 o
60.565 66.0082 o
101.281 108.307 o
111.569 93.6939 o
69.0583 123.285 o
66.7404 109.633 o
63.3682 112.714 o
85.809 81.4648 o
99.2834 84.134 o
125.205 84.1437 o
60.2628 139.303 o
59.9309 140.464 o
116.727 99.3536 o
57.4912 102.113 o
125.005 111.942 o
95.3842 103.899 o
98.2618 101.062 o
85.3232 95.8553 o
89.5848 72.2822 o
95.4767 107.817 o
83.1588 119.84 o
134.533 81.7861 o
93.141 90.7317 o
119.009 87.325 o
108.646 110.768 o
82.6374 78.0241 o
121.071 100.396 o
88.566 100.112 o
117.961 108.514 o
108.522 97.2371 o
93.913 119.981 o
78.9032 91.8945 o
96.3627 107.898 o
61.5834 126.603 o
66.3526 101.844 o
68.8539 100.298 o
103.571 74.0217 o
84.4823 98.3311 o
116.591 120.425 o
92.1048 108.808 o
90.5409 74.9651 o
63.1074 112.789 o
62.5579 77.3132 o
87.2546 119.606 o
88.2943 125.777 o
147.664 94.7332 o
69.7965 97.9304 o
100.917 79.9206 o
67.0609 103.558 o
76.0192 104.249 o
84.3908 108.974 o
112.288 84.189 o
92.6178 126.717 o
76.1042 66.7506 o
98.4762 74.0184 o
118.369 111.525 o
84.8332 88.8593 o
82.6738 109.216 o
76.6522 71.402 o
72.1871 117.556 o
80.6936 108.694 o
77.6551 68.9713 o
76.7906 121.247 o
122.347 101.944 o
88.9895 106.132 o
103.866 120.357 o
78.1095 75.3158 o
125.202 85.878 o
85.0768 101.882 o
93.9642 97.6762 o
62.4526 85.599 o
98.4784 94.0748 o
89.0576 83.4934 o
62.0538 77.9504 o
128.767 96.4947 o
60.458 68.2617 o
63.4618 65.5065 o
87.6997 91.2517 o
85.7205 111.373 o
69.8382 96.6711 o
97.0722 90.5699 o
82.6237 91.434 o
93.8285 95.7677 o
90.4684 108.235 o
107.488 72.0507 o
74.1478 104.468 o
84.0074 109.133 o
98.6394 114.589 o
80.0528 104.347 o
70.3673 72.8336 o
126.383 93.404 o
96.1803 101.358 o
117.426 110.634 o
67.0896 92.2374 o
78.598 93.9187 o
97.8716 101.119 o
95.3708 120.609 o
64.9487 71.6522 o
111.884 87.4489 o
73.9041 96.1513 o
117.897 92.3349 o
103.048 112.489 o
67.8048 66.2382 o
98.3346 81.1284 o
92.1714 112.848 o
88.5378 103.553 o
82.1162 101.291 o
63.6689 70.4349 o
59.5232 122.15 o
97.8678 112.621 o
110.19 109.099 o
82.9374 93.152 o
63.863 98.8942 o
96.482 87.6759 o
75.9061 75.0447 o
86.175 96.6886 o
119.293 87.4384 o
93.0625 77.0683 o
81.2501 71.7206 o
82.8274 92.9816 o
104.414 73.704 o
86.7409 109.758 o
94.8462 111.672 o
109.766 72.1073 o
107.339 72.0481 o
109.01 80.0512 o
85.601 94.4115 o
125.359 96.5627 o
86.1536 97.7571 o
76.4163 127.068 o
84.7126 100.714 o
101.246 88.0762 o
85.5764 87.7459 o
90.3132 110.348 o
91.6204 108.562 o
58.797 75.8356 o
68.561 131.79 o
51.8982 84.2107 o
110.28 74.0507 o
88.8044 86.6096 o
91.0029 84.9146 o
87.8378 106.071 o
72.5275 125.149 o
83.0921 101.826 o
85.6317 115.922 o
99.8445 69.7724 o
65.1955 134.827 o
115.225 74.727 o
74.2353 75.0504 o
90.9038 99.3911 o
80.5428 115.189 o
82.4265 105.511 o
114.778 116.582 o
96.4445 122.233 o
64.1604 137.739 o
108.669 78.6274 o
95.7479 109.487 o
128.341 105.787 o
110.453 100.39 o
100.778 85.7078 o
107.82 94.9085 o
69.1034 77.2789 o
133.5 113.844 o
60.9123 118.193 o
102.997 96.0306 o
141.971 95.2653 o
69.4982 119.939 o
116.149 85.4413 o
121.361 90.287 o
68.3412 112.264 o
96.3394 111.724 o
89.2242 95.7068 o
81.7652 99.506 o
122.544 116.523 o
67.1794 64.6433 o
155.217 102.589 o
90.3635 90.2191 o
104.58 96.2908 o
121.313 105.205 o
102.858 95.8601 o
82.4843 104.254 o
88.4682 96.0449 o
81.6781 117.586 o
129.457 112.26 o
89.8953 109.008 o
81.6697 108.502 o
81.6717 111.575 o
82.0873 111 o
77.2951 107.444 o
79.0449 109.436 o
132.938 82.657 o
70.349 102.412 o
83.7801 124.458 o
84.715 120.892 o
69.2356 64.2278 o
84.4712 107.585 o
98.033 121.502 o
54.5045 151.825 o
91.4522 109.42 o
68.3449 76.3152 o
95.0071 76.2711 o
115.714 109.449 o
70.8156 91.555 o
122.139 95.5745 o
69.1159 124.373 o
88.8596 91.9985 o
78.3851 65.5822 o
111.598 91.6945 o
58.9435 117.365 o
119.632 99.1074 o
75.9746 110.048 o
75.4768 92.4362 o
119.141 114.06 o
138.467 100.629 o
91.6387 102.627 o
105.585 104.107 o
99.3458 120.571 o
86.7539 104.472 o
80.1543 112.982 o
64.7748 63.9341 o
117.114 86.6048 o
112.65 96.1698 o
78.4333 66.1345 o
96.4576 94.5679 o
84.0336 122.526 o
95.2401 98.5747 o
79.9081 117.656 o
84.8694 69.8065 o
134.487 93.1884 o
90.6357 91.7075 o
71.2099 127.046 o
81.8868 121.932 o
93.0879 110.603 o
91.5007 98.6246 o
90.274 124.224 o
83.0472 111.093 o
111.201 89.9613 o
65.3592 68.6663 o
91.8351 126.996 o
77.8549 78.1514 o
72.0948 100.776 o
91.1087 110.708 o
97.4217 116.379 o
107.559 88.6164 o
112.792 111.554 o
88.3631 77.3627 o
115.416 100.348 o
87.8739 96.1698 o
83.5895 99.6648 o
115.796 106.014 o
72.2693 107.368 o
98.8191 93.5559 o
80.565 84.9467 o
94.2246 111.405 o
93.3487 119.994 o
113.899 96.5369 o
145.557 110.248 o
82.5171 113.225 o
89.1023 101.525 o
104.737 93.5353 o
85.2852 98.4374 o
86.8618 104.089 o
99.0907 83.8765 o
101.954 94.1022 o
127.597 102.874 o
81.6057 86.9736 o
98.1917 70.4672 o
139.765 89.1711 o
124.825 102.04 o
98.9821 93.1142 o
106.687 80.8112 o
62.3167 88.0636 o
95.3882 93.8676 o
124.539 113.797 o
111.001 91.6039 o
94.549 119.476 o
63.826 86.6151 o
109.261 114.802 o
85.1547 128.181 o
81.5808 88.3419 o
124.874 94.8135 o
107.663 91.0013 o
92.3417 109.164 o
72.8699 100.394 o
88.0458 95.7666 o
79.1094 98.2815 o
92.1976 125.815 o
115.673 86.9056 o
76.3845 81.8147 o
83.4657 75.5121 o
115.982 101.01 o
85.0857 108.046 o
104.096 84.1534 o
74.0549 104.855 o
143.781 104.078 o
123.242 115.635 o
117.097 104.889 o
107.987 100.943 o
101.34 81.198 o
93.8078 95.0336 o
72.0368 74.2984 o
86.0033 96.9408 o
87.9346 76.3496 o
60.4842 94.6256 o
82.4163 105.446 o
98.1034 86.1687 o
86.2865 102.358 o
108.679 98.3175 o
92.6523 88.3457 o
106.089 87.7659 o
106.006 98.4592 o
90.1018 69.5965 o
120.096 103.407 o
62.0301 109.172 o
63.9279 97.3503 o
76.8914 104.536 o
95.9737 128.726 o
84.894 122.994 o
133.807 81.5681 o
90.0326 99.6781 o
125.763 78.166 o
79.6587 93.8872 o
132.982 95.0676 o
101.861 92.1451 o
88.5186 107.051 o
55.7501 134.707 o
109.292 109.88 o
110.545 99.3597 o
92.6351 107.839 o
113.69 86.0062 o
75.8484 71.1318 o
60.6564 79.2935 o
120.609 104.441 o
105.248 82.2401 o
98.927 113.346 o
93.0153 76.9703 o
96.8296 119.266 o
120.712 85.5945 o
100.347 122.917 o
82.7417 80.0784 o
114.799 102.762 o
70.0486 130.007 o
116.569 115.98 o
85.3634 104.775 o
63.9505 104.522 o
78.3908 84.7606 o
68.4851 95.1966 o
91.4434 95.4009 o
68.0792 106.242 o
94.5573 79.1443 o
125.844 90.1904 o
84.6408 92.6229 o
133.51 97.2144 o
74.5197 121.027 o
59.7629 114.481 o
91.0576 115.219 o
138.554 101.886 o
114.591 92.4536 o
89.5234 110.262 o
122.657 117.463 o
99.2408 102.371 o
85.05 106.858 o
132.667 110.742 o
122.132 115.328 o
90.0262 110.254 o
64.9246 117.24 o
92.1988 90.4405 o
136.597 114.843 o
57.3224 84.2045 o
62.8606 80.5042 o
81.9225 81.284 o
91.1692 100.472 o
101.979 95.1281 o
87.2895 104.605 o
88.8402 97.6193 o
87.2872 110.311 o
115.367 78.3244 o
83.7507 105.747 o
101.213 87.9599 o
77.3705 116.945 o
121.048 105.076 o
101.812 91.8128 o
107.281 81.8322 o
92.0644 110.087 o
84.1862 72.2092 o
62.8804 85.5013 o
113.726 89.7347 o
85.1328 67.8591 o
67.1022 92.2512 o
110.004 76.9513 o
117.818 109.179 o
72.6606 114.287 o
87.5096 95.2626 o
83.4969 91.1504 o
114.565 81.5284 o
89.4339 104.789 o
83.9072 93.2887 o
76.527 71.0343 o
87.9894 102.416 o
70.9928 73.9654 o
65.5077 103.002 o
60.3025 114.379 o
81.696 129.451 o
118.377 83.3116 o
70.0031 130.375 o
90.616 103.654 o
81.8224 67.1882 o
105.248 104.92 o
94.664 93.4518 o
69.894 108.118 o
115.395 111.601 o
122.601 112.912 o
92.9322 102.659 o
98.9362 94.4823 o
109.528 92.5277 o
92.6028 86.6149 o
79.5328 68.4129 o
103.593 115.293 o
106.344 85.4279 o
126.931 92.0552 o
75.1049 108.413 o
140.276 87.3175 o
109.021 77.07 o
63.8919 124.224 o
118.158 111.243 o
93.5531 107.947 o
95.2243 90.8626 o
110.816 83.5637 o
78.713 98.147 o
69.5929 130.212 o
93.3038 96.8076 o
81.1706 68.0547 o
128.402 80.207 o
85.6603 77.5627 o
126.805 81.7719 o
84.2569 82.3909 o
67.7437 67.9176 o
80.1109 93.1118 o
109.401 89.85 o
119.183 103.014 o
81.6891 90.1991 o
111.806 103.241 o
96.5176 99.3557 o
61.9214 64.0343 o
84.9122 94.0246 o
108.302 99.9738 o
66.0651 94.6476 o
118.053 93.7016 o
122.496 79.7052 o
144.05 96.6854 o
89.3879 106.338 o
97.1155 71.078 o
84.7143 124.964 o
95.8011 97.9592 o
63.0274 65.6871 o
114.963 103.348 o
73.4477 103.519 o
101.376 109.563 o
124.374 93.6212 o
72.6204 105.465 o
105.181 91.845 o
58.0509 86.0691 o
83.7766 122.647 o
81.7446 115.358 o
109.563 96.6023 o
94.8676 87.5707 o
81.4436 108.437 o
67.3565 136.819 o
123.757 97.0025 o
74.7344 92.7375 o
73.6782 124.566 o
133.561 110.428 o
80.5723 94.8407 o
92.1922 90.2512 o
133.413 120.724 o
77.9637 74.2824 o
112.508 96.6225 o
93.3242 117.349 o
108.485 98.7461 o
85.4728 87.1506 o
120.422 91.4664 o
122.171 89.9307 o
79.7022 116.633 o
62.1011 115.281 o
117.409 102.825 o
104.638 116.724 o
101.702 70.883 o
86.7422 119.693 o
90.4967 107.998 o
102.916 69.9154 o
91.8646 76.1356 o
75.4857 72.7006 o
60.2704 60.0192 o
85.0086 78.1192 o
85.2675 99.0279 o
103.571 91.8995 o
116.809 110.261 o
81.13 95.611 o
66.4698 112.615 o
131.507 84.2318 o
72.8092 94.4213 o
104.036 71.6315 o
60.3016 69.8954 o
73.651 77.4535 o
92.0732 117.919 o
78.0317 108.656 o
124.82 112.831 o
127.941 106.376 o
121.203 103.768 o
124.455 95.8952 o
121.546 100.303 o
106.514 80.1901 o
105.295 95.8427 o
89.5729 111.558 o
82.0641 85.3675 o
79.6654 113.185 o
108.526 116.954 o
103.303 122.031 o
104.097 90.8427 o
125.019 80.4698 o
90.8942 101.647 o
59.4724 126.732 o
76.2549 106.971 o
80.104 66.7232 o
75.5427 112.843 o
116.157 107.14 o
80.1857 129.041 o
97.6525 101.309 o
116.52 92.1693 o
72.6365 82.5128 o
109.712 84.2831 o
90.0853 124.267 o
87.2821 111.327 o
80.7241 99.8615 o
83.4571 108.615 o
107.773 89.4328 o
73.7896 89.8424 o
127.3 104.018 o
66.6497 113.601 o
70.4148 127.42 o
83.4267 103.625 o
88.2196 93.3483 o
92.4181 84.4772 o
75.4599 87.1213 o
84.0049 115.266 o
131.035 112.259 o
113.387 100.338 o
110.046 105.277 o
104.391 81.3311 o
86.0626 88.9931 o
121.96 116.55 o
114.563 93.1336 o
75.101 78.9908 o
116.772 104.91 o
106.891 91.6307 o
72.0117 131.211 o
118.035 75.9183 o
71.0137 114.91 o
85.7634 72.9028 o
80.8046 84.5905 o
121.673 101.733 o
71.1965 90.794 o
57.5193 136.277 o
71.8062 96.6883 o
114.864 108.559 o
115.832 91.7731 o
110.499 114.967 o
65.5104 83.8011 o
60.0952 122.828 o
97.108 109.848 o
92.9586 92.0003 o
89.141 103.995 o
96.5553 89.3265 o
93.0654 89.3713 o
106.766 81.2299 o
129.202 86.3927 o
122.984 108.994 o
61.0007 66.1629 o
109.023 115.429 o
74.3883 110.768 o
93.1441 97.1457 o
102.648 75.7091 o
131.094 113.104 o
111.037 90.7785 o
79.8159 98.55 o
67.1654 103.195 o
94.1539 86.7584 o
109.137 91.552 o
142.773 92.7092 o
67.5414 136.17 o
92.4538 111.81 o
109.664 77.8654 o
82.9372 72.5191 o
60.0902 103.447 o
113.673 111.539 o
103.666 103.358 o
94.6636 102.215 o
82.0388 94.7315 o
75.4766 127.249 o
93.0032 90.8839 o
77.9415 119.031 o
88.7108 97.9017 o
88.4685 108.405 o
111.645 111.166 o
94.3235 89.688 o
91.7694 102.016 o
126.819 107.711 o
91.5724 93.1639 o
110.465 80.1652 o
88.2812 104.367 o
84.7575 116.579 o
126.801 88.3501 o
121.532 100.28 o
68.0252 86.7864 o
125.165 107.756 o
113.451 88.6389 o
89.0468 104.147 o
83.5372 101.779 o
111.646 113.975 o
80.0492 68.4412 o
59.7974 64.5928 o
86.5044 90.2776 o
117.98 111.263 o
144.554 105.023 o
95.9227 108.126 o
85.1514 95.447 o
114.766 90.2895 o
89.3519 74.1248 o
80.3758 102.554 o
85.8708 92.8936 o
77.9829 68.9568 o
66.6631 88.9219 o
117.835 105.859 o
127.628 83.2362 o
101.358 91.1699 o
86.7292 75.9363 o
110.603 89.7012 o
83.8887 70.8404 o
119.159 118.773 o
105.278 100.252 o
81.4295 112.196 o
114.144 87.6881 o
111.656 103.299 o
116.966 110.12 o
85.4512 80.9945 o
114.584 112.103 o
87.6089 105.022 o
113.759 108.534 o
60.9086 82.0554 o
109.962 79.869 o
107.234 118.619 o
91.2271 119.235 o
53.9579 93.7297 o
119.695 113.191 o
119.866 103.751 o
93.2684 98.2902 o
87.8837 90.2592 o
114.458 100.736 o
172.664 92.9307 o
105.671 94.7894 o
76.9878 74.5774 o
98.7263 78.861 o
107.017 94.693 o
61.5494 115.474 o
73.9462 62.8978 o
107.982 90.5898 o
83.9449 86.8447 o
98.264 113.896 o
101.83 78.5828 o
127.452 106.51 o
92.299 99.4194 o
111.38 78.2233 o
66.5809 73.4014 o
111.186 98.8475 o
65.2473 105.985 o
104.005 92.1308 o
60.1538 106.387 o
91.2634 114.422 o
136.083 113.095 o
86.9135 96.1489 o
84.3067 110.295 o
63.108 86.1928 o
113.388 92.0451 o
115.045 107.239 o
118.334 84.1459 o
92.5191 107.387 o
68.7034 82.4443 o
81.5621 87.6631 o
90.9895 85.3142 o
73.0202 75.3323 o
115.133 79.8262 o
113.673 88.8546 o
62.84 115.47 o
65.324 88.0661 o
111.007 106.462 o
128.003 95.7121 o
70.6506 110.462 o
105.391 103.303 o
92.1376 76.1873 o
121.035 98.0265 o
75.0175 78.3261 o
81.3615 106.972 o
78.7018 106.545 o
84.0771 90.0734 o
114.091 87.7721 o
120.013 98.0492 o
120.073 93.1102 o
113.252 87.4262 o
71.0926 101.518 o
98.0203 98.3674 o
81.7721 104.164 o
84.7682 78.6916 o
116.452 110.822 o
112.986 115.797 o
93.9099 77.6488 o
79.3983 91.9927 o
86.261 89.6616 o
109.73 118.723 o
121.006 108.331 o
64.2838 55.2745 o
104.358 105.882 o
84.6306 70.845 o
87.4746 109.452 o
54.0776 94.5374 o
105.793 77.5508 o
96.2735 115.012 o
84.4069 111.005 o
87.4639 84.6525 o
120.941 88.791 o
91.0724 101.172 o
57.4843 121.832 o
145.421 107.411 o
61.9293 99.105 o
111.501 97.5573 o
111.244 101.951 o
132.886 95.6134 o
87.8774 112.308 o
118.557 96.3766 o
68.0208 97.4778 o
104.934 73.7107 o
96.1378 115.251 o
127.452 114.752 o
72.7654 67.9062 o
86.2876 113.614 o
121.082 78.127 o
77.6205 113.839 o
97.6972 98.296 o
63.6264 87.9295 o
83.8016 93.6918 o
104.25 89.203 o
88.5307 83.6744 o
121.848 107.295 o
119.418 118.196 o
115.555 112.641 o
87.2247 76.1756 o
88.4525 94.3664 o
91.3668 109.723 o
82.4988 119.828 o
75.2832 81.7728 o
149.143 99.4891 o
89.8852 88.6484 o
107.089 92.9428 o
87.2857 109.86 o
97.6298 100.192 o
73.0588 112.805 o
88.6878 70.5394 o
100.698 116.827 o
123.588 105.304 o
92.9175 120.701 o
128.913 114.076 o
144.283 111.851 o
123.314 83.8352 o
86.1551 108.547 o
86.8937 112.686 o
87.2205 98.6668 o
73.2734 138.377 o
78.7211 82.4869 o
84.174 115.235 o
74.318 97.9652 o
87.1842 106.818 o
92.6091 105.793 o
82.7271 88.5653 o
62.7271 110.432 o
98.3952 107.37 o
72.014 124.479 o
64.1948 112.661 o
63.6449 98.7648 o
93.6507 118.266 o
64.8639 76.6427 o
85.1226 125.495 o
81.157 109.138 o
127.483 105.108 o
92.1005 86.2949 o
89.5022 94.627 o
86.3946 108.088 o
99.9271 113.962 o
75.7079 107.385 o
90.2958 88.0352 o
77.6297 97.4961 o
64.2014 124.034 o
91.3151 89.5368 o
81.0378 82.7093 o
114.6 100.737 o
75.334 129.562 o
107.083 91.5554 o
73.2256 84.125 o
101.082 124.324 o
118.664 97.802 o
81.5471 77.4101 o
58.8227 63.4871 o
88.8816 115.03 o
66.4334 88.8881 o
89.2015 99.0604 o
146.455 100.859 o
61.7352 79.7299 o
63.5678 90.0385 o
76.8788 79.0405 o
70.8492 79.8962 o
78.7059 111.004 o
127.556 81.5314 o
65.285 72.3518 o
86.8441 106.119 o
72.2111 115.649 o
76.4019 111.046 o
66.0444 100.049 o
73.1854 65.2897 o
104.431 122.685 o
79.5014 107.211 o
83.7669 106.62 o
76.7471 101.482 o
114.306 112.866 o
143.297 98.3017 o
58.5597 63.7666 o
86.5288 101.259 o
82.45 107.486 o
85.1505 116.226 o
106.01 102.993 o
72.3129 117.411 o
73.5717 75.539 o
79.2192 122.87 o
87.5052 104.219 o
128.448 80.735 o
128.058 77.8949 o
149.25 103.369 o
91.02 113.619 o
77.7485 98.2686 o
98.1438 86.5634 o
88.3863 82.7115 o
94.294 90.1477 o
80.4296 119.736 o
100.794 102.837 o
91.641 75.7774 o
92.6456 109.186 o
67.0491 123.675 o
71.1209 130.127 o
106.909 113.28 o
113.042 76.9553 o
61.0146 113.735 o
81.9466 90.5629 o
86.6303 102.798 o
70.5521 105.418 o
80.2703 112.753 o
77.5492 104 o
91.5736 110.064 o
56.6161 85.5241 o
83.9416 124.876 o
58.5838 94.6727 o
76.3153 86.6395 o
77.1765 95.4699 o
88.3857 88.2425 o
74.2986 95.4476 o
89.3186 75.944 o
56.5977 123.171 o
77.6968 76.2333 o
199.129 108.062 o
81.7679 67.6709 o
68.1809 69.7832 o
103.359 119.571 o
90.7532 123.559 o
59.4778 110.776 o
124.061 98.3491 o
82.1988 72.1985 o
88.8159 106.148 o
88.71 78.1872 o
93.6395 115.846 o
121.201 82.2318 o
109.894 88.6937 o
73.9589 91.7082 o
60.9305 114.121 o
83.7268 126.502 o
114.091 117.311 o
113.477 109.551 o
128.325 82.6357 o
94.1207 116.609 o
116.87 96.4268 o
87.7741 112.337 o
92.275 99.9411 o
107.25 111.029 o
112.785 110.23 o
93.2377 114.256 o
96.4989 80.6354 o
108.179 71.3155 o
91.1512 86.9079 o
121.959 80.5307 o
105.885 115.315 o
69.1909 104.88 o
86.16 98.7627 o
173.316 109.328 o
63.9262 121.767 o
85.572 118.477 o
82.63 79.2179 o
66.402 73.7809 o
137.964 100.119 o
90.8159 124.457 o
77.6263 75.9736 o
66.6485 81.2192 o
100.287 79.2023 o
120.014 83.1334 o
118.833 84.2953 o
101.268 89.4247 o
100.498 115.2 o
110.668 77.6282 o
77.2076 75.4237 o
109.274 83.5165 o
94.7428 92.7569 o
69.6914 59.8824 o
99.7149 117.693 o
113.311 107.931 o
86.1791 101.257 o
111.242 113.558 o
69.3463 116.032 o
103.073 117.081 o
70.724 69.4113 o
98.9468 107.541 o
122.037 117.785 o
103.683 120.778 o
102.753 77.7678 o
66.5072 102.545 o
117.907 85.294 o
77.0727 130.092 o
116.324 101.454 o
66.3499 119.337 o
88.1767 104.555 o
95.8349 99.3051 o
94.6208 106.986 o
86.7357 90.6463 o
111.355 86.892 o
119.869 99.5551 o
107.27 89.7467 o
67.858 87.8566 o
87.8503 87.7474 o
96.072 92.3187 o
72.7388 91.9199 o
85.3051 87.4213 o
97.8893 117.457 o
122.521 112.924 o
85.3835 112.572 o
122.217 116.091 o
80.7816 104.841 o
89.0009 85.8406 o
100.782 73.5974 o
81.0546 79.3403 o
92.2606 96.0196 o
92.4398 85.9533 o
99.6699 101.787 o
93.4702 89.701 o
69.0451 112.957 o
85.284 97.7113 o
97.3072 103.143 o
104.905 99.4372 o
99.9474 85.6798 o
115.881 114.171 o
67.6515 125.218 o
86.7243 87.9603 o
122.584 78.3448 o
95.5445 85.0435 o
90.191 111.555 o
96.3863 110.385 o
81.1201 121.285 o
109.904 88.4495 o
111.782 112.983 o
71.6546 104.526 o
80.372 95.4288 o
87.6289 103.577 o
63.7162 125.46 o
124.051 90.2118 o
111.188 104.933 o
130.172 80.6245 o
90.3721 94.5264 o
65.1362 125.129 o
72.5874 127.05 o
106.171 107.369 o
88.8917 107.49 o
86.8507 117.406 o
58.475 127.778 o
86.1436 101.216 o
68.372 99.5092 o
93.0724 110.645 o
84.0156 82.129 o
81.3238 85.1548 o
91.9174 108.357 o
86.8486 70.6069 o
86.572 109.393 o
86.256 108.331 o
73.4556 71.2325 o
72.5958 71.5219 o
110.21 98.2583 o
130.451 94.5527 o
89.9452 103.384 o
76.6328 110.026 o
107.415 97.4877 o
128.553 90.0942 o
146.797 105.517 o
94.1626 94.1391 o
88.7404 91.8661 o
94.6424 110.125 o
102.85 122.538 o
101.772 99.3713 o
96.9557 83.8707 o
68.707 72.8092 o
87.3936 103.509 o
114.362 97.0945 o
90.1599 82.9781 o
85.103 106.384 o
87.5528 112.596 o
120.389 100.074 o
73.504 92.0774 o
115.672 91.7848 o
61.8232 134.474 o
85.5912 108.222 o
65.1051 85.9678 o
64.9395 64.5657 o
74.1844 63.8125 o
125.654 78.4577 o
114.098 87.9634 o
117.069 92.4682 o
81.1272 100.269 o
78.5924 69.4505 o
91.7176 95.7818 o
84.3946 107.206 o
128.908 89.9107 o
89.3282 98.6225 o
73.8643 79.1216 o
80.038 118.852 o
155.663 107.88 o
68.7553 86.0941 o
72.47 88.9067 o
75.0434 102.32 o
118.916 108.794 o
131.754 96.7578 o
80.2929 120.702 o
84.2092 110.531 o
85.1831 101.733 o
99.414 84.7318 o
72.9402 65.3379 o
102.105 112.919 o
96.0344 89.6259 o
100.252 101.721 o
102.818 100.417 o
86.9352 80.1098 o
75.5179 100.128 o
103.352 101.836 o
99.5371 72.6123 o
110.647 89.3522 o
79.6901 113.951 o
103.788 106.813 o
91.723 83.3891 o
105.758 96.1453 o
66.7601 115.966 o
94.3676 105.059 o
92.0301 103.864 o
82.3147 96.8113 o
69.1849 138.071 o
81.1962 105.311 o
66.9128 73.8734 o
125.457 120.663 o
219.383 100.967 o
117.251 115.65 o
115.549 96.5148 o
84.179 97.3539 o
80.7857 82.0749 o
71.6811 78.3384 o
65.8893 91.8512 o
88.2698 90.8969 o
94.8389 74.0449 o
86.8895 87.6175 o
90.3721 109.174 o
64.5524 68.3544 o
96.8843 126.065 o
55.2902 77.148 o
80.6948 102.329 o
63.2034 67.7392 o
96.2451 109.51 o
94.9892 83.87 o
64.9954 88.5183 o
122.1 79.5185 o
105.691 123.136 o
72.3008 75.1256 o
90.4278 104.846 o
79.9361 91.0998 o
105.104 90.6721 o
90.8625 104.275 o
86.221 98.98 o
124.501 86.1592 o
116.539 100.502 o
78.6375 64.4959 o
85.9901 110.857 o
80.1874 65.8319 o
86.5783 78.3867 o
86.3856 102.412 o
89.0336 82.7588 o
73.2342 84.6331 o
121.411 87.7279 o
84.0658 100.201 o
92.5307 110.823 o
57.0093 124.846 o
95.1322 80.994 o
101.229 106.135 o
73.0119 94.2545 o
76.9916 99.2701 o
93.3895 96.1204 o
111.426 93.8002 o
110.667 96.6059 o
94.681 108.535 o
60.7591 99.2892 o
88.833 83.9481 o
100.204 125.943 o
78.9278 84.8491 o
113.437 80.0793 o
56.6764 68.0198 o
83.4218 98.2079 o
118.778 104.72 o
130.221 96.1113 o
93.7651 90.4977 o
106.897 95.0222 o
82.8928 122.533 o
79.691 115.313 o
127.356 79.6964 o
88.4047 105.444 o
94.2216 113.941 o
97.3542 117.052 o
95.3937 112.744 o
82.5386 102.485 o
106.202 103.498 o
130.24 79.9913 o
82.4496 95.4067 o
87.4278 85.6039 o
68.5632 113.294 o
132.863 116.37 o
57.3631 63.394 o
93.4597 100.385 o
117.788 87.9835 o
108.235 100.429 o
80.0245 78.4244 o
71.1433 83.5681 o
76.7037 66.4755 o
80.6045 101.445 o
76.7638 66.5487 o
89.9737 88.2803 o
96.1244 93.943 o
80.6843 116.079 o
128.809 108.063 o
108.19 103.66 o
67.4217 107.615 o
81.4666 80.5476 o
93.8914 108.515 o
78.1116 109.685 o
90.1224 120.748 o
116.877 80.0052 o
93.515 106.16 o
63.6363 69.8786 o
77.5585 114.973 o
114.08 111.889 o
117.102 92.6616 o
99.4226 83.487 o
93.0626 99.3766 o
118.988 96.1827 o
80.5338 90.3069 o
94.3051 87.7327 o
82.5179 112.49 o
72.0048 89.3905 o
80.9534 104.233 o
85.6022 95.7962 o
91.7455 89.3427 o
124.893 92.2881 o
86.4657 82.4391 o
92.628 82.0737 o
74.777 112.521 o
102.213 113.193 o
84.6711 97.8312 o
88.8614 96.9069 o
130.386 84.7378 o
72.4474 66.8411 o
74.7121 73.7465 o
108.429 101.2 o
134.819 91.4928 o
61.8713 140.339 o
100.586 96.8814 o
80.5993 81.9411 o
158.633 91.5814 o
108.038 96.4139 o
89.0326 86.2107 o
221.866 98.106 o
97.5216 95.8374 o
154.857 91.3391 o
96.2855 86.3679 o
72.2772 99.0272 o
79.6861 80.0178 o
98.5402 85.4719 o
115.704 119.427 o
105.716 87.7352 o
141.91 95.9224 o
85.112 87.714 o
108.873 104.917 o
84.5964 69.6007 o
77.7422 60.9657 o
95.1735 92.1068 o
92.688 98.0527 o
81.8697 102.706 o
67.757 130.447 o
69.8358 121.428 o
65.3524 109.779 o
123.027 79.1799 o
119.479 109.072 o
89.2861 109.834 o
96.5226 112.372 o
93.5332 100.293 o
85.6984 101.136 o
65.2476 134.829 o
125.809 93.4882 o
74.3987 71.6849 o
97.6689 80.8511 o
97.2306 90.1764 o
75.5618 107.146 o
88.1453 103.083 o
110.059 88.276 o
73.6865 73.506 o
84.9127 127.215 o
167.791 91.9334 o
83.0271 93.3995 o
82.8691 110.869 o
60.5958 127.299 o
80.3045 98.9768 o
78.3094 94.52 o
59.3418 81.805 o
83.422 105.516 o
105.422 104.953 o
95.9218 111.33 o
62.0253 129.919 o
56.2676 88.6208 o
83.3542 98.2122 o
120.314 77.725 o
115.941 115.281 o
81.3965 125.522 o
124.276 97.0389 o
64.7393 81.4158 o
95.7627 68.1261 o
64.2625 67.6872 o
80.3828 110.46 o
91.5562 112.301 o
95.2803 95.1272 o
96.3565 79.4598 o
57.3134 86.7693 o
80.5727 100.151 o
126.424 103.224 o
113.373 80.8163 o
85.3019 104.579 o
79.898 117.18 o
89.6575 86.2666 o
63.3183 136.049 o
90.675 87.8665 o
75.5807 95.1725 o
87.5916 93.4097 o
99.955 109.1 o
90.1628 111.558 o
94.5044 78.8486 o
114.482 82.1551 o
70.7178 71.8902 o
116.58 95.71 o
81.901 92.9367 o
87.8499 86.5374 o
62.5215 128.703 o
112.45 77.236 o
106.036 80.1311 o
129.939 112.868 o
78.1536 124.068 o
70.953 125.235 o
64.9121 77.4563 o
178.721 102.632 o
126.585 109.106 o
120.129 78.9106 o
81.9214 113.209 o
101.348 77.4435 o
103.128 103.688 o
125.226 82.6307 o
67.8695 123.369 o
94.2364 65.4805 o
94.5691 94.4184 o
80.6886 82.3122 o
131.069 82.5475 o
88.1452 81.0003 o
143.539 96.1633 o
96.7551 99.9255 o
87.5656 80.4624 o
60.2096 116.506 o
105.623 109.003 o
63.1546 80.2338 o
216.556 98.9765 o
95.5303 96.5804 o
61.5814 68.5271 o
111.58 110.623 o
167.664 112.002 o
61.3258 67.6534 o
102.938 112.574 o
76.3398 110.002 o
84.1802 77.0553 o
131.509 103.442 o
112.024 74.6343 o
70.612 89.6636 o
108.971 115.327 o
80.1701 89.7242 o
96.344 77.2516 o
82.2871 109.701 o
124.135 121.072 o
116.885 79.7143 o
97.9005 108.49 o
87.3372 121.573 o
107.779 103.617 o
121.572 77.9826 o
84.033 114.861 o
131.102 93.7383 o
80.1601 127.82 o
83.3042 95.3702 o
74.6769 70.8103 o
74.1212 94.2872 o
86.992 82.2094 o
111.729 89.5859 o
125.676 93.6206 o
94.9528 83.0492 o
80.431 72.9132 o
97.6247 97.8438 o
118.861 112.56 o
73.4516 70.9622 o
95.1713 71.6934 o
135.657 96.6116 o
92.882 108.103 o
83.2204 113.763 o
118.455 84.7512 o
89.97 89.293 o
91.7093 105.917 o
87.1232 114.294 o
93.763 87.6533 o
108.465 120.892 o
91.0809 91.2051 o
78.1548 129.409 o
111.447 125.985 o
73.5409 86.5384 o
62.997 64.5774 o
114.332 84.0384 o
128.574 82.7085 o
110.089 106.629 o
67.6745 124.256 o
88.6396 91.9027 o
149.779 98.635 o
99.5701 96.8938 o
85.9942 69.3437 o
57.3547 104.632 o
84.8545 118.478 o
72.9665 88.2172 o
106.377 122.239 o
110.032 95.4266 o
78.2775 79.5207 o
88.8473 103.513 o
122.96 102.168 o
138.325 114.043 o
78.9726 93.4138 o
94.4273 109.264 o
128.425 111.959 o
83.372 87.8197 o
73.5497 82.9337 o
75.8727 106.679 o
76.756 133.45 o
134.159 106.056 o
122.318 100.784 o
79.3687 73.802 o
73.4045 67.6283 o
98.7824 91.5944 o
78.4765 101.113 o
90.7404 121.328 o
119.623 111.431 o
57.017 93.9264 o
125.789 87.7156 o
112.389 97.1546 o
90.9251 85.7806 o
67.514 110.386 o
125.018 104.227 o
81.4388 110.482 o
75.4216 90.2884 o
104.011 121.179 o
116.238 92.2298 o
81.917 71.0675 o
94.9254 72.2463 o
84.4591 120.749 o
117.045 95.6707 o
73.0484 101.461 o
81.9223 89.6794 o
95.2603 96.772 o
61.3034 68.9726 o
69.1471 92.7957 o
89.6561 74.4497 o
88.2469 94.8618 o
115.214 111.698 o
89.1534 101.35 o
140.217 89.0521 o
65.6741 115.25 o
58.6098 66.8603 o
76.7896 106.653 o
70.3893 124.483 o
81.8955 100.543 o
111.608 97.8347 o
86.6723 106.487 o
85.2499 77.1871 o
117.264 81.4332 o
63.3178 87.4285 o
116.399 88.7591 o
87.5883 118.528 o
67.9759 79.2681 o
69.2641 89.4396 o
87.415 92.0098 o
106.52 75.0529 o
109.059 92.6718 o
92.2943 96.2605 o
80.6652 81.4011 o
97.7822 73.6522 o
60.6777 140.032 o
126.854 95.2019 o
196.877 109.124 o
90.7405 78.6249 o
117.94 90.0856 o
88.1141 112.24 o
168.067 103.866 o
82.1201 125.57 o
81.2325 91.6614 o
105.829 114.971 o
125.139 109.775 o
86.6982 106.241 o
95.6969 98.7503 o
132.186 105.606 o
118.836 95.4256 o
120.563 104.501 o
78.0244 122.916 o
111.402 96.9131 o
147.142 99.7096 o
98.7925 72.2852 o
107.074 116.842 o
69.5782 98.2033 o
129.04 107.738 o
69.5926 94.2008 o
81.8228 101.743 o
79.6334 117.226 o
68.4458 80.6327 o
67.4266 79.7164 o
86.9126 103.549 o
80.6729 104.706 o
75.8345 113.763 o
82.8485 99.5362 o
89.043 94.8946 o
98.7227 90.4733 o
119.979 92.4606 o
73.2902 89.9323 o
56.2369 99.5528 o
94.3371 74.3522 o
94.8541 113.667 o
76.1503 76.7966 o
76.0313 93.5505 o
77.2627 107.387 o
99.1889 100.254 o
93.4963 98.7273 o
110.369 94.0754 o
105.062 70.1716 o
59.4449 123.534 o
95.5029 88.5897 o
118.893 94.8262 o
98.707 91.5773 o
108.792 111.506 o
117.824 84.6604 o
71.3001 81.6208 o
82.1357 131.977 o
78.1819 96.1755 o
114.869 113.314 o
116.627 92.0243 o
97.8073 98.869 o
87.6467 110.68 o
74.7535 118.029 o
106.918 109.774 o
78.4659 67.0551 o
78.0086 99.656 o
166.964 92.6161 o
103.296 109.758 o
76.9087 94.7255 o
85.5049 76.2883 o
94.9564 104.669 o
118.53 102.537 o
73.1012 78.4648 o
117.184 118.706 o
89.9987 105.06 o
68.4112 111.996 o
70.3286 118.005 o
93.2556 86.8351 o
86.7909 91.2802 o
83.9755 114.582 o
87.3401 91.5048 o
69.2154 67.6769 o
113.823 110.38 o
78.4001 85.5547 o
88.1184 104.707 o
72.8396 130.938 o
80.0406 87.7647 o
83.2117 77.9726 o
65.3594 130.474 o
91.4273 81.7101 o
118.243 97.4401 o
86.919 79.1203 o
111.05 84.2436 o
121.814 77.1093 o
108.901 86.8631 o
86.3193 76.8581 o
81.0693 119.122 o
92.2983 91.6583 o
74.977 101.937 o
85.4734 127.511 o
63.4536 100.853 o
106.917 116.649 o
110.441 112.22 o
111.411 118.811 o
157.599 88.6707 o
116.999 94.8883 o
111.885 117.927 o
83.862 111.981 o
55.3924 142.891 o
109.973 74.6556 o
100.789 74.4888 o
83.0427 89.2599 o
90.1934 105.308 o
75.9056 131.497 o
96.5242 82.6256 o
112.089 82.2731 o
87.3187 87.0232 o
75.0038 93.6023 o
106.873 78.9669 o
grestore
0.502 setgray
gsave
196.6 126 47.88 36 clipbox
/o {
gsave
newpath
translate
0.5 setlinewidth
1 setlinejoin
0 setlinecap
0 -0.25 m
0.0663008 -0.25 0.129895 -0.223658 0.176777 -0.176777 c
0.223658 -0.129895 0.25 -0.0663008 0.25 0 c
0.25 0.0663008 0.223658 0.129895 0.176777 0.176777 c
0.129895 0.223658 0.0663008 0.25 0 0.25 c
-0.0663008 0.25 -0.129895 0.223658 -0.176777 0.176777 c
-0.223658 0.129895 -0.25 0.0663008 -0.25 0 c
-0.25 -0.0663008 -0.223658 -0.129895 -0.176777 -0.176777 c
-0.129895 -0.223658 -0.0663008 -0.25 0 -0.25 c
cl
gsave
0.502 setgray
fill
grestore
stroke
grestore
} bind def
80.0085 86.0107 o
85.6146 109.233 o
86.0689 90.8417 o
91.8536 86.7629 o
77.1107 90.5367 o
78.4273 88.0373 o
79.3674 121.05 o
87.2441 129.476 o
92.6817 101.337 o
83.6781 93.7466 o
76.7543 95.3588 o
78.0784 86.4149 o
82.1399 131.842 o
90.38 81.8685 o
81.8704 118.873 o
90.6249 95.6554 o
91.6204 108.562 o
88.4682 96.0449 o
81.6781 117.586 o
75.9746 110.048 o
86.2865 102.358 o
84.894 122.994 o
88.8402 97.6193 o
83.7766 122.647 o
81.4295 112.196 o
92.5191 107.387 o
86.261 89.6616 o
81.0378 82.7093 o
78.7059 111.004 o
89.3282 98.6225 o
79.9361 91.0998 o
85.9901 110.857 o
89.9737 88.2803 o
81.8697 102.706 o
80.3045 98.9768 o
76.756 133.45 o
82.8485 99.5362 o
grestore
0.000 1.000 1.000 setrgbcolor
gsave
196.6 126 47.88 36 clipbox
/o {
gsave
newpath
translate
0.5 setlinewidth
1 setlinejoin
0 setlinecap
0 -1 m
0.265203 -1 0.51958 -0.894634 0.707107 -0.707107 c
0.894634 -0.51958 1 -0.265203 1 0 c
1 0.265203 0.894634 0.51958 0.707107 0.707107 c
0.51958 0.894634 0.265203 1 0 1 c
-0.265203 1 -0.51958 0.894634 -0.707107 0.707107 c
-0.894634 0.51958 -1 0.265203 -1 0 c
-1 -0.265203 -0.894634 -0.51958 -0.707107 -0.707107 c
-0.51958 -0.894634 -0.265203 -1 0 -1 c
cl
gsave
0.000 1.000 1.000 setrgbcolor
fill
grestore
stroke
grestore
} bind def
81.9685 74.3786 o
85.8283 95.8495 o
79.6447 66.4252 o
88.0606 91.5186 o
81.0047 123.597 o
80.0971 109.587 o
87.3766 106.619 o
81.9231 78.532 o
79.6583 66.7707 o
88.78 95.3546 o
79.4829 76.994 o
86.1985 124.917 o
79.5606 115.406 o
85.0979 68.2222 o
83.2327 101.572 o
82.734 84.063 o
80.9604 124.787 o
83.9326 112.648 o
87.7915 73.4459 o
84.8407 90.8992 o
86.5606 67.1996 o
83.4943 120.524 o
85.6702 113.545 o
84.3419 78.0836 o
92.6853 96.2386 o
92.1129 64.868 o
79.9902 101.614 o
86.9655 115.79 o
86.2866 106.59 o
84.705 60.5947 o
82.4168 111.786 o
86.6504 92.323 o
91.025 98.7727 o
89.1129 66.1153 o
90.3493 124.277 o
89.0499 93.6897 o
83.6659 86.855 o
88.9841 73.7257 o
87.796 91.334 o
87.3647 63.591 o
85.8026 95.852 o
87.3568 85.8605 o
91.025 102.799 o
87.977 108.053 o
89.5757 105.958 o
87.2363 99.6678 o
grestore
1.000 0.000 0.000 setrgbcolor
gsave
196.6 126 47.88 36 clipbox
/o {
gsave
newpath
translate
0.5 setlinewidth
1 setlinejoin
0 setlinecap
0 -1 m
0.265203 -1 0.51958 -0.894634 0.707107 -0.707107 c
0.894634 -0.51958 1 -0.265203 1 0 c
1 0.265203 0.894634 0.51958 0.707107 0.707107 c
0.51958 0.894634 0.265203 1 0 1 c
-0.265203 1 -0.51958 0.894634 -0.707107 0.707107 c
-0.894634 0.51958 -1 0.265203 -1 0 c
-1 -0.265203 -0.894634 -0.51958 -0.707107 -0.707107 c
-0.51958 -0.894634 -0.265203 -1 0 -1 c
cl
gsave
1.000 0.000 0.000 setrgbcolor
fill
grestore
stroke
grestore
} bind def
99.5018 121.68 o
108.782 115.506 o
105.198 117.396 o
99.9176 120.042 o
99.3095 117.774 o
104.367 116.892 o
103.624 111.978 o
107.451 114.498 o
105.531 110.466 o
93.8646 118.656 o
103.106 110.592 o
98.054 119.412 o
108.235 114.12 o
104.97 110.466 o
102.077 112.86 o
101.322 117.018 o
97.939 118.278 o
95.1549 120.798 o
grestore
1.000 setlinewidth
0 setlinejoin
2 setlinecap
0.000 setgray
gsave
47.88 162 m
244.44 162 l
stroke
grestore
gsave
244.44 36 m
244.44 162 l
stroke
grestore
gsave
47.88 36 m
244.44 36 l
stroke
grestore
gsave
47.88 36 m
47.88 162 l
stroke
grestore
0.500 setlinewidth
1 setlinejoin
0 setlinecap
gsave
/o {
gsave
newpath
translate
0.5 setlinewidth
1 setlinejoin
0 setlinecap
0 0 m
0 4 l
gsave
0.000 setgray
fill
grestore
stroke
grestore
} bind def
47.88 36 o
grestore
gsave
/o {
gsave
newpath
translate
0.5 setlinewidth
1 setlinejoin
0 setlinecap
0 0 m
0 -4 l
gsave
0.000 setgray
fill
grestore
stroke
grestore
} bind def
47.88 162 o
grestore
/BitstreamVeraSans-Roman findfont
6.000 scalefont
setfont
gsave
46.364375 27.437500 translate
0.000000 rotate
0.000000 0.000000 m /zero glyphshow
grestore
gsave
/o {
gsave
newpath
translate
0.5 setlinewidth
1 setlinejoin
0 setlinecap
0 0 m
0 4 l
gsave
0.000 setgray
fill
grestore
stroke
grestore
} bind def
75.96 36 o
grestore
gsave
/o {
gsave
newpath
translate
0.5 setlinewidth
1 setlinejoin
0 setlinecap
0 0 m
0 -4 l
gsave
0.000 setgray
fill
grestore
stroke
grestore
} bind def
75.96 162 o
grestore
gsave
72.670938 27.437500 translate
0.000000 rotate
0.000000 0.000000 m /one glyphshow
3.817383 0.000000 m /zero glyphshow
grestore
gsave
/o {
gsave
newpath
translate
0.5 setlinewidth
1 setlinejoin
0 setlinecap
0 0 m
0 4 l
gsave
0.000 setgray
fill
grestore
stroke
grestore
} bind def
104.04 36 o
grestore
gsave
/o {
gsave
newpath
translate
0.5 setlinewidth
1 setlinejoin
0 setlinecap
0 0 m
0 -4 l
gsave
0.000 setgray
fill
grestore
stroke
grestore
} bind def
104.04 162 o
grestore
gsave
100.641562 27.437500 translate
0.000000 rotate
0.000000 0.000000 m /two glyphshow
3.817383 0.000000 m /zero glyphshow
grestore
gsave
/o {
gsave
newpath
translate
0.5 setlinewidth
1 setlinejoin
0 setlinecap
0 0 m
0 4 l
gsave
0.000 setgray
fill
grestore
stroke
grestore
} bind def
132.12 36 o
grestore
gsave
/o {
gsave
newpath
translate
0.5 setlinewidth
1 setlinejoin
0 setlinecap
0 0 m
0 -4 l
gsave
0.000 setgray
fill
grestore
stroke
grestore
} bind def
132.12 162 o
grestore
gsave
128.729375 27.437500 translate
0.000000 rotate
0.000000 0.000000 m /three glyphshow
3.817383 0.000000 m /zero glyphshow
grestore
gsave
/o {
gsave
newpath
translate
0.5 setlinewidth
1 setlinejoin
0 setlinecap
0 0 m
0 4 l
gsave
0.000 setgray
fill
grestore
stroke
grestore
} bind def
160.2 36 o
grestore
gsave
/o {
gsave
newpath
translate
0.5 setlinewidth
1 setlinejoin
0 setlinecap
0 0 m
0 -4 l
gsave
0.000 setgray
fill
grestore
stroke
grestore
} bind def
160.2 162 o
grestore
gsave
156.731250 27.437500 translate
0.000000 rotate
0.000000 0.000000 m /four glyphshow
3.817383 0.000000 m /zero glyphshow
grestore
gsave
/o {
gsave
newpath
translate
0.5 setlinewidth
1 setlinejoin
0 setlinecap
0 0 m
0 4 l
gsave
0.000 setgray
fill
grestore
stroke
grestore
} bind def
188.28 36 o
grestore
gsave
/o {
gsave
newpath
translate
0.5 setlinewidth
1 setlinejoin
0 setlinecap
0 0 m
0 -4 l
gsave
0.000 setgray
fill
grestore
stroke
grestore
} bind def
188.28 162 o
grestore
gsave
184.897187 27.437500 translate
0.000000 rotate
0.000000 0.000000 m /five glyphshow
3.817383 0.000000 m /zero glyphshow
grestore
gsave
/o {
gsave
newpath
translate
0.5 setlinewidth
1 setlinejoin
0 setlinecap
0 0 m
0 4 l
gsave
0.000 setgray
fill
grestore
stroke
grestore
} bind def
216.36 36 o
grestore
gsave
/o {
gsave
newpath
translate
0.5 setlinewidth
1 setlinejoin
0 setlinecap
0 0 m
0 -4 l
gsave
0.000 setgray
fill
grestore
stroke
grestore
} bind def
216.36 162 o
grestore
gsave
212.953750 27.437500 translate
0.000000 rotate
0.000000 0.000000 m /six glyphshow
3.817383 0.000000 m /zero glyphshow
grestore
gsave
/o {
gsave
newpath
translate
0.5 setlinewidth
1 setlinejoin
0 setlinecap
0 0 m
0 4 l
gsave
0.000 setgray
fill
grestore
stroke
grestore
} bind def
244.44 36 o
grestore
gsave
/o {
gsave
newpath
translate
0.5 setlinewidth
1 setlinejoin
0 setlinecap
0 0 m
0 -4 l
gsave
0.000 setgray
fill
grestore
stroke
grestore
} bind def
244.44 162 o
grestore
gsave
241.072812 27.437500 translate
0.000000 rotate
0.000000 0.000000 m /seven glyphshow
3.817383 0.000000 m /zero glyphshow
grestore
gsave
133.660000 15.187500 translate
0.000000 rotate
/Cmr10 findfont
8.0 scalefont
setfont
0.000000 0.000000 moveto
/r glyphshow

/BitstreamVeraSans-Roman findfont
8.0 scalefont
setfont
3.128906 0.000000 moveto
/space glyphshow

/Cmr10 findfont
8.0 scalefont
setfont
5.671875 0.000000 moveto
/parenleft glyphshow

8.777344 0.000000 moveto
/k glyphshow

12.992188 0.000000 moveto
/p glyphshow

17.433594 0.000000 moveto
/c glyphshow

20.984375 0.000000 moveto
/parenright glyphshow


grestore
gsave
/o {
gsave
newpath
translate
0.5 setlinewidth
1 setlinejoin
0 setlinecap
0 0 m
4 0 l
gsave
0.000 setgray
fill
grestore
stroke
grestore
} bind def
47.88 48.6 o
grestore
gsave
/o {
gsave
newpath
translate
0.5 setlinewidth
1 setlinejoin
0 setlinecap
0 0 m
-4 0 l
gsave
0.000 setgray
fill
grestore
stroke
grestore
} bind def
244.44 48.6 o
grestore
gsave
28.442500 46.943750 translate
0.000000 rotate
0.000000 0.000000 m /minus glyphshow
5.027344 0.000000 m /four glyphshow
8.844727 0.000000 m /zero glyphshow
12.662109 0.000000 m /zero glyphshow
grestore
gsave
/o {
gsave
newpath
translate
0.5 setlinewidth
1 setlinejoin
0 setlinecap
0 0 m
4 0 l
gsave
0.000 setgray
fill
grestore
stroke
grestore
} bind def
47.88 73.8 o
grestore
gsave
/o {
gsave
newpath
translate
0.5 setlinewidth
1 setlinejoin
0 setlinecap
0 0 m
-4 0 l
gsave
0.000 setgray
fill
grestore
stroke
grestore
} bind def
244.44 73.8 o
grestore
gsave
28.442500 72.143750 translate
0.000000 rotate
0.000000 0.000000 m /minus glyphshow
5.027344 0.000000 m /two glyphshow
8.844727 0.000000 m /zero glyphshow
12.662109 0.000000 m /zero glyphshow
grestore
gsave
/o {
gsave
newpath
translate
0.5 setlinewidth
1 setlinejoin
0 setlinecap
0 0 m
4 0 l
gsave
0.000 setgray
fill
grestore
stroke
grestore
} bind def
47.88 99 o
grestore
gsave
/o {
gsave
newpath
translate
0.5 setlinewidth
1 setlinejoin
0 setlinecap
0 0 m
-4 0 l
gsave
0.000 setgray
fill
grestore
stroke
grestore
} bind def
244.44 99 o
grestore
gsave
40.848750 97.343750 translate
0.000000 rotate
0.000000 0.000000 m /zero glyphshow
grestore
gsave
/o {
gsave
newpath
translate
0.5 setlinewidth
1 setlinejoin
0 setlinecap
0 0 m
4 0 l
gsave
0.000 setgray
fill
grestore
stroke
grestore
} bind def
47.88 124.2 o
grestore
gsave
/o {
gsave
newpath
translate
0.5 setlinewidth
1 setlinejoin
0 setlinecap
0 0 m
-4 0 l
gsave
0.000 setgray
fill
grestore
stroke
grestore
} bind def
244.44 124.2 o
grestore
gsave
33.270625 122.543750 translate
0.000000 rotate
0.000000 0.000000 m /two glyphshow
3.817383 0.000000 m /zero glyphshow
7.634766 0.000000 m /zero glyphshow
grestore
gsave
/o {
gsave
newpath
translate
0.5 setlinewidth
1 setlinejoin
0 setlinecap
0 0 m
4 0 l
gsave
0.000 setgray
fill
grestore
stroke
grestore
} bind def
47.88 149.4 o
grestore
gsave
/o {
gsave
newpath
translate
0.5 setlinewidth
1 setlinejoin
0 setlinecap
0 0 m
-4 0 l
gsave
0.000 setgray
fill
grestore
stroke
grestore
} bind def
244.44 149.4 o
grestore
gsave
33.130000 147.743750 translate
0.000000 rotate
0.000000 0.000000 m /four glyphshow
3.817383 0.000000 m /zero glyphshow
7.634766 0.000000 m /zero glyphshow
grestore
gsave
20.442500 76.000000 translate
90.000000 rotate
/Cmmi10 findfont
8.0 scalefont
setfont
0.000000 0.921875 moveto
/v glyphshow

/BitstreamVeraSans-Roman findfont
8.0 scalefont
setfont
3.871094 0.921875 moveto
/space glyphshow

/Cmr10 findfont
5.6 scalefont
setfont
6.414062 -1.166125 moveto
/G glyphshow

10.805469 -1.166125 moveto
/S glyphshow

13.914453 -1.166125 moveto
/R glyphshow

/BitstreamVeraSans-Roman findfont
8.0 scalefont
setfont
18.035156 0.921875 moveto
/space glyphshow

20.578125 0.921875 moveto
/parenleft glyphshow

23.699219 0.921875 moveto
/k glyphshow

28.332031 0.921875 moveto
/m glyphshow

36.125000 0.921875 moveto
/slash glyphshow

38.695312 0.921875 moveto
/s glyphshow

42.863281 0.921875 moveto
/parenright glyphshow


grestore

end
showpage
