%!PS-Adobe-3.0 EPSF-3.0
%%Title: /Users/iuliasimion/bullock_johnston/denis_erkal/vasily/Figures/69684_1515571.0_yz.eps
%%Creator: matplotlib version 1.4.3, http://matplotlib.org/
%%CreationDate: Sat Aug 19 14:41:43 2017
%%Orientation: portrait
%%BoundingBox: 216 306 396 486
%%EndComments
%%BeginProlog
/mpldict 9 dict def
mpldict begin
/m { moveto } bind def
/l { lineto } bind def
/r { rlineto } bind def
/c { curveto } bind def
/cl { closepath } bind def
/box {
m
1 index 0 r
0 exch r
neg 0 r
cl
} bind def
/clipbox {
box
clip
newpath
} bind def
%!PS-Adobe-3.0 Resource-Font
%%Title: Bitstream Vera Sans
%%Copyright: Copyright (c) 2003 by Bitstream, Inc. All Rights Reserved.
%%Creator: Converted from TrueType to type 3 by PPR
25 dict begin
/_d{bind def}bind def
/_m{moveto}_d
/_l{lineto}_d
/_cl{closepath eofill}_d
/_c{curveto}_d
/_sc{7 -1 roll{setcachedevice}{pop pop pop pop pop pop}ifelse}_d
/_e{exec}_d
/FontName /BitstreamVeraSans-Roman def
/PaintType 0 def
/FontMatrix[.001 0 0 .001 0 0]def
/FontBBox[-183 -236 1287 928]def
/FontType 3 def
/Encoding [ /space /zero /one /two /three /four /six /minus ] def
/FontInfo 10 dict dup begin
/FamilyName (Bitstream Vera Sans) def
/FullName (Bitstream Vera Sans) def
/Notice (Copyright (c) 2003 by Bitstream, Inc. All Rights Reserved. Bitstream Vera is a trademark of Bitstream, Inc.) def
/Weight (Roman) def
/Version (Release 1.10) def
/ItalicAngle 0.0 def
/isFixedPitch false def
/UnderlinePosition -213 def
/UnderlineThickness 143 def
end readonly def
/CharStrings 8 dict dup begin
/space{318 0 0 0 0 0 _sc
}_d
/zero{636 0 66 -13 570 742 _sc
318 664 _m
267 664 229 639 203 589 _c
177 539 165 464 165 364 _c
165 264 177 189 203 139 _c
229 89 267 64 318 64 _c
369 64 407 89 433 139 _c
458 189 471 264 471 364 _c
471 464 458 539 433 589 _c
407 639 369 664 318 664 _c
318 742 _m
399 742 461 709 505 645 _c
548 580 570 486 570 364 _c
570 241 548 147 505 83 _c
461 19 399 -13 318 -13 _c
236 -13 173 19 130 83 _c
87 147 66 241 66 364 _c
66 486 87 580 130 645 _c
173 709 236 742 318 742 _c
_cl}_d
/one{636 0 110 0 544 729 _sc
124 83 _m
285 83 _l
285 639 _l
110 604 _l
110 694 _l
284 729 _l
383 729 _l
383 83 _l
544 83 _l
544 0 _l
124 0 _l
124 83 _l
_cl}_d
/two{{636 0 73 0 536 742 _sc
192 83 _m
536 83 _l
536 0 _l
73 0 _l
73 83 _l
110 121 161 173 226 239 _c
290 304 331 346 348 365 _c
380 400 402 430 414 455 _c
426 479 433 504 433 528 _c
433 566 419 598 392 622 _c
365 646 330 659 286 659 _c
255 659 222 653 188 643 _c
154 632 117 616 78 594 _c
78 694 _l
118 710 155 722 189 730 _c
223 738 255 742 284 742 _c
}_e{359 742 419 723 464 685 _c
509 647 532 597 532 534 _c
532 504 526 475 515 449 _c
504 422 484 390 454 354 _c
446 344 420 317 376 272 _c
332 227 271 164 192 83 _c
_cl}_e}_d
/three{{636 0 76 -13 556 742 _sc
406 393 _m
453 383 490 362 516 330 _c
542 298 556 258 556 212 _c
556 140 531 84 482 45 _c
432 6 362 -13 271 -13 _c
240 -13 208 -10 176 -4 _c
144 1 110 10 76 22 _c
76 117 _l
103 101 133 89 166 81 _c
198 73 232 69 268 69 _c
330 69 377 81 409 105 _c
441 129 458 165 458 212 _c
458 254 443 288 413 312 _c
383 336 341 349 287 349 _c
}_e{202 349 _l
202 430 _l
291 430 _l
339 430 376 439 402 459 _c
428 478 441 506 441 543 _c
441 580 427 609 401 629 _c
374 649 336 659 287 659 _c
260 659 231 656 200 650 _c
169 644 135 635 98 623 _c
98 711 _l
135 721 170 729 203 734 _c
235 739 266 742 296 742 _c
370 742 429 725 473 691 _c
517 657 539 611 539 553 _c
539 513 527 479 504 451 _c
481 423 448 403 406 393 _c
_cl}_e}_d
/four{636 0 49 0 580 729 _sc
378 643 _m
129 254 _l
378 254 _l
378 643 _l
352 729 _m
476 729 _l
476 254 _l
580 254 _l
580 172 _l
476 172 _l
476 0 _l
378 0 _l
378 172 _l
49 172 _l
49 267 _l
352 729 _l
_cl}_d
/six{{636 0 70 -13 573 742 _sc
330 404 _m
286 404 251 388 225 358 _c
199 328 186 286 186 234 _c
186 181 199 139 225 109 _c
251 79 286 64 330 64 _c
374 64 409 79 435 109 _c
461 139 474 181 474 234 _c
474 286 461 328 435 358 _c
409 388 374 404 330 404 _c
526 713 _m
526 623 _l
501 635 476 644 451 650 _c
425 656 400 659 376 659 _c
310 659 260 637 226 593 _c
}_e{192 549 172 482 168 394 _c
187 422 211 444 240 459 _c
269 474 301 482 336 482 _c
409 482 467 459 509 415 _c
551 371 573 310 573 234 _c
573 159 550 99 506 54 _c
462 9 403 -13 330 -13 _c
246 -13 181 19 137 83 _c
92 147 70 241 70 364 _c
70 479 97 571 152 639 _c
206 707 280 742 372 742 _c
396 742 421 739 447 735 _c
472 730 498 723 526 713 _c
_cl}_e}_d
/minus{838 0 106 272 732 355 _sc
106 355 _m
732 355 _l
732 272 _l
106 272 _l
106 355 _l
_cl}_d
end readonly def

/BuildGlyph
 {exch begin
 CharStrings exch
 2 copy known not{pop /.notdef}if
 true 3 1 roll get exec
 end}_d

/BuildChar {
 1 index /Encoding get exch get
 1 index /BuildGlyph get exec
}_d

FontName currentdict end definefont pop
%!PS-Adobe-3.0 Resource-Font
%%Title: cmr10
%%Copyright: Copyright (C) 1994, Basil K. Malyshev. All Rights Reserved.012BaKoMa Fonts Collection, Level-B.
%%Creator: Converted from TrueType to type 3 by PPR
25 dict begin
/_d{bind def}bind def
/_m{moveto}_d
/_l{lineto}_d
/_cl{closepath eofill}_d
/_c{curveto}_d
/_sc{7 -1 roll{setcachedevice}{pop pop pop pop pop pop}ifelse}_d
/_e{exec}_d
/FontName /Cmr10 def
/PaintType 0 def
/FontMatrix[.001 0 0 .001 0 0]def
/FontBBox[-44 -250 1009 750]def
/FontType 3 def
/Encoding [ /Z /k /parenright /Y /parenleft /c /p ] def
/FontInfo 10 dict dup begin
/FamilyName (cmr10) def
/FullName (cmr10) def
/Notice (Copyright (C) 1994, Basil K. Malyshev. All Rights Reserved.012BaKoMa Fonts Collection, Level-B. ) def
/Weight (Regular) def
/Version (1.1/12-Nov-94) def
/ItalicAngle 0.0 def
/isFixedPitch false def
/UnderlinePosition -133 def
/UnderlineThickness 20 def
end readonly def
/CharStrings 7 dict dup begin
/Z{{611 0 56 0 560 683 _sc
67 0 _m
59 0 56 3 56 11 _c
56 25 _l
56 27 56 29 58 31 _c
447 648 _l
306 648 _l
259 648 220 641 190 629 _c
160 617 137 596 121 568 _c
105 540 98 502 98 454 _c
69 454 _l
80 683 _l
543 683 _l
550 683 554 679 554 672 _c
554 660 _l
554 657 553 655 553 654 _c
164 38 _l
311 38 _l
346 38 378 41 406 48 _c
}_e{434 54 458 67 478 86 _c
491 99 501 116 509 136 _c
517 156 522 176 524 195 _c
526 213 528 239 531 271 _c
560 271 _l
543 0 _l
67 0 _l
_cl}_e}_d
/k{{527 0 26 0 511 694 _sc
26 0 _m
26 35 _l
48 35 67 36 82 40 _c
96 44 104 53 104 67 _c
104 592 _l
104 610 101 623 96 631 _c
90 639 83 643 73 645 _c
63 647 47 648 26 648 _c
26 683 _l
174 694 _l
174 219 _l
308 337 _l
321 349 328 361 328 372 _c
328 380 325 386 320 390 _c
314 394 308 396 300 396 _c
300 431 _l
488 431 _l
488 396 _l
}_e{442 396 397 376 352 337 _c
281 275 _l
408 94 _l
426 69 440 53 452 46 _c
464 38 483 35 511 35 _c
511 0 _l
312 0 _l
312 35 _l
334 35 346 42 346 56 _c
346 66 340 78 328 94 _c
232 231 _l
171 178 _l
171 67 _l
171 53 178 44 193 40 _c
207 36 226 35 249 35 _c
249 0 _l
26 0 _l
_cl}_e}_d
/parenright{{388 0 56 -249 291 750 _sc
65 -249 _m
59 -249 56 -246 56 -240 _c
56 -237 56 -235 58 -234 _c
172 -122 229 38 229 250 _c
229 462 172 623 60 733 _c
57 734 56 737 56 741 _c
56 743 57 745 59 747 _c
61 749 63 750 65 750 _c
74 750 _l
76 750 77 749 79 748 _c
127 710 167 664 199 610 _c
231 556 254 498 269 437 _c
283 376 291 314 291 250 _c
291 202 287 156 279 110 _c
}_e{271 64 258 20 241 -24 _c
223 -68 201 -108 175 -146 _c
148 -184 116 -217 79 -247 _c
77 -248 76 -249 74 -249 _c
65 -249 _l
_cl}_e}_d
/Y{{750 0 11 0 738 683 _sc
226 0 _m
226 35 _l
294 35 329 45 329 67 _c
329 273 _l
119 618 _l
109 631 95 639 78 643 _c
60 646 38 648 11 648 _c
11 683 _l
293 683 _l
293 648 _l
246 648 223 640 223 625 _c
223 623 223 621 225 617 _c
406 319 _l
571 590 _l
575 596 577 602 577 610 _c
577 623 571 633 559 639 _c
547 645 535 648 521 648 _c
521 683 _l
738 683 _l
738 648 _l
}_e{712 648 687 643 665 634 _c
643 624 625 610 613 591 _c
419 273 _l
419 67 _l
419 45 453 35 522 35 _c
522 0 _l
226 0 _l
_cl}_e}_d
/parenleft{{388 0 97 -249 332 750 _sc
310 -247 _m
272 -217 240 -184 214 -146 _c
187 -108 165 -67 148 -25 _c
131 17 118 62 110 109 _c
101 155 97 202 97 250 _c
97 298 101 345 110 392 _c
118 438 131 483 149 527 _c
166 570 188 611 215 649 _c
242 687 274 720 310 748 _c
310 749 311 750 315 750 _c
324 750 _l
326 750 327 749 329 747 _c
331 745 332 743 332 741 _c
332 738 331 736 330 735 _c
}_e{297 703 270 668 248 632 _c
226 596 209 557 196 516 _c
183 474 174 432 168 388 _c
162 344 159 298 159 250 _c
159 38 215 -122 329 -232 _c
331 -234 332 -236 332 -240 _c
332 -242 331 -244 329 -246 _c
327 -248 326 -249 324 -249 _c
315 -249 _l
311 -249 310 -248 310 -247 _c
_cl}_e}_d
/c{{444 0 33 -10 415 448 _sc
249 -10 _m
208 -10 171 0 139 21 _c
106 41 80 69 61 104 _c
42 139 33 176 33 216 _c
33 255 42 293 61 329 _c
79 365 105 393 138 415 _c
171 437 208 448 249 448 _c
288 448 324 440 356 425 _c
388 409 404 384 404 350 _c
404 337 399 326 390 316 _c
380 306 369 302 356 302 _c
342 302 331 306 322 316 _c
312 326 308 337 308 350 _c
}_e{308 362 311 372 319 381 _c
327 389 336 395 347 397 _c
324 411 292 419 250 419 _c
218 419 192 408 173 387 _c
153 365 140 339 132 308 _c
124 277 120 246 120 216 _c
120 183 124 152 134 122 _c
144 92 159 67 181 47 _c
202 27 229 18 261 18 _c
293 18 320 27 342 47 _c
364 66 379 91 387 123 _c
387 127 389 129 395 129 _c
407 129 _l
409 129 410 128 412 126 _c
}_e{414 124 415 122 415 120 _c
415 117 _l
405 77 385 46 355 24 _c
325 1 289 -10 249 -10 _c
_cl}_e}_d
/p{{555 0 26 -193 522 442 _sc
26 -193 _m
26 -158 _l
48 -158 67 -156 82 -152 _c
96 -148 104 -139 104 -126 _c
104 355 _l
104 373 97 384 84 389 _c
71 393 52 396 26 396 _c
26 431 _l
174 442 _l
174 380 _l
192 400 213 415 237 426 _c
261 436 287 442 315 442 _c
354 442 389 431 421 410 _c
453 388 477 360 495 326 _c
513 291 522 254 522 216 _c
522 175 512 137 492 103 _c
}_e{472 68 446 40 412 20 _c
378 0 340 -10 300 -10 _c
251 -10 210 9 177 48 _c
177 -126 _l
177 -139 184 -148 199 -152 _c
213 -156 232 -158 255 -158 _c
255 -193 _l
26 -193 _l
177 97 _m
188 73 204 54 225 38 _c
246 22 269 15 294 15 _c
317 15 337 21 355 33 _c
373 45 388 62 400 83 _c
412 104 420 126 426 149 _c
432 172 435 194 435 216 _c
435 242 430 271 420 302 _c
}_e{410 333 396 359 376 381 _c
356 402 333 413 305 413 _c
278 413 253 406 231 392 _c
208 378 190 360 177 336 _c
177 97 _l
_cl}_e}_d
end readonly def

/BuildGlyph
 {exch begin
 CharStrings exch
 2 copy known not{pop /.notdef}if
 true 3 1 roll get exec
 end}_d

/BuildChar {
 1 index /Encoding get exch get
 1 index /BuildGlyph get exec
}_d

FontName currentdict end definefont pop
end
%%EndProlog
mpldict begin
216 306 translate
180 180 0 0 clipbox
gsave
0 0 m
180 0 l
180 180 l
0 180 l
cl
1.000 setgray
fill
grestore
gsave
34.2 36 m
174.6 36 l
174.6 162 l
34.2 162 l
cl
1.000 setgray
fill
grestore
0.500 setlinewidth
1 setlinejoin
0 setlinecap
[] 0 setdash
0.000 setgray
gsave
140.4 126 34.2 36 clipbox
/o {
gsave
newpath
translate
0.5 setlinewidth
1 setlinejoin
0 setlinecap
0 -0.25 m
0.0663008 -0.25 0.129895 -0.223658 0.176777 -0.176777 c
0.223658 -0.129895 0.25 -0.0663008 0.25 0 c
0.25 0.0663008 0.223658 0.129895 0.176777 0.176777 c
0.129895 0.223658 0.0663008 0.25 0 0.25 c
-0.0663008 0.25 -0.129895 0.223658 -0.176777 0.176777 c
-0.223658 0.129895 -0.25 0.0663008 -0.25 0 c
-0.25 -0.0663008 -0.223658 -0.129895 -0.176777 -0.176777 c
-0.129895 -0.223658 -0.0663008 -0.25 0 -0.25 c
cl
gsave
0.000 setgray
fill
grestore
stroke
grestore
} bind def
103.731 80.0698 o
106.926 70.3791 o
95.9285 121.557 o
101.101 84.8344 o
96.7941 127.901 o
100.268 119.265 o
108.614 85.8126 o
103.074 116.628 o
104.162 70.8006 o
103.153 71.3166 o
100.122 108.051 o
98.027 115.568 o
107.31 92.7979 o
111.13 73.1924 o
96.9206 123.973 o
94.5681 108.2 o
100.164 114.318 o
104.503 78.9646 o
97.5402 127.108 o
111.18 80.3604 o
99.8551 120.034 o
106.967 85.6258 o
106.903 70.8081 o
107.086 90.1863 o
103.697 97.5882 o
97.1853 103.405 o
105.123 84.7589 o
109.386 76.8727 o
96.9862 75.0224 o
98.0057 76.1577 o
108.035 72.0873 o
99.4445 127.493 o
105.712 117.955 o
100.95 128.676 o
105.608 125.58 o
100.714 128.859 o
109.162 103.712 o
117.56 95.3104 o
104.921 108.679 o
108.778 96.1483 o
101.234 121.251 o
105.373 93.8228 o
107.342 121.618 o
103.794 73.4069 o
111.073 120.542 o
103.621 68.7081 o
106.748 82.9131 o
102.253 82.9757 o
97.5034 94.7535 o
97.8666 130.062 o
98.3623 118.218 o
100.442 90.5447 o
107.308 83.7158 o
100.524 72.1198 o
103.866 96.8013 o
114.942 90.0309 o
96.542 109.188 o
95.4893 91.7806 o
105.437 71.4583 o
97.0973 129.81 o
108.176 99.6491 o
115.517 89.7282 o
103.395 104.28 o
101.305 128.022 o
106.853 95.6661 o
106.173 93.6861 o
105.296 78.4769 o
94.797 112.559 o
112.8 108.61 o
103.201 106.79 o
108.568 73.5721 o
99.8466 87.781 o
106.344 129.6 o
94.4734 131.112 o
99.8991 80.1811 o
88.7613 70.36 o
109.479 101.519 o
118.366 104.965 o
95.4122 91.5164 o
107.448 89.9339 o
108.309 103.512 o
103.29 92.4261 o
104.035 81.5262 o
102.874 73.6533 o
82.8409 105.294 o
91.6725 82.2855 o
100.992 117.013 o
104.224 86.4418 o
105.985 110.984 o
104.014 108.821 o
102.837 126.013 o
102.819 96.5893 o
105.639 70.0144 o
101.966 86.7631 o
92.5423 87.4409 o
106.638 110.606 o
103.138 110.964 o
96.879 87.6961 o
109.247 76.1039 o
104.112 109.861 o
109.036 109.831 o
94.2696 103.025 o
103.555 77.3517 o
98.0147 85.96 o
108.278 74.914 o
106.849 70.9801 o
107.534 65.6605 o
102.754 120.458 o
108.428 103.043 o
99.5971 129.458 o
102.368 91.1899 o
101.283 123.011 o
99.8846 126.835 o
97.9077 125.718 o
95.2708 81.9846 o
99.9688 123.296 o
111.761 89.5629 o
97.4255 85.6507 o
103.146 71.4381 o
94.7638 97.1147 o
105.48 81.9158 o
104.709 91.5863 o
104.228 96.6486 o
109.609 83.2392 o
106.773 108.906 o
107.477 70.0544 o
95.7895 88.9355 o
101.979 73.6157 o
95.1075 78.4801 o
101.598 76.94 o
95.2622 111.139 o
112.682 111.309 o
98.8123 103.605 o
106.406 93.1145 o
92.7896 85.5085 o
106.881 93.7075 o
108.676 107.34 o
93.8301 83.7192 o
99.4013 84.3867 o
107.096 93.1557 o
95.9561 81.6472 o
116.493 94.9381 o
98.4477 129.873 o
105.981 91.8735 o
105.632 90.0986 o
88.5245 93.4718 o
103.152 103.464 o
105.482 77.218 o
106.006 81.6205 o
102.53 109.09 o
90.6698 98.4147 o
105.108 111.121 o
98.6404 69.7129 o
103.547 128.612 o
106.18 106.865 o
110.19 114.233 o
103.61 96.5918 o
106.454 78.0885 o
107.723 79.1873 o
108.479 93.2245 o
107.976 71.6163 o
101.615 109.268 o
104.613 76.3127 o
104.56 116.498 o
109.205 76.7135 o
92.0864 88.8921 o
102.101 124.641 o
118.775 106.957 o
98.1218 120.535 o
101.736 80.7367 o
95.9604 81.9353 o
107.026 82.1523 o
94.3164 131.36 o
93.6668 78.6026 o
100.216 121.74 o
97.9367 118.782 o
90.4871 111.197 o
93.9823 109.888 o
107.772 80.0283 o
101.452 80.4523 o
113.344 93.173 o
105.749 116.528 o
98.4397 85.6042 o
106.579 84.1117 o
106.177 85.3859 o
105.116 118.224 o
98.9514 106.855 o
101.5 135.087 o
103.945 78.8118 o
109.879 95.273 o
100.8 94.787 o
103.218 131.553 o
98.8525 80.85 o
107.322 74.1563 o
100.934 95.0006 o
117.099 119.567 o
107.655 108.195 o
107.987 74.2229 o
103.958 73.3246 o
94.3803 118.731 o
104.769 99.1865 o
104.894 130.609 o
97.8535 132.038 o
105.809 114.648 o
104.874 92.7762 o
113.145 85.4419 o
112.809 113.246 o
103.989 96.5455 o
100.975 91.8567 o
101.968 87.2916 o
100.628 109.266 o
93.8503 137.271 o
102.982 89.655 o
108.794 105.163 o
104.887 74.2071 o
116.627 109.25 o
91.3954 84.3348 o
110.005 97.4296 o
99.6744 107.189 o
120.123 79.002 o
102.975 94.5261 o
103.887 109.877 o
100.866 89.8261 o
108.352 77.6135 o
107.591 94.5756 o
105.675 76.8552 o
100.386 117.738 o
96.6589 89.378 o
99.5151 100.561 o
91.2257 111.384 o
110.135 87.8489 o
106.615 116.989 o
108.578 119.938 o
98.848 127.168 o
94.4442 121.273 o
105.611 94.843 o
106.131 87.1366 o
111.504 75.7917 o
114.852 79.9956 o
98.187 100.42 o
101.968 133.026 o
98.789 125.236 o
98.9638 107.822 o
101.19 130.444 o
113.088 69.2106 o
97.5329 82.9779 o
96.483 78.1248 o
107.327 128.632 o
96.9673 110.166 o
93.0416 112.607 o
106.51 102.335 o
98.9786 125.231 o
102.157 103.01 o
106.902 72.8237 o
104.031 121.897 o
100.089 117.472 o
105.833 116.936 o
91.0855 90.2144 o
101.113 96.2789 o
98.7791 129.674 o
104.28 127.572 o
94.7707 116.987 o
106.716 106.57 o
106.887 67.3847 o
110.367 78.6263 o
106.1 84.604 o
101.491 85.4226 o
106.121 82.6477 o
104.488 84.9874 o
107.49 77.2157 o
91.6342 115.109 o
104.718 120.281 o
99.0362 133.342 o
103.995 98.5293 o
103.165 115.957 o
96.0229 78.4069 o
114.509 123.462 o
108.5 80.8209 o
101.57 129.905 o
102.686 76.602 o
103.634 107.034 o
100.368 133.313 o
110.374 114.259 o
99.1518 80.8534 o
94.5708 77.0241 o
105.604 118.832 o
105.364 88.123 o
111.859 114.784 o
94.9746 84.4688 o
103.581 119.994 o
108.765 82.5406 o
110.788 70.6565 o
103.031 102.785 o
122.823 79.4981 o
104.866 60.2556 o
103.574 101.764 o
108.604 115.472 o
113.632 89.9323 o
104.997 99.1624 o
107.808 117.991 o
111.192 102.489 o
97.8058 94.7226 o
108.848 129.508 o
106.156 134.913 o
103.836 91.6752 o
109.734 76.5725 o
103.26 120.983 o
109.415 97.9345 o
103.381 127.057 o
109.442 121.734 o
102.34 92.2033 o
89.659 94.8612 o
104.933 117.373 o
110.426 78.7621 o
99.8553 104.687 o
103.33 131.971 o
107.878 78.2451 o
117.324 87.8224 o
101.71 97.0403 o
97.1509 84.3645 o
99.383 129.884 o
109.351 74.2278 o
104.569 116.122 o
100.942 127.956 o
128.25 88.3045 o
93.803 89.0327 o
107.7 62.0844 o
99.7328 89.6834 o
103.33 77.9058 o
104.82 112.612 o
101.916 78.1964 o
99.563 129.696 o
106.185 89.8497 o
89.7083 83.2249 o
94.4583 91.43 o
106.487 106.748 o
95.473 129.122 o
100.423 129.055 o
106.73 86.716 o
109.45 93.6437 o
101.994 134.42 o
95.0627 78.7588 o
102.239 110.278 o
109.513 118.205 o
89.3024 96.1147 o
102.126 128.693 o
110.886 110.943 o
83.5354 110.88 o
107.553 105.682 o
100.068 119.36 o
105.613 76.6647 o
108.005 116.934 o
110.768 107.179 o
105.112 105.132 o
89.3739 108.994 o
111.413 116.187 o
101.582 103.856 o
90.6052 108.26 o
98.6428 120.769 o
108.472 85.3856 o
107.362 102.132 o
107.993 110.664 o
103.382 137.692 o
104.095 129.729 o
106.582 105.965 o
113.913 82.469 o
111.085 92.3934 o
107.082 73.1193 o
110.06 62.0731 o
101.988 95.7657 o
94.157 127.194 o
97.7738 92.8838 o
106.378 126.07 o
98.8109 75.2035 o
125.157 115.765 o
89.0695 99.2599 o
104.736 88.1277 o
96.4571 127.547 o
97.2958 84.5954 o
97.5408 83.9693 o
90.6167 95.8475 o
107.458 96.9925 o
116.071 65.7306 o
106.309 147.484 o
111.642 116.707 o
108.924 67.1313 o
106.188 121.031 o
104.474 90.2651 o
90.5643 89.0534 o
98.8293 70.4794 o
103.2 119.714 o
100.496 84.7915 o
103.716 88.4677 o
99.756 88.6234 o
99.115 85.9502 o
108.276 112.632 o
123.561 115.106 o
108.785 80.0706 o
102.048 117.915 o
113.054 110.948 o
112.995 107.214 o
105.684 78.2045 o
102.902 123.827 o
93.4455 101.62 o
102.517 88.7153 o
122.33 93.8913 o
100.107 102.335 o
107.666 93.6753 o
92.0441 94.3322 o
113.475 116.089 o
107.527 82.7874 o
110.577 122.72 o
96.8035 117.94 o
101.843 123.872 o
102.77 111.504 o
102.317 103.213 o
96.4503 112.924 o
98.34 106.436 o
112.414 145.867 o
102.066 90.9521 o
100.373 111.837 o
101.122 103.637 o
102.386 123.612 o
112.171 113.172 o
108.154 121.478 o
92.5984 105.387 o
97.2546 111.194 o
105.864 106.269 o
100.971 90.0797 o
102.412 113.186 o
96.5607 90.5954 o
114.146 127.752 o
120.798 119.75 o
112.613 105.585 o
97.7493 112.334 o
100.526 97.8791 o
105.155 102.565 o
109.228 100.225 o
117.86 113.542 o
105.013 90.6934 o
119.732 89.5949 o
100.337 119.872 o
99.6547 86.6206 o
104.574 92.0959 o
97.4842 112.803 o
104.78 106.611 o
108.947 86.3831 o
106.403 120.952 o
104.355 92.5935 o
109.404 107.922 o
107.117 80.5154 o
87.0889 112.365 o
97.8887 86.6571 o
108.038 68.6585 o
103.006 124.759 o
109.715 73.5334 o
119.934 91.9844 o
104.945 114.696 o
88.5896 93.4586 o
102.207 131.476 o
102.945 109.95 o
105.093 67.5518 o
106.205 72.9712 o
93.3095 118.495 o
100.11 85.4384 o
93.6411 137.243 o
107.372 99.9057 o
110.294 63.0124 o
91.903 113.808 o
109.44 92.2722 o
105.644 104.977 o
106.768 111.672 o
127.137 86.371 o
89.564 82.449 o
100.435 92.4162 o
104.77 69.8574 o
118.15 97.8781 o
99.055 113.74 o
106.935 105.664 o
98.6678 119.4 o
88.8064 120.302 o
109.174 72.799 o
106.733 106.09 o
106.349 86.1134 o
103.247 132.398 o
112.906 72.1426 o
104.795 93.0657 o
101.866 119.475 o
105.024 111.391 o
99.5873 124.857 o
105.068 104.291 o
106.818 80.9242 o
104.426 72.9284 o
100.107 82.1363 o
104.122 80.8971 o
104.591 91.1976 o
106.439 80.4033 o
104.737 89.2479 o
102.153 122.601 o
105.238 108.616 o
95.9749 126.292 o
106.202 131.413 o
119.028 122.742 o
108.029 108.652 o
96.2622 109.508 o
107.133 69.2784 o
105.609 122.011 o
109.743 112.461 o
102.765 97.5415 o
103.71 100.696 o
104.534 121.598 o
101.387 91.4402 o
99.764 129.336 o
103.713 83.5386 o
108.704 88.7963 o
107.771 103.985 o
109.466 86.0288 o
92.4118 90.0667 o
119.059 73.3081 o
109.329 119.227 o
116.585 80.5412 o
102.431 101.977 o
106.93 102.865 o
111.885 106.264 o
96.6329 108.613 o
104.108 126.864 o
97.4554 101.868 o
99.2418 121.987 o
101.327 108.552 o
107.817 93.2324 o
106.463 129.752 o
102.38 110.67 o
106.363 132.655 o
97.3044 91.9922 o
101.858 123.783 o
104.094 103.43 o
121.253 91.3056 o
102.063 88.8667 o
102.935 112.643 o
111.568 124.443 o
107.452 118.398 o
100.482 93.1105 o
106.568 51.3054 o
100.191 99.0838 o
114.042 124.587 o
109.41 124.985 o
105.878 106.443 o
97.3458 90.6197 o
98.4354 132.348 o
104.464 73.9443 o
101.235 86.0946 o
108.181 114.335 o
102.731 93.0401 o
98.6617 67.3548 o
108.047 79.5206 o
104.806 107.212 o
111.517 92.0947 o
104.633 85.9283 o
104.013 74.5106 o
114.481 83.5195 o
103.874 80.7974 o
127.786 84.6369 o
114.823 79.5725 o
101.462 86.9948 o
91.4849 100.409 o
107.22 99.376 o
101.728 102.623 o
102.127 107.617 o
95.4283 126.045 o
103.703 106.756 o
106.842 73.9452 o
111.883 115.011 o
91.6805 100.678 o
105.402 106.216 o
121.184 101.431 o
101.643 63.0042 o
103.185 114.911 o
106.984 129.112 o
112.392 73.8341 o
117.454 65.5324 o
109.304 103.29 o
102.614 85.5943 o
107.581 115.344 o
92.7939 95.3085 o
102.546 82.0722 o
83.4286 110.773 o
110.663 128.268 o
98.2723 87.2003 o
101.262 121.575 o
106.685 64.063 o
103.089 96.4308 o
106.437 94.6734 o
96.7111 126.871 o
100.929 123.758 o
114.947 102.733 o
113.363 68.1162 o
108.173 82.6656 o
117.83 107.827 o
103.913 78.1167 o
116.863 80.1594 o
98.834 84.6801 o
100.659 131.53 o
102.882 108.881 o
98.337 85.438 o
104.791 120.262 o
107.174 66.7318 o
95.7031 89.3147 o
115.559 79.6823 o
118.057 74.4761 o
96.4583 114.784 o
106.191 87.1827 o
93.4124 73.9434 o
85.948 98.1154 o
95.937 94.5889 o
104.485 88.9224 o
106.196 109.347 o
114.112 89.3093 o
98.0835 109.927 o
90.2082 112.294 o
104.612 103.313 o
110.326 81.6296 o
98.3939 115.572 o
106.545 67.9637 o
102.534 126.105 o
104.367 90.4889 o
108.225 129.153 o
105.706 76.1064 o
94.6703 109.815 o
102.103 123.153 o
107.108 107.112 o
99.3739 102.957 o
103.743 147.058 o
105.257 110 o
113.046 80.1178 o
118.79 68.848 o
105.362 118.877 o
108.042 100.87 o
127.237 85.8752 o
93.1653 102.913 o
90.0778 79.0929 o
106.746 109.009 o
111.11 84.645 o
114.815 100.782 o
93.9992 134.467 o
91.6135 87.2784 o
103.748 120.85 o
105.726 84.6278 o
100.02 129.3 o
103.387 125.65 o
115.214 82.7606 o
129.392 84.6889 o
107.321 103.381 o
98.1382 104.144 o
105.965 105.777 o
93.6521 95.4705 o
110.479 63.6909 o
106.949 123.145 o
102.065 124.021 o
95.4603 133.232 o
105.482 123.073 o
86.4278 95.7727 o
100.919 84.5273 o
130.06 73.0712 o
122.68 87.5904 o
100.65 100.502 o
107.648 102.525 o
94.8528 111.686 o
107.207 70.2726 o
110.397 75.2118 o
104.603 90.6397 o
111.351 105.259 o
123.553 96.6808 o
100.618 108.155 o
106.332 75.8776 o
104.398 78.5828 o
112.432 85.1825 o
101.397 95.7081 o
99.4851 102.981 o
116.953 124.953 o
104.857 135.431 o
107.57 88.5306 o
100.394 97.8496 o
110.473 126.418 o
103.661 100.127 o
104.064 107.891 o
100.085 129.166 o
97.3566 94.2833 o
111.305 102.244 o
108.745 108.346 o
106.814 115.487 o
110.69 85.8826 o
107.99 76.796 o
86.9111 94.1753 o
108.367 85.0087 o
104.555 100.807 o
121.018 96.3517 o
106.709 112.125 o
99.1647 71.1454 o
107.383 92.3972 o
100.943 126.07 o
98.4706 64.9425 o
108.908 68.2082 o
100.429 132.322 o
112.096 114.426 o
103.056 90.948 o
108.887 60.4562 o
125.15 78.944 o
104.927 102.603 o
105.872 79.7113 o
105.171 123.244 o
99.8325 109.819 o
105.718 123.1 o
99.5533 104.163 o
113.963 128.226 o
108.967 88.5142 o
104.867 120.58 o
100.379 108.064 o
116.808 85.627 o
117.542 76.0778 o
93.3288 88.291 o
103.663 104.759 o
106.068 90.9488 o
111.658 79.6473 o
104.921 116.438 o
115.052 104.817 o
104.832 119.54 o
101.459 115.578 o
114.187 78.9631 o
110.234 115.656 o
99.0969 88.2232 o
94.4355 112.949 o
114.788 112.387 o
105.47 105.92 o
102.412 113.223 o
89.784 82.8992 o
110.293 79.8821 o
102.197 131.498 o
107.54 122.512 o
116.207 78.3198 o
100.939 120.51 o
105.647 83.0091 o
99.9425 102.687 o
99.0825 103.721 o
110.258 73.2753 o
110.742 93.0261 o
98.1612 118.486 o
100.092 98.0957 o
109.862 79.71 o
98.7162 94.7407 o
103.307 100.473 o
96.4007 119.515 o
98.4235 111.992 o
110.621 83.1978 o
95.152 90.0158 o
97.7123 84.4349 o
100.434 111.639 o
104.402 78.7366 o
109.584 86.2488 o
105.149 75.4446 o
97.6672 67.9188 o
106.711 106.313 o
105.588 86.032 o
107.414 122.023 o
107.534 109.354 o
102.886 108.625 o
95.4658 115.313 o
78.141 89.52 o
106.024 125.339 o
108.855 93.522 o
98.9138 131.611 o
108.754 103.566 o
88.5937 85.5214 o
105.797 91.8479 o
107.286 71.2881 o
104.079 108.019 o
90.3137 70.0629 o
115.866 86.5853 o
105.188 79.3255 o
110.056 88.848 o
107.665 114.562 o
110.938 89.3331 o
102.422 128.976 o
95.0722 115.133 o
104.607 105.713 o
110.812 103.232 o
94.9427 86.7849 o
95.8341 77.5441 o
97.3504 65.954 o
107.979 91.0765 o
121.386 125.623 o
104.093 81.3786 o
95.0288 78.0843 o
102.427 133.169 o
109.362 77.1577 o
108.353 86.3489 o
102.13 77.0268 o
96.8584 91.2735 o
106.672 87.0861 o
106.352 77.4454 o
106.41 96.5357 o
110.866 95.8839 o
95.7298 83.3469 o
93.6841 117.598 o
105.89 102.3 o
92.8473 105.573 o
103.653 111.262 o
112.819 85.3159 o
110.306 90.9643 o
101.348 84.9077 o
106.478 120.722 o
112.65 78.7638 o
83.4178 94.6963 o
101.748 93.4465 o
103.6 93.5467 o
117.837 109.692 o
108.148 108.003 o
98.7658 61.8036 o
94.3062 63.4918 o
99.3083 108.695 o
102.681 84.9839 o
103.557 87.3628 o
105.259 75.7929 o
97.5261 91.1178 o
102.788 65.1484 o
106.659 79.7508 o
99.7291 107.883 o
96.9034 117.957 o
106.909 61.4452 o
105.448 95.4262 o
95.6129 92.4559 o
116.279 67.7181 o
109.066 97.3264 o
117.396 104.087 o
107.336 69.3399 o
104.012 124.752 o
101.258 72.8024 o
103.481 99.8602 o
98.6625 118.425 o
96.8475 109.886 o
86.0656 89.8828 o
109.576 64.6459 o
109.505 109.503 o
107.655 122.762 o
99.4621 138.865 o
95.0198 102.428 o
96.3326 83.0329 o
96.4603 134.994 o
108.483 118.382 o
109.588 103.101 o
98.6238 134.477 o
90.9197 94.3666 o
112.564 120.106 o
117.043 115.662 o
117.756 115.853 o
101.155 75.1895 o
100.312 126.66 o
97.8666 115.748 o
114.389 98.5711 o
95.2026 96.511 o
103.873 131.852 o
109.178 75.7427 o
100.795 78.8818 o
101.452 122.223 o
107.404 131.459 o
106.328 105.001 o
107.763 68.3638 o
120.501 104.897 o
95.1835 107.409 o
109.889 130.845 o
111.67 76.1837 o
109.147 88.097 o
93.651 108.319 o
89.5249 98.6383 o
114.058 115.089 o
120.609 99.7198 o
102.706 91.584 o
111.297 119.843 o
106.103 120.595 o
96.9499 98.8499 o
102.004 102.581 o
105.815 107.126 o
101.973 129.845 o
116.398 115.373 o
106.599 61.3146 o
105.451 108.634 o
94.6443 75.7047 o
95.2273 117.641 o
99.3893 100.372 o
103.05 91.5737 o
112.651 85.7421 o
86.8983 102.102 o
105.492 133.432 o
96.8585 122.507 o
104.426 110.54 o
105.754 117.11 o
104.97 93.5844 o
98.9494 72.7351 o
118.588 84.887 o
94.7594 114.685 o
103.259 108.195 o
87.4153 116.07 o
107.526 87.9564 o
91.7701 96.3414 o
104.346 112.722 o
107.23 109.249 o
100.087 114.162 o
96.2945 80.1251 o
105.453 70.2522 o
110.525 70.0402 o
91.0625 107.071 o
102.849 90.1706 o
86.8805 88.7801 o
98.9747 101.07 o
107.485 119.591 o
110.81 82.0075 o
103.115 92.5467 o
109.925 105.533 o
94.7048 91.2963 o
92.8877 95.3268 o
107.692 83.5598 o
104.234 110.259 o
97.3951 81.7465 o
113.996 105.052 o
102.752 139.601 o
98.5601 69.6325 o
103.558 116.369 o
100.925 78.8436 o
125.03 103.601 o
105.592 94.1112 o
113.053 77.0794 o
96.1882 75.0431 o
108.088 94.6041 o
106.485 118.314 o
107.392 84.4319 o
105.666 86.9936 o
100.264 98.708 o
101.411 75.4844 o
110.653 118.794 o
101.461 78.1372 o
90.7571 88.3895 o
113.937 91.979 o
100.746 127.728 o
94.3714 138.604 o
94.7925 95.6305 o
92.4738 82.8935 o
119.364 101.577 o
97.5922 131.203 o
107.284 83.6478 o
104.384 83.3715 o
99.8404 123.123 o
97.005 76.5392 o
106.361 108.18 o
110.758 86.14 o
107.62 68.6358 o
103.942 106.578 o
109.848 80.9219 o
99.4139 119.087 o
112.674 113.83 o
118.137 112.699 o
109.597 80.682 o
108.496 123.99 o
119.925 90.3083 o
100.791 85.5603 o
99.6177 104.193 o
99.8795 96.503 o
93.0726 103.223 o
115.102 112.792 o
97.5142 96.5087 o
106.337 124.716 o
102.335 119.57 o
98.958 97.6484 o
89.0711 126.627 o
112.755 71.5164 o
106.032 107.734 o
108.848 109.213 o
106.049 106.067 o
106.987 70.8068 o
104.206 117.602 o
104.778 124.67 o
117.901 105.186 o
104.88 136.285 o
113.894 99.9937 o
112.387 121.501 o
100.722 136.315 o
107.996 82.2172 o
98.9381 120.352 o
108.439 78.1803 o
100.552 62.7264 o
107.202 95.882 o
94.8736 76.1792 o
105.542 104.353 o
95.0072 85.1093 o
105.141 59.7318 o
101.373 80.7428 o
94.2459 133.946 o
108.619 78.6965 o
101.115 107.715 o
115.671 108.451 o
95.7159 133.704 o
102.962 133.426 o
108.491 118.506 o
104.154 62.761 o
110.308 82.6897 o
111.71 101.112 o
102.858 78.2805 o
102.365 126.075 o
101.651 97.0122 o
107.99 89.2213 o
110.404 80.6285 o
104.226 98.5329 o
105.368 87.659 o
105.058 110.821 o
104.202 124.473 o
95.3221 95.5999 o
120.118 124.638 o
90.6729 64.2921 o
119.96 65.4646 o
101.932 110.405 o
121.414 108.03 o
87.5365 94.3416 o
97.1847 132.502 o
95.7603 100.071 o
108.527 111.244 o
114.545 91.8592 o
99.607 117.695 o
101.61 108.718 o
105.201 56.8089 o
100.804 115.282 o
104.687 115.949 o
105.607 96.3955 o
99.1004 87.3659 o
106.939 120.607 o
108.292 77.7921 o
96.7911 110.308 o
117.913 88.0932 o
111.288 112.463 o
102.615 123.146 o
90.0532 110.375 o
106.281 72.313 o
103.374 128.397 o
101.605 115.838 o
95.3311 102.2 o
104.778 110.654 o
101.667 125.232 o
101.742 110.435 o
105.848 117.083 o
107.654 67.9375 o
105.277 83.0354 o
105.119 113.862 o
99.0514 124.82 o
120.776 79.7781 o
106.374 107.478 o
101.15 106.086 o
110.101 64.7778 o
92.98 123.077 o
111.06 128.472 o
103.396 125.259 o
95.8394 75.1143 o
107.583 118.517 o
96.1289 86.5155 o
109.686 86.1592 o
97.911 102.458 o
109.942 98.6555 o
114.288 89.776 o
108.179 67.2027 o
112.596 117.48 o
88.3873 125.975 o
101.838 125.552 o
116.595 86.8967 o
103.216 106.276 o
116.88 125.926 o
98.7534 62.8896 o
100.454 91.571 o
108.121 85.1552 o
107.573 110.907 o
105.958 126.134 o
90.7288 90.8485 o
105.449 92.1076 o
109.787 110.381 o
92.5246 96.7498 o
100.925 62.2753 o
118.178 108.745 o
97.8479 81.0811 o
93.4674 87.8319 o
107.641 70.0108 o
104.699 83.0521 o
106.214 91.0698 o
103.637 96.7023 o
97.7856 116.642 o
106.11 113.472 o
107.929 77.5773 o
103.908 87.1259 o
102.875 112.512 o
99.4113 99.5847 o
98.506 101.243 o
105.638 114.214 o
107.394 94.4587 o
95.6098 104.479 o
107.24 80.998 o
105.931 58.3969 o
103.529 97.3902 o
103.03 61.0492 o
107.966 96.7382 o
103.688 125.36 o
101.29 89.7003 o
103.641 97.357 o
93.7284 110.693 o
102.459 75.1363 o
126.038 81.7251 o
92.2561 85.0414 o
100.37 108.376 o
100.104 88.8605 o
104.755 70.2028 o
105.912 120.278 o
107.74 75.2103 o
105.008 104.115 o
126.012 116.817 o
98.3257 138.956 o
104.162 106.898 o
112.654 86.3684 o
103.149 130.494 o
94.8616 114.704 o
111.416 93.6274 o
107.649 94.2373 o
114.86 102.192 o
107.65 91.7185 o
95.1091 94.2786 o
100.307 85.369 o
98.688 80.1018 o
123.546 74.5609 o
100.352 61.6555 o
101.644 119.318 o
102.58 93.6404 o
103.563 88.2446 o
102.801 88.144 o
112.784 88.0851 o
103.178 117.175 o
106.046 75.6172 o
99.8006 100.077 o
106.344 125.053 o
98.842 129.346 o
102.469 83.4126 o
98.0683 111.157 o
97.1198 91.81 o
103.489 97.268 o
100.014 67.7032 o
100.947 69.1391 o
106.286 79.2322 o
119.946 111.386 o
105.242 134.266 o
112.612 88.0679 o
106.881 91.1592 o
103.819 109.444 o
104.238 100.796 o
112.693 86.6705 o
105.295 120.749 o
107.647 109.257 o
109.797 122.484 o
107.14 82.9803 o
111.9 116.901 o
99.0807 99.0724 o
110.538 81.3145 o
108.381 77.6764 o
107.289 82.4351 o
105.846 56.4364 o
101.445 97.0943 o
105.424 103.299 o
126.121 99.725 o
104.948 118.259 o
103.194 109.442 o
109.088 74.376 o
112.653 92.2996 o
99.3234 67.7585 o
98.974 69.9503 o
99.1287 79.1688 o
95.6103 120.693 o
104.076 105.596 o
120.545 88.4955 o
110.286 120.155 o
108.51 85.6532 o
98.3394 86.9231 o
100.861 84.7812 o
100.412 81.9065 o
99.4599 116.592 o
93.6774 79.9677 o
97.2367 121.44 o
116.78 91.5274 o
120.684 82.6822 o
101.833 129.79 o
112.574 110.491 o
112.682 73.1673 o
103.28 108.38 o
103.152 103.019 o
96.4141 102.076 o
112.567 62.9727 o
109.875 119.405 o
102.824 118.522 o
123.656 91.8973 o
107.868 98.9234 o
125.984 102.387 o
97.4627 108.804 o
104.203 92.2519 o
93.7366 110.038 o
104.354 76.6727 o
110.302 71.3103 o
113.195 83.3859 o
110.086 69.3719 o
93.3649 63.5531 o
102.629 81.8697 o
95.3932 86.3232 o
96.7394 132.777 o
108.093 122.166 o
106.29 93.4592 o
107.51 103.238 o
92.029 104.284 o
105.816 109.222 o
103.967 83.8604 o
100.131 92.3455 o
97.2092 123.525 o
93.898 109.669 o
100.213 95.0448 o
98.9958 85.5116 o
102.88 107.594 o
105.503 95.679 o
104.868 79.3801 o
111.151 84.042 o
90.3234 88.3136 o
107.882 99.2334 o
105.346 90.2782 o
100.235 106.485 o
105.052 81.5948 o
114.354 87.4021 o
112.049 65.896 o
101.9 98.2776 o
90.5291 116.199 o
103.348 111.193 o
94.8042 116.575 o
84.7085 111.377 o
112.264 103.424 o
106.535 101.414 o
105.253 114.532 o
106.79 97.2846 o
114.819 72.4007 o
104.34 70.6806 o
100.12 129.612 o
105.264 73.8404 o
113.386 98.0923 o
107.173 76.0717 o
118.871 123.456 o
128.676 98.811 o
119.178 121.123 o
100.702 91.0413 o
106.768 93.7495 o
103.322 82.5751 o
99.1631 122.019 o
106.404 76.4091 o
97.8927 79.6847 o
102.712 116.5 o
93.4059 66.2704 o
107.944 85.2038 o
114.166 123.944 o
101.419 91.6707 o
87.2645 103.235 o
103.567 113.776 o
118.933 93.5209 o
120.279 105.921 o
101.177 96.4892 o
102.891 104.703 o
98.3708 116.831 o
108.594 118.215 o
93.8608 98.2899 o
108.203 115.864 o
125.281 54.3192 o
114.26 93.9753 o
100.752 104.445 o
107.026 122.926 o
98.1883 105.677 o
119.177 101.582 o
94.4935 107.171 o
105.079 114.451 o
117.088 85.16 o
112.535 83.0662 o
97.7057 123.592 o
104.316 117.551 o
105.265 70.8541 o
99.0447 94.2199 o
104.85 98.1385 o
96.3816 88.5249 o
113.171 92.4182 o
105.17 102.116 o
107.45 108.722 o
103.907 86.9917 o
118.328 66.2175 o
128.686 79.3099 o
113.774 88.6265 o
104.873 115.227 o
102.863 121.143 o
124.319 103.545 o
109.696 62.2354 o
98.6537 88.6965 o
85.9991 83.3767 o
108.025 62.0746 o
111.797 94.0266 o
85.1004 98.3496 o
116.811 117.231 o
104.785 90.784 o
108.554 82.0554 o
117.104 69.4717 o
112.539 102.157 o
104.211 68.0673 o
116.411 91.8582 o
101.208 82.31 o
107.607 121.361 o
115.435 93.9663 o
108.599 99.4181 o
104.123 61.3413 o
110.23 122.743 o
88.3959 108.343 o
109.699 106.268 o
109.483 109.506 o
100.819 83.9918 o
98.6747 67.8035 o
107.56 59.9318 o
95.5507 94.9178 o
114.986 115.319 o
106.504 67.7027 o
102.699 86.8884 o
109.837 121.687 o
119.212 108.85 o
109.355 64.6622 o
114.594 121.099 o
96.8926 122.564 o
104.663 85.6372 o
113.021 95.9212 o
107.545 75.8451 o
104.862 115.612 o
116.29 81.01 o
94.6671 121.895 o
101.921 92.7823 o
100.396 92.7695 o
101.823 103.886 o
109.342 81.4851 o
113.893 121.592 o
110.844 106.209 o
115.368 89.5389 o
109.225 84.5836 o
109.862 111.857 o
105.314 112.634 o
96.7268 101.083 o
120.251 103.505 o
90.215 90.6635 o
104.114 60.9032 o
105.83 72.4456 o
114.047 119.945 o
120.2 85.1103 o
118.07 115.037 o
82.9442 86.4691 o
101.379 96.9776 o
112.344 64.1189 o
97.4698 99.1345 o
95.3806 61.2277 o
94.7 96.8614 o
113.273 70.1782 o
111.364 114.087 o
99.2655 107.837 o
115.513 84.4287 o
112.632 119.323 o
121.091 124.23 o
97.5298 81.326 o
105.118 75.4962 o
124.585 99.0536 o
119.489 93.4364 o
108.967 90.0694 o
92.1689 88.7825 o
104.494 86.92 o
122.998 77.3001 o
97.0368 112.32 o
104.018 78.8414 o
105.128 111.988 o
112.931 120.52 o
113.721 116.063 o
106.928 86.9865 o
106.237 119.897 o
115.879 143.785 o
90.5142 115.346 o
102.001 104.1 o
127.279 96.0993 o
81.3265 80.4294 o
111.171 109.988 o
123.348 87.1742 o
96.0251 81.7428 o
102.191 109.259 o
89.5774 97.8333 o
95.8581 120.339 o
110.404 97.7907 o
97.6978 62.8735 o
106.219 79.9086 o
109.839 123.583 o
117.427 92.7147 o
114.166 66.0174 o
101.428 104.162 o
107.665 119.463 o
94.8401 121.587 o
101.245 91.4354 o
103.174 88.2017 o
106.756 77.1217 o
114.217 118.407 o
105.239 111.904 o
101.221 127.443 o
104.387 80.5299 o
104.105 109.815 o
100.71 107.479 o
95.5067 86.0919 o
103.247 82.482 o
120.972 104.721 o
122.145 115.93 o
108.667 76.7815 o
103.64 81.8998 o
106.974 96.3737 o
97.9721 65.165 o
95.4256 114.071 o
126.474 83.3223 o
100.142 108.138 o
84.0071 82.1307 o
99.6981 117.797 o
103.574 57.6538 o
106.192 88.2815 o
106.329 95.4845 o
102.308 104.116 o
106.083 62.6279 o
90.494 107.832 o
91.527 74.6283 o
106.586 113.15 o
100.51 119.582 o
126.3 97.5249 o
106.117 128.604 o
93.7157 124.981 o
110.733 61.9367 o
98.8234 110.398 o
89.9685 88.7145 o
111.973 98.0913 o
108.988 80.0368 o
101.937 90.8994 o
89.9113 113.765 o
109.337 66.8502 o
105.443 101.608 o
104.803 94.8162 o
104.41 81.2663 o
91.7036 77.7896 o
98.0062 65.9776 o
101.032 91.2597 o
97.6002 120.586 o
103.856 80.1336 o
105.108 60.8522 o
102.756 110.272 o
115.741 101.874 o
108.244 91.0352 o
88.6398 107.231 o
102.128 110.018 o
93.7167 135.145 o
129.465 111.38 o
104.466 112.174 o
81.1573 92.6461 o
121.747 113.988 o
104.818 107.05 o
100.958 139.746 o
101.319 122.862 o
107.423 132.255 o
108.092 108.514 o
94.0163 125.583 o
111.294 122.153 o
97.8158 114.067 o
104.716 114.569 o
111.397 140.499 o
102.446 94.9267 o
101.33 96.2847 o
109.424 63.9951 o
103.686 110.062 o
101.707 91.338 o
104.89 105.597 o
100.153 106.865 o
106.445 125.953 o
120.371 128.017 o
101.425 95.1752 o
106.59 93.7945 o
123.195 87.3574 o
107.191 98.143 o
114.603 62.645 o
115.496 120.833 o
89.9374 115.263 o
92.4111 102.292 o
101.989 121.511 o
123.177 103.497 o
102.427 79.4074 o
99.0025 57.7308 o
122.629 97.6549 o
104.137 85.9035 o
94.4588 129.783 o
96.1627 90.5647 o
94.8554 137.654 o
103.809 76.3512 o
109.856 63.7989 o
105.366 70.1172 o
90.4811 85.2559 o
101.161 114.61 o
105.608 76.0833 o
108.161 104.665 o
102.089 104.799 o
103.606 88.0306 o
114.486 118.813 o
105.539 85.0519 o
123.488 77.476 o
115.764 115.487 o
109.951 120.97 o
104.253 106.685 o
99.8123 96.4142 o
97.5651 112.113 o
112.336 82.8986 o
110.692 45.0578 o
109.927 97.5958 o
104.48 125.383 o
103.511 99.7673 o
98.0698 87.3076 o
107.826 80.6036 o
104.531 130.008 o
96.4252 107.525 o
99.1609 89.5151 o
98.1787 77.4474 o
84.5978 104.067 o
108.443 79.1783 o
100.835 85.0722 o
97.2992 92.7483 o
110.372 88.4979 o
102.236 113.963 o
97.7378 88.4745 o
106.3 84.2115 o
103.328 57.8985 o
103.686 121.941 o
111.931 81.0671 o
106.626 93.8824 o
105.141 125.631 o
110.785 83.952 o
120.883 102.079 o
102.3 94.4333 o
108.646 123.131 o
101.837 80.8687 o
107.691 92.4113 o
108.252 53.9282 o
108.212 94.2326 o
105.654 106.935 o
94.3832 108.607 o
93.5698 109.575 o
108.27 93.0595 o
97.8295 124.236 o
110.177 84.7837 o
111.624 121.836 o
101.919 81.9942 o
102.032 70.2613 o
114.087 95.4252 o
91.279 100.545 o
106.345 71.5843 o
104.581 84.9233 o
111.174 107.006 o
124.459 105.191 o
108.504 76.3736 o
115.136 64.4872 o
98.3047 100.298 o
101.356 115.157 o
98.5922 120.823 o
97.7138 119.04 o
108.767 106.551 o
103.077 134.855 o
98.7387 105.149 o
100.33 62.3352 o
97.6544 98.0001 o
107.388 106.821 o
105.168 125.757 o
102.158 120.989 o
111.284 118.141 o
106.976 81.1309 o
104.307 94.3673 o
102.049 104.015 o
116.282 106.895 o
125.309 78.3594 o
108.572 116.672 o
103.161 91.271 o
95.1078 77.19 o
109.689 111.584 o
109.416 78.6228 o
116.797 133.314 o
93.1148 98.236 o
103.911 117.537 o
99.6099 81.2156 o
113.017 119.968 o
107.937 91.7203 o
89.5464 98.5021 o
99.7975 70.7217 o
100.896 73.9862 o
99.2523 68.387 o
91.9283 102.828 o
123.2 96.9828 o
102.073 119.227 o
108.861 92.0981 o
113.243 115.798 o
108.098 126.692 o
91.9264 95.8634 o
97.3136 79.2909 o
111.246 76.5893 o
108.208 100.445 o
112.101 96.112 o
104.515 99.443 o
80.9579 85.4824 o
104.983 107.784 o
106.582 75.5226 o
101.662 85.1714 o
106.773 90.7192 o
118.459 104.319 o
117.162 93.7847 o
101.332 73.7682 o
106.798 89.8802 o
99.1454 65.6204 o
97.0661 102.428 o
99.9507 94.8995 o
94.0442 99.1405 o
104.332 116.514 o
119.018 77.7222 o
115.123 83.6102 o
102.634 103.447 o
94.7898 69.9986 o
96.4505 123.597 o
122.897 94.3622 o
120.394 75.4852 o
105.04 80.5459 o
99.8385 123.689 o
105.982 101.247 o
86.4371 131.325 o
99.414 96.7768 o
116.767 110.486 o
104.455 139.71 o
108.852 89.9437 o
104.331 132.226 o
96.4812 136.171 o
102.655 110.185 o
116.479 113.48 o
121.031 93.1342 o
96.5315 85.3682 o
115.16 68.9839 o
101.275 107.759 o
76.2402 77.8046 o
92.4397 108.968 o
106.767 74.4853 o
117.688 99.5697 o
103.976 117.291 o
98.4169 113.047 o
113.083 79.8311 o
116.206 88.7012 o
118.675 64.0059 o
110.018 114.561 o
98.057 114.749 o
98.3618 86.9717 o
106.925 112.087 o
105.833 90.4825 o
108.038 111.602 o
92.3051 62.5798 o
103.255 87.6675 o
106.197 81.0796 o
93.4417 112.467 o
103.962 108.884 o
105.158 88.0195 o
113.203 80.5157 o
103.407 95.633 o
105.205 75.7325 o
107.54 88.3395 o
95.3878 82.61 o
110.295 62.5264 o
112.731 101.172 o
104.92 58.633 o
103.225 89.4536 o
101.518 120.682 o
100.111 88.9036 o
114.055 74.8359 o
102.858 101.977 o
99.5116 138.702 o
114.458 91.2633 o
95.4392 101.087 o
118.92 68.9039 o
75.8166 112.704 o
109.629 79.2492 o
89.4846 76.1916 o
117.976 78.123 o
117.734 96.9141 o
95.8393 112.695 o
103.2 106.556 o
98.0801 85.672 o
106.684 62.8605 o
104.672 115.526 o
84.9445 92.587 o
114.885 105.92 o
123.95 98.7272 o
93.655 106.279 o
110.884 113.578 o
105.898 147.231 o
110.893 76.6772 o
104.09 88.4678 o
98.3738 114.601 o
86.7933 90.716 o
114.057 115.177 o
94.4648 115.046 o
104.31 83.6805 o
94.8222 71.2615 o
106.02 94.9011 o
117.629 88.5682 o
105.657 82.2954 o
99.1515 110.502 o
89.4282 89.5062 o
120.22 99.2209 o
127.298 96.7977 o
96.123 129.21 o
101.642 120.492 o
104.828 99.973 o
97.382 119.338 o
91.5421 92.8458 o
96.5645 135.591 o
107.938 94.1029 o
100.087 76.3653 o
103.239 116.605 o
91.3029 99.3386 o
100.5 77.4631 o
109.043 131.998 o
110.213 88.2577 o
101.158 81.5019 o
102.301 76.0544 o
109.375 127.917 o
117.366 90.8035 o
112.739 84.0356 o
115.206 117.789 o
102.038 125.956 o
126.242 87.2874 o
103.687 108.668 o
100.22 80.3982 o
109.392 50.3143 o
114.421 58.2063 o
89.73 92.0914 o
97.455 78.9737 o
109.429 100.752 o
89.6951 90.5467 o
120.537 82.9359 o
86.5729 87.282 o
110.848 76.2895 o
105.587 102.613 o
111.198 67.7532 o
96.5499 109.907 o
105.359 115.581 o
125.625 99.0673 o
123.01 97.426 o
110.705 77.2586 o
109.921 94.8452 o
105.22 118.241 o
101.75 108.799 o
106.967 74.4013 o
99.5605 90.6698 o
97.373 100.957 o
117.324 108.526 o
101.088 96.3271 o
105.225 85.3567 o
110.664 129.383 o
111.611 105.626 o
131.298 103.798 o
123.413 70.2331 o
121.058 80.8716 o
109.894 71.7378 o
108.539 124.928 o
102.11 123.567 o
112.344 96.5234 o
110.839 117.231 o
106.186 120.311 o
109.587 98.5417 o
101.403 117.415 o
93.2748 75.6196 o
117.055 87.8776 o
105.822 74.5429 o
102.285 79.5297 o
103.347 131.614 o
127.244 104.84 o
102.613 115.2 o
105.099 59.1315 o
106.736 106.287 o
101.833 90.9401 o
102.733 110.548 o
92.5412 98.8798 o
115.196 84.4443 o
100.419 57.0912 o
93.7836 89.6952 o
98.6163 65.3815 o
100.704 91.0343 o
105.396 51.905 o
90.4221 87.7039 o
107.258 114.721 o
103.872 95.5511 o
100.279 121.194 o
111.781 71.0148 o
102.927 107.589 o
104.279 65.2054 o
100.335 86.2732 o
102.53 93.8044 o
104.033 58.8639 o
105.816 68.4466 o
119.975 84.7874 o
108.76 95.0419 o
115.552 96.7918 o
112.674 128.159 o
111.002 76.2001 o
110.976 114.117 o
102.287 62.5677 o
109.76 100.927 o
118.136 72.6946 o
100.84 119.252 o
105.041 91.3149 o
104.154 112.68 o
112.389 101.183 o
117.984 110.343 o
106.446 89.2138 o
92.3396 85.2416 o
129.878 106.959 o
110.241 111.819 o
120.35 56.4631 o
94.5216 100.089 o
100.241 102.092 o
118.417 113.816 o
104.738 50.3311 o
99.343 69.1262 o
97.839 97.3487 o
127.372 82.5417 o
121.066 93.2757 o
101.915 113.987 o
117.97 56.722 o
120.008 67.3428 o
98.5525 120.055 o
102.302 94.6928 o
98.2828 122.376 o
126.91 64.9353 o
102.59 98.386 o
100.147 93.528 o
101.623 93.607 o
109.188 122.398 o
99.3367 108.676 o
103.332 120.628 o
114.509 80.8805 o
103.872 108.39 o
113.249 123.105 o
93.9331 105.126 o
88.525 100.784 o
105.628 98.4762 o
122.411 98.5543 o
109.823 125.995 o
105.959 66.4329 o
100.679 115.851 o
103.648 81.1127 o
108.093 96.3205 o
104.003 62.8739 o
105.737 119.008 o
105.005 109.369 o
116.32 118.438 o
83.6226 102.677 o
113.098 98.8879 o
108.586 120.43 o
109.405 101.929 o
93.7529 67.4209 o
109.514 77.5917 o
99.9323 118.195 o
106.752 113.124 o
103.066 121.407 o
98.5723 95.8341 o
102.067 99.5694 o
99.63 97.0857 o
92.4593 90.6631 o
90.9294 71.1893 o
109.078 88.5541 o
93.2332 91.6263 o
98.3225 87.7855 o
84.4852 110.058 o
101.083 124.752 o
102.598 109.434 o
101.263 124.896 o
114.863 59.8406 o
97.5388 92.3927 o
100.757 75.9779 o
88.4937 90.3635 o
100.299 82.8512 o
96.1251 91.4978 o
92.7204 124.301 o
99.1899 68.0516 o
87.6071 75.089 o
98.1936 99.2627 o
85.7328 70.9397 o
115.687 122.155 o
108.741 92.1813 o
83.2209 105.856 o
120.278 112.576 o
113.916 119.885 o
91.0449 83.2966 o
93.3504 106.152 o
101.436 105.935 o
95.7238 81.8303 o
98.5935 93.592 o
97.8709 58.737 o
106.011 119.414 o
99.5208 62.9743 o
90.3523 97.796 o
104.526 105.982 o
111.235 103.234 o
99.8597 128.887 o
118.077 84.0823 o
95.5249 98.7238 o
112.778 109.369 o
103.533 121.431 o
103.584 103.08 o
107.31 119.398 o
98.584 131.177 o
97.6044 101.687 o
98.7919 62.31 o
99.1568 64.3131 o
113.266 47.988 o
120.909 92.5474 o
112.673 114.905 o
118.307 97.1277 o
100.534 79.318 o
108.039 92.3229 o
103.325 84.9071 o
109.923 111.263 o
102.459 79.6568 o
123.742 105.435 o
102.76 87.5016 o
111.52 76.8633 o
105.549 103.861 o
114.152 84.5739 o
102.038 97.279 o
113.444 125.891 o
111.973 77.6743 o
103.71 114.537 o
109.368 102.508 o
113.559 67.3007 o
95.5141 90.004 o
97.541 89.9848 o
114.239 55.8106 o
109.877 84.566 o
109.877 82.2187 o
116.673 84.6309 o
102.686 113.077 o
99.9816 134.545 o
90.9947 112.412 o
124.217 110.636 o
110.03 109.203 o
91.7393 94.5997 o
91.4122 61.3445 o
109.898 99.0037 o
102.075 105.457 o
109.489 61.736 o
110.334 68.183 o
95.5685 78.6095 o
105.474 83.1765 o
102.964 76.6567 o
99.0876 75.3389 o
106.872 123.397 o
109.778 112.18 o
105.866 105.446 o
107.475 118.795 o
93.3771 84.3378 o
124.147 107.5 o
122.336 69.7686 o
92.0898 91.9005 o
104.847 99.7726 o
92.2117 66.2468 o
100.973 93.0665 o
99.4061 76.5336 o
104.463 99.3481 o
95.6707 99.9537 o
107.025 75.5543 o
102.599 112.114 o
94.0264 138.548 o
122.201 88.0673 o
105.345 58.1141 o
101.924 57.3245 o
89.6035 132.809 o
112.155 124.62 o
123.03 90.4883 o
111.648 81.8402 o
104.211 80.8966 o
117.004 100.194 o
118.331 94.0891 o
94.1306 120.393 o
90.1201 89.9272 o
93.4877 65.4553 o
117.288 95.0656 o
104.569 94.3027 o
106.171 85.5567 o
99.5554 84.9153 o
93.8366 92.8125 o
90.0135 104.56 o
107.939 81.8301 o
101.667 125.675 o
88.7797 86.0082 o
108.855 102.797 o
119.878 102.423 o
92.4684 108.42 o
94.5919 115.064 o
94.4145 87.4133 o
94.2608 111.228 o
105.567 128.295 o
93.7064 98.972 o
120.738 69.7368 o
101.815 97.1479 o
105.379 86.5614 o
104.484 87.4814 o
115.104 89.9756 o
103.773 118.389 o
94.1774 94.9043 o
103.206 113.844 o
122.31 62.6252 o
96.3569 132.004 o
100.472 65.6827 o
109.619 124.715 o
114.037 103.169 o
125.701 80.9072 o
102.071 66.2135 o
104.245 114.05 o
109.309 61.0531 o
124.847 95.934 o
96.5124 90.9743 o
100.616 68.0605 o
112.685 92.4603 o
117.001 92.3152 o
108.105 106.392 o
112.848 59.5222 o
108.196 86.9656 o
104.741 93.6151 o
112.184 96.6279 o
122.452 89.7764 o
100.807 66.0276 o
118.002 74.6415 o
104.453 89.1982 o
109.186 100.527 o
113.725 102.078 o
97.0174 119.743 o
112.47 119.434 o
91.3604 103.762 o
102.345 122.795 o
107.776 128.316 o
126.744 105.261 o
91.0278 116.858 o
102.933 106.075 o
108.943 67.5726 o
107.661 92.6367 o
105.04 73.7061 o
95.6786 73.2239 o
120.604 63.8987 o
107.776 64.1601 o
100.508 86.113 o
106.451 96.327 o
90.91 116.571 o
104.921 74.3545 o
107.396 47.4348 o
103.889 101.035 o
115.478 89.2952 o
111.739 123.595 o
99.4701 96.6063 o
108.218 103.113 o
99.4925 114.035 o
99.1091 124.176 o
92.4546 105 o
102.665 79.9884 o
101.111 93.242 o
86.8568 90.5242 o
109.851 85.5051 o
105.424 121.4 o
90.8287 92.9254 o
126.172 83.9931 o
88.2327 112.379 o
112.23 78.2365 o
115.542 58.9627 o
89.58 101.893 o
93.3983 72.1965 o
98.5224 81.5141 o
100.912 110.744 o
128.083 119.231 o
108.503 58.7249 o
103.625 97.9375 o
115.388 91.178 o
103.692 62.643 o
105.238 109.701 o
114.983 89.3236 o
108.089 63.9984 o
105.608 114.818 o
104.156 104.709 o
92.6069 95.7375 o
87.9459 114.591 o
125.627 82.8082 o
94.0602 82.9465 o
100.783 107.457 o
118.106 97.1919 o
101.251 87.0818 o
110.663 115.113 o
111.556 99.0669 o
105.166 115.841 o
97.3144 102.516 o
114.235 130.854 o
105.165 62.9866 o
93.6975 88.0301 o
113.999 102.003 o
92.2217 71.7263 o
107.802 116.161 o
119.537 73.4322 o
113.459 125.218 o
112.749 85.018 o
107.744 80.6914 o
90.857 95.9465 o
112.795 73.6179 o
105.374 118.9 o
116.613 66.2784 o
107.305 77.1149 o
107.682 62.4406 o
103.632 104.76 o
99.3955 69.21 o
117.079 78.9666 o
113.007 81.3181 o
104.842 99.082 o
117.8 90.5162 o
85.9078 97.7323 o
109.095 120.418 o
111.282 80.1196 o
98.1881 133.318 o
130.387 148.996 o
123.172 98.9302 o
104.649 82.9081 o
109.257 123.125 o
120.594 123.365 o
105.62 105.284 o
105.205 112.249 o
95.8658 85.1123 o
103.506 119.077 o
117.778 103.595 o
109.533 124.412 o
135.444 95.4071 o
106.136 79.6273 o
122.013 121.902 o
100.788 89.8013 o
112.606 88.4595 o
102.512 107.835 o
84.7432 83.0928 o
108.577 102.885 o
103.381 83.2075 o
119.484 53.9622 o
108.171 120.289 o
89.7875 98.4303 o
104.599 106.637 o
90.3187 84.6892 o
101.548 61.7947 o
84.3183 74.5069 o
120.157 86.6431 o
104.243 100.722 o
114.383 110.631 o
96.1406 117.189 o
105.515 98.0492 o
120.635 116.155 o
92.4489 76.992 o
98.4379 99.3707 o
103.595 92.0299 o
109.658 65.9145 o
106.943 54.2349 o
108.04 87.2319 o
108.209 84.4491 o
105.847 79.4462 o
102.443 58.6639 o
98.0765 86.3852 o
92.7011 89.8443 o
97.3498 91.2201 o
103.709 116.77 o
103.002 136.04 o
99.4219 59.9696 o
79.4205 88.3429 o
111.788 70.3861 o
110.057 108.816 o
87.6527 93.289 o
110.125 91.377 o
103.978 118.484 o
118.069 66.0853 o
110.447 63.4585 o
110.986 120.178 o
100.702 83.6524 o
113.72 81.8207 o
87.5237 107.671 o
131.581 87.9306 o
103.571 106.706 o
85.3097 117.171 o
111.23 114.307 o
105.541 117.166 o
106.537 100.609 o
95.0292 81.7284 o
96.0727 122.584 o
113.259 103.241 o
116.947 111.553 o
91.6951 86.3866 o
103.714 121.879 o
104.376 103.758 o
128.558 71.918 o
104.997 92.5724 o
100.826 67.5461 o
112.209 128.55 o
106.986 51.7628 o
101.727 81.5986 o
93.7615 102.209 o
102.388 90.8033 o
97.4845 75.1582 o
111.067 74.5046 o
120.814 74.0736 o
111.71 94.5218 o
97.6367 117.976 o
102.262 63.5467 o
108.535 88.847 o
107.388 126.617 o
102.953 95.9623 o
95.5189 98.2262 o
85.8314 115.018 o
95.0212 111.747 o
114.476 66.542 o
120.606 66.6223 o
94.355 133.174 o
108.536 120.031 o
105.061 77.6147 o
92.2458 100.545 o
111.121 104.536 o
103.598 85.5645 o
75.4045 108.549 o
105.907 115.464 o
115.298 118.727 o
109.752 110.015 o
97.8242 118.122 o
109.152 86.7012 o
97.3722 88.7468 o
84.6188 104.174 o
121.331 66.1436 o
97.0597 115.913 o
115.192 67.2419 o
131.191 70.4348 o
105.351 64.3432 o
108.509 89.9637 o
94.9939 83.044 o
90.0586 92.1162 o
111.205 89.9636 o
112.74 107.888 o
103.973 99.3712 o
109.184 106.025 o
102.925 119.371 o
95.0212 118.46 o
99.3537 116.787 o
109.728 94.8192 o
110.193 116.705 o
110.834 95.6203 o
100.817 106.584 o
109.042 96.1918 o
92.7061 107.133 o
106.065 92.65 o
95.7382 114.065 o
95.7026 88.1355 o
129.363 95.9701 o
100.102 122.42 o
97.4472 78.3275 o
93.7103 83.0126 o
86.5653 114.023 o
109.471 91.5571 o
120.871 100.32 o
101.225 89.5602 o
106.379 106.549 o
98.4142 76.8581 o
116.594 90.2758 o
109.57 62.3144 o
102.968 100.825 o
107.192 121.844 o
108.005 104.176 o
97.643 125.593 o
102.182 59.7441 o
108.496 116.86 o
106.119 93.3176 o
107.63 105.231 o
101.689 108.742 o
101.821 76.2291 o
126.221 97.6501 o
109.6 96.335 o
105.891 91.9635 o
105.974 114.521 o
110.232 90.7222 o
114.993 89.2783 o
97.8562 63.5415 o
106.577 105.13 o
95.8979 96.2418 o
99.4984 101.687 o
111.245 112.077 o
107.488 107.865 o
96.3423 89.8878 o
109.364 84.0938 o
99.1139 114.776 o
105.87 81.7792 o
97.1048 111.552 o
80.5475 105.664 o
113.148 47.3978 o
105.564 95.9329 o
111.433 118.45 o
109.68 81.1726 o
103.638 89.8121 o
88.0607 113.058 o
101.338 89.734 o
96.7913 109.124 o
115.792 106.463 o
104.691 79.7137 o
97.0719 63.6837 o
95.331 63.5716 o
123.785 106.814 o
107.616 105.528 o
98.9015 113.221 o
115.836 76.9282 o
107.424 119.947 o
101.938 123.084 o
94.6031 93.6519 o
95.0523 123.45 o
115.764 102.981 o
96.5525 120.935 o
100.121 93.0182 o
107.869 86.8911 o
94.1585 129.09 o
101.436 66.5682 o
102.061 92.5444 o
117.896 93.1571 o
111.802 110.803 o
98.9208 90.0531 o
98.5676 110.995 o
103.879 92.0858 o
102.799 119.651 o
106.41 97.2826 o
94.127 107.338 o
102.258 102.141 o
105.756 94.5719 o
97.1459 111.657 o
99.5472 84.5344 o
110.125 86.3888 o
103.19 117.845 o
105.024 103.705 o
115.79 92.7468 o
160.615 81.5398 o
104.903 117.295 o
99.7324 108.208 o
105.936 69.2478 o
107.995 75.4448 o
101.23 94.3445 o
97.1854 140.61 o
95.1285 94.3716 o
94.5017 80.4286 o
102.069 77.051 o
119.471 88.2275 o
118.25 120.74 o
85.0426 78.9345 o
114.034 105.421 o
104.256 91.7164 o
90.5584 102.972 o
114.034 70.3089 o
107.48 75.6983 o
115.723 131.328 o
99.2503 123.985 o
123.636 88.4027 o
105.719 100.736 o
103.637 98.535 o
85.3585 119.316 o
114.209 71.1021 o
120.516 105.338 o
110.452 122.457 o
96.7303 73.7327 o
97.1063 98.807 o
106.107 60.4368 o
108.014 69.7793 o
104.439 110.138 o
103.555 83.3957 o
85.6256 146.181 o
99.0253 96.3071 o
113.438 108.201 o
101.746 79.85 o
98.9359 93.734 o
112.28 110.682 o
107.611 75.549 o
92.9624 105.353 o
106.04 106.04 o
91.1271 87.5228 o
85.1957 76.2409 o
116.588 109.319 o
90.0301 77.5177 o
110.327 76.4546 o
102.576 65.2906 o
96.9814 89.8109 o
102.103 64.7533 o
99.8161 124.256 o
104.542 95.1047 o
87.496 112.306 o
105.949 62.3626 o
93.0901 113.694 o
99.8627 126.709 o
98.8515 90.1489 o
109.093 70.9915 o
100.992 95.7129 o
119.669 117.526 o
120.528 78.4455 o
89.6802 107.917 o
112.552 117.907 o
106.222 91.7686 o
117.913 125.68 o
97.4783 96.8188 o
117.389 65.4515 o
105.899 109.159 o
97.3039 107.134 o
90.1757 93.9964 o
123.492 102.697 o
108.309 85.2293 o
91.9315 90.1682 o
103.606 59.7227 o
104.687 132.303 o
104.286 109.721 o
109.416 78.1259 o
86.5295 107.01 o
97.1083 103.411 o
91.8007 86.8693 o
108.049 72.1409 o
91.5791 118.45 o
108.026 100.254 o
118.603 82.9568 o
106.998 113.524 o
101.443 76.8949 o
114.328 110.421 o
92.6704 98.471 o
121.014 102.014 o
107.442 94.6414 o
104.742 71.6143 o
89.486 114.151 o
100.675 106.522 o
110.029 79.7368 o
98.7465 73.5311 o
106.113 121.58 o
117.155 122.525 o
88.3614 106.835 o
96.3581 99.5828 o
104.995 119.554 o
101.679 65.5929 o
89.1379 116.069 o
106.77 83.3115 o
110.742 118.273 o
99.9585 81.919 o
108.42 129.633 o
111.211 68.9169 o
106.171 86.2472 o
109.922 115.64 o
98.2603 118.217 o
110.537 102.211 o
114.277 124.3 o
111.265 65.7782 o
94.5981 62.4703 o
97.5892 119.949 o
104.663 94.3167 o
106.835 85.5355 o
93.5131 128.111 o
92.9158 113.932 o
112.151 117.667 o
105.784 102.631 o
92.3071 92.7227 o
102.736 92.8212 o
93.7783 79.2331 o
101.402 90.426 o
110.049 90.0082 o
102.711 76.5607 o
115.831 104.065 o
95.7136 111.923 o
116.985 96.059 o
107.123 112.181 o
105.817 111.748 o
101.554 65.1788 o
103.25 52.7216 o
92.4034 89.5628 o
95.4889 107.4 o
94.4032 129.45 o
116.435 130.919 o
120.344 48.1997 o
100.612 74.3144 o
94.6155 117.634 o
112.487 75.3064 o
116.763 74.2578 o
82.3838 94.1823 o
91.6496 109.128 o
101.093 109.612 o
89.0318 101.989 o
94.4113 64.9478 o
95.0222 80.2226 o
95.3266 84.1356 o
91.5029 112.87 o
107.224 58.6282 o
114.359 103.716 o
81.4814 84.2877 o
101.011 104.808 o
96.502 105.323 o
105.531 105.463 o
102.583 104.838 o
106.312 112.226 o
93.7996 70.1467 o
108.458 70.3929 o
108.148 93.1711 o
98.748 115.918 o
99.9914 85.4494 o
105.205 79.2919 o
93.7537 113.304 o
133.806 114.702 o
114.941 86.988 o
103.712 111.678 o
91.0707 98.0362 o
109.902 88.2988 o
95.9963 96.1207 o
102.296 88.7164 o
105.293 85.4306 o
108.786 59.621 o
80.4132 77.3603 o
116.602 101.895 o
94.6926 114.519 o
104.727 82.7372 o
110.818 99.4223 o
103.366 90.733 o
118.967 77.7237 o
121.844 101.558 o
115.266 83.436 o
96.0091 87.0506 o
91.191 93.9963 o
114.877 92.6864 o
108.154 69.0782 o
115.896 115.032 o
113.061 131.953 o
103.85 116.78 o
93.2113 77.3152 o
118.26 98.4216 o
98.8067 129.87 o
111.835 100.347 o
114.467 90.576 o
121.357 89.4517 o
100.266 88.795 o
107.337 87.7902 o
104.237 80.5366 o
105.187 91.2807 o
122.95 76.6379 o
114.513 52.2687 o
90.9716 127.114 o
84.6225 89.2617 o
105.472 111.953 o
102.126 117.042 o
98.7501 91.5332 o
110.33 98.7419 o
109.884 118.832 o
112.146 118.894 o
89.5337 94.9183 o
108.957 76.6031 o
105.97 90.0328 o
109.594 72.5517 o
101.534 100.192 o
98.4278 82.5001 o
100.878 96.3824 o
122.218 109.068 o
97.2629 105.432 o
105.002 105.99 o
100.988 63.9202 o
117.629 77.365 o
106.915 86.3234 o
110.455 85.3218 o
114.633 87.7324 o
103.252 76.8958 o
109.433 122.083 o
110.537 79.4103 o
112.767 116.818 o
99.191 62.0215 o
96.0363 89.8541 o
112.136 80.4388 o
97.4352 92.0835 o
112.875 88.6335 o
98.6678 117.726 o
120.673 105.202 o
103.152 112.501 o
102.006 129.492 o
119.308 96.1281 o
116.584 116.927 o
107.72 97.1609 o
94.7506 102.265 o
94.8589 74.4517 o
95.3636 102.204 o
93.5984 92.701 o
98.9548 121.871 o
108.58 126.513 o
104.502 134.217 o
95.609 112.966 o
102.673 92.7905 o
116.228 113.178 o
120.922 88.0652 o
99.0193 84.8874 o
89.1461 72.2741 o
107.635 98.816 o
94.1436 91.2713 o
105.686 60.5078 o
106.246 55.0596 o
108.206 119.721 o
106.609 128.215 o
109.924 84.8708 o
114.425 103.361 o
99.8051 59.3651 o
108.124 120.893 o
91.6429 118.214 o
98.6944 124.469 o
96.331 117.304 o
98.4406 104.111 o
110.516 67.8568 o
100.382 57.704 o
98.9849 94.3591 o
93.4544 112.185 o
99.874 105.62 o
125.524 84.8955 o
107.721 96.6595 o
100.093 120.211 o
122.388 99.4835 o
117.216 104.898 o
92.8107 92.663 o
106.057 111.571 o
99.5146 87.4024 o
105.049 109.835 o
106.408 104.873 o
118.505 87.7789 o
118.868 85.3154 o
96.7594 86.4538 o
119.464 64.1455 o
85.0104 115.681 o
109.357 105.106 o
101.398 91.525 o
103.083 76.7863 o
108.433 84.9352 o
103.157 75.4393 o
118.095 123.492 o
85.7969 100.211 o
100.788 104.918 o
97.8581 113.003 o
119.896 70.2413 o
100.14 126.01 o
101.073 127.519 o
121.795 108.519 o
133.442 99.9534 o
96.9701 112.798 o
119.339 82.4707 o
106.766 84.8199 o
99.8899 87.9562 o
113.507 89.6348 o
97.3336 89.1204 o
112.456 80.1856 o
115.136 111.96 o
114.052 88.9399 o
108.099 118.67 o
113.142 100.598 o
92.2208 98.8412 o
110.171 117.808 o
87.9932 95.372 o
90.0224 69.1317 o
106.014 111.853 o
101.134 95.1943 o
93.1626 107.521 o
111.928 52.5824 o
106.409 91.6333 o
105.427 69.5959 o
112.75 110.395 o
103.57 45.5426 o
107.997 94.1006 o
107.37 116.246 o
112.116 117.197 o
105.637 75.744 o
73.862 55.47 o
100.067 123.386 o
106.305 92.0382 o
103.618 82.888 o
102.857 126.728 o
117.885 65.831 o
105.545 66.6167 o
101.733 48.1675 o
105.558 116.616 o
103.662 66.3491 o
105.655 117.844 o
101.985 85.5247 o
95.512 122.261 o
95.3922 77.9945 o
113.164 84.0652 o
105.398 109.884 o
99.6947 101.511 o
105.064 108.757 o
98.6268 63.4318 o
88.8094 130.249 o
88.9944 91.1848 o
114.472 77.0396 o
91.4983 101.882 o
93.497 113.158 o
106.591 106.809 o
100.329 140.496 o
104.131 105.584 o
105.874 126.755 o
86.4502 87.5259 o
95.1816 94.1018 o
88.3717 102.22 o
96.6258 79.965 o
110.747 88.3482 o
108.146 79.0717 o
148.354 91.4362 o
105.708 81.3921 o
101.511 115.277 o
103.352 96.5609 o
111.486 84.4531 o
99.6255 114.356 o
106.593 93.4359 o
111.326 94.3511 o
126.263 99.7817 o
105.384 122.711 o
100.358 93.3133 o
105.629 101.048 o
94.0939 113.244 o
95.8772 68.8682 o
112.217 62.4123 o
108.741 113.667 o
134.689 88.8762 o
109.691 105.2 o
89.4538 82.4681 o
99.8835 104.255 o
107.421 98.1341 o
93.438 114.897 o
105.891 125.446 o
88.6171 83.0223 o
107.681 100.889 o
97.2023 83.6822 o
81.1189 120.833 o
109.717 128.03 o
109.962 118.247 o
102.546 101.181 o
91.7625 91.5182 o
99.0583 103.445 o
99.8323 115.56 o
101.345 89.0978 o
101.015 77.2409 o
112.069 72.3052 o
97.3551 117.36 o
115.734 120.194 o
124.269 113.583 o
98.2532 94.3092 o
107.051 61.4024 o
91.7233 94.344 o
100.297 109.54 o
101.773 106.173 o
115.779 120.069 o
107.375 73.7895 o
123.667 68.0485 o
95.5055 107.209 o
103.301 110.029 o
107.3 92.719 o
124.819 54.0623 o
109.687 75.5147 o
106.992 117.6 o
96.5246 114.376 o
95.0496 80.2452 o
88.9049 120.265 o
115.216 127.484 o
110.98 97.1264 o
98.5261 79.7565 o
106.459 82.4968 o
95.183 112.586 o
123.928 123.827 o
104.899 118.588 o
114.668 47.6899 o
107.087 126.174 o
119.922 91.8397 o
104.945 104.184 o
95.814 80.3178 o
102.276 91.6938 o
121.382 62.677 o
114.586 120.713 o
107.173 105.329 o
100.544 114.535 o
54.9593 90.2683 o
105.941 92.0337 o
89.4628 121.949 o
112.95 97.0356 o
97.4659 83.1793 o
86.4907 139.139 o
96.6151 67.485 o
108.251 106.896 o
83.4254 113.933 o
92.084 105.414 o
113.452 114.019 o
96.6727 112.691 o
122.005 79.3377 o
115.883 121.408 o
118.84 115.244 o
111.077 118.157 o
104.867 68.5871 o
94.2814 65.9237 o
115.213 111.026 o
103.703 55.5694 o
101.64 106.211 o
95.2831 111.228 o
105.187 113.488 o
105.64 88.7965 o
103.074 110.69 o
87.7244 74.5664 o
126.662 104.88 o
107.982 123.947 o
117.512 98.7632 o
110.375 105.051 o
127.009 79.2579 o
96.8537 93.1566 o
97.4773 81.9717 o
130.614 122.824 o
101.694 106.828 o
108.123 90.4452 o
111.468 129.862 o
111.107 117.009 o
109.575 117.085 o
104.073 118.249 o
88.0858 85.6387 o
101.868 132.349 o
104.369 123.184 o
107.135 84.5336 o
79.4502 108.412 o
110.475 97.7804 o
107.254 105.321 o
125.226 106.592 o
117.679 125.803 o
106.658 133.65 o
105.807 108.619 o
100.264 119.504 o
112.289 44.2127 o
100.83 125.134 o
105.851 118.923 o
107.295 98.5665 o
94.5207 87.4314 o
108.669 88.8445 o
117.352 75.1739 o
119.624 105.202 o
108.429 114.744 o
105.759 119.933 o
106.428 57.1967 o
126.35 62.8654 o
115.975 103.416 o
107.084 78.1706 o
124.088 69.1678 o
108.629 114.701 o
105.283 103.139 o
105.526 83.748 o
111.448 86.8814 o
80.3404 132.088 o
104.637 57.5308 o
97.0451 92.9941 o
114.252 104.091 o
112.991 124.88 o
107.788 105.143 o
96.1314 119.945 o
123.897 91.0513 o
107.641 96.3573 o
83.8937 100.28 o
100.004 134.667 o
108.217 77.2833 o
104.189 87.9922 o
116.806 59.9973 o
99.776 116.599 o
101.206 113.058 o
111.349 74.4562 o
99.8484 136.602 o
94.5003 93.5434 o
118.914 108.397 o
112.657 112.84 o
85.0775 104.306 o
106.6 108.355 o
103.277 117.928 o
99.3724 82.578 o
106.296 105.538 o
100.757 109.492 o
107.181 121.9 o
89.0876 107.739 o
118.273 70.873 o
113.199 108.386 o
115.717 137.013 o
98.4183 96.2691 o
106.412 94.0215 o
100.423 84.8879 o
112.994 102.672 o
104.985 116.913 o
97.9747 133.342 o
93.4187 85.3821 o
107.464 118.307 o
120.819 124.694 o
108.45 94.3887 o
108.952 83.5112 o
96.6682 82.4343 o
102.885 98.1873 o
110.25 92.2251 o
111.717 117.108 o
111.395 116.383 o
116.028 103.161 o
105.365 77.8548 o
101.797 117.049 o
114.511 118.551 o
102.343 104.845 o
104.396 54.7108 o
163.658 81.4725 o
101.23 122.399 o
102.902 137.674 o
87.7093 96.9625 o
147.655 101.461 o
113.464 108.441 o
100.01 83.0156 o
89.8782 102.539 o
128.981 87.712 o
89.9544 108.784 o
89.6696 115.73 o
107.703 52.113 o
97.9856 137.759 o
110.91 59.2096 o
96.3715 87.4462 o
127.208 111.901 o
122.956 101.078 o
115.559 114.108 o
109.636 77.4924 o
106.139 109.044 o
114.733 58.8519 o
112.555 94.1251 o
100.01 113.823 o
106.731 84.3037 o
102.514 109.189 o
103.543 97.7256 o
97.0473 117.464 o
107.299 115.291 o
116.013 98.6913 o
114.848 85.3315 o
116.709 90.6977 o
107.866 101.777 o
82.1157 84.5299 o
100.934 85.6004 o
106.101 97.3755 o
101.936 74.7525 o
98.2757 124.02 o
111.956 99.2201 o
108.505 89.7081 o
113.506 109.303 o
105.571 127.674 o
115.517 111.585 o
106.609 132.348 o
99.8152 72.4089 o
100.257 101.334 o
107.999 123.38 o
112.27 71.0167 o
120.507 97.302 o
104.517 65.3854 o
106.623 60.7704 o
108.768 87.4497 o
111.266 87.3962 o
114.808 106.725 o
91.6819 115.195 o
102.846 60.5924 o
87.9447 110.591 o
98.7906 78.864 o
109.997 112.023 o
92.58 116.123 o
100.408 87.7821 o
114.967 107.948 o
80.0486 56.2742 o
103.881 128.699 o
100.68 83.6362 o
117.066 108.862 o
93.4235 91.6172 o
103.114 59.8477 o
106.851 111.7 o
120.814 72.3461 o
98.2263 79.0997 o
110.366 97.4108 o
104.645 87.1766 o
113.601 83.3273 o
103.673 82.5873 o
89.8632 103.884 o
97.6613 96.5601 o
105.49 93.5955 o
107.516 130.24 o
102.552 83.6204 o
108.599 119.364 o
104.278 105.438 o
103.849 113.604 o
102.091 118.27 o
106.435 106.304 o
105.079 122.429 o
108.073 64.9619 o
107.586 118.961 o
100.947 129.356 o
115.085 63.2068 o
114.537 94.2617 o
100.335 78.6019 o
97.2173 113.605 o
110.843 80.0234 o
101.003 112 o
96.3522 109.819 o
105.067 90.5107 o
104.286 67.5713 o
115.798 70.9194 o
117.638 86.3478 o
73.7876 58.2489 o
97.8112 65.563 o
118.711 73.3323 o
92.3423 87.0369 o
103.461 102.933 o
95.1187 70.0371 o
107.902 119.268 o
98.0893 82.2602 o
103.722 95.7466 o
102.503 89.9165 o
109.219 122.979 o
90.2987 71.4111 o
97.4102 90.1709 o
98.5701 111.903 o
106.874 129.25 o
grestore
0.502 setgray
gsave
140.4 126 34.2 36 clipbox
/o {
gsave
newpath
translate
0.5 setlinewidth
1 setlinejoin
0 setlinecap
0 -0.25 m
0.0663008 -0.25 0.129895 -0.223658 0.176777 -0.176777 c
0.223658 -0.129895 0.25 -0.0663008 0.25 0 c
0.25 0.0663008 0.223658 0.129895 0.176777 0.176777 c
0.129895 0.223658 0.0663008 0.25 0 0.25 c
-0.0663008 0.25 -0.129895 0.223658 -0.176777 0.176777 c
-0.223658 0.129895 -0.25 0.0663008 -0.25 0 c
-0.25 -0.0663008 -0.223658 -0.129895 -0.176777 -0.176777 c
-0.129895 -0.223658 -0.0663008 -0.25 0 -0.25 c
cl
gsave
0.502 setgray
fill
grestore
stroke
grestore
} bind def
115.517 89.7282 o
117.324 87.8224 o
113.913 82.469 o
115.559 79.6823 o
114.112 89.3093 o
111.11 84.645 o
112.432 85.1825 o
115.866 86.5853 o
111.67 76.1837 o
110.404 80.6285 o
114.288 89.776 o
112.654 86.3684 o
114.354 87.4021 o
117.088 85.16 o
115.368 89.5389 o
115.513 84.4287 o
111.246 76.5893 o
113.083 79.8311 o
116.206 88.7012 o
114.458 91.2633 o
117.055 87.8776 o
115.196 84.4443 o
114.509 80.8805 o
114.152 84.5739 o
112.749 85.018 o
120.157 86.6431 o
113.72 81.8207 o
116.594 90.2758 o
114.993 89.2783 o
114.941 86.988 o
114.633 87.7324 o
112.136 80.4388 o
118.505 87.7789 o
113.164 84.0652 o
111.486 84.4531 o
111.448 86.8814 o
114.848 85.3315 o
grestore
0.000 1.000 1.000 setrgbcolor
gsave
140.4 126 34.2 36 clipbox
/o {
gsave
newpath
translate
0.5 setlinewidth
1 setlinejoin
0 setlinecap
0 -1 m
0.265203 -1 0.51958 -0.894634 0.707107 -0.707107 c
0.894634 -0.51958 1 -0.265203 1 0 c
1 0.265203 0.894634 0.51958 0.707107 0.707107 c
0.51958 0.894634 0.265203 1 0 1 c
-0.265203 1 -0.51958 0.894634 -0.707107 0.707107 c
-0.894634 0.51958 -1 0.265203 -1 0 c
-1 -0.265203 -0.894634 -0.51958 -0.707107 -0.707107 c
-0.51958 -0.894634 -0.265203 -1 0 -1 c
cl
gsave
0.000 1.000 1.000 setrgbcolor
fill
grestore
stroke
grestore
} bind def
114.748 86.287 o
114.684 82.9229 o
113.459 86.7008 o
117.403 84.8069 o
114.947 87.7884 o
112.444 85.7961 o
114.733 81.7616 o
113.278 84.6361 o
113.831 87.2678 o
117.631 84.6343 o
113.885 87.9403 o
115.883 84.0887 o
114.799 88.9496 o
113.316 81.9256 o
116.089 86.9692 o
115.202 86.0326 o
112.86 84.6852 o
114.39 83.9521 o
119.011 88.4722 o
117.476 88.3101 o
117.348 86.6536 o
115.987 87.1218 o
114.441 82.7654 o
116.422 86.5742 o
116.793 80.2165 o
116.854 80.7112 o
114.629 88.0449 o
115.654 84.7579 o
113.9 81.8235 o
112.579 81.787 o
112.416 83.32 o
116.73 85.0529 o
117.465 82.4129 o
118.445 86.7174 o
120.064 88.2054 o
118.53 85.949 o
115.778 86.5295 o
116.147 82.3377 o
115.653 83.085 o
117.126 85.5578 o
115.568 85.1543 o
116.251 83.8773 o
117.465 82.4129 o
118.403 86.9205 o
117.699 83.9904 o
114.917 82.0641 o
grestore
1.000 0.000 0.000 setrgbcolor
gsave
140.4 126 34.2 36 clipbox
/o {
gsave
newpath
translate
0.5 setlinewidth
1 setlinejoin
0 setlinecap
0 -1 m
0.265203 -1 0.51958 -0.894634 0.707107 -0.707107 c
0.894634 -0.51958 1 -0.265203 1 0 c
1 0.265203 0.894634 0.51958 0.707107 0.707107 c
0.51958 0.894634 0.265203 1 0 1 c
-0.265203 1 -0.51958 0.894634 -0.707107 0.707107 c
-0.894634 0.51958 -1 0.265203 -1 0 c
-1 -0.265203 -0.894634 -0.51958 -0.707107 -0.707107 c
-0.51958 -0.894634 -0.265203 -1 0 -1 c
cl
gsave
1.000 0.000 0.000 setrgbcolor
fill
grestore
stroke
grestore
} bind def
94.3076 121.86 o
91.2842 126.62 o
93.297 125.548 o
93.8161 122.862 o
96.1576 123.597 o
93.5618 126.094 o
94.2506 125.948 o
92.7648 127.726 o
93.7276 127.053 o
96.1459 120.694 o
93.6551 125.594 o
94.8271 123.052 o
94.4759 129.28 o
91.6627 125.748 o
97.1515 126.604 o
95.2829 125.584 o
96.5841 124.321 o
96.8974 122.912 o
grestore
1.000 setlinewidth
0 setlinejoin
2 setlinecap
0.000 setgray
gsave
34.2 162 m
174.6 162 l
stroke
grestore
gsave
174.6 36 m
174.6 162 l
stroke
grestore
gsave
34.2 36 m
174.6 36 l
stroke
grestore
gsave
34.2 36 m
34.2 162 l
stroke
grestore
0.500 setlinewidth
1 setlinejoin
0 setlinecap
gsave
/o {
gsave
newpath
translate
0.5 setlinewidth
1 setlinejoin
0 setlinecap
0 0 m
0 4 l
gsave
0.000 setgray
fill
grestore
stroke
grestore
} bind def
34.2 36 o
grestore
gsave
/o {
gsave
newpath
translate
0.5 setlinewidth
1 setlinejoin
0 setlinecap
0 0 m
0 -4 l
gsave
0.000 setgray
fill
grestore
stroke
grestore
} bind def
34.2 162 o
grestore
/BitstreamVeraSans-Roman findfont
6.000 scalefont
setfont
gsave
28.387500 27.437500 translate
0.000000 rotate
0.000000 0.000000 m /minus glyphshow
5.027344 0.000000 m /six glyphshow
8.844727 0.000000 m /zero glyphshow
grestore
gsave
/o {
gsave
newpath
translate
0.5 setlinewidth
1 setlinejoin
0 setlinecap
0 0 m
0 4 l
gsave
0.000 setgray
fill
grestore
stroke
grestore
} bind def
57.6 36 o
grestore
gsave
/o {
gsave
newpath
translate
0.5 setlinewidth
1 setlinejoin
0 setlinecap
0 0 m
0 -4 l
gsave
0.000 setgray
fill
grestore
stroke
grestore
} bind def
57.6 162 o
grestore
gsave
51.787500 27.437500 translate
0.000000 rotate
0.000000 0.000000 m /minus glyphshow
5.027344 0.000000 m /four glyphshow
8.844727 0.000000 m /zero glyphshow
grestore
gsave
/o {
gsave
newpath
translate
0.5 setlinewidth
1 setlinejoin
0 setlinecap
0 0 m
0 4 l
gsave
0.000 setgray
fill
grestore
stroke
grestore
} bind def
81 36 o
grestore
gsave
/o {
gsave
newpath
translate
0.5 setlinewidth
1 setlinejoin
0 setlinecap
0 0 m
0 -4 l
gsave
0.000 setgray
fill
grestore
stroke
grestore
} bind def
81 162 o
grestore
gsave
75.187500 27.437500 translate
0.000000 rotate
0.000000 0.000000 m /minus glyphshow
5.027344 0.000000 m /two glyphshow
8.844727 0.000000 m /zero glyphshow
grestore
gsave
/o {
gsave
newpath
translate
0.5 setlinewidth
1 setlinejoin
0 setlinecap
0 0 m
0 4 l
gsave
0.000 setgray
fill
grestore
stroke
grestore
} bind def
104.4 36 o
grestore
gsave
/o {
gsave
newpath
translate
0.5 setlinewidth
1 setlinejoin
0 setlinecap
0 0 m
0 -4 l
gsave
0.000 setgray
fill
grestore
stroke
grestore
} bind def
104.4 162 o
grestore
gsave
102.884375 27.437500 translate
0.000000 rotate
0.000000 0.000000 m /zero glyphshow
grestore
gsave
/o {
gsave
newpath
translate
0.5 setlinewidth
1 setlinejoin
0 setlinecap
0 0 m
0 4 l
gsave
0.000 setgray
fill
grestore
stroke
grestore
} bind def
127.8 36 o
grestore
gsave
/o {
gsave
newpath
translate
0.5 setlinewidth
1 setlinejoin
0 setlinecap
0 0 m
0 -4 l
gsave
0.000 setgray
fill
grestore
stroke
grestore
} bind def
127.8 162 o
grestore
gsave
124.401562 27.437500 translate
0.000000 rotate
0.000000 0.000000 m /two glyphshow
3.817383 0.000000 m /zero glyphshow
grestore
gsave
/o {
gsave
newpath
translate
0.5 setlinewidth
1 setlinejoin
0 setlinecap
0 0 m
0 4 l
gsave
0.000 setgray
fill
grestore
stroke
grestore
} bind def
151.2 36 o
grestore
gsave
/o {
gsave
newpath
translate
0.5 setlinewidth
1 setlinejoin
0 setlinecap
0 0 m
0 -4 l
gsave
0.000 setgray
fill
grestore
stroke
grestore
} bind def
151.2 162 o
grestore
gsave
147.731250 27.437500 translate
0.000000 rotate
0.000000 0.000000 m /four glyphshow
3.817383 0.000000 m /zero glyphshow
grestore
gsave
/o {
gsave
newpath
translate
0.5 setlinewidth
1 setlinejoin
0 setlinecap
0 0 m
0 4 l
gsave
0.000 setgray
fill
grestore
stroke
grestore
} bind def
174.6 36 o
grestore
gsave
/o {
gsave
newpath
translate
0.5 setlinewidth
1 setlinejoin
0 setlinecap
0 0 m
0 -4 l
gsave
0.000 setgray
fill
grestore
stroke
grestore
} bind def
174.6 162 o
grestore
gsave
171.193750 27.437500 translate
0.000000 rotate
0.000000 0.000000 m /six glyphshow
3.817383 0.000000 m /zero glyphshow
grestore
gsave
90.900000 15.187500 translate
0.000000 rotate
/Cmr10 findfont
8.0 scalefont
setfont
0.000000 0.000000 moveto
/Y glyphshow

/BitstreamVeraSans-Roman findfont
8.0 scalefont
setfont
6.000000 0.000000 moveto
/space glyphshow

/Cmr10 findfont
8.0 scalefont
setfont
8.542969 0.000000 moveto
/parenleft glyphshow

11.648438 0.000000 moveto
/k glyphshow

15.863281 0.000000 moveto
/p glyphshow

20.304688 0.000000 moveto
/c glyphshow

23.855469 0.000000 moveto
/parenright glyphshow


grestore
gsave
/o {
gsave
newpath
translate
0.5 setlinewidth
1 setlinejoin
0 setlinecap
0 0 m
4 0 l
gsave
0.000 setgray
fill
grestore
stroke
grestore
} bind def
34.2 36 o
grestore
gsave
/o {
gsave
newpath
translate
0.5 setlinewidth
1 setlinejoin
0 setlinecap
0 0 m
-4 0 l
gsave
0.000 setgray
fill
grestore
stroke
grestore
} bind def
174.6 36 o
grestore
gsave
18.575000 34.343750 translate
0.000000 rotate
0.000000 0.000000 m /minus glyphshow
5.027344 0.000000 m /four glyphshow
8.844727 0.000000 m /zero glyphshow
grestore
gsave
/o {
gsave
newpath
translate
0.5 setlinewidth
1 setlinejoin
0 setlinecap
0 0 m
4 0 l
gsave
0.000 setgray
fill
grestore
stroke
grestore
} bind def
34.2 51.75 o
grestore
gsave
/o {
gsave
newpath
translate
0.5 setlinewidth
1 setlinejoin
0 setlinecap
0 0 m
-4 0 l
gsave
0.000 setgray
fill
grestore
stroke
grestore
} bind def
174.6 51.75 o
grestore
gsave
18.575000 50.093750 translate
0.000000 rotate
0.000000 0.000000 m /minus glyphshow
5.027344 0.000000 m /three glyphshow
8.844727 0.000000 m /zero glyphshow
grestore
gsave
/o {
gsave
newpath
translate
0.5 setlinewidth
1 setlinejoin
0 setlinecap
0 0 m
4 0 l
gsave
0.000 setgray
fill
grestore
stroke
grestore
} bind def
34.2 67.5 o
grestore
gsave
/o {
gsave
newpath
translate
0.5 setlinewidth
1 setlinejoin
0 setlinecap
0 0 m
-4 0 l
gsave
0.000 setgray
fill
grestore
stroke
grestore
} bind def
174.6 67.5 o
grestore
gsave
18.575000 65.843750 translate
0.000000 rotate
0.000000 0.000000 m /minus glyphshow
5.027344 0.000000 m /two glyphshow
8.844727 0.000000 m /zero glyphshow
grestore
gsave
/o {
gsave
newpath
translate
0.5 setlinewidth
1 setlinejoin
0 setlinecap
0 0 m
4 0 l
gsave
0.000 setgray
fill
grestore
stroke
grestore
} bind def
34.2 83.25 o
grestore
gsave
/o {
gsave
newpath
translate
0.5 setlinewidth
1 setlinejoin
0 setlinecap
0 0 m
-4 0 l
gsave
0.000 setgray
fill
grestore
stroke
grestore
} bind def
174.6 83.25 o
grestore
gsave
18.575000 81.593750 translate
0.000000 rotate
0.000000 0.000000 m /minus glyphshow
5.027344 0.000000 m /one glyphshow
8.844727 0.000000 m /zero glyphshow
grestore
gsave
/o {
gsave
newpath
translate
0.5 setlinewidth
1 setlinejoin
0 setlinecap
0 0 m
4 0 l
gsave
0.000 setgray
fill
grestore
stroke
grestore
} bind def
34.2 99 o
grestore
gsave
/o {
gsave
newpath
translate
0.5 setlinewidth
1 setlinejoin
0 setlinecap
0 0 m
-4 0 l
gsave
0.000 setgray
fill
grestore
stroke
grestore
} bind def
174.6 99 o
grestore
gsave
27.168750 97.343750 translate
0.000000 rotate
0.000000 0.000000 m /zero glyphshow
grestore
gsave
/o {
gsave
newpath
translate
0.5 setlinewidth
1 setlinejoin
0 setlinecap
0 0 m
4 0 l
gsave
0.000 setgray
fill
grestore
stroke
grestore
} bind def
34.2 114.75 o
grestore
gsave
/o {
gsave
newpath
translate
0.5 setlinewidth
1 setlinejoin
0 setlinecap
0 0 m
-4 0 l
gsave
0.000 setgray
fill
grestore
stroke
grestore
} bind def
174.6 114.75 o
grestore
gsave
23.621875 113.093750 translate
0.000000 rotate
0.000000 0.000000 m /one glyphshow
3.817383 0.000000 m /zero glyphshow
grestore
gsave
/o {
gsave
newpath
translate
0.5 setlinewidth
1 setlinejoin
0 setlinecap
0 0 m
4 0 l
gsave
0.000 setgray
fill
grestore
stroke
grestore
} bind def
34.2 130.5 o
grestore
gsave
/o {
gsave
newpath
translate
0.5 setlinewidth
1 setlinejoin
0 setlinecap
0 0 m
-4 0 l
gsave
0.000 setgray
fill
grestore
stroke
grestore
} bind def
174.6 130.5 o
grestore
gsave
23.403125 128.843750 translate
0.000000 rotate
0.000000 0.000000 m /two glyphshow
3.817383 0.000000 m /zero glyphshow
grestore
gsave
/o {
gsave
newpath
translate
0.5 setlinewidth
1 setlinejoin
0 setlinecap
0 0 m
4 0 l
gsave
0.000 setgray
fill
grestore
stroke
grestore
} bind def
34.2 146.25 o
grestore
gsave
/o {
gsave
newpath
translate
0.5 setlinewidth
1 setlinejoin
0 setlinecap
0 0 m
-4 0 l
gsave
0.000 setgray
fill
grestore
stroke
grestore
} bind def
174.6 146.25 o
grestore
gsave
23.418750 144.593750 translate
0.000000 rotate
0.000000 0.000000 m /three glyphshow
3.817383 0.000000 m /zero glyphshow
grestore
gsave
/o {
gsave
newpath
translate
0.5 setlinewidth
1 setlinejoin
0 setlinecap
0 0 m
4 0 l
gsave
0.000 setgray
fill
grestore
stroke
grestore
} bind def
34.2 162 o
grestore
gsave
/o {
gsave
newpath
translate
0.5 setlinewidth
1 setlinejoin
0 setlinecap
0 0 m
-4 0 l
gsave
0.000 setgray
fill
grestore
stroke
grestore
} bind def
174.6 162 o
grestore
gsave
23.262500 160.343750 translate
0.000000 rotate
0.000000 0.000000 m /four glyphshow
3.817383 0.000000 m /zero glyphshow
grestore
gsave
11.575000 86.000000 translate
90.000000 rotate
/Cmr10 findfont
8.0 scalefont
setfont
0.000000 0.000000 moveto
/Z glyphshow

/BitstreamVeraSans-Roman findfont
8.0 scalefont
setfont
4.886719 0.000000 moveto
/space glyphshow

/Cmr10 findfont
8.0 scalefont
setfont
7.429688 0.000000 moveto
/parenleft glyphshow

10.535156 0.000000 moveto
/k glyphshow

14.750000 0.000000 moveto
/p glyphshow

19.191406 0.000000 moveto
/c glyphshow

22.742188 0.000000 moveto
/parenright glyphshow


grestore

end
showpage
