%!PS-Adobe-3.0 EPSF-3.0
%%Title: /Users/iuliasimion/bullock_johnston/denis_erkal/vasily/Figures/69684_1351496.0_yz.eps
%%Creator: matplotlib version 1.4.3, http://matplotlib.org/
%%CreationDate: Sat Aug 19 14:41:39 2017
%%Orientation: portrait
%%BoundingBox: 216 306 396 486
%%EndComments
%%BeginProlog
/mpldict 9 dict def
mpldict begin
/m { moveto } bind def
/l { lineto } bind def
/r { rlineto } bind def
/c { curveto } bind def
/cl { closepath } bind def
/box {
m
1 index 0 r
0 exch r
neg 0 r
cl
} bind def
/clipbox {
box
clip
newpath
} bind def
%!PS-Adobe-3.0 Resource-Font
%%Title: Bitstream Vera Sans
%%Copyright: Copyright (c) 2003 by Bitstream, Inc. All Rights Reserved.
%%Creator: Converted from TrueType to type 3 by PPR
25 dict begin
/_d{bind def}bind def
/_m{moveto}_d
/_l{lineto}_d
/_cl{closepath eofill}_d
/_c{curveto}_d
/_sc{7 -1 roll{setcachedevice}{pop pop pop pop pop pop}ifelse}_d
/_e{exec}_d
/FontName /BitstreamVeraSans-Roman def
/PaintType 0 def
/FontMatrix[.001 0 0 .001 0 0]def
/FontBBox[-183 -236 1287 928]def
/FontType 3 def
/Encoding [ /space /zero /one /two /four /five /six /eight /minus ] def
/FontInfo 10 dict dup begin
/FamilyName (Bitstream Vera Sans) def
/FullName (Bitstream Vera Sans) def
/Notice (Copyright (c) 2003 by Bitstream, Inc. All Rights Reserved. Bitstream Vera is a trademark of Bitstream, Inc.) def
/Weight (Roman) def
/Version (Release 1.10) def
/ItalicAngle 0.0 def
/isFixedPitch false def
/UnderlinePosition -213 def
/UnderlineThickness 143 def
end readonly def
/CharStrings 9 dict dup begin
/space{318 0 0 0 0 0 _sc
}_d
/zero{636 0 66 -13 570 742 _sc
318 664 _m
267 664 229 639 203 589 _c
177 539 165 464 165 364 _c
165 264 177 189 203 139 _c
229 89 267 64 318 64 _c
369 64 407 89 433 139 _c
458 189 471 264 471 364 _c
471 464 458 539 433 589 _c
407 639 369 664 318 664 _c
318 742 _m
399 742 461 709 505 645 _c
548 580 570 486 570 364 _c
570 241 548 147 505 83 _c
461 19 399 -13 318 -13 _c
236 -13 173 19 130 83 _c
87 147 66 241 66 364 _c
66 486 87 580 130 645 _c
173 709 236 742 318 742 _c
_cl}_d
/one{636 0 110 0 544 729 _sc
124 83 _m
285 83 _l
285 639 _l
110 604 _l
110 694 _l
284 729 _l
383 729 _l
383 83 _l
544 83 _l
544 0 _l
124 0 _l
124 83 _l
_cl}_d
/two{{636 0 73 0 536 742 _sc
192 83 _m
536 83 _l
536 0 _l
73 0 _l
73 83 _l
110 121 161 173 226 239 _c
290 304 331 346 348 365 _c
380 400 402 430 414 455 _c
426 479 433 504 433 528 _c
433 566 419 598 392 622 _c
365 646 330 659 286 659 _c
255 659 222 653 188 643 _c
154 632 117 616 78 594 _c
78 694 _l
118 710 155 722 189 730 _c
223 738 255 742 284 742 _c
}_e{359 742 419 723 464 685 _c
509 647 532 597 532 534 _c
532 504 526 475 515 449 _c
504 422 484 390 454 354 _c
446 344 420 317 376 272 _c
332 227 271 164 192 83 _c
_cl}_e}_d
/four{636 0 49 0 580 729 _sc
378 643 _m
129 254 _l
378 254 _l
378 643 _l
352 729 _m
476 729 _l
476 254 _l
580 254 _l
580 172 _l
476 172 _l
476 0 _l
378 0 _l
378 172 _l
49 172 _l
49 267 _l
352 729 _l
_cl}_d
/five{{636 0 77 -13 549 729 _sc
108 729 _m
495 729 _l
495 646 _l
198 646 _l
198 467 _l
212 472 227 476 241 478 _c
255 480 270 482 284 482 _c
365 482 429 459 477 415 _c
525 370 549 310 549 234 _c
549 155 524 94 475 51 _c
426 8 357 -13 269 -13 _c
238 -13 207 -10 175 -6 _c
143 -1 111 6 77 17 _c
77 116 _l
106 100 136 88 168 80 _c
199 72 232 69 267 69 _c
}_e{323 69 368 83 401 113 _c
433 143 450 183 450 234 _c
450 284 433 324 401 354 _c
368 384 323 399 267 399 _c
241 399 214 396 188 390 _c
162 384 135 375 108 363 _c
108 729 _l
_cl}_e}_d
/six{{636 0 70 -13 573 742 _sc
330 404 _m
286 404 251 388 225 358 _c
199 328 186 286 186 234 _c
186 181 199 139 225 109 _c
251 79 286 64 330 64 _c
374 64 409 79 435 109 _c
461 139 474 181 474 234 _c
474 286 461 328 435 358 _c
409 388 374 404 330 404 _c
526 713 _m
526 623 _l
501 635 476 644 451 650 _c
425 656 400 659 376 659 _c
310 659 260 637 226 593 _c
}_e{192 549 172 482 168 394 _c
187 422 211 444 240 459 _c
269 474 301 482 336 482 _c
409 482 467 459 509 415 _c
551 371 573 310 573 234 _c
573 159 550 99 506 54 _c
462 9 403 -13 330 -13 _c
246 -13 181 19 137 83 _c
92 147 70 241 70 364 _c
70 479 97 571 152 639 _c
206 707 280 742 372 742 _c
396 742 421 739 447 735 _c
472 730 498 723 526 713 _c
_cl}_e}_d
/eight{{636 0 68 -13 568 742 _sc
318 346 _m
271 346 234 333 207 308 _c
180 283 167 249 167 205 _c
167 161 180 126 207 101 _c
234 76 271 64 318 64 _c
364 64 401 76 428 102 _c
455 127 469 161 469 205 _c
469 249 455 283 429 308 _c
402 333 365 346 318 346 _c
219 388 _m
177 398 144 418 120 447 _c
96 476 85 511 85 553 _c
85 611 105 657 147 691 _c
188 725 245 742 318 742 _c
}_e{390 742 447 725 489 691 _c
530 657 551 611 551 553 _c
551 511 539 476 515 447 _c
491 418 459 398 417 388 _c
464 377 501 355 528 323 _c
554 291 568 251 568 205 _c
568 134 546 80 503 43 _c
459 5 398 -13 318 -13 _c
237 -13 175 5 132 43 _c
89 80 68 134 68 205 _c
68 251 81 291 108 323 _c
134 355 171 377 219 388 _c
183 544 _m
183 506 194 476 218 455 _c
}_e{242 434 275 424 318 424 _c
360 424 393 434 417 455 _c
441 476 453 506 453 544 _c
453 582 441 611 417 632 _c
393 653 360 664 318 664 _c
275 664 242 653 218 632 _c
194 611 183 582 183 544 _c
_cl}_e}_d
/minus{838 0 106 272 732 355 _sc
106 355 _m
732 355 _l
732 272 _l
106 272 _l
106 355 _l
_cl}_d
end readonly def

/BuildGlyph
 {exch begin
 CharStrings exch
 2 copy known not{pop /.notdef}if
 true 3 1 roll get exec
 end}_d

/BuildChar {
 1 index /Encoding get exch get
 1 index /BuildGlyph get exec
}_d

FontName currentdict end definefont pop
%!PS-Adobe-3.0 Resource-Font
%%Title: cmr10
%%Copyright: Copyright (C) 1994, Basil K. Malyshev. All Rights Reserved.012BaKoMa Fonts Collection, Level-B.
%%Creator: Converted from TrueType to type 3 by PPR
25 dict begin
/_d{bind def}bind def
/_m{moveto}_d
/_l{lineto}_d
/_cl{closepath eofill}_d
/_c{curveto}_d
/_sc{7 -1 roll{setcachedevice}{pop pop pop pop pop pop}ifelse}_d
/_e{exec}_d
/FontName /Cmr10 def
/PaintType 0 def
/FontMatrix[.001 0 0 .001 0 0]def
/FontBBox[-44 -250 1009 750]def
/FontType 3 def
/Encoding [ /Z /k /parenright /Y /parenleft /c /p ] def
/FontInfo 10 dict dup begin
/FamilyName (cmr10) def
/FullName (cmr10) def
/Notice (Copyright (C) 1994, Basil K. Malyshev. All Rights Reserved.012BaKoMa Fonts Collection, Level-B. ) def
/Weight (Regular) def
/Version (1.1/12-Nov-94) def
/ItalicAngle 0.0 def
/isFixedPitch false def
/UnderlinePosition -133 def
/UnderlineThickness 20 def
end readonly def
/CharStrings 7 dict dup begin
/Z{{611 0 56 0 560 683 _sc
67 0 _m
59 0 56 3 56 11 _c
56 25 _l
56 27 56 29 58 31 _c
447 648 _l
306 648 _l
259 648 220 641 190 629 _c
160 617 137 596 121 568 _c
105 540 98 502 98 454 _c
69 454 _l
80 683 _l
543 683 _l
550 683 554 679 554 672 _c
554 660 _l
554 657 553 655 553 654 _c
164 38 _l
311 38 _l
346 38 378 41 406 48 _c
}_e{434 54 458 67 478 86 _c
491 99 501 116 509 136 _c
517 156 522 176 524 195 _c
526 213 528 239 531 271 _c
560 271 _l
543 0 _l
67 0 _l
_cl}_e}_d
/k{{527 0 26 0 511 694 _sc
26 0 _m
26 35 _l
48 35 67 36 82 40 _c
96 44 104 53 104 67 _c
104 592 _l
104 610 101 623 96 631 _c
90 639 83 643 73 645 _c
63 647 47 648 26 648 _c
26 683 _l
174 694 _l
174 219 _l
308 337 _l
321 349 328 361 328 372 _c
328 380 325 386 320 390 _c
314 394 308 396 300 396 _c
300 431 _l
488 431 _l
488 396 _l
}_e{442 396 397 376 352 337 _c
281 275 _l
408 94 _l
426 69 440 53 452 46 _c
464 38 483 35 511 35 _c
511 0 _l
312 0 _l
312 35 _l
334 35 346 42 346 56 _c
346 66 340 78 328 94 _c
232 231 _l
171 178 _l
171 67 _l
171 53 178 44 193 40 _c
207 36 226 35 249 35 _c
249 0 _l
26 0 _l
_cl}_e}_d
/parenright{{388 0 56 -249 291 750 _sc
65 -249 _m
59 -249 56 -246 56 -240 _c
56 -237 56 -235 58 -234 _c
172 -122 229 38 229 250 _c
229 462 172 623 60 733 _c
57 734 56 737 56 741 _c
56 743 57 745 59 747 _c
61 749 63 750 65 750 _c
74 750 _l
76 750 77 749 79 748 _c
127 710 167 664 199 610 _c
231 556 254 498 269 437 _c
283 376 291 314 291 250 _c
291 202 287 156 279 110 _c
}_e{271 64 258 20 241 -24 _c
223 -68 201 -108 175 -146 _c
148 -184 116 -217 79 -247 _c
77 -248 76 -249 74 -249 _c
65 -249 _l
_cl}_e}_d
/Y{{750 0 11 0 738 683 _sc
226 0 _m
226 35 _l
294 35 329 45 329 67 _c
329 273 _l
119 618 _l
109 631 95 639 78 643 _c
60 646 38 648 11 648 _c
11 683 _l
293 683 _l
293 648 _l
246 648 223 640 223 625 _c
223 623 223 621 225 617 _c
406 319 _l
571 590 _l
575 596 577 602 577 610 _c
577 623 571 633 559 639 _c
547 645 535 648 521 648 _c
521 683 _l
738 683 _l
738 648 _l
}_e{712 648 687 643 665 634 _c
643 624 625 610 613 591 _c
419 273 _l
419 67 _l
419 45 453 35 522 35 _c
522 0 _l
226 0 _l
_cl}_e}_d
/parenleft{{388 0 97 -249 332 750 _sc
310 -247 _m
272 -217 240 -184 214 -146 _c
187 -108 165 -67 148 -25 _c
131 17 118 62 110 109 _c
101 155 97 202 97 250 _c
97 298 101 345 110 392 _c
118 438 131 483 149 527 _c
166 570 188 611 215 649 _c
242 687 274 720 310 748 _c
310 749 311 750 315 750 _c
324 750 _l
326 750 327 749 329 747 _c
331 745 332 743 332 741 _c
332 738 331 736 330 735 _c
}_e{297 703 270 668 248 632 _c
226 596 209 557 196 516 _c
183 474 174 432 168 388 _c
162 344 159 298 159 250 _c
159 38 215 -122 329 -232 _c
331 -234 332 -236 332 -240 _c
332 -242 331 -244 329 -246 _c
327 -248 326 -249 324 -249 _c
315 -249 _l
311 -249 310 -248 310 -247 _c
_cl}_e}_d
/c{{444 0 33 -10 415 448 _sc
249 -10 _m
208 -10 171 0 139 21 _c
106 41 80 69 61 104 _c
42 139 33 176 33 216 _c
33 255 42 293 61 329 _c
79 365 105 393 138 415 _c
171 437 208 448 249 448 _c
288 448 324 440 356 425 _c
388 409 404 384 404 350 _c
404 337 399 326 390 316 _c
380 306 369 302 356 302 _c
342 302 331 306 322 316 _c
312 326 308 337 308 350 _c
}_e{308 362 311 372 319 381 _c
327 389 336 395 347 397 _c
324 411 292 419 250 419 _c
218 419 192 408 173 387 _c
153 365 140 339 132 308 _c
124 277 120 246 120 216 _c
120 183 124 152 134 122 _c
144 92 159 67 181 47 _c
202 27 229 18 261 18 _c
293 18 320 27 342 47 _c
364 66 379 91 387 123 _c
387 127 389 129 395 129 _c
407 129 _l
409 129 410 128 412 126 _c
}_e{414 124 415 122 415 120 _c
415 117 _l
405 77 385 46 355 24 _c
325 1 289 -10 249 -10 _c
_cl}_e}_d
/p{{555 0 26 -193 522 442 _sc
26 -193 _m
26 -158 _l
48 -158 67 -156 82 -152 _c
96 -148 104 -139 104 -126 _c
104 355 _l
104 373 97 384 84 389 _c
71 393 52 396 26 396 _c
26 431 _l
174 442 _l
174 380 _l
192 400 213 415 237 426 _c
261 436 287 442 315 442 _c
354 442 389 431 421 410 _c
453 388 477 360 495 326 _c
513 291 522 254 522 216 _c
522 175 512 137 492 103 _c
}_e{472 68 446 40 412 20 _c
378 0 340 -10 300 -10 _c
251 -10 210 9 177 48 _c
177 -126 _l
177 -139 184 -148 199 -152 _c
213 -156 232 -158 255 -158 _c
255 -193 _l
26 -193 _l
177 97 _m
188 73 204 54 225 38 _c
246 22 269 15 294 15 _c
317 15 337 21 355 33 _c
373 45 388 62 400 83 _c
412 104 420 126 426 149 _c
432 172 435 194 435 216 _c
435 242 430 271 420 302 _c
}_e{410 333 396 359 376 381 _c
356 402 333 413 305 413 _c
278 413 253 406 231 392 _c
208 378 190 360 177 336 _c
177 97 _l
_cl}_e}_d
end readonly def

/BuildGlyph
 {exch begin
 CharStrings exch
 2 copy known not{pop /.notdef}if
 true 3 1 roll get exec
 end}_d

/BuildChar {
 1 index /Encoding get exch get
 1 index /BuildGlyph get exec
}_d

FontName currentdict end definefont pop
end
%%EndProlog
mpldict begin
216 306 translate
180 180 0 0 clipbox
gsave
0 0 m
180 0 l
180 180 l
0 180 l
cl
1.000 setgray
fill
grestore
gsave
34.2 36 m
174.6 36 l
174.6 162 l
34.2 162 l
cl
1.000 setgray
fill
grestore
0.500 setlinewidth
1 setlinejoin
0 setlinecap
[] 0 setdash
0.000 setgray
gsave
140.4 126 34.2 36 clipbox
/o {
gsave
newpath
translate
0.5 setlinewidth
1 setlinejoin
0 setlinecap
0 -0.25 m
0.0663008 -0.25 0.129895 -0.223658 0.176777 -0.176777 c
0.223658 -0.129895 0.25 -0.0663008 0.25 0 c
0.25 0.0663008 0.223658 0.129895 0.176777 0.176777 c
0.129895 0.223658 0.0663008 0.25 0 0.25 c
-0.0663008 0.25 -0.129895 0.223658 -0.176777 0.176777 c
-0.223658 0.129895 -0.25 0.0663008 -0.25 0 c
-0.25 -0.0663008 -0.223658 -0.129895 -0.176777 -0.176777 c
-0.129895 -0.223658 -0.0663008 -0.25 0 -0.25 c
cl
gsave
0.000 setgray
fill
grestore
stroke
grestore
} bind def
92.1995 86.4911 o
82.1986 87.5204 o
112.564 87.3035 o
103.063 87.9618 o
96.6724 87.7676 o
84.8075 86.8231 o
77.9974 86.8968 o
106.588 85.3436 o
97.5676 84.3311 o
82.2166 85.6784 o
106.892 85.307 o
107.958 86.1748 o
91.6828 86.0523 o
84.9329 85.6461 o
84.6378 85.3244 o
101.94 88.262 o
99.9431 86.4246 o
104.695 85.8391 o
96.7834 89.0252 o
97.4062 87.1388 o
103.538 84.6495 o
95.6534 82.1107 o
100.701 86.4491 o
84.6724 87.6459 o
82.5479 87.0902 o
94.7303 92.9667 o
108.235 86.98 o
82.6068 85.7232 o
80.5283 91.2987 o
94.4685 86.2558 o
108.268 87.9318 o
102.694 86.099 o
100.068 87.0819 o
92.6007 85.635 o
89.5416 86.6581 o
99.6516 85.7021 o
110.654 91.7559 o
96.1204 85.4984 o
92.6899 86.6321 o
94.6902 87.6826 o
102.284 88.5518 o
101.334 78.8638 o
93.6118 87.1981 o
103.997 86.372 o
100.981 85.3659 o
78.0035 89.4946 o
107.013 85.5678 o
106.855 81.858 o
80.2648 85.9556 o
93.0657 86.6467 o
83.7401 88.6841 o
111.444 89.7333 o
97.0163 87.8013 o
99.5953 82.1384 o
97.534 85.8491 o
86.0946 87.6645 o
84.3267 84.416 o
100.624 86.2753 o
91.1003 89.7435 o
103.656 81.5759 o
96.0794 85.7375 o
108.088 90.2974 o
82.667 78.0616 o
92.3547 86.5473 o
79.1202 85.8506 o
90.904 86.8897 o
77.695 90.8705 o
75.9394 89.0042 o
85.2342 86.9425 o
83.7145 85.4903 o
76.6411 85.586 o
83.5817 86.4048 o
113.744 75.2829 o
81.1552 85.2455 o
80.5573 86.1674 o
98.9116 88.0515 o
91.2886 86.5599 o
90.6943 84.1908 o
109.889 87.9594 o
87.7372 77.5064 o
94.2442 85.9071 o
102.476 86.3158 o
82.1208 87.7724 o
99.8112 84.0859 o
105.223 88.6199 o
106.998 87.5557 o
76.6429 83.0375 o
82.944 85.0984 o
89.4159 85.7252 o
112.265 87.0212 o
101.336 87.3145 o
92.0889 85.6782 o
114.451 88.4946 o
106.24 86.5197 o
111.344 89.9745 o
86.9428 86.2725 o
117.118 96.953 o
100.845 87.9981 o
87.5433 84.0038 o
74.5504 83.7854 o
95.6311 87.4485 o
82.9293 88.5138 o
89.234 87.2477 o
101.794 87.5653 o
108.997 85.2479 o
90.0568 79.5067 o
104.17 72.8139 o
85.5139 92.967 o
89.1441 88.7465 o
106.775 81.9796 o
85.5283 87.3119 o
94.4236 87.6431 o
93.5127 85.2308 o
86.6718 72.1282 o
74.0534 86.6116 o
91.5459 80.8868 o
94.7147 86.5161 o
107.83 91.2262 o
110.382 83.5894 o
74.4447 90.868 o
94.4667 86.7038 o
91.638 87.4926 o
91.363 86.3931 o
100.264 85.5306 o
103.445 84.7587 o
85.9724 83.1764 o
96.7882 85.3621 o
81.6101 81.4444 o
81.7774 86.4538 o
113.581 80.7602 o
112.742 85.8794 o
101.069 86.7893 o
99.065 86.134 o
97.8657 86.4777 o
114.24 87.0939 o
77.4218 101.085 o
102.329 80.6919 o
114.852 84.6967 o
98.7521 84.6297 o
95.2256 85.5235 o
98.267 86.3315 o
91.705 86.1315 o
78.06 84.6858 o
85.3444 105.413 o
81.6602 86.4507 o
101.197 89.1838 o
79.8735 86.8822 o
68.3607 83.6601 o
113.521 88.3092 o
115.764 89.5462 o
74.538 93.5284 o
105.996 82.4326 o
80.9597 93.0231 o
73.1289 82.4319 o
99.298 85.0115 o
96.3368 88.809 o
94.692 86.3036 o
82.8889 87.558 o
94.4717 85.5771 o
87.3894 68.9669 o
111.806 83.7044 o
102.469 85.2539 o
98.8508 92.9934 o
94.8387 77.2404 o
100.956 85.9315 o
72.6468 78.1348 o
134.829 90.7244 o
87.3454 86.2735 o
96.1974 87.091 o
92.6679 85.9666 o
98.9979 88.1083 o
84.4038 87.5017 o
107.643 89.4174 o
93.7708 86.1824 o
91.2959 91.6306 o
88.3885 86.6343 o
98.7103 81.5403 o
111.777 88.7316 o
86.656 88.8826 o
107.321 83.7198 o
86.3094 100.802 o
105.744 77.4257 o
81.9858 94.3574 o
109.449 84.7144 o
64.4206 87.9613 o
96.9943 74.6751 o
91.6666 97.5386 o
81.4624 85.3387 o
85.7889 86.7059 o
83.0915 84.3899 o
114.057 87.7768 o
79.8002 77.8763 o
116.571 92.6309 o
88.6233 85.944 o
108.615 91.0901 o
108.864 92.9566 o
91.619 87.2683 o
86.668 85.4914 o
103.219 88.6946 o
93.6337 99.1938 o
83.1864 83.1263 o
92.3431 86.7987 o
94.891 87.2612 o
102.936 88.3118 o
90.5161 88.1851 o
90.0672 97.2261 o
118.431 106.419 o
92.6377 83.3172 o
97.7708 91.7057 o
91.492 88.179 o
111.606 79.4788 o
93.0474 91.2013 o
89.5006 90.049 o
80.7105 97.8638 o
74.2395 80.5783 o
66.8397 81.4724 o
111.14 89.2645 o
109.746 89.8541 o
91.5672 84.01 o
85.1506 88.8297 o
130.109 85.4463 o
93.1698 84.9365 o
94.8268 84.1445 o
102.034 88.9529 o
92.9849 80.1706 o
82.0435 89.9608 o
125.851 80.2895 o
112.331 75.3703 o
109.29 80.7028 o
56.8096 92.826 o
96.7772 85.6359 o
92.7057 96.1341 o
115.771 97.1057 o
83.4181 89.4559 o
66.679 85.7343 o
100.617 86.1232 o
109.737 87.5578 o
84.1537 78.855 o
87.24 86.1633 o
99.8644 87.5111 o
102.912 78.4823 o
103.105 87.1294 o
115.049 87.7795 o
127.519 85.3715 o
113.503 85.9285 o
101.062 86.5766 o
93.6367 93.7437 o
96.9255 85.211 o
105.844 86.2028 o
105.765 85.6799 o
106.628 68.8479 o
86.7036 85.5279 o
89.1279 89.9208 o
86.2957 79.1338 o
68.1622 87.3025 o
87.8386 85.1089 o
114.684 89.7518 o
94.0142 81.3687 o
98.0892 84.9331 o
115.72 74.52 o
89.0189 86.9863 o
103.73 88.7761 o
104.703 88.0291 o
79.3018 90.8281 o
89.0498 92.3111 o
69.1768 76.2696 o
90.4541 77.6507 o
91.2637 85.5216 o
91.3932 84.5468 o
74.6786 93.9868 o
91.6825 73.9079 o
113.357 86.3132 o
81.3301 81.5591 o
88.2687 85.343 o
111.707 102.395 o
82.1028 88.2131 o
80.0065 84.6215 o
93.7192 99.0416 o
130.391 80.179 o
64.4272 87.6144 o
101.005 87.0629 o
113.548 87.4125 o
100.459 85.8641 o
96.3464 85.8608 o
64.8263 78.8913 o
98.0477 86.2192 o
104.675 84.5424 o
117.799 96.4476 o
105.928 81.5495 o
88.7368 92.8303 o
82.256 85.0068 o
93.6823 86.9999 o
102.584 78.6481 o
97.8398 85.1581 o
94.1749 87.5708 o
119.108 69.9834 o
88.561 89.1819 o
91.5157 83.2323 o
89.9104 84.5383 o
110.331 76.5755 o
93.4136 82.1006 o
98.5847 82.9935 o
103.614 89.8728 o
115.723 74.0845 o
98.4921 86.0877 o
107.301 80.1022 o
103.265 87.8673 o
89.0673 86.8786 o
95.3814 87.9833 o
85.7256 80.7557 o
80.3988 91.8816 o
90.8208 88.7977 o
96.1117 79.369 o
99.7369 85.2183 o
115.384 93.6632 o
94.6051 82.3553 o
97.5622 81.285 o
105.178 88.1249 o
105.152 93.7788 o
68.9155 87.1932 o
110.782 77.7293 o
102.368 86.0421 o
107.121 83.6284 o
111.276 92.0015 o
115.409 80.894 o
124.817 86.7732 o
86.8357 97.3632 o
104.175 85.0823 o
98.5662 64.9058 o
98.7868 83.3463 o
76.3938 89.8916 o
89.9141 69.5141 o
103.746 80.1051 o
95.4639 86.3564 o
102.157 87.7237 o
60.7861 97.1777 o
93.5708 84.9015 o
108.658 87.2107 o
117.024 89.7656 o
105.979 80.6662 o
98.3646 87.2615 o
103.896 76.0992 o
88.4492 85.5477 o
96.9029 87.0587 o
86.7963 85.1081 o
101.264 87.062 o
101.573 81.8815 o
107.469 84.1932 o
103.786 79.2995 o
113.905 90.8553 o
67.098 81.6702 o
97.0556 80.5307 o
91.715 87.2836 o
87.0777 95.3191 o
85.1751 88.4099 o
95.1857 80.7206 o
105.261 72.855 o
95.5656 83.581 o
111.998 72.3706 o
100.482 82.7617 o
100.969 89.2597 o
95.0367 87.3337 o
95.0399 86.5851 o
57.4029 90.7772 o
101.689 87.9009 o
108.706 85.9531 o
93.0318 86.5526 o
88.2003 90.0007 o
92.0086 91.9135 o
78.2184 89.3865 o
79.9682 85.1753 o
77.4695 105.658 o
106.626 81.2184 o
118.418 84.6064 o
113.956 87.0369 o
99.5541 88.1719 o
113.285 86.334 o
68.3195 86.1441 o
83.77 71.5054 o
100.695 87.2065 o
89.9034 88.8959 o
72.385 82.5445 o
98.8227 78.0052 o
98.1148 81.8013 o
100.73 88.9022 o
89.3824 84.9919 o
104.954 94.4982 o
111.244 87.8136 o
83.808 96.2195 o
95.0851 86.7522 o
82.8281 89.1969 o
61.2532 87.7962 o
101.037 88.8134 o
118.938 87.8995 o
89.4146 86.5511 o
108.967 82.8589 o
113.076 84.7993 o
111.426 82.2138 o
64.9753 76.8528 o
106.099 85.4938 o
117.207 84.0491 o
116.938 81.7556 o
96.4736 87.009 o
108.404 89.989 o
85.1317 93.366 o
105.254 76.5024 o
61.742 78.6745 o
96.7944 87.0262 o
81.5706 84.8354 o
74.9898 101.517 o
89.8007 86.2439 o
104.815 94.9592 o
95.721 85.0393 o
97.2074 81.1182 o
110.565 73.0561 o
90.7502 83.9286 o
96.1823 84.9953 o
87.5862 88.9069 o
94.6608 82.9366 o
98.9223 87.4041 o
94.0565 83.8969 o
111.53 79.7203 o
91.617 84.9426 o
94.9044 87.9177 o
72.2957 85.9032 o
80.6212 94.0106 o
52.0939 90.1353 o
74.305 80.5209 o
99.9278 90.9161 o
96.3444 86.9974 o
93.0627 84.4735 o
94.2209 81.4546 o
82.229 84.9802 o
97.0679 89.398 o
81.8114 81.6775 o
96.7693 86.2053 o
109.342 94.6029 o
101.242 86.5608 o
89.0356 81.679 o
92.637 93.7826 o
103.438 86.0502 o
94.658 87.0291 o
102.702 85.5433 o
63.851 87.3464 o
105.483 76.975 o
107.023 86.3204 o
99.9884 89.148 o
115.216 77.5547 o
92.0499 96.6691 o
96.8106 84.0227 o
91.6565 86.6575 o
73.773 85.5398 o
93.025 98.8857 o
97.613 87.1216 o
105.843 92.1066 o
103.22 79.5729 o
93.5503 85.8324 o
127.624 89.7215 o
93.9807 71.0868 o
98.191 78.0707 o
105.97 78.4507 o
112.172 91.8905 o
61.5436 72.8821 o
105.449 87.4082 o
100.612 79.5961 o
87.9982 79.2422 o
95.7175 86.3086 o
102.41 95.5805 o
124.732 85.2031 o
105.038 79.5071 o
93.4885 84.8768 o
100.563 86.2235 o
91.4558 86.0256 o
92.3861 87.9614 o
87.3315 74.2564 o
79.7984 95.8031 o
95.3495 86.8037 o
86.9737 83.4727 o
119.265 91.8369 o
69.7323 96.3617 o
79.1815 83.0982 o
112.727 94.5915 o
110.062 82.2159 o
111.682 88.1889 o
103.266 87.3538 o
107.898 89.7677 o
94.1612 99.1133 o
89.0853 85.7756 o
73.1786 77.5786 o
76.6672 95.3166 o
113.591 85.2111 o
81.887 81.9102 o
64.3222 88.0666 o
115.42 76.7615 o
92.1793 75.166 o
104.193 87.9737 o
86.1746 80.6917 o
93.2923 86.4165 o
98.2703 94.4765 o
104.362 85.2911 o
114.121 77.2613 o
126.879 88.0792 o
85.6194 86.5638 o
96.0526 90.488 o
85.7977 86.0811 o
88.9386 82.5047 o
83.3264 85.2959 o
94.8285 85.6065 o
89.0601 89.0063 o
108.046 102.405 o
81.4571 100.953 o
87.4133 87.9536 o
114.11 90.6522 o
103.932 70.8303 o
97.9256 89.6321 o
91.8563 88.5463 o
93.4361 92.3393 o
111.528 86.9784 o
95.291 83.9376 o
92.4773 83.9974 o
80.6585 82.5261 o
91.4372 88.5272 o
86.3173 82.6684 o
98.8231 89.0504 o
104.775 91.5688 o
74.1587 95.8705 o
81.8612 87.5874 o
96.0998 86.5988 o
103.62 85.0159 o
92.5134 87.0353 o
91.4458 80.9906 o
96.4317 87.194 o
103.644 85.0473 o
76.8678 79.3694 o
101.561 104.407 o
88.0798 103.255 o
89.6044 90.9302 o
109.539 87.4791 o
109.326 86.3519 o
81.9093 87.4738 o
87 85.6538 o
107.664 85.6754 o
62.9647 93.62 o
92.1132 76.1432 o
99.2423 91.1294 o
99.8634 104.447 o
97.3431 86.0143 o
100.874 84.1702 o
103.885 84.6675 o
92.8182 72.3407 o
81.8555 90.5903 o
64.6441 82.5805 o
74.4372 87.2216 o
83.3389 84.3558 o
90.0806 87.2178 o
82.7636 82.3389 o
92.407 75.4224 o
108.894 88.0911 o
91.0929 87.1486 o
104.98 90.0982 o
62.338 85.7239 o
108.81 85.3589 o
102.46 84.9291 o
114.529 102.928 o
85.2087 90.7357 o
89.7852 86.4904 o
95.9828 87.0992 o
83.874 88.9943 o
96.4015 87.5358 o
98.757 83.8326 o
111.234 93.6255 o
86.6986 84.4937 o
87.3311 87.3266 o
54.8474 97.4433 o
106.336 82.3079 o
87.6178 92.1181 o
106.943 88.1633 o
99.4641 88.2096 o
68.1015 82.0666 o
106.529 87.3187 o
96.59 84.6136 o
99.8218 85.3471 o
76.6106 85.0856 o
111.284 88.4343 o
87.4419 89.4821 o
106.921 86.4506 o
105.141 79.4193 o
114.67 94.1973 o
78.7542 91.5593 o
92.4327 86.214 o
61.4782 86.017 o
80.8782 102.086 o
84.5577 83.7614 o
132.622 85.2348 o
85.311 87.5864 o
93.8667 90.4245 o
92.076 86.5148 o
93.5948 95.9773 o
64.4698 81.3713 o
101.411 71.1925 o
91.5739 85.0519 o
93.9756 81.5951 o
121.181 86.7284 o
84.3407 76.6027 o
84.8952 85.9265 o
82.4584 86.9008 o
103.042 86.9826 o
58.8008 86.241 o
84.8969 116.224 o
109.561 82.103 o
65.2593 70.9152 o
90.5542 88.0368 o
106.319 93.2237 o
92.7445 87.4721 o
75.4732 78.7748 o
132.603 71.0495 o
125.006 72.2603 o
81.055 89.1564 o
91.752 87.0006 o
98.2649 90.9729 o
81.1295 86.5236 o
99.6549 86.0974 o
98.1051 90.842 o
92.0486 92.6248 o
119.836 93.9688 o
114.905 85.7427 o
99.4461 80.7642 o
86.6772 88.6145 o
93.8505 88.3859 o
87.9757 93.3641 o
89.0225 80.0088 o
113.304 75.3533 o
105.209 89.9237 o
117.951 90.2782 o
93.1558 84.4369 o
91.0399 85.1107 o
109.656 85.2774 o
106.78 91.8135 o
117.558 81.5734 o
121.093 86.2928 o
93.8385 81.8748 o
100.386 94.9984 o
116.928 88.5062 o
84.3449 84.9349 o
82.8035 91.4816 o
98.0153 86.4302 o
104.744 91.0347 o
96.9793 88.5889 o
82.9288 90.3703 o
77.1607 92.6159 o
99.6506 88.507 o
105.102 73.0083 o
87.5033 81.3944 o
95.7537 81.8054 o
103.408 88.8147 o
84.8797 81.773 o
74.8835 87.102 o
94.1522 75.9411 o
93.331 85.4349 o
95.7918 80.9531 o
81.1764 69.5091 o
90.1246 78.2795 o
101.087 87.7162 o
73.7467 91.7319 o
84.8951 87.8627 o
132.702 84.3164 o
107.149 99.393 o
91.1419 92.4713 o
106.9 81.5093 o
101.142 78.3391 o
86.1796 78.6615 o
65.2234 98.7656 o
119.569 80.3153 o
101.005 82.3559 o
85.9446 85.0496 o
101.638 85.8239 o
82.8603 73.0623 o
95.0944 86.6691 o
84.8251 86.2754 o
97.0739 87.8467 o
84.5932 100.909 o
86.999 84.0353 o
100.286 86.9949 o
95.5762 62.2364 o
93.1121 101.794 o
97.6295 93.9958 o
102.104 85.6911 o
64.1423 82.9844 o
102.482 73.2672 o
91.7085 87.7282 o
96.5034 88.5573 o
91.1479 87.7503 o
137.725 76.3877 o
105.008 86.3457 o
126.645 77.0734 o
109.686 84.104 o
95.6782 85.6124 o
101.072 85.4009 o
58.5093 78.9546 o
88.7188 84.898 o
81.5076 86.614 o
101.57 85.6893 o
77.3477 80.6632 o
89.673 75.1895 o
109.277 84.5211 o
91.3174 106.351 o
92.9363 71.8818 o
104.133 83.541 o
88.935 86.2265 o
104.136 95.1659 o
104.868 79.6783 o
55.4947 87.351 o
68.4045 73.1962 o
90.1407 84.5274 o
73.6681 82.9275 o
97.3782 88.3055 o
119.763 84.9977 o
110.988 86.7757 o
101.427 83.9717 o
87.4301 83.6447 o
109.305 86.7572 o
89.0129 84.0795 o
89.0862 86.0182 o
99.8304 98.2325 o
93.7359 86.6393 o
86.242 94.9224 o
129.097 82.2158 o
81.2252 88.277 o
87.2263 85.7826 o
94.3992 83.2002 o
63.1729 99.7511 o
96.6581 88.1726 o
95.3483 85.8438 o
80.8291 88.4323 o
61.4464 88.8487 o
93.2544 89.5601 o
99.9368 85.1038 o
117.108 78.0275 o
80.5255 83.838 o
94.4724 89.0405 o
100.464 85.311 o
114.783 93.4153 o
105.994 105.314 o
76.6474 86.2087 o
80.1375 88.7793 o
81.3696 88.4605 o
109.598 81.4994 o
89.4641 90.0378 o
97.7379 91.5698 o
98.0183 85.0111 o
91.0908 87.1505 o
127.348 86.8608 o
93.9891 85.9833 o
85.3008 86.1659 o
104.55 86.9399 o
101.973 104.159 o
98.2178 77.8263 o
83.1311 75.8045 o
74.8936 82.3411 o
89.9784 87.2436 o
72.0749 86.6178 o
94.5564 72.5633 o
86.1706 83.5258 o
92.7893 91.1218 o
96.5929 82.8524 o
119.542 98.8114 o
90.1489 86.2614 o
75.5871 97.6486 o
116.54 89.8608 o
101.697 89.8865 o
89.495 78.6198 o
95.0409 90.9369 o
95.0266 86.1851 o
78.9408 80.7332 o
83.6091 83.0093 o
97.1819 86.8884 o
94.4278 89.7863 o
97.8168 88.7972 o
81.6442 88.9066 o
95.8484 85.1062 o
117.673 89.6397 o
83.2193 89.292 o
94.5496 85.4929 o
91.5204 84.7066 o
80.0738 84.0441 o
85.8199 91.7597 o
84.8041 89.2696 o
105.465 92.5299 o
92.5386 92.8208 o
88.2277 85.8385 o
78.4817 92.2393 o
83.4588 88.8906 o
90.2437 96.9777 o
105.194 90.0326 o
82.1234 86.773 o
76.3034 88.3836 o
99.6258 86.365 o
92.4948 91.3206 o
79.0119 95.6253 o
62.14 91.1364 o
108.059 87.002 o
80.308 89.9678 o
108.834 96.6988 o
88.3487 84.8781 o
92.795 69.625 o
84.5033 86.9869 o
76.4412 87.8042 o
93.9635 90.7442 o
101.483 88.6632 o
109.414 88.3249 o
81.9924 80.198 o
86.9159 86.8579 o
79.6506 91.9654 o
115.131 71.219 o
94.6129 84.8357 o
116.955 88.7545 o
105.555 87.8596 o
86.2044 93.3799 o
76.5394 83.7643 o
98.4578 73.0294 o
78.8753 85.0407 o
92.96 80.5388 o
117.505 74.0315 o
95.4672 87.1794 o
73.1667 89.7384 o
95.5248 84.7401 o
114.197 86.5936 o
103.931 86.8609 o
61.8017 81.4467 o
103.148 84.4235 o
105.1 91.9215 o
90.5628 79.9926 o
100.693 86.8695 o
70.258 105.545 o
122.541 84.8872 o
109.767 85.9586 o
72.156 86.9419 o
99.4066 85.314 o
99.7095 86.8134 o
77.4608 86.9464 o
95.8908 97.1042 o
100.917 73.3377 o
83.6162 91.6078 o
78.0243 89.9926 o
90.3965 86.5643 o
84.1897 84.9665 o
92.7237 92.352 o
101.571 95.1036 o
87.1239 85.207 o
120.929 72.4327 o
95.1936 86.5086 o
90.7719 86.7436 o
94.9515 98.0914 o
105.188 83.5698 o
102.068 81.1869 o
91.0512 88.034 o
88.3019 90.3048 o
88.9211 92.3251 o
75.3285 94.6959 o
94.0608 104.369 o
80.5142 82.2528 o
74.7974 85.7711 o
79.6336 91.6194 o
86.7679 68.8652 o
92.6955 89.4775 o
73.5061 66.3603 o
118.066 86.5679 o
96.6516 85.745 o
83.0084 87.0391 o
88.7741 94.2276 o
115.89 84.7691 o
80.6963 85.4819 o
94.9674 85.8203 o
80.8024 90.8231 o
93.2473 84.3387 o
98.4947 100.864 o
111.117 68.2807 o
107.509 76.8345 o
70.741 90.8281 o
94.9982 81.9383 o
94.6647 77.8043 o
96.1116 85.954 o
87.9544 78.7243 o
78.3418 88.3842 o
93.7434 76.4404 o
104.806 69.5014 o
81.4164 96.7817 o
89.9335 90.776 o
97.3533 87.8159 o
125.979 89.7573 o
101.505 86.4305 o
88.4162 78.2359 o
108.414 73.4323 o
116.633 80.7366 o
118.49 83.5425 o
96.0373 88.1383 o
94.7583 83.6768 o
85.4386 73.9594 o
94.0414 89.4732 o
81.2363 91.359 o
107.8 87.1133 o
85.5371 74.5478 o
105.959 98.2185 o
97.4411 87.4082 o
82.6061 81.6114 o
95.2644 83.1464 o
104.112 89.8608 o
99.1826 85.8689 o
105.027 86.7673 o
85.0421 91.6941 o
93.5437 87.1035 o
94.4664 85.0258 o
80.7028 87.0742 o
87.2841 89.4051 o
104.858 84.4191 o
83.9672 86.3202 o
93.8482 84.4937 o
106.814 77.5494 o
98.8878 87.6247 o
97.1462 87.6851 o
97.9982 80.2983 o
111.531 86.6827 o
98.849 86.5808 o
77.0916 90.0514 o
100.876 83.9195 o
86.2642 86.4043 o
101.782 86.8372 o
109.906 86.2979 o
113.07 88.1736 o
93.0248 77.2157 o
77.178 94.6323 o
96.5146 84.3338 o
83.9669 77.2897 o
91.0181 94.7067 o
102.399 96.7021 o
104.707 85.9772 o
87.318 85.536 o
96.2803 87.1325 o
102.582 84.4701 o
89.5318 97.3816 o
103.153 86.4686 o
98.3645 89.1563 o
84.3536 76.525 o
90.245 88.2365 o
111.277 77.453 o
96.6217 84.1152 o
93.1731 88.3008 o
104.765 86.1062 o
88.5999 88.5895 o
63.949 80.0266 o
87.0286 84.1659 o
96.3833 85.7773 o
89.1833 86.0486 o
94.1473 87.2352 o
87.9728 91.8751 o
99.924 87.4234 o
108.209 86.5264 o
87.4526 87.559 o
92.8214 86.9548 o
96.9841 86.0438 o
82.1741 77.1898 o
95.9902 85.0681 o
109.094 91.0917 o
81.7292 90.0703 o
91.151 94.0378 o
102.893 86.1003 o
94.5347 86.3386 o
91.751 74.0825 o
113.438 86.1922 o
96.8689 86.1884 o
96.4815 87.8792 o
92.7591 86.7034 o
94.4971 87.2209 o
72.7927 81.8562 o
97.3892 81.3975 o
107.833 90.5505 o
73.6413 95.9591 o
94.0425 83.9426 o
95.827 87.373 o
94.1792 78.4265 o
98.8861 76.2514 o
96.5139 78.8474 o
95.7632 80.9413 o
80.338 85.9274 o
82.2457 83.868 o
102.078 85.9378 o
108.102 84.4262 o
158.703 100.374 o
56.1818 95.5273 o
94.306 89.9067 o
91.1393 87.9574 o
102.332 84.9243 o
86.5092 84.8314 o
105.821 74.387 o
107.54 86.2178 o
99.8139 86.3638 o
100.191 85.1609 o
96.5277 103.746 o
78.8755 96.5455 o
96.649 89.6448 o
98.0521 84.2525 o
88.1797 87.8156 o
83.0023 87.8883 o
90.6825 83.8406 o
91.5476 87.7775 o
85.1226 91.0453 o
112.561 70.6328 o
88.2754 85.8131 o
107.925 77.6647 o
100.746 84.3525 o
84.3866 84.2018 o
107.598 84.6947 o
97.3612 91.913 o
73.5139 86.0076 o
99.5511 86.5054 o
86.8148 77.9197 o
90.2004 98.272 o
79.1719 100.735 o
85.629 101.467 o
82.9316 87.6322 o
85.1966 86.3295 o
104.101 77.205 o
81.5133 93.5444 o
102.58 86.2254 o
93.6242 89.3221 o
82.544 84.1925 o
73.7445 86.7012 o
90.513 104.441 o
93.9514 86.7102 o
100.816 91.5187 o
77.5844 88.0994 o
91.5211 87.1621 o
129.726 75.5344 o
77.0537 98.6387 o
95.8743 85.6141 o
90.1205 86.3791 o
69.0506 75.8281 o
94.1753 85.647 o
82.4559 82.9579 o
102.901 86.956 o
100.778 86.6078 o
99.2962 81.8087 o
93.031 86.7844 o
89.9992 100.537 o
83.8992 87.6975 o
94.1194 88.5 o
107.231 84.7938 o
126.274 81.8742 o
93.4896 90.8533 o
99.0827 83.9466 o
74.5842 91.4625 o
119.477 104.138 o
94.7908 66.0367 o
113.402 79.4206 o
105.036 89.07 o
86.5478 83.2721 o
91.2312 85.9214 o
80.9543 88.3432 o
109.463 88.0927 o
114.512 86.6819 o
95.0625 87.0938 o
87.8987 76.7135 o
90.2501 86.1738 o
100.732 86.9416 o
95.618 85.9979 o
119.789 84.2389 o
103.332 83.8896 o
101.265 83.8427 o
94.7219 88.7456 o
89.3435 90.241 o
79.4142 86.64 o
84.4583 86.056 o
108.531 78.3346 o
99.8087 86.2547 o
100.73 87.0704 o
70.7331 81.3468 o
98.2582 85.3187 o
99.3885 87.873 o
111.18 84.4297 o
99.045 85.5816 o
102.609 82.0177 o
87.4146 90.141 o
106.232 86.7694 o
104.682 85.7137 o
107.737 92.6471 o
91.4983 86.7925 o
106.605 88.9951 o
99.0966 84.5502 o
100.474 89.5303 o
107.079 87.0818 o
90.8594 88.9397 o
101.771 85.6988 o
97.7944 86.9617 o
78.8819 87.2697 o
98.893 88.2214 o
75.2641 87.517 o
90.2875 87.4165 o
94.8819 91.3205 o
82.4265 89.2896 o
96.0966 86.5187 o
97.5007 84.2682 o
69.7024 81.4852 o
78.188 84.2493 o
92.0139 79.5682 o
97.8874 86.0159 o
81.4793 97.1503 o
101.385 92.7885 o
115.459 85.9822 o
93.3451 87.3022 o
125.027 89.772 o
94.689 83.9475 o
96.913 88.784 o
101.935 86.8337 o
93.6924 90.5937 o
103.542 89.614 o
106.581 87.7132 o
94.7235 87.8539 o
108.593 88.1007 o
85.4479 85.3305 o
108.819 89.2265 o
98.1026 86.943 o
87.8628 89.2715 o
87.3248 69.7359 o
76.6168 82.4526 o
105.28 92.381 o
93.4169 86.7261 o
108.838 92.0275 o
118.438 87.2997 o
129.16 85.5336 o
98.5243 73.4044 o
83.9154 87.5084 o
94.8455 86.2647 o
73.992 89.7857 o
121.088 102.171 o
103.786 88.5038 o
101.071 80.3372 o
54.9701 98.0336 o
77.2895 92.2387 o
102.445 84.4612 o
74.4463 78.995 o
93.0341 75.3878 o
127.762 90.263 o
88.5363 89.4945 o
63.3092 91.1653 o
99.8743 85.4127 o
92.8291 82.0834 o
93.879 86.1931 o
81.2384 81.2317 o
81.205 87.0903 o
83.2789 88.428 o
93.8141 80.5355 o
80.6769 69.5048 o
94.6703 94.2724 o
109.963 81.2967 o
98.5782 75.5473 o
107.237 78.3 o
94.7242 86.6757 o
94.5718 83.9127 o
93.8342 88.1552 o
109.356 87.9289 o
64.6835 81.2105 o
59.49 86.6493 o
93.7772 86.3196 o
71.0629 98.2491 o
102.868 86.0191 o
80.3058 92.6174 o
85.41 99.4474 o
92.1041 98.1663 o
96.9999 85.8354 o
109.462 86.6427 o
74.8387 87.9083 o
112.221 76.8548 o
115.151 82.3117 o
95.3919 87.5423 o
98.7889 65.4682 o
96.3729 87.2521 o
90.2352 87.6066 o
116.379 76.4191 o
67.33 93.4387 o
85.4493 84.5076 o
103.123 87.1347 o
116.447 84.6148 o
73.4054 77.7841 o
84.7964 86.2781 o
89.1178 92.3383 o
65.6519 88.7171 o
92.6829 86.0748 o
99.9897 85.2187 o
118.44 66.1631 o
105.528 86.8459 o
97.4278 97.7852 o
115.512 77.6756 o
79.7381 78.7802 o
120.055 78.7696 o
125.19 80.3071 o
105.103 85.7736 o
100.95 89.6798 o
95.8908 84.9784 o
97.6888 86.6554 o
93.16 99.6316 o
104.253 84.5593 o
103.22 84.1493 o
55.1927 89.1858 o
89.9609 104.943 o
95.583 91.9812 o
89.1142 95.8486 o
114.688 83.8752 o
114.232 74.4968 o
91.4712 86.7286 o
93.8895 86.4446 o
93.3884 73.6975 o
94.5559 79.6064 o
106.564 85.55 o
103.214 79.8776 o
96.3566 93.4221 o
66.7031 75.7787 o
104.777 86.7349 o
97.5454 86.6203 o
95.5966 81.2639 o
125.239 92.4572 o
80.245 94.2597 o
92.5202 88.6996 o
98.0734 84.4064 o
94.1528 94.1914 o
119.416 80.3648 o
102.462 83.212 o
98.1679 80.7685 o
91.5916 88.855 o
103.748 87.5805 o
96.2271 84.868 o
122.862 88.9988 o
88.2949 85.5332 o
100.183 81.8595 o
106.613 80.8876 o
102.83 97.7342 o
105.299 98.5484 o
109.078 87.5874 o
93.2913 86.5951 o
85.438 81.6381 o
113.045 84.165 o
89.544 87.239 o
90.6179 93.4747 o
91.9441 81.8104 o
79.0347 73.8772 o
80.738 87.3886 o
111.879 80.1677 o
74.2951 84.1453 o
74.1161 87.3917 o
112.373 91.5919 o
130.241 81.8858 o
94.0839 94.6822 o
79.7199 86.0092 o
99.6555 83.2895 o
85.9589 90.2874 o
99.9978 79.6093 o
79.3458 81.2598 o
111.824 88.0006 o
81.3788 95.2891 o
97.599 89.4867 o
92.3975 85.8231 o
87.195 86.0257 o
81.5669 85.2712 o
106.323 76.104 o
87.999 90.6402 o
115.701 82.3064 o
117.286 73.1759 o
107.239 87.3738 o
69.4686 79.2921 o
91.9378 86.1897 o
107.484 84.6942 o
96.8822 82.4621 o
113.958 102.183 o
92.0815 87.6626 o
126.018 98.799 o
101.724 90.0169 o
103.287 96.0731 o
103.531 86.933 o
93.8096 86.7172 o
99.5666 109.083 o
89.4506 65.1449 o
90.1859 93.7433 o
70.6685 100.846 o
92.4066 85.3969 o
98.7676 85.3505 o
100.336 87.6665 o
82.1395 79.5441 o
86.5114 87.0965 o
83.9855 80.9345 o
111.975 70.5387 o
104.378 81.395 o
108.901 84.1227 o
90.0759 77.2672 o
98.808 85.571 o
102.04 79.6588 o
85.1364 85.8158 o
95.2203 78.2638 o
98.3455 88.9105 o
99.7741 88.0785 o
115.004 80.0744 o
88.1934 88.5233 o
83.8899 98.0294 o
101.079 85.8601 o
82.2791 87.3902 o
85.8307 80.4294 o
97.9062 85.1971 o
83.3208 95.41 o
78.1282 82.1399 o
102.145 88.5292 o
117.487 85.9355 o
113.298 94.0176 o
94.0588 88.7393 o
100.267 83.2087 o
83.984 80.7825 o
114.113 87.0235 o
86.0492 88.0267 o
109.076 98.6376 o
76.9169 86.1582 o
88.9744 79.0789 o
104.71 88.8186 o
95.6744 84.293 o
104.402 89.6066 o
89.2244 82.8596 o
100.954 85.1107 o
100.048 86.1428 o
112.854 89.1424 o
109.341 74.4148 o
105.225 98.9012 o
101.925 86.4321 o
87.9962 96.3565 o
103.469 82.6113 o
78.7526 87.8037 o
76.7701 84.334 o
97.859 83.8064 o
93.1344 86.0289 o
128.116 79.3282 o
95.9444 84.3705 o
86.2182 96.0291 o
123.348 88.7402 o
95.0048 84.3278 o
113.818 85.8221 o
108.161 83.4039 o
127.093 74.9286 o
91.0591 84.8749 o
91.5738 86.6696 o
61.164 91.4513 o
104.482 98.028 o
111.687 90.0386 o
87.1722 84.1232 o
97.6618 98.7812 o
89.9951 96.2666 o
122.308 76.424 o
109.494 91.9972 o
106.011 79.7671 o
87.5398 80.4388 o
103.652 87.2262 o
92.6563 86.9748 o
104.489 99.9342 o
116.288 85.4409 o
88.1064 85.8597 o
104.467 76.3343 o
101.115 88.3301 o
92.4585 88.586 o
103.316 98.0394 o
89.5195 86.9028 o
97.5285 84.856 o
88.3926 86.0797 o
86.3681 86.5956 o
83.7603 62.5619 o
107.712 87.2062 o
95.7171 85.0311 o
82.4398 88.1478 o
88.5803 80.1482 o
96.6833 97.8139 o
92.9646 83.7599 o
113.746 86.582 o
101.512 94.4414 o
94.6331 86.1699 o
97.4297 85.2737 o
88.1149 87.5386 o
99.0562 88.6591 o
92.4119 78.2825 o
92.8991 87.7133 o
104.443 90.3856 o
102.611 84.9804 o
108.719 87.8071 o
104.622 87.1439 o
99.9574 87.2075 o
85.003 83.4888 o
98.0853 85.2655 o
132.985 84.1208 o
85.3734 83.7763 o
70.3217 101.124 o
78.6522 95.0667 o
107.208 86.7747 o
91.9604 87.0812 o
103.961 87.5076 o
89.0437 89.1657 o
84.7268 85.7401 o
106.465 89.1453 o
111.838 78.6448 o
116.976 85.1308 o
80.006 86.0786 o
104.101 82.1493 o
104.634 86.3405 o
93.8978 73.6698 o
97.8591 82.484 o
103.883 89.4948 o
54.2758 89.5956 o
79.369 86.7817 o
133.954 85.5594 o
98.5528 87.0679 o
51.5556 80.9937 o
85.3687 86.9788 o
91.0913 74.206 o
104.112 82.8043 o
98.5565 86.9256 o
95.2747 85.9764 o
96.2914 86.3641 o
111.985 79.1592 o
102.679 86.4616 o
78.9813 84.2025 o
88.9151 79.0552 o
100.563 92.5042 o
83.4392 87.2279 o
105.002 93.3974 o
91.2668 85.5835 o
85.1684 88.5887 o
92.6244 86.0558 o
98.1258 52.2875 o
106.79 87.1363 o
106.512 94.8247 o
114.142 97.2232 o
66.3607 80.44 o
99.9294 105.682 o
96.3227 85.3546 o
77.6915 76.9964 o
87.4591 86.5365 o
107.058 86.4098 o
69.5086 95.0505 o
104.696 91.9315 o
108.181 95.0887 o
97.0013 88.1105 o
74.8488 80.3021 o
101.591 99.644 o
101.244 85.111 o
94.6152 87.674 o
84.0852 87.1865 o
100.625 84.8929 o
72.7743 88.9968 o
122.874 94.0945 o
85.2627 74.4875 o
115.967 89.5714 o
72.7232 80.1069 o
133.919 66.4672 o
88.1255 87.0751 o
89.2159 89.4593 o
61.8886 87.4884 o
71.7337 100.132 o
80.4896 100.476 o
84.2299 90.7807 o
93.2087 74.4143 o
129.992 75.4067 o
85.7047 88.9807 o
101.961 86.1853 o
97.3157 86.8238 o
94.7861 80.84 o
87.3561 98.3555 o
94.1589 86.6671 o
87.8638 87.0048 o
129.781 82.4931 o
73.0445 78.4885 o
108.304 87.1854 o
84.706 85.0334 o
89.3951 107.657 o
111.642 91.4109 o
85.7689 74.5295 o
112.379 102.681 o
94.743 70.4462 o
104.878 85.1853 o
99.4949 86.638 o
81.621 89.2862 o
109.98 103.064 o
97.4345 87.0523 o
104.827 97.0798 o
86.4442 84.3444 o
101.505 87.0504 o
96.3618 86.3237 o
98.6173 79.6958 o
122.659 85.0144 o
96.7768 84.5973 o
101.044 85.6357 o
91.0331 81.7859 o
109.157 85.9277 o
108.731 62.8786 o
92.5233 88.2504 o
97.4625 84.1197 o
97.8829 88.1844 o
84.7179 93.3747 o
67.5577 95.1327 o
121.513 92.8188 o
121.735 91.9993 o
84.2002 84.0645 o
84.7548 67.4182 o
86.6886 87.802 o
89.0767 94.4036 o
108.712 88.8773 o
83.1034 86.3795 o
78.7173 77.1311 o
74.0237 72.4453 o
103.963 98.4821 o
72.8136 83.0622 o
83.4469 83.97 o
84.3631 102.294 o
100.076 89.6503 o
110.288 84.8914 o
104.499 86.4445 o
90.7014 85.5821 o
89.2929 89.4677 o
93.6879 85.9539 o
113.747 77.1886 o
93.6468 89.3188 o
79.6782 89.5706 o
73.9955 90.7848 o
109.538 92.4991 o
103.607 90.0644 o
99.4329 84.3645 o
104.215 88.2614 o
91.4083 68.722 o
98.4287 79.6545 o
98.5406 88.3933 o
69.4129 84.0909 o
89.1887 82.2652 o
103.977 78.4005 o
91.9413 80.4097 o
83.8719 90.3803 o
119.065 77.5562 o
77.0654 90.6145 o
94.8821 86.0176 o
86.057 87.0477 o
104.702 87.4804 o
98.3648 87.9787 o
110.121 87.1614 o
126.95 95.6729 o
92.323 84.499 o
84.6969 87.8329 o
95.9702 87.1148 o
50.774 89.0996 o
95.3351 87.7065 o
87.741 94.6154 o
95.0281 84.7203 o
113.736 79.9422 o
85.6847 80.4728 o
99.3598 85.6975 o
100.563 89.5806 o
76.1467 86.8917 o
120.39 78.0966 o
101.965 84.9044 o
109.335 93.2635 o
96.0091 85.8373 o
113.808 105.656 o
123.378 91.5564 o
110.08 85.9745 o
107.024 82.6357 o
95.9279 86.6479 o
115.697 86.7061 o
124.409 72.7926 o
90.3532 71.565 o
82.5759 89.2741 o
116.177 79.1622 o
90.1916 73.8767 o
112.472 72.4366 o
71.3335 83.6964 o
98.3669 88.0114 o
77.5237 83.2056 o
92.508 86.1353 o
73.028 95.2908 o
71.3984 56.5584 o
96.6395 78.8198 o
111.707 86.3535 o
100.445 73.328 o
76.9949 90.5331 o
96.1052 86.1397 o
91.7853 70.5015 o
78.6571 89.7097 o
63.121 85.0001 o
87.5025 84.2248 o
110.242 89.3525 o
86.149 85.5792 o
98.6704 85.4711 o
93.7916 86.2077 o
100.337 82.9799 o
94.982 83.4926 o
83.7149 84.2861 o
74.3529 86.2185 o
85.8738 82.4278 o
95.5988 82.6029 o
92.681 88.5003 o
96.0779 85.8172 o
106.04 93.5944 o
122.151 95.2604 o
97.6191 95.5589 o
99.9198 86.4603 o
48.3153 106.956 o
74.6297 79.3461 o
86.6786 98.922 o
101.12 86.2256 o
116.227 71.7127 o
102.731 87.4021 o
85.1777 94.7725 o
87.296 88.1061 o
84.1871 93.8877 o
85.9241 88.3387 o
98.7431 84.025 o
96.9514 83.3667 o
80.0024 70.2785 o
89.7625 85.2588 o
84.3206 96.4241 o
85.7295 86.35 o
93.9198 85.5732 o
101.2 75.6099 o
99.4381 94.8531 o
95.9767 86.495 o
108.608 87.6304 o
91.5503 83.8456 o
87.1422 88.6944 o
102.069 94.4045 o
109.362 98.0571 o
99.1765 87.4498 o
108.934 84.4404 o
72.7325 81.9258 o
93.0823 86.5999 o
98.379 94.8213 o
93.0093 85.7262 o
92.1076 84.2197 o
94.3601 89.4182 o
115.132 79.0647 o
85.3938 89.5755 o
91.4375 86.913 o
74.5363 90.9904 o
109.261 87.508 o
91.6807 87.9 o
85.6599 80.6619 o
62.1112 76.5732 o
87.022 81.4991 o
84.2799 82.5192 o
115.058 82.7119 o
77.662 88.1097 o
106.524 79.9049 o
95.356 86.2434 o
115.981 82.819 o
115.65 80.9313 o
120.86 88.3707 o
97.7659 88.8998 o
98.0882 101.436 o
124.719 76.869 o
83.3686 84.9315 o
99.3881 84.1005 o
84.3138 81.7671 o
96.3917 79.4685 o
92.4063 85.1517 o
71.9659 89.0134 o
90.8877 87.6357 o
99.7932 85.5364 o
102.846 87.5186 o
92.8939 86.4001 o
74.5314 85.547 o
100.075 89.6477 o
104.335 88.9189 o
72.9187 83.3065 o
96.5137 85.3717 o
87.0125 85.8769 o
116.614 70.7612 o
96.9213 86.4621 o
69.0147 93.7948 o
85.8749 78.8893 o
85.2172 73.7217 o
73.6759 85.2361 o
99.0896 90.5189 o
126.123 86.2698 o
100.095 87.1992 o
93.4933 72.3671 o
70.7228 73.6439 o
90.7737 83.8567 o
64.7306 82.8768 o
118.536 79.6977 o
83.8608 97.5079 o
116.3 109.603 o
84.2267 88.8664 o
114.232 84.8735 o
86.2411 68.2946 o
83.2803 86.1951 o
105.694 89.3083 o
99.0034 87.5818 o
92.1885 85.0474 o
127.154 80.7113 o
99.98 87.0431 o
90.8943 72.3786 o
130.502 71.7136 o
100.301 86.3199 o
104.236 88.696 o
90.2751 84.3126 o
104.133 84.7779 o
93.7881 90.4428 o
99.9329 90.4774 o
96.6567 99.4768 o
95.0989 86.2227 o
73.8924 87.7718 o
94.9514 84.7572 o
103.314 89.5402 o
92.8962 88.7705 o
95.4949 71.5891 o
99.0102 82.9826 o
94.5723 72.0158 o
101.222 71.9453 o
90.184 58.861 o
79.3612 72.9251 o
103.185 86.3001 o
100.25 90.9718 o
105.414 87.2771 o
110.733 97.2023 o
109.735 82.6241 o
94.6632 87.1705 o
87.5677 92.639 o
94.4572 92.0317 o
86.2462 84.5721 o
112.857 93.0864 o
119.685 92.9281 o
101.527 88.193 o
120.175 85.4727 o
120.349 79.3069 o
100.753 86.1142 o
99.1903 87.8038 o
96.252 86.3081 o
93.8005 86.4636 o
103.629 87.1618 o
115.171 80.2487 o
87.235 75.9572 o
86.2587 72.1373 o
80.7793 87.0925 o
109.892 90.0436 o
87.5919 100.112 o
97.9241 86.5063 o
109.013 90.2868 o
108.964 94.3347 o
104.976 88.4 o
72.9044 75.0748 o
88.984 86.0073 o
84.5273 83.5806 o
90.7904 96.5684 o
83.1806 71.1529 o
87.0776 88.0819 o
102.682 87.4851 o
75.9191 82.8264 o
79.8632 73.8702 o
95.5203 83.5368 o
91.1785 90.7648 o
83.0232 88.8865 o
93.7907 84.8776 o
62.928 75.6782 o
81.7747 79.0426 o
79.8519 89.2755 o
104.747 88.7736 o
104.495 86.6132 o
89.8887 85.9629 o
100.4 85.8027 o
93.6549 87.8897 o
74.9191 92.3415 o
88.1967 87.0294 o
105.229 80.8884 o
86.2436 69.8095 o
73.8898 83.4283 o
98.439 80.8403 o
153.719 101.79 o
87.3137 90.9146 o
90.9689 86.2927 o
91.1498 89.5846 o
81.2599 94.3147 o
87.265 87.3762 o
92.4999 95.5183 o
101.577 84.7945 o
84.4668 85.0168 o
60.7933 96.8895 o
85.7842 85.622 o
84.2451 73.9285 o
98.5043 82.4065 o
101.207 86.8536 o
78.2797 91.284 o
79.4764 89.4958 o
84.6785 85.9932 o
88.7409 86.0127 o
116.867 88.0856 o
87.6707 82.7136 o
79.126 86.0387 o
118.387 84.4547 o
95.515 85.0867 o
80.7693 88.4099 o
100.358 76.3619 o
85.7814 84.2103 o
122.318 81.3924 o
74.1467 83.3983 o
86.821 86.7243 o
88.5216 100.602 o
103.668 84.4177 o
49.107 71.8282 o
109.012 111.597 o
95.2405 90.5674 o
95.852 87.6676 o
87.5908 88.8465 o
97.7452 89.7589 o
90.745 83.5872 o
79.5525 87.153 o
87.1899 87.0926 o
90.8418 86.5505 o
97.8319 85.3646 o
54.8012 79.7897 o
104.42 102.489 o
108.553 91.1185 o
78.8491 90.0768 o
82.2197 87.6251 o
80.5354 91.2908 o
113.264 90.2401 o
110.959 102.234 o
58.163 91.9628 o
105.04 99.6717 o
59.4966 94.7342 o
72.7446 90.8415 o
98.1699 92.2063 o
122.918 81.8137 o
106.761 77.24 o
121.1 88.4334 o
91.6937 86.0324 o
97.082 84.9532 o
88.4707 86.4851 o
104.267 82.2369 o
108.868 89.602 o
82.4154 88.111 o
64.4257 99.1911 o
95.0456 84.6533 o
59.0543 73.9214 o
95.2165 87.2165 o
65.0643 78.9252 o
94.0207 86.2942 o
107.572 84.1396 o
93.2989 88.5832 o
115.745 98.2443 o
55.8854 85.5531 o
93.0973 89.5709 o
71.6324 85.8697 o
94.4072 95.6297 o
113.118 85.406 o
120.159 95.9979 o
113.408 88.8027 o
108.861 85.6418 o
83.1118 87.3154 o
97.2363 87.2444 o
89.7487 72.2989 o
87.4546 78.6965 o
104.386 91.8069 o
79.9718 82.4133 o
89.5694 95.6521 o
94.8962 84.849 o
104.167 85.8863 o
100.259 77.3456 o
80.1692 84.7401 o
114.259 99.3407 o
104.373 85.2823 o
88.4488 82.8604 o
105.981 82.2645 o
85.3306 68.4888 o
81.0794 81.0426 o
124.118 91.9284 o
101.041 87.8995 o
98.4622 83.9036 o
86.5583 83.9663 o
90.1744 86.7866 o
67.2382 97.1043 o
102.799 88.8092 o
93.6375 87.7561 o
90.8665 86.8996 o
95.2635 87.9992 o
95.6841 85.7175 o
108.768 104.783 o
75.2523 91.243 o
129.762 72.1344 o
122.183 81.9663 o
121.809 76.5975 o
99.1561 87.6555 o
99.4354 86.8752 o
85.1614 88.4212 o
98.6773 78.6221 o
81.9711 83.8153 o
93.3834 87.0135 o
118.8 66.67 o
87.2787 76.477 o
118.942 101.793 o
94.1976 86.1776 o
107.714 77.5859 o
93.2375 95.8736 o
101.987 87.6894 o
89.9711 97.4744 o
107.812 85.0671 o
96.4938 86.4978 o
99.523 84.9085 o
109.545 86.5927 o
77.9806 85.4591 o
64.274 83.291 o
112.519 81.0774 o
84.9839 88.5389 o
169.112 98.6287 o
98.4522 83.833 o
81.2229 80.9848 o
89.8875 84.6169 o
83.8436 80.4498 o
94.0873 87.4382 o
82.0748 84.4184 o
101.104 85.5121 o
88.7188 79.87 o
110.554 84.5093 o
99.1741 104.734 o
89.4298 83.2776 o
104.543 79.5486 o
107.214 99.2863 o
117.607 76.71 o
78.8336 100.159 o
101.678 86.511 o
111.229 81.7098 o
128.879 90.9857 o
61.2511 81.714 o
93.4436 90.9439 o
80.3745 82.6198 o
99.4069 87.0066 o
73.0027 86.516 o
59.1935 80.6926 o
94.1624 85.0094 o
107.179 87.6437 o
80.3199 83.5228 o
92.5817 86.1771 o
97.4882 86.6507 o
103.847 74.8358 o
128.306 85.9604 o
88.1604 89.8449 o
96.0735 72.8188 o
79.7553 90.8755 o
53.2784 80.9506 o
131.201 82.8112 o
77.3641 84.0652 o
94.0531 83.1778 o
100.478 91.5786 o
80.6175 88.3126 o
91.0577 86.6514 o
101.453 85.926 o
116.352 84.6517 o
92.2625 86.0129 o
99.0299 84.807 o
95.675 82.664 o
92.785 86.3569 o
88.3381 93.1275 o
109.112 85.1123 o
84.3407 82.0684 o
106.69 76.9461 o
86.4594 85.0068 o
92.6631 87.3362 o
111.205 85.4558 o
99.2439 86.5358 o
94.4241 84.5003 o
85.5154 86.4897 o
84.6026 86.8773 o
124.372 87.419 o
96.0432 88.3368 o
93.9569 90.7325 o
71.6107 99.3729 o
82.6422 86.3657 o
85.0952 88.0426 o
103.202 84.6302 o
96.7567 86.2018 o
89.4739 75.0423 o
100.017 82.3053 o
80.4192 82.8289 o
98.6813 92.3273 o
103.875 78.6277 o
96.8194 88.2955 o
76.0069 87.2389 o
83.0127 87.066 o
134.867 78.8781 o
86.5245 81.3072 o
94.743 86.0964 o
111.898 86.3941 o
110.783 85.2655 o
102.914 73.0445 o
83.4562 98.3737 o
101.544 77.8476 o
103.357 92.1084 o
96.6758 86.2844 o
85.7849 89.3359 o
99.6214 86.9296 o
95.8349 87.4545 o
91.3323 80.6324 o
87.5492 102.981 o
96.8017 85.5926 o
97.1421 87.412 o
108.523 82.9182 o
122.75 75.4981 o
97.9126 86.4512 o
79.8799 87.4901 o
89.928 87.0788 o
87.432 90.7763 o
114.875 80.4091 o
91.3629 84.7649 o
105.033 90.9999 o
101.092 88.0072 o
105.432 86.8605 o
80.6399 100.108 o
84.5394 93.5113 o
90.6904 84.2937 o
98.0243 93.4892 o
118.848 96.1716 o
91.7059 87.0777 o
106.941 79.9087 o
87.5721 87.7423 o
92.398 90.376 o
49.4725 96.6967 o
80.8701 90.8095 o
96.356 85.5038 o
105.611 85.3535 o
79.6912 89.23 o
84.4869 89.7425 o
94.3732 82.0376 o
115.744 83.5069 o
82.0675 90.1312 o
86.9336 88.8758 o
86.2471 84.0543 o
79.4422 83.4649 o
82.4794 85.2363 o
75.4619 89.1913 o
86.3247 91.6454 o
124.227 65.8354 o
94.9579 95.117 o
89.5087 87.0036 o
100.892 82.6846 o
82.8164 91.8914 o
88.8476 91.6206 o
119.21 99.738 o
91.9075 86.3096 o
106.988 81.0836 o
80.3326 98.7898 o
83.1808 84.0867 o
106.835 88.7011 o
89.5943 87.267 o
91.5082 86.5037 o
114.167 96.9446 o
91.9972 86.7544 o
55.8178 73.7563 o
121.962 79.2897 o
146.226 88.1877 o
85.0415 60.8216 o
121.463 88.8285 o
93.4884 93.9152 o
115.749 87.7598 o
99.1144 90.7116 o
91.2456 93.7319 o
110.221 76.0625 o
79.9549 84.5386 o
95.7404 89.5324 o
105 80.6406 o
60.3494 68.7869 o
84.2282 90.0556 o
93.2643 83.5413 o
79.978 87.2285 o
103.688 85.0333 o
95.7687 87.168 o
93.6867 85.9059 o
97.5804 83.8095 o
72.2376 82.0545 o
107.235 86.5778 o
105.163 90.3192 o
95.0574 86.0391 o
84.401 85.4768 o
87.8533 87.2533 o
87.3065 87.3806 o
86.5692 84.3222 o
118.739 81.1462 o
95.4083 94.9414 o
88.6362 87.2621 o
95.4777 80.5946 o
107.559 86.6284 o
85.8365 88.7425 o
90.515 82.3581 o
87.8442 81.8036 o
89.8447 86.8287 o
121.052 79.4008 o
107.484 73.0559 o
95.749 74.4717 o
105.526 80.9177 o
80.3516 113.766 o
91.1246 90.7543 o
84.3598 91.9362 o
116.534 97.0345 o
82.3631 91.8425 o
109.695 89.083 o
96.5718 85.5403 o
97.1688 85.9292 o
62.8227 80.5522 o
110.024 74.4116 o
100.919 85.9611 o
92.7028 86.4522 o
122.02 85.5713 o
89.2217 80.7562 o
107.618 78.6983 o
40.104 88.5091 o
63.9715 91.7031 o
92.5055 79.9695 o
105.066 86.876 o
93.6368 87.1244 o
73.4972 82.875 o
104.267 85.6934 o
106.947 84.0573 o
109.055 86.3546 o
95.4703 86.2565 o
86.5192 89.6321 o
97.7455 86.6916 o
104.943 84.5049 o
110.363 83.9081 o
86.7392 87.6366 o
82.941 87.4797 o
94.1967 85.9631 o
101.107 86.8127 o
96.6962 85.565 o
95.2373 85.7321 o
105.959 86.327 o
93.5123 85.3969 o
98.2803 85.9263 o
90.3454 85.5454 o
106.706 81.4726 o
88.9075 92.4541 o
111.377 86.8052 o
96.0664 95.7221 o
90.0631 85.1245 o
73.1297 83.6662 o
91.9317 82.8187 o
50.2788 75.3018 o
115.741 82.2387 o
86.3462 87.6668 o
41.5793 78.0232 o
90.0117 91.5226 o
106.051 73.046 o
93.3355 83.6543 o
95.7864 87.2733 o
92.9659 67.5003 o
93.5579 85.6123 o
103.832 80.3742 o
93.7633 88.6977 o
106.002 79.2051 o
98.3981 87.8064 o
85.745 87.0122 o
96.2258 87.1298 o
116.017 92.3609 o
86.1206 91.9601 o
100.214 81.1719 o
85.8506 91.4898 o
95.3744 86.4656 o
102.354 81.5737 o
94.285 85.7445 o
90.6218 88.8247 o
107.053 84.2221 o
114.108 88.1613 o
75.7078 82.4456 o
84.9315 68.543 o
118.305 83.392 o
143.22 89.6049 o
109.671 85.5248 o
124.006 78.5224 o
84.2315 90.8513 o
96.5518 85.8998 o
105.801 87.5397 o
103.285 82.7963 o
83.9136 77.9908 o
94.2453 74.188 o
98.3724 87.1587 o
77.5305 100.533 o
92.3296 85.7101 o
60.3785 82.3231 o
106.94 85.2767 o
98.4106 80.2295 o
101.4 87.1174 o
67.4091 85.5124 o
98.1381 74.221 o
91.7796 73.6155 o
77.7468 97.6506 o
94.1626 86.6145 o
96.3041 81.2506 o
118.946 98.7046 o
74.8016 78.8438 o
100.411 76.0492 o
89.1699 85.2733 o
89.2378 87.8207 o
81.1967 95.9187 o
93.8105 85.8092 o
97.7269 85.932 o
92.4901 86.0576 o
100.977 73.6985 o
81.526 85.8834 o
116.586 81.5933 o
82.9262 84.9229 o
71.4671 90.511 o
98.0545 81.3614 o
95.9871 79.7097 o
72.4837 88.0893 o
97.0863 87.1988 o
88.696 85.6457 o
104.459 85.9784 o
105.026 81.793 o
55.6522 86.4884 o
90.5097 85.4605 o
96.7802 101.269 o
100.723 87.4248 o
115.305 88.3178 o
69.3413 92.3117 o
92.3102 85.5646 o
103.938 87.4084 o
94.6369 84.6752 o
78.1177 99.4317 o
104.443 64.0313 o
98.5073 85.1078 o
101 85.1155 o
74.66 83.3705 o
67.2552 80.3993 o
73.4485 82.8809 o
93.7237 86.9297 o
87.2313 88.0176 o
101.11 86.3036 o
79.4864 91.0217 o
89.8955 86.5681 o
102.517 87.6241 o
92.5059 84.234 o
97.3846 97.8839 o
76.4264 89.5847 o
102.54 80.2165 o
85.888 89.3351 o
89.6896 85.6458 o
97.4486 88.6891 o
121.859 84.1304 o
102.69 88.0442 o
102.006 90.229 o
99.3061 83.8523 o
85.7428 78.8654 o
106.665 86.1152 o
72.3024 85.4883 o
104.682 82.625 o
103.806 78.9761 o
88.2207 87.0262 o
82.4145 105.018 o
88.4025 82.2293 o
104.914 85.0136 o
91.4206 89.742 o
92.6924 85.9116 o
107.115 104.217 o
105.854 87.2799 o
101.101 78.2799 o
80.5053 75.994 o
103.811 86.3015 o
99.089 88.1523 o
87.8129 87.0873 o
81.4408 91.0245 o
62.4501 78.1805 o
101.198 91.9018 o
78.1786 86.8703 o
75.4177 83.0803 o
119.83 69.1241 o
105.308 97.8927 o
68.2577 80.943 o
96.2491 90.6744 o
100.977 85.4619 o
91.694 86.4571 o
99.1749 69.3488 o
119.365 73.0303 o
89.6616 82.5098 o
81.1949 77.4432 o
91.8888 77.1444 o
85.5117 98.1605 o
101.082 85.9508 o
110.272 87.177 o
121.6 78.3883 o
74.8839 99.9853 o
68.4274 80.7667 o
99.2237 89.1582 o
107.343 83.6726 o
87.9202 88.9392 o
91.7578 101.967 o
102.869 77.5299 o
67.6358 86.4506 o
103.384 82.7981 o
107.43 69.9316 o
89.6321 92.2851 o
62.2785 83.616 o
92.4287 91.1051 o
111.423 74.0205 o
92.3303 94.313 o
106.108 88.9366 o
113.133 85.1123 o
70.6653 51.6037 o
80.3894 91.5417 o
101.53 88.98 o
92.1309 91.9319 o
67.9258 106.547 o
92.1954 95.7524 o
109.643 89.4481 o
99.5529 94.2492 o
89.478 93.4417 o
95.7485 82.0471 o
89.2521 87.836 o
83.5408 88.7833 o
89.3565 86.7632 o
68.1887 88.2941 o
82.1524 83.7858 o
105.521 88.7269 o
114.904 78.8208 o
68.6126 79.5315 o
90.5426 86.1762 o
87.5779 86.415 o
75.6894 72.9143 o
91.0569 85.4042 o
73.4655 89.2917 o
98.982 94.0123 o
68.9078 97.3226 o
117.004 74.8233 o
92.3627 87.4823 o
98.4018 85.7033 o
91.0493 85.1433 o
100.382 79.7141 o
85.4403 81.4242 o
105.423 96.8012 o
63.2168 88.0967 o
97.1526 87.3546 o
113.573 106.559 o
85.3394 89.625 o
91.722 85.0394 o
66.2249 77.1109 o
105.235 84.8908 o
96.3339 78.8198 o
101.149 87.5239 o
76.0243 99.5454 o
98.8842 87.1601 o
92.5128 86.1764 o
124.672 128.691 o
91.9257 63.2088 o
94.2281 86.3957 o
104.734 89.3286 o
104.862 97.3095 o
95.1935 88.5036 o
110.24 92.1522 o
84.8937 104.238 o
97.3792 86.893 o
106.442 84.3756 o
85.7192 85.8041 o
135.189 81.856 o
98.8662 86.419 o
71.4645 99.3118 o
100.276 99.9024 o
113.315 77.4144 o
108.761 90.8633 o
96.7602 86.4722 o
101.044 86.6118 o
106.682 69.3599 o
102.566 88.2605 o
108.985 78.2405 o
94.3791 86.9868 o
100.102 90.9695 o
75.786 91.5604 o
110.141 103.834 o
91.8036 88.0245 o
85.3897 83.482 o
89.7457 85.2738 o
102.558 88.431 o
90.2877 85.167 o
88.8483 85.483 o
102.724 88.2487 o
111.723 86.4821 o
97.6365 89.6137 o
112.919 74.1333 o
89.9248 89.0552 o
96.3105 83.3158 o
35.5269 91.7298 o
85.4151 88.4642 o
92.0237 87.4061 o
105.703 81.3409 o
97.8777 93.1245 o
97.215 95.4946 o
73.8375 75.5992 o
101.286 78.0405 o
90.6452 86.05 o
108.145 86.6547 o
69.3485 95.8841 o
100.454 93.756 o
103.74 77.1716 o
120.357 78.9555 o
101.852 84.5711 o
87.6945 87.6703 o
74.0516 82.8014 o
91.912 90.9643 o
103.167 85.134 o
97.7044 77.9685 o
90.9861 83.6721 o
75.1596 85.9869 o
107.682 81.68 o
92.0831 90.0423 o
83.6661 86.2128 o
87.0007 102.344 o
72.9796 92.9339 o
73.6348 79.2419 o
91.9516 82.5954 o
94.7392 98.6323 o
87.5591 85.2916 o
65.9131 93.0909 o
88.371 82.5855 o
105.758 87.6687 o
90.7979 92.0716 o
92.0726 93.7295 o
100.543 87.7934 o
95.4675 87.2239 o
100.156 90.0212 o
98.9392 94.4718 o
84.8882 89.3075 o
89.3556 75.9972 o
118.484 66.7933 o
92.9832 74.9458 o
66.3643 83.8114 o
93.1202 79.0334 o
77.704 76.3925 o
98.8045 85.6171 o
100.08 60.7522 o
92.7391 86.097 o
92.6629 82.7001 o
108.843 86.6678 o
105.111 87.425 o
88.2791 82.2012 o
112.355 83.3015 o
80.3405 81.1595 o
91.8942 77.0795 o
102.38 79.6393 o
97.6556 86.7927 o
86.5243 104.167 o
97.7522 86.7999 o
93.4141 88.1284 o
127.384 76.6207 o
116.554 77.9765 o
108.096 85.7753 o
98.4941 88.1161 o
87.7795 81.0507 o
106.149 78.0967 o
100.115 84.0192 o
101.267 88.0163 o
115.681 92.1475 o
96.3646 87.7787 o
111.189 77.7021 o
83.352 85.7356 o
103.39 83.2377 o
85.0657 84.5458 o
99.9659 95.1697 o
95.0772 102.481 o
88.4779 87.3463 o
92.9983 101.303 o
75.1319 58.5324 o
103.727 80.7586 o
102.609 94.1837 o
62.5438 87.1272 o
103.96 101.465 o
99.4051 94.2205 o
106.287 88.591 o
82.6759 128.298 o
101.488 86.9565 o
93.8134 84.8463 o
78.8301 86.5911 o
78.7628 86.3322 o
82.7137 88.7586 o
82.768 83.1212 o
113.675 87.446 o
101.43 83.4092 o
91.8698 89.9373 o
99.3703 80.9231 o
100.985 92.2857 o
88.6335 82.3498 o
99.2096 86.629 o
109.357 86.871 o
89.5362 80.5708 o
89.0396 74.1692 o
87.3494 87.3336 o
89.2781 94.5305 o
82.3895 88.9256 o
88.7207 83.539 o
91.6986 85.8654 o
93.2194 83.8213 o
82.9763 85.736 o
94.6284 89.6364 o
102.347 87.2134 o
86.5538 82.6847 o
106.786 88.9408 o
105.553 86.1553 o
96.967 87.8185 o
107.861 90.9622 o
95.8266 86.396 o
87.1122 87.4581 o
93.5845 97.793 o
79.2549 88.0297 o
93.9846 85.7995 o
97.9629 92.1519 o
85.5688 75.9558 o
102.954 87.5297 o
56.975 80.8085 o
87.0847 80.6813 o
98.4339 87.5695 o
118.323 83.2487 o
81.484 70.0752 o
84.7458 76.8476 o
97.9231 96.1394 o
104.489 73.0408 o
82.2196 92.2624 o
84.8995 89.9937 o
98.3135 73.0865 o
75.013 89.278 o
78.5254 84.8712 o
106.035 85.2869 o
98.8732 82.5649 o
95.03 84.1571 o
90.9581 87.1587 o
95.579 86.5601 o
97.1845 86.9345 o
59.612 93.4192 o
85.4467 90.4429 o
111.021 81.6199 o
102.326 81.6975 o
80.3694 92.4411 o
96.7004 85.5467 o
87.578 87.5268 o
90.5892 86.856 o
94.0491 92.3461 o
97.0754 88.927 o
102.196 74.8 o
86.8147 88.8498 o
99.259 78.7392 o
101.866 84.0998 o
88.293 83.8175 o
85.905 86.7173 o
92.9998 85.9825 o
90.5496 88.5948 o
89.0874 86.6123 o
49.1459 72.4077 o
96.5459 86.4785 o
117.847 90.5422 o
105.261 87.0536 o
101.714 83.3189 o
105.958 85.747 o
98.5481 88.1586 o
75.2916 83.1433 o
104.734 83.7943 o
124.851 78.2011 o
89.5907 89.7422 o
126.642 92.6158 o
86.1214 87.8431 o
86.1628 80.0379 o
93.9634 85.5431 o
90.7375 85.8983 o
107.824 86.8884 o
108.441 85.2006 o
88.3147 85.278 o
95.8136 79.679 o
109.907 84.2951 o
111.644 72.2806 o
102.99 92.083 o
102.96 89.846 o
87.4829 84.1848 o
63.6075 88.7716 o
103.648 80.8864 o
90.0868 95.7145 o
91.0211 87.2276 o
94.4612 87.3568 o
98.6471 84.9001 o
101.527 85.2497 o
119.404 95.9671 o
94.7024 86.4866 o
78.8839 86.4846 o
100.523 98.604 o
88.1783 88.3453 o
105.153 90.8617 o
93.4565 82.9207 o
75.7514 83.3993 o
95.5393 85.8163 o
88.4505 87.1482 o
110.301 91.4239 o
145.7 84.425 o
82.0561 92.4535 o
90.3527 83.6376 o
98.9599 85.1157 o
95.7782 85.2305 o
89.1037 85.3232 o
69.8308 89.1734 o
102.457 84.1001 o
97.0482 86.6243 o
90.8106 87.6743 o
90.8201 101.96 o
121.274 83.2676 o
73.7065 80.0856 o
104.381 87.5105 o
105.353 80.6725 o
112.508 74.5207 o
102.991 102.572 o
95.5246 85.5276 o
58.4857 77.2234 o
119.043 70.208 o
113.124 93.5537 o
115.488 100.785 o
113.663 100.866 o
119.212 58.6178 o
87.5402 79.7286 o
76.789 85.7606 o
98.2076 86.6113 o
66.2241 79.8694 o
131.459 75.9549 o
100.824 99.6589 o
93.2974 65.1046 o
87.975 81.6379 o
108.336 87.006 o
111.03 91.2803 o
98.8143 93.1881 o
102.301 80.5669 o
119.482 75.9745 o
99.046 86.941 o
68.5372 87.967 o
89.4174 74.8029 o
84.7232 71.9328 o
91.909 86.8136 o
89.9917 80.7462 o
98.5373 80.2757 o
135.387 83.6903 o
115.383 91.7389 o
87.8579 83.1869 o
88.8116 94.2257 o
93.7814 86.6468 o
45.201 65.6734 o
106.575 90.5167 o
104.63 89.1592 o
92.9316 85.3785 o
111.565 93.0795 o
96.4989 87.6333 o
96.0201 86.7173 o
87.8616 92.6175 o
102.483 84.076 o
93.0306 79.9718 o
99.3195 78.2892 o
118.828 79.4934 o
121.945 83.0558 o
102.46 88.73 o
112.161 92.5912 o
102.834 87.9187 o
99.9274 85.3382 o
111.903 82.6834 o
80.3919 71.8525 o
92.8982 85.2244 o
95.8846 87.1552 o
100.694 94.3618 o
137.29 85.9042 o
99.4449 81.9888 o
71.4051 92.0299 o
101.521 85.5314 o
113.659 79.4642 o
74.04 89.951 o
74.6306 86.5041 o
88.0372 87.7118 o
91.1802 85.1617 o
93.9909 89.5463 o
70.0256 142.401 o
101.438 87.0136 o
89.2894 78.537 o
109.682 93.4615 o
73.1195 86.3311 o
98.0303 82.4192 o
100.675 90.9375 o
88.7751 85.6936 o
78.935 100.505 o
115.363 87.8116 o
103.795 87.5467 o
117.636 103.012 o
74.5956 84.6261 o
99.6731 83.2418 o
104.915 85.644 o
106.245 80.9173 o
90.6185 86.6695 o
99.6635 64.2676 o
101.502 87.1301 o
99.1191 84.6098 o
90.0946 80.3123 o
112.011 87.4546 o
90.3954 83.5495 o
86.3046 82.4063 o
131.092 87.3299 o
74.8279 82.8964 o
102.311 91.7316 o
95.7784 92.1848 o
63.0042 63.9612 o
91.0393 90.6268 o
82.1161 86.6428 o
106.922 90.1861 o
96.7519 87.4943 o
92.4941 84.2856 o
88.9755 92.2246 o
77.2796 83.5974 o
102.702 84.0477 o
96.836 103.467 o
96.5998 87.0862 o
57.1839 96.1387 o
70.357 83.9591 o
91.008 78.3263 o
93.9777 86.0351 o
92.9506 56.3217 o
110.151 95.0588 o
92.1196 101.036 o
113.339 81.0791 o
106.343 85.0276 o
64.7156 85.7094 o
99.0032 80.7794 o
86.4 100.704 o
93.0956 87.1268 o
104.636 93.0199 o
98.1161 87.5122 o
87.6056 89.7609 o
97.9491 83.8011 o
113.004 88.5398 o
86.6995 85.5239 o
74.7571 96.729 o
91.2893 78.4269 o
86.5593 80.0309 o
91.9172 83.2666 o
85.703 84.5721 o
87.5487 90.2222 o
86.273 82.3028 o
88.6199 85.9094 o
101.286 86.9927 o
77.1995 89.6335 o
98.724 72.6937 o
87.25 80.51 o
88.6279 91.3744 o
124.845 87.6783 o
132.634 80.334 o
95.2246 88.4742 o
112.965 70.7317 o
117.545 85.4841 o
107.009 87.1593 o
108.779 104.413 o
93.6275 86.7562 o
110.467 98.4312 o
81.324 90.3241 o
96.723 87.6212 o
95.643 83.7701 o
86.5341 87.7819 o
113.755 98.0843 o
66.3096 79.5958 o
71.0372 99.019 o
114.299 89.2818 o
106.8 91.3283 o
91.2491 84.9147 o
104.153 86.9458 o
57.1819 103.65 o
94.7779 83.734 o
122.424 88.3157 o
93.2347 98.6688 o
50.5443 93.6883 o
99.4639 87.4296 o
91.9993 84.3254 o
106.379 100.888 o
83.4213 84.1265 o
104.599 87.3935 o
118.919 84.9943 o
91.9896 86.5553 o
93.7787 82.5307 o
90.7123 90.0901 o
46.357 114.152 o
103.25 87.5521 o
67.0093 70.1106 o
81.0074 95.5034 o
90.4043 90.8625 o
48.754 100.595 o
103.714 85.611 o
98.3785 86.2149 o
85.677 86.7481 o
96.0952 86.1166 o
100.999 87.8058 o
115.967 80.8126 o
135.64 91.3544 o
71.2733 91.242 o
93.1985 68.0684 o
94.0425 83.8435 o
93.461 87.3926 o
64.6681 89.5179 o
87.9398 78.356 o
89.1469 86.9102 o
74.9605 80.0026 o
88.3472 77.2053 o
96.5393 87.7098 o
90.5564 84.5752 o
40.8318 54.4009 o
84.2961 87.1405 o
91.7824 86.7957 o
87.5184 96.5855 o
65.2981 77.7371 o
116.477 81.1411 o
101.979 88.4041 o
80.681 80.1147 o
95.3334 87.03 o
101.315 88.2351 o
90.708 87.1334 o
103.615 87.2305 o
78.801 53.4447 o
97.9381 85.4242 o
86.9455 97.0518 o
97.523 81.7254 o
94.891 75.5445 o
83.2956 84.853 o
88.3693 90.2275 o
109.609 85.3987 o
92.9466 89.5194 o
60.5936 82.4311 o
100.427 86.0928 o
111.272 70.5865 o
100.766 88.2476 o
90.2852 101.825 o
88.3775 86.4225 o
77.8523 92.6444 o
104.214 75.6893 o
56.2923 86.5592 o
96.1978 87.3256 o
82.9765 84.6168 o
70.9444 79.5623 o
86.1835 89.0905 o
68.1697 82.4732 o
77.0451 81.7431 o
71.4563 68.8944 o
105.437 90.6119 o
91.6508 79.929 o
78.2096 83.1575 o
122.425 69.701 o
95.0453 85.8301 o
102.96 70.0802 o
86.6707 83.8353 o
103.03 89.1701 o
90.6563 85.9533 o
90.215 69.8647 o
93.1828 80.2985 o
110.505 86.2624 o
110.238 83.6138 o
64.7569 82.7816 o
78.6002 81.0003 o
101.258 79.1356 o
80.8813 84.2153 o
117.11 78.135 o
120.387 100.501 o
63.9925 76.9485 o
98.466 93.0683 o
93.0032 82.3918 o
97.9642 97.8174 o
102.066 86.8835 o
91.9465 86.7789 o
93.1713 86.3951 o
97.6672 88.7565 o
94.9495 87.0017 o
109.741 84.8632 o
106.324 81.7216 o
85.3437 80.7551 o
92.2012 87.0289 o
98.7099 87.3014 o
121.646 88.3321 o
89.8264 97.4356 o
120.855 84.5008 o
86.3216 88.4997 o
110.036 58.6973 o
87.3725 79.032 o
65.5807 73.9351 o
105.775 87.1966 o
86.4139 89.6513 o
93.1084 84.6272 o
78.0123 89.0851 o
96.0022 87.1686 o
91.3303 94.8664 o
97.1373 85.804 o
77.6843 98.1073 o
91.372 85.6494 o
103.624 87.4086 o
93.0429 86.4831 o
60.279 88.3007 o
90.1836 97.7665 o
98.0991 83.041 o
87.6483 89.3705 o
96.7458 82.9336 o
79.1374 87.3335 o
96.6523 64.8844 o
97.9071 84.3753 o
88.8783 82.9356 o
108.51 87.6734 o
93.7059 99.5588 o
85.637 85.9901 o
85.2099 90.1986 o
78.1381 87.3882 o
94.8029 88.5807 o
75.4538 86.5941 o
94.0763 84.3556 o
91.4785 85.7741 o
107.204 100.798 o
95.1374 91.7841 o
97.5642 88.9899 o
73.9412 80.2085 o
72.2582 68.9692 o
95.2236 85.6609 o
94.0863 88.0145 o
107.745 87.0403 o
105.359 87.1836 o
101.508 91.845 o
87.1318 90.363 o
80.5856 89.4119 o
98.3197 87.3672 o
91.1228 85.329 o
110.462 82.7525 o
110.543 92.1051 o
99.068 85.5038 o
90.0618 96.936 o
129.307 88.5056 o
79.5266 68.9884 o
87.2136 88.89 o
114 92.739 o
87.6755 90.6959 o
82.3984 81.7047 o
87.2811 88.6357 o
90.2009 91.1253 o
136.682 82.0376 o
102.872 87.872 o
94.5229 86.477 o
99.5407 86.0776 o
80.4604 87.5456 o
94.6756 86.6001 o
111.095 83.1199 o
61.3398 87.3602 o
85.6906 84.5316 o
104.3 102.123 o
98.453 85.6685 o
91.2432 82.1527 o
113.621 83.0676 o
91.8448 88.2761 o
109.272 88.4672 o
122.748 102.644 o
136.062 82.0161 o
73.928 82.755 o
95.9217 86.1895 o
91.8902 87.9259 o
86.3888 86.2529 o
109.947 104.385 o
84.779 89.4756 o
97.1131 72.9822 o
103.799 84.8408 o
89.7604 86.9571 o
74.3332 84.0459 o
94.2725 86.2751 o
110.246 82.2374 o
84.7504 95.7987 o
100.229 87.1112 o
98.0898 88.7963 o
90.1118 93.5641 o
100.125 77.1507 o
142.806 94.9514 o
92.872 87.3573 o
86.3631 94.0588 o
129.123 91.0351 o
96.3349 66.2217 o
149.886 73.9149 o
116.51 103.931 o
97.3724 87.7176 o
81.7451 95.0345 o
92.6795 79.5298 o
100.042 88.8764 o
101.45 83.2934 o
75.9229 72.5738 o
102.384 66.1193 o
104.98 87.0166 o
87.3995 85.6327 o
73.2778 80.8475 o
126.579 81.718 o
103.991 85.2664 o
90.5372 86.8382 o
103.971 91.8891 o
105.321 103.833 o
102.72 92.9655 o
96.1338 87.9069 o
99.2558 86.3661 o
48.078 80.6516 o
104.866 94.3108 o
96.3461 86.8321 o
78.3906 90.486 o
75.4148 87.7895 o
112.586 78.7736 o
75.4615 106.622 o
62.1768 94.8904 o
81.3312 81.5411 o
54.2017 87.8015 o
105.151 86.1656 o
96.9057 85.7348 o
125.335 84.0694 o
90.9072 72.1721 o
106.365 74.484 o
98.0224 86.3798 o
87.5799 81.5415 o
64.5397 78.5999 o
95.5572 90.1257 o
93.3721 85.9635 o
91.4387 96.3631 o
62.2332 86.1006 o
88.0491 74.7215 o
78.0807 93.4814 o
120.546 93.6406 o
94.9873 102.684 o
89.8869 86.6317 o
121.672 80.0103 o
70.977 92.142 o
94.3143 85.1417 o
64.9993 85.4373 o
84.2437 88.0672 o
95.0408 88.2311 o
84.8097 83.8098 o
69.6145 79.6227 o
103.261 87.2986 o
128.659 66.408 o
79.1151 84.6316 o
102.147 84.6321 o
83.5689 88.1065 o
102.956 89.982 o
116.498 92.3334 o
82.146 86.4269 o
82.0255 89.1009 o
105.029 85.677 o
117.345 89.2591 o
100.31 84.4071 o
79.822 79.014 o
109.151 85.9891 o
86.2284 96.2499 o
112.408 83.7691 o
97.587 94.6847 o
91.4478 87.8682 o
81.0809 91.076 o
82.4283 87.4033 o
80.5518 96.8829 o
97.9589 101.405 o
127.488 72.0807 o
83.5639 73.7096 o
89.639 84.9444 o
104.417 85.324 o
96.6719 90.0879 o
92.0135 92.332 o
89.012 85.3165 o
95.1672 87.6449 o
87.4533 84.7373 o
100.451 52.2032 o
88.7442 88.0151 o
72.3624 89.4855 o
91.0629 79.9576 o
106.451 72.4345 o
98.9757 100.304 o
103.36 86.5596 o
125.031 86.9649 o
53.5408 84.4674 o
113.592 90.8303 o
96.0991 93.632 o
81.0487 86.0753 o
93.7259 86.4176 o
90.1927 88.2633 o
101.661 72.0963 o
104.942 76.556 o
78.5806 92.294 o
105.782 88.5377 o
91.1408 88.0199 o
101.278 90.1516 o
92.6013 91.2866 o
107.108 83.914 o
99.1371 91.4456 o
109.259 82.0584 o
111.493 88.7585 o
95.5664 82.4564 o
103.979 93.3225 o
92.9111 91.5194 o
81.5296 87.4655 o
87.8883 90.9908 o
106.273 89.0165 o
93.7145 86.5137 o
99.121 83.1035 o
99.6488 85.0456 o
105.161 75.9705 o
99.7339 90.4676 o
113.247 84.0684 o
88.78 87.2786 o
98.5171 103.613 o
108.78 85.726 o
106.252 83.8285 o
91.1728 87.5331 o
80.6753 80.4814 o
102.653 84.9182 o
103.941 84.0016 o
70.2174 86.6991 o
89.3202 88.7088 o
103.771 85.7269 o
85.463 87.8329 o
85.5216 84.6653 o
68.2176 74.7126 o
84.978 87.3919 o
95.2382 85.6487 o
104.814 77.6904 o
85.2741 87.8075 o
91.8152 103.895 o
88.0126 85.6276 o
95.7487 97.9399 o
99.9702 82.4788 o
96.0216 85.7533 o
95.9456 86.5364 o
104.265 85.4756 o
87.0233 89.1142 o
94.2773 86.5413 o
138.018 88.3956 o
97.113 85.4638 o
114.627 85.1428 o
86.4265 94.8087 o
105.789 85.3487 o
88.6227 88.3221 o
92.3465 87.9858 o
92.1002 80.4415 o
95.2681 74.6205 o
110.945 87.8221 o
87.2024 84.6854 o
77.3419 88.4226 o
117.76 57.5082 o
94.4271 87.1074 o
88.3413 86.982 o
133.595 82.2594 o
94.0827 85.6389 o
95.3618 87.9784 o
87.0711 84.6439 o
137.789 86.6477 o
82.0545 71.1345 o
99.6374 83.4522 o
72.6836 94.611 o
99.6727 82.496 o
103.666 93.0433 o
92.5061 69.7312 o
132.565 72.9406 o
111.338 87.8392 o
80.6851 89.4673 o
87.2134 91.026 o
93.9046 89.2326 o
77.2651 70.0219 o
130.955 86.6825 o
60.7045 92.1457 o
110.759 89.6899 o
92.0188 86.1297 o
65.9817 90.3072 o
88.2712 91.7449 o
78.8486 83.7858 o
94.8229 85.1676 o
101.813 88.556 o
103.681 74.659 o
96.6217 87.494 o
104.391 88.2957 o
101.085 99.8984 o
95.885 83.3412 o
109.725 83.6903 o
87.8993 99.5245 o
110.587 78.5501 o
97.93 87.2224 o
113.858 93.2583 o
105.307 85.4734 o
96.3325 87.2448 o
93.149 69.2845 o
122.796 85.006 o
98.2583 85.374 o
91.4257 86.0607 o
80.7191 85.8046 o
80.3103 83.4513 o
113.263 92.3691 o
68.9401 83.6544 o
98.5737 81.4916 o
93.5024 85.3029 o
62.9945 81.2205 o
95.8923 87.0764 o
112.616 79.371 o
116.836 77.2954 o
93.2146 87.2521 o
100.802 67.7209 o
114.821 88.3326 o
92.1548 93.0555 o
66.7258 83.4212 o
83.4669 71.1805 o
100.73 76.9528 o
103.393 75.5161 o
88.702 87.3712 o
94.8072 95.4483 o
86.3919 84.0327 o
78.128 80.5989 o
92.6302 85.862 o
87.2436 111.523 o
110.654 86.3089 o
103.642 86.1914 o
81.4046 82.0924 o
101.031 87.1379 o
86.4413 88.075 o
93.2506 86.35 o
96.6279 87.3393 o
78.2875 88.4122 o
81.2989 78.2472 o
92.8806 88.1412 o
61.8385 81.7882 o
91.3288 86.1177 o
88.3136 83.1675 o
84.5575 84.0641 o
96.96 75.2557 o
88.8324 87.9673 o
108.438 88.9635 o
104.393 90.0727 o
94.8709 81.809 o
133.163 110.502 o
109.587 87.6914 o
88.376 89.0339 o
90.8256 88.8453 o
67.5334 79.4861 o
132.778 109.488 o
93.7874 84.8321 o
83.9752 84.1418 o
96.519 84.1269 o
105.625 92.9269 o
81.0269 85.163 o
99.0757 89.4199 o
100.886 89.9461 o
111.251 87.3903 o
97.1099 79.0047 o
66.2119 84.4981 o
84.4623 87.0083 o
108.016 85.177 o
97.6964 84.8718 o
91.8675 91.4144 o
116.739 85.6748 o
60.7886 100.449 o
95.518 87.3974 o
93.2342 78.3145 o
94.0503 86.5103 o
83.7279 85.0043 o
89.4593 88.2419 o
90.927 88.6614 o
84.2122 83.178 o
52.0697 85.4697 o
123.376 81.2991 o
115.94 75.072 o
89.2863 86.7713 o
80.2815 76.7503 o
101.622 85.952 o
94.8352 81.0189 o
85.7176 90.9176 o
74.8873 76.8728 o
86.6004 89.0915 o
110.137 86.5251 o
79.8385 79.6121 o
110.812 86.639 o
99.167 74.7162 o
92.061 85.2375 o
81.9002 79.1085 o
78.1752 79.1195 o
95.1523 84.7672 o
90.5545 89.9189 o
93.554 87.8552 o
129.716 103.05 o
101.213 79.157 o
111.66 69.6468 o
78.693 86.9271 o
76.8836 89.6373 o
55.8943 80.4466 o
74.5762 85.9739 o
94.4583 86.0866 o
104.619 88.8469 o
116.285 101.437 o
102.719 86.4485 o
88.6645 90.3023 o
95.9529 77.8372 o
79.8338 100.121 o
96.0973 85.9475 o
76.8003 80.62 o
118.341 86.4456 o
36.4457 110.362 o
91.4538 82.0968 o
90.1137 86.9172 o
114.673 84.6421 o
87.3563 72.9571 o
95.1077 88.1666 o
90.7226 86.4811 o
82.3314 87.845 o
82.589 83.4621 o
104.677 86.6726 o
112.974 77.7007 o
115.868 84.4695 o
119.845 98.0284 o
114.993 83.6176 o
98.0436 88.5917 o
113.786 88.2064 o
93.3429 85.7102 o
85.5601 71.9897 o
grestore
0.502 setgray
gsave
140.4 126 34.2 36 clipbox
/o {
gsave
newpath
translate
0.5 setlinewidth
1 setlinejoin
0 setlinecap
0 -0.25 m
0.0663008 -0.25 0.129895 -0.223658 0.176777 -0.176777 c
0.223658 -0.129895 0.25 -0.0663008 0.25 0 c
0.25 0.0663008 0.223658 0.129895 0.176777 0.176777 c
0.129895 0.223658 0.0663008 0.25 0 0.25 c
-0.0663008 0.25 -0.129895 0.223658 -0.176777 0.176777 c
-0.223658 0.129895 -0.25 0.0663008 -0.25 0 c
-0.25 -0.0663008 -0.223658 -0.129895 -0.176777 -0.176777 c
-0.129895 -0.223658 -0.0663008 -0.25 0 -0.25 c
cl
gsave
0.502 setgray
fill
grestore
stroke
grestore
} bind def
105.996 82.4326 o
98.7103 81.5403 o
101.005 82.3559 o
102.609 82.0177 o
104.378 81.395 o
104.101 82.1493 o
104.112 82.8043 o
105.229 80.8884 o
105 80.6406 o
102.354 81.5737 o
105.026 81.793 o
102.54 80.2165 o
104.682 82.625 o
103.39 83.2377 o
103.648 80.8864 o
102.301 80.5669 o
grestore
0.000 1.000 1.000 setrgbcolor
gsave
140.4 126 34.2 36 clipbox
/o {
gsave
newpath
translate
0.5 setlinewidth
1 setlinejoin
0 setlinecap
0 -1 m
0.265203 -1 0.51958 -0.894634 0.707107 -0.707107 c
0.894634 -0.51958 1 -0.265203 1 0 c
1 0.265203 0.894634 0.51958 0.707107 0.707107 c
0.51958 0.894634 0.265203 1 0 1 c
-0.265203 1 -0.51958 0.894634 -0.707107 0.707107 c
-0.894634 0.51958 -1 0.265203 -1 0 c
-1 -0.265203 -0.894634 -0.51958 -0.707107 -0.707107 c
-0.51958 -0.894634 -0.265203 -1 0 -1 c
cl
gsave
0.000 1.000 1.000 setrgbcolor
fill
grestore
stroke
grestore
} bind def
103.241 82.3318 o
103.186 81.2553 o
102.136 82.4643 o
105.517 81.8582 o
103.412 82.8123 o
101.267 82.1747 o
103.229 80.8837 o
101.981 81.8035 o
102.455 82.6457 o
105.712 81.803 o
102.502 82.8609 o
104.214 81.6284 o
103.285 83.1839 o
102.014 80.9362 o
104.391 82.5501 o
103.63 82.2504 o
101.622 81.8193 o
102.934 81.5847 o
106.895 83.0311 o
105.579 82.9792 o
105.47 82.4491 o
104.303 82.599 o
102.978 81.2049 o
104.676 82.4237 o
104.994 80.3893 o
105.046 80.5476 o
103.139 82.8944 o
104.017 81.8425 o
102.514 80.9035 o
101.382 80.8918 o
101.242 81.3824 o
104.94 81.9369 o
105.57 81.0921 o
106.41 82.4696 o
107.797 82.9457 o
106.483 82.2237 o
104.124 82.4095 o
104.44 81.0681 o
104.017 81.3072 o
105.279 82.0985 o
103.944 81.9694 o
104.53 81.5607 o
105.57 81.0921 o
106.374 82.5346 o
105.77 81.5969 o
103.386 80.9805 o
grestore
1.000 0.000 0.000 setrgbcolor
gsave
140.4 126 34.2 36 clipbox
/o {
gsave
newpath
translate
0.5 setlinewidth
1 setlinejoin
0 setlinecap
0 -1 m
0.265203 -1 0.51958 -0.894634 0.707107 -0.707107 c
0.894634 -0.51958 1 -0.265203 1 0 c
1 0.265203 0.894634 0.51958 0.707107 0.707107 c
0.51958 0.894634 0.265203 1 0 1 c
-0.265203 1 -0.51958 0.894634 -0.707107 0.707107 c
-0.894634 0.51958 -1 0.265203 -1 0 c
-1 -0.265203 -0.894634 -0.51958 -0.707107 -0.707107 c
-0.51958 -0.894634 -0.265203 -1 0 -1 c
cl
gsave
1.000 0.000 0.000 setrgbcolor
fill
grestore
stroke
grestore
} bind def
85.7208 93.7154 o
83.1293 95.2384 o
84.8545 94.8952 o
85.2995 94.0359 o
87.3065 94.2709 o
85.0816 95.07 o
85.6719 95.0234 o
84.3984 95.5923 o
85.2236 95.3771 o
87.2965 93.3422 o
85.1615 94.9102 o
86.1661 94.0965 o
85.8651 96.0897 o
83.4537 94.9594 o
88.1584 95.2334 o
86.5568 94.9067 o
87.6721 94.5026 o
87.9406 94.0517 o
grestore
1.000 setlinewidth
0 setlinejoin
2 setlinecap
0.000 setgray
gsave
34.2 162 m
174.6 162 l
stroke
grestore
gsave
174.6 36 m
174.6 162 l
stroke
grestore
gsave
34.2 36 m
174.6 36 l
stroke
grestore
gsave
34.2 36 m
34.2 162 l
stroke
grestore
0.500 setlinewidth
1 setlinejoin
0 setlinecap
gsave
/o {
gsave
newpath
translate
0.5 setlinewidth
1 setlinejoin
0 setlinecap
0 0 m
0 4 l
gsave
0.000 setgray
fill
grestore
stroke
grestore
} bind def
34.2 36 o
grestore
gsave
/o {
gsave
newpath
translate
0.5 setlinewidth
1 setlinejoin
0 setlinecap
0 0 m
0 -4 l
gsave
0.000 setgray
fill
grestore
stroke
grestore
} bind def
34.2 162 o
grestore
/BitstreamVeraSans-Roman findfont
6.000 scalefont
setfont
gsave
28.387500 27.437500 translate
0.000000 rotate
0.000000 0.000000 m /minus glyphshow
5.027344 0.000000 m /six glyphshow
8.844727 0.000000 m /zero glyphshow
grestore
gsave
/o {
gsave
newpath
translate
0.5 setlinewidth
1 setlinejoin
0 setlinecap
0 0 m
0 4 l
gsave
0.000 setgray
fill
grestore
stroke
grestore
} bind def
54.2571 36 o
grestore
gsave
/o {
gsave
newpath
translate
0.5 setlinewidth
1 setlinejoin
0 setlinecap
0 0 m
0 -4 l
gsave
0.000 setgray
fill
grestore
stroke
grestore
} bind def
54.2571 162 o
grestore
gsave
48.444643 27.437500 translate
0.000000 rotate
0.000000 0.000000 m /minus glyphshow
5.027344 0.000000 m /four glyphshow
8.844727 0.000000 m /zero glyphshow
grestore
gsave
/o {
gsave
newpath
translate
0.5 setlinewidth
1 setlinejoin
0 setlinecap
0 0 m
0 4 l
gsave
0.000 setgray
fill
grestore
stroke
grestore
} bind def
74.3143 36 o
grestore
gsave
/o {
gsave
newpath
translate
0.5 setlinewidth
1 setlinejoin
0 setlinecap
0 0 m
0 -4 l
gsave
0.000 setgray
fill
grestore
stroke
grestore
} bind def
74.3143 162 o
grestore
gsave
68.501786 27.437500 translate
0.000000 rotate
0.000000 0.000000 m /minus glyphshow
5.027344 0.000000 m /two glyphshow
8.844727 0.000000 m /zero glyphshow
grestore
gsave
/o {
gsave
newpath
translate
0.5 setlinewidth
1 setlinejoin
0 setlinecap
0 0 m
0 4 l
gsave
0.000 setgray
fill
grestore
stroke
grestore
} bind def
94.3714 36 o
grestore
gsave
/o {
gsave
newpath
translate
0.5 setlinewidth
1 setlinejoin
0 setlinecap
0 0 m
0 -4 l
gsave
0.000 setgray
fill
grestore
stroke
grestore
} bind def
94.3714 162 o
grestore
gsave
92.855804 27.437500 translate
0.000000 rotate
0.000000 0.000000 m /zero glyphshow
grestore
gsave
/o {
gsave
newpath
translate
0.5 setlinewidth
1 setlinejoin
0 setlinecap
0 0 m
0 4 l
gsave
0.000 setgray
fill
grestore
stroke
grestore
} bind def
114.429 36 o
grestore
gsave
/o {
gsave
newpath
translate
0.5 setlinewidth
1 setlinejoin
0 setlinecap
0 0 m
0 -4 l
gsave
0.000 setgray
fill
grestore
stroke
grestore
} bind def
114.429 162 o
grestore
gsave
111.030134 27.437500 translate
0.000000 rotate
0.000000 0.000000 m /two glyphshow
3.817383 0.000000 m /zero glyphshow
grestore
gsave
/o {
gsave
newpath
translate
0.5 setlinewidth
1 setlinejoin
0 setlinecap
0 0 m
0 4 l
gsave
0.000 setgray
fill
grestore
stroke
grestore
} bind def
134.486 36 o
grestore
gsave
/o {
gsave
newpath
translate
0.5 setlinewidth
1 setlinejoin
0 setlinecap
0 0 m
0 -4 l
gsave
0.000 setgray
fill
grestore
stroke
grestore
} bind def
134.486 162 o
grestore
gsave
131.016964 27.437500 translate
0.000000 rotate
0.000000 0.000000 m /four glyphshow
3.817383 0.000000 m /zero glyphshow
grestore
gsave
/o {
gsave
newpath
translate
0.5 setlinewidth
1 setlinejoin
0 setlinecap
0 0 m
0 4 l
gsave
0.000 setgray
fill
grestore
stroke
grestore
} bind def
154.543 36 o
grestore
gsave
/o {
gsave
newpath
translate
0.5 setlinewidth
1 setlinejoin
0 setlinecap
0 0 m
0 -4 l
gsave
0.000 setgray
fill
grestore
stroke
grestore
} bind def
154.543 162 o
grestore
gsave
151.136607 27.437500 translate
0.000000 rotate
0.000000 0.000000 m /six glyphshow
3.817383 0.000000 m /zero glyphshow
grestore
gsave
/o {
gsave
newpath
translate
0.5 setlinewidth
1 setlinejoin
0 setlinecap
0 0 m
0 4 l
gsave
0.000 setgray
fill
grestore
stroke
grestore
} bind def
174.6 36 o
grestore
gsave
/o {
gsave
newpath
translate
0.5 setlinewidth
1 setlinejoin
0 setlinecap
0 0 m
0 -4 l
gsave
0.000 setgray
fill
grestore
stroke
grestore
} bind def
174.6 162 o
grestore
gsave
171.185937 27.437500 translate
0.000000 rotate
0.000000 0.000000 m /eight glyphshow
3.817383 0.000000 m /zero glyphshow
grestore
gsave
90.900000 15.187500 translate
0.000000 rotate
/Cmr10 findfont
8.0 scalefont
setfont
0.000000 0.000000 moveto
/Y glyphshow

/BitstreamVeraSans-Roman findfont
8.0 scalefont
setfont
6.000000 0.000000 moveto
/space glyphshow

/Cmr10 findfont
8.0 scalefont
setfont
8.542969 0.000000 moveto
/parenleft glyphshow

11.648438 0.000000 moveto
/k glyphshow

15.863281 0.000000 moveto
/p glyphshow

20.304688 0.000000 moveto
/c glyphshow

23.855469 0.000000 moveto
/parenright glyphshow


grestore
gsave
/o {
gsave
newpath
translate
0.5 setlinewidth
1 setlinejoin
0 setlinecap
0 0 m
4 0 l
gsave
0.000 setgray
fill
grestore
stroke
grestore
} bind def
34.2 36 o
grestore
gsave
/o {
gsave
newpath
translate
0.5 setlinewidth
1 setlinejoin
0 setlinecap
0 0 m
-4 0 l
gsave
0.000 setgray
fill
grestore
stroke
grestore
} bind def
174.6 36 o
grestore
gsave
14.762500 34.343750 translate
0.000000 rotate
0.000000 0.000000 m /minus glyphshow
5.027344 0.000000 m /one glyphshow
8.844727 0.000000 m /zero glyphshow
12.662109 0.000000 m /zero glyphshow
grestore
gsave
/o {
gsave
newpath
translate
0.5 setlinewidth
1 setlinejoin
0 setlinecap
0 0 m
4 0 l
gsave
0.000 setgray
fill
grestore
stroke
grestore
} bind def
34.2 61.2 o
grestore
gsave
/o {
gsave
newpath
translate
0.5 setlinewidth
1 setlinejoin
0 setlinecap
0 0 m
-4 0 l
gsave
0.000 setgray
fill
grestore
stroke
grestore
} bind def
174.6 61.2 o
grestore
gsave
18.575000 59.543750 translate
0.000000 rotate
0.000000 0.000000 m /minus glyphshow
5.027344 0.000000 m /five glyphshow
8.844727 0.000000 m /zero glyphshow
grestore
gsave
/o {
gsave
newpath
translate
0.5 setlinewidth
1 setlinejoin
0 setlinecap
0 0 m
4 0 l
gsave
0.000 setgray
fill
grestore
stroke
grestore
} bind def
34.2 86.4 o
grestore
gsave
/o {
gsave
newpath
translate
0.5 setlinewidth
1 setlinejoin
0 setlinecap
0 0 m
-4 0 l
gsave
0.000 setgray
fill
grestore
stroke
grestore
} bind def
174.6 86.4 o
grestore
gsave
27.168750 84.743750 translate
0.000000 rotate
0.000000 0.000000 m /zero glyphshow
grestore
gsave
/o {
gsave
newpath
translate
0.5 setlinewidth
1 setlinejoin
0 setlinecap
0 0 m
4 0 l
gsave
0.000 setgray
fill
grestore
stroke
grestore
} bind def
34.2 111.6 o
grestore
gsave
/o {
gsave
newpath
translate
0.5 setlinewidth
1 setlinejoin
0 setlinecap
0 0 m
-4 0 l
gsave
0.000 setgray
fill
grestore
stroke
grestore
} bind def
174.6 111.6 o
grestore
gsave
23.434375 109.943750 translate
0.000000 rotate
0.000000 0.000000 m /five glyphshow
3.817383 0.000000 m /zero glyphshow
grestore
gsave
/o {
gsave
newpath
translate
0.5 setlinewidth
1 setlinejoin
0 setlinecap
0 0 m
4 0 l
gsave
0.000 setgray
fill
grestore
stroke
grestore
} bind def
34.2 136.8 o
grestore
gsave
/o {
gsave
newpath
translate
0.5 setlinewidth
1 setlinejoin
0 setlinecap
0 0 m
-4 0 l
gsave
0.000 setgray
fill
grestore
stroke
grestore
} bind def
174.6 136.8 o
grestore
gsave
19.809375 135.143750 translate
0.000000 rotate
0.000000 0.000000 m /one glyphshow
3.817383 0.000000 m /zero glyphshow
7.634766 0.000000 m /zero glyphshow
grestore
gsave
/o {
gsave
newpath
translate
0.5 setlinewidth
1 setlinejoin
0 setlinecap
0 0 m
4 0 l
gsave
0.000 setgray
fill
grestore
stroke
grestore
} bind def
34.2 162 o
grestore
gsave
/o {
gsave
newpath
translate
0.5 setlinewidth
1 setlinejoin
0 setlinecap
0 0 m
-4 0 l
gsave
0.000 setgray
fill
grestore
stroke
grestore
} bind def
174.6 162 o
grestore
gsave
19.809375 160.343750 translate
0.000000 rotate
0.000000 0.000000 m /one glyphshow
3.817383 0.000000 m /five glyphshow
7.634766 0.000000 m /zero glyphshow
grestore
gsave
7.762500 86.000000 translate
90.000000 rotate
/Cmr10 findfont
8.0 scalefont
setfont
0.000000 0.000000 moveto
/Z glyphshow

/BitstreamVeraSans-Roman findfont
8.0 scalefont
setfont
4.886719 0.000000 moveto
/space glyphshow

/Cmr10 findfont
8.0 scalefont
setfont
7.429688 0.000000 moveto
/parenleft glyphshow

10.535156 0.000000 moveto
/k glyphshow

14.750000 0.000000 moveto
/p glyphshow

19.191406 0.000000 moveto
/c glyphshow

22.742188 0.000000 moveto
/parenright glyphshow


grestore

end
showpage
