%!PS-Adobe-3.0 EPSF-3.0
%%Title: /Users/iuliasimion/bullock_johnston/denis_erkal/vasily/Figures/69684_1515571.0_xz.eps
%%Creator: matplotlib version 1.4.3, http://matplotlib.org/
%%CreationDate: Sat Aug 19 14:41:43 2017
%%Orientation: portrait
%%BoundingBox: 216 306 396 486
%%EndComments
%%BeginProlog
/mpldict 9 dict def
mpldict begin
/m { moveto } bind def
/l { lineto } bind def
/r { rlineto } bind def
/c { curveto } bind def
/cl { closepath } bind def
/box {
m
1 index 0 r
0 exch r
neg 0 r
cl
} bind def
/clipbox {
box
clip
newpath
} bind def
%!PS-Adobe-3.0 Resource-Font
%%Title: Bitstream Vera Sans
%%Copyright: Copyright (c) 2003 by Bitstream, Inc. All Rights Reserved.
%%Creator: Converted from TrueType to type 3 by PPR
25 dict begin
/_d{bind def}bind def
/_m{moveto}_d
/_l{lineto}_d
/_cl{closepath eofill}_d
/_c{curveto}_d
/_sc{7 -1 roll{setcachedevice}{pop pop pop pop pop pop}ifelse}_d
/_e{exec}_d
/FontName /BitstreamVeraSans-Roman def
/PaintType 0 def
/FontMatrix[.001 0 0 .001 0 0]def
/FontBBox[-183 -236 1287 928]def
/FontType 3 def
/Encoding [ /space /zero /one /two /three /four /six /eight /minus ] def
/FontInfo 10 dict dup begin
/FamilyName (Bitstream Vera Sans) def
/FullName (Bitstream Vera Sans) def
/Notice (Copyright (c) 2003 by Bitstream, Inc. All Rights Reserved. Bitstream Vera is a trademark of Bitstream, Inc.) def
/Weight (Roman) def
/Version (Release 1.10) def
/ItalicAngle 0.0 def
/isFixedPitch false def
/UnderlinePosition -213 def
/UnderlineThickness 143 def
end readonly def
/CharStrings 9 dict dup begin
/space{318 0 0 0 0 0 _sc
}_d
/zero{636 0 66 -13 570 742 _sc
318 664 _m
267 664 229 639 203 589 _c
177 539 165 464 165 364 _c
165 264 177 189 203 139 _c
229 89 267 64 318 64 _c
369 64 407 89 433 139 _c
458 189 471 264 471 364 _c
471 464 458 539 433 589 _c
407 639 369 664 318 664 _c
318 742 _m
399 742 461 709 505 645 _c
548 580 570 486 570 364 _c
570 241 548 147 505 83 _c
461 19 399 -13 318 -13 _c
236 -13 173 19 130 83 _c
87 147 66 241 66 364 _c
66 486 87 580 130 645 _c
173 709 236 742 318 742 _c
_cl}_d
/one{636 0 110 0 544 729 _sc
124 83 _m
285 83 _l
285 639 _l
110 604 _l
110 694 _l
284 729 _l
383 729 _l
383 83 _l
544 83 _l
544 0 _l
124 0 _l
124 83 _l
_cl}_d
/two{{636 0 73 0 536 742 _sc
192 83 _m
536 83 _l
536 0 _l
73 0 _l
73 83 _l
110 121 161 173 226 239 _c
290 304 331 346 348 365 _c
380 400 402 430 414 455 _c
426 479 433 504 433 528 _c
433 566 419 598 392 622 _c
365 646 330 659 286 659 _c
255 659 222 653 188 643 _c
154 632 117 616 78 594 _c
78 694 _l
118 710 155 722 189 730 _c
223 738 255 742 284 742 _c
}_e{359 742 419 723 464 685 _c
509 647 532 597 532 534 _c
532 504 526 475 515 449 _c
504 422 484 390 454 354 _c
446 344 420 317 376 272 _c
332 227 271 164 192 83 _c
_cl}_e}_d
/three{{636 0 76 -13 556 742 _sc
406 393 _m
453 383 490 362 516 330 _c
542 298 556 258 556 212 _c
556 140 531 84 482 45 _c
432 6 362 -13 271 -13 _c
240 -13 208 -10 176 -4 _c
144 1 110 10 76 22 _c
76 117 _l
103 101 133 89 166 81 _c
198 73 232 69 268 69 _c
330 69 377 81 409 105 _c
441 129 458 165 458 212 _c
458 254 443 288 413 312 _c
383 336 341 349 287 349 _c
}_e{202 349 _l
202 430 _l
291 430 _l
339 430 376 439 402 459 _c
428 478 441 506 441 543 _c
441 580 427 609 401 629 _c
374 649 336 659 287 659 _c
260 659 231 656 200 650 _c
169 644 135 635 98 623 _c
98 711 _l
135 721 170 729 203 734 _c
235 739 266 742 296 742 _c
370 742 429 725 473 691 _c
517 657 539 611 539 553 _c
539 513 527 479 504 451 _c
481 423 448 403 406 393 _c
_cl}_e}_d
/four{636 0 49 0 580 729 _sc
378 643 _m
129 254 _l
378 254 _l
378 643 _l
352 729 _m
476 729 _l
476 254 _l
580 254 _l
580 172 _l
476 172 _l
476 0 _l
378 0 _l
378 172 _l
49 172 _l
49 267 _l
352 729 _l
_cl}_d
/six{{636 0 70 -13 573 742 _sc
330 404 _m
286 404 251 388 225 358 _c
199 328 186 286 186 234 _c
186 181 199 139 225 109 _c
251 79 286 64 330 64 _c
374 64 409 79 435 109 _c
461 139 474 181 474 234 _c
474 286 461 328 435 358 _c
409 388 374 404 330 404 _c
526 713 _m
526 623 _l
501 635 476 644 451 650 _c
425 656 400 659 376 659 _c
310 659 260 637 226 593 _c
}_e{192 549 172 482 168 394 _c
187 422 211 444 240 459 _c
269 474 301 482 336 482 _c
409 482 467 459 509 415 _c
551 371 573 310 573 234 _c
573 159 550 99 506 54 _c
462 9 403 -13 330 -13 _c
246 -13 181 19 137 83 _c
92 147 70 241 70 364 _c
70 479 97 571 152 639 _c
206 707 280 742 372 742 _c
396 742 421 739 447 735 _c
472 730 498 723 526 713 _c
_cl}_e}_d
/eight{{636 0 68 -13 568 742 _sc
318 346 _m
271 346 234 333 207 308 _c
180 283 167 249 167 205 _c
167 161 180 126 207 101 _c
234 76 271 64 318 64 _c
364 64 401 76 428 102 _c
455 127 469 161 469 205 _c
469 249 455 283 429 308 _c
402 333 365 346 318 346 _c
219 388 _m
177 398 144 418 120 447 _c
96 476 85 511 85 553 _c
85 611 105 657 147 691 _c
188 725 245 742 318 742 _c
}_e{390 742 447 725 489 691 _c
530 657 551 611 551 553 _c
551 511 539 476 515 447 _c
491 418 459 398 417 388 _c
464 377 501 355 528 323 _c
554 291 568 251 568 205 _c
568 134 546 80 503 43 _c
459 5 398 -13 318 -13 _c
237 -13 175 5 132 43 _c
89 80 68 134 68 205 _c
68 251 81 291 108 323 _c
134 355 171 377 219 388 _c
183 544 _m
183 506 194 476 218 455 _c
}_e{242 434 275 424 318 424 _c
360 424 393 434 417 455 _c
441 476 453 506 453 544 _c
453 582 441 611 417 632 _c
393 653 360 664 318 664 _c
275 664 242 653 218 632 _c
194 611 183 582 183 544 _c
_cl}_e}_d
/minus{838 0 106 272 732 355 _sc
106 355 _m
732 355 _l
732 272 _l
106 272 _l
106 355 _l
_cl}_d
end readonly def

/BuildGlyph
 {exch begin
 CharStrings exch
 2 copy known not{pop /.notdef}if
 true 3 1 roll get exec
 end}_d

/BuildChar {
 1 index /Encoding get exch get
 1 index /BuildGlyph get exec
}_d

FontName currentdict end definefont pop
%!PS-Adobe-3.0 Resource-Font
%%Title: cmr10
%%Copyright: Copyright (C) 1994, Basil K. Malyshev. All Rights Reserved.012BaKoMa Fonts Collection, Level-B.
%%Creator: Converted from TrueType to type 3 by PPR
25 dict begin
/_d{bind def}bind def
/_m{moveto}_d
/_l{lineto}_d
/_cl{closepath eofill}_d
/_c{curveto}_d
/_sc{7 -1 roll{setcachedevice}{pop pop pop pop pop pop}ifelse}_d
/_e{exec}_d
/FontName /Cmr10 def
/PaintType 0 def
/FontMatrix[.001 0 0 .001 0 0]def
/FontBBox[-44 -250 1009 750]def
/FontType 3 def
/Encoding [ /Z /k /parenright /parenleft /c /p /X ] def
/FontInfo 10 dict dup begin
/FamilyName (cmr10) def
/FullName (cmr10) def
/Notice (Copyright (C) 1994, Basil K. Malyshev. All Rights Reserved.012BaKoMa Fonts Collection, Level-B. ) def
/Weight (Regular) def
/Version (1.1/12-Nov-94) def
/ItalicAngle 0.0 def
/isFixedPitch false def
/UnderlinePosition -133 def
/UnderlineThickness 20 def
end readonly def
/CharStrings 7 dict dup begin
/Z{{611 0 56 0 560 683 _sc
67 0 _m
59 0 56 3 56 11 _c
56 25 _l
56 27 56 29 58 31 _c
447 648 _l
306 648 _l
259 648 220 641 190 629 _c
160 617 137 596 121 568 _c
105 540 98 502 98 454 _c
69 454 _l
80 683 _l
543 683 _l
550 683 554 679 554 672 _c
554 660 _l
554 657 553 655 553 654 _c
164 38 _l
311 38 _l
346 38 378 41 406 48 _c
}_e{434 54 458 67 478 86 _c
491 99 501 116 509 136 _c
517 156 522 176 524 195 _c
526 213 528 239 531 271 _c
560 271 _l
543 0 _l
67 0 _l
_cl}_e}_d
/k{{527 0 26 0 511 694 _sc
26 0 _m
26 35 _l
48 35 67 36 82 40 _c
96 44 104 53 104 67 _c
104 592 _l
104 610 101 623 96 631 _c
90 639 83 643 73 645 _c
63 647 47 648 26 648 _c
26 683 _l
174 694 _l
174 219 _l
308 337 _l
321 349 328 361 328 372 _c
328 380 325 386 320 390 _c
314 394 308 396 300 396 _c
300 431 _l
488 431 _l
488 396 _l
}_e{442 396 397 376 352 337 _c
281 275 _l
408 94 _l
426 69 440 53 452 46 _c
464 38 483 35 511 35 _c
511 0 _l
312 0 _l
312 35 _l
334 35 346 42 346 56 _c
346 66 340 78 328 94 _c
232 231 _l
171 178 _l
171 67 _l
171 53 178 44 193 40 _c
207 36 226 35 249 35 _c
249 0 _l
26 0 _l
_cl}_e}_d
/parenright{{388 0 56 -249 291 750 _sc
65 -249 _m
59 -249 56 -246 56 -240 _c
56 -237 56 -235 58 -234 _c
172 -122 229 38 229 250 _c
229 462 172 623 60 733 _c
57 734 56 737 56 741 _c
56 743 57 745 59 747 _c
61 749 63 750 65 750 _c
74 750 _l
76 750 77 749 79 748 _c
127 710 167 664 199 610 _c
231 556 254 498 269 437 _c
283 376 291 314 291 250 _c
291 202 287 156 279 110 _c
}_e{271 64 258 20 241 -24 _c
223 -68 201 -108 175 -146 _c
148 -184 116 -217 79 -247 _c
77 -248 76 -249 74 -249 _c
65 -249 _l
_cl}_e}_d
/parenleft{{388 0 97 -249 332 750 _sc
310 -247 _m
272 -217 240 -184 214 -146 _c
187 -108 165 -67 148 -25 _c
131 17 118 62 110 109 _c
101 155 97 202 97 250 _c
97 298 101 345 110 392 _c
118 438 131 483 149 527 _c
166 570 188 611 215 649 _c
242 687 274 720 310 748 _c
310 749 311 750 315 750 _c
324 750 _l
326 750 327 749 329 747 _c
331 745 332 743 332 741 _c
332 738 331 736 330 735 _c
}_e{297 703 270 668 248 632 _c
226 596 209 557 196 516 _c
183 474 174 432 168 388 _c
162 344 159 298 159 250 _c
159 38 215 -122 329 -232 _c
331 -234 332 -236 332 -240 _c
332 -242 331 -244 329 -246 _c
327 -248 326 -249 324 -249 _c
315 -249 _l
311 -249 310 -248 310 -247 _c
_cl}_e}_d
/c{{444 0 33 -10 415 448 _sc
249 -10 _m
208 -10 171 0 139 21 _c
106 41 80 69 61 104 _c
42 139 33 176 33 216 _c
33 255 42 293 61 329 _c
79 365 105 393 138 415 _c
171 437 208 448 249 448 _c
288 448 324 440 356 425 _c
388 409 404 384 404 350 _c
404 337 399 326 390 316 _c
380 306 369 302 356 302 _c
342 302 331 306 322 316 _c
312 326 308 337 308 350 _c
}_e{308 362 311 372 319 381 _c
327 389 336 395 347 397 _c
324 411 292 419 250 419 _c
218 419 192 408 173 387 _c
153 365 140 339 132 308 _c
124 277 120 246 120 216 _c
120 183 124 152 134 122 _c
144 92 159 67 181 47 _c
202 27 229 18 261 18 _c
293 18 320 27 342 47 _c
364 66 379 91 387 123 _c
387 127 389 129 395 129 _c
407 129 _l
409 129 410 128 412 126 _c
}_e{414 124 415 122 415 120 _c
415 117 _l
405 77 385 46 355 24 _c
325 1 289 -10 249 -10 _c
_cl}_e}_d
/p{{555 0 26 -193 522 442 _sc
26 -193 _m
26 -158 _l
48 -158 67 -156 82 -152 _c
96 -148 104 -139 104 -126 _c
104 355 _l
104 373 97 384 84 389 _c
71 393 52 396 26 396 _c
26 431 _l
174 442 _l
174 380 _l
192 400 213 415 237 426 _c
261 436 287 442 315 442 _c
354 442 389 431 421 410 _c
453 388 477 360 495 326 _c
513 291 522 254 522 216 _c
522 175 512 137 492 103 _c
}_e{472 68 446 40 412 20 _c
378 0 340 -10 300 -10 _c
251 -10 210 9 177 48 _c
177 -126 _l
177 -139 184 -148 199 -152 _c
213 -156 232 -158 255 -158 _c
255 -193 _l
26 -193 _l
177 97 _m
188 73 204 54 225 38 _c
246 22 269 15 294 15 _c
317 15 337 21 355 33 _c
373 45 388 62 400 83 _c
412 104 420 126 426 149 _c
432 172 435 194 435 216 _c
435 242 430 271 420 302 _c
}_e{410 333 396 359 376 381 _c
356 402 333 413 305 413 _c
278 413 253 406 231 392 _c
208 378 190 360 177 336 _c
177 97 _l
_cl}_e}_d
/X{{750 0 23 0 726 683 _sc
23 0 _m
23 35 _l
91 35 138 54 165 92 _c
331 339 _l
147 619 _l
136 631 122 639 104 643 _c
86 646 64 648 37 648 _c
37 683 _l
317 683 _l
317 648 _l
305 648 291 645 275 641 _c
259 636 252 629 252 621 _c
252 619 252 618 253 617 _c
384 418 _l
499 590 _l
501 596 503 600 503 604 _c
503 618 496 628 482 636 _c
468 644 454 648 440 648 _c
}_e{440 683 _l
684 683 _l
684 648 _l
616 648 569 629 542 591 _c
405 386 _l
616 64 _l
627 51 641 43 659 40 _c
677 36 699 35 726 35 _c
726 0 _l
446 0 _l
446 35 _l
456 35 470 37 486 42 _c
502 46 511 53 511 62 _c
511 64 510 65 510 66 _c
352 307 _l
208 93 _l
206 89 205 84 205 79 _c
205 65 211 55 225 47 _c
238 39 252 35 267 35 _c
267 0 _l
}_e{23 0 _l
_cl}_e}_d
end readonly def

/BuildGlyph
 {exch begin
 CharStrings exch
 2 copy known not{pop /.notdef}if
 true 3 1 roll get exec
 end}_d

/BuildChar {
 1 index /Encoding get exch get
 1 index /BuildGlyph get exec
}_d

FontName currentdict end definefont pop
end
%%EndProlog
mpldict begin
216 306 translate
180 180 0 0 clipbox
gsave
0 0 m
180 0 l
180 180 l
0 180 l
cl
1.000 setgray
fill
grestore
gsave
34.2 36 m
174.6 36 l
174.6 162 l
34.2 162 l
cl
1.000 setgray
fill
grestore
0.500 setlinewidth
1 setlinejoin
0 setlinecap
[] 0 setdash
0.000 setgray
gsave
140.4 126 34.2 36 clipbox
/o {
gsave
newpath
translate
0.5 setlinewidth
1 setlinejoin
0 setlinecap
0 -0.25 m
0.0663008 -0.25 0.129895 -0.223658 0.176777 -0.176777 c
0.223658 -0.129895 0.25 -0.0663008 0.25 0 c
0.25 0.0663008 0.223658 0.129895 0.176777 0.176777 c
0.129895 0.223658 0.0663008 0.25 0 0.25 c
-0.0663008 0.25 -0.129895 0.223658 -0.176777 0.176777 c
-0.223658 0.129895 -0.25 0.0663008 -0.25 0 c
-0.25 -0.0663008 -0.223658 -0.129895 -0.176777 -0.176777 c
-0.129895 -0.223658 -0.0663008 -0.25 0 -0.25 c
cl
gsave
0.000 setgray
fill
grestore
stroke
grestore
} bind def
104.449 80.0698 o
121.648 70.3791 o
100.061 121.557 o
96.8485 84.8344 o
115.498 127.901 o
115.46 119.265 o
106.654 85.8126 o
110.521 116.628 o
101.589 70.8006 o
99.6455 71.3166 o
101.979 108.051 o
131.877 115.568 o
110.126 92.7979 o
105.292 73.1924 o
103.676 123.973 o
114.536 108.2 o
111.782 114.318 o
99.0743 78.9646 o
119.994 127.108 o
106.606 80.3604 o
128.916 120.034 o
93.8316 85.6258 o
99.7508 70.8081 o
94.9218 90.1863 o
111.976 97.5882 o
100.209 103.405 o
97.7994 84.7589 o
98.9085 76.8727 o
116.162 75.0224 o
98.2569 76.1577 o
101.708 72.0873 o
108.918 127.493 o
97.273 117.955 o
113.378 128.676 o
121.172 125.58 o
121.605 128.859 o
102.737 103.712 o
134.911 95.3104 o
108.463 108.679 o
109.645 96.1483 o
121.412 121.251 o
93.3484 93.8228 o
116.001 121.618 o
99.8842 73.4069 o
121.272 120.542 o
122.01 68.7081 o
99.6152 82.9131 o
96.7885 82.9757 o
115.32 94.7535 o
118.173 130.062 o
111.209 118.218 o
94.1731 90.5447 o
128.389 83.7158 o
102.423 72.1198 o
102.99 96.8013 o
135.122 90.0309 o
98.4766 109.188 o
91.1058 91.7806 o
102.133 71.4583 o
121.416 129.81 o
105.293 99.6491 o
111.976 89.7282 o
116.263 104.28 o
114.811 128.022 o
115.625 95.6661 o
121.037 93.6861 o
104.617 78.4769 o
117.735 112.559 o
115.033 108.61 o
109.369 106.79 o
97.6368 73.5721 o
120.567 87.781 o
122.002 129.6 o
111.321 131.112 o
119.101 80.1811 o
110.524 70.36 o
102.457 101.519 o
111.769 104.965 o
91.5992 91.5164 o
118.276 89.9339 o
121.389 103.512 o
110.971 92.4261 o
105.319 81.5262 o
106.173 73.6533 o
117.384 105.294 o
109.961 82.2855 o
109.152 117.013 o
110.238 86.4418 o
128.946 110.984 o
108.291 108.821 o
126.501 126.013 o
108.092 96.5893 o
118.72 70.0144 o
90.5412 86.7631 o
98.8309 87.4409 o
113.733 110.606 o
102.262 110.964 o
104.915 87.6961 o
109.437 76.1039 o
110.743 109.861 o
102.954 109.831 o
136.234 103.025 o
110.474 77.3517 o
101.753 85.96 o
109.039 74.914 o
122.411 70.9801 o
122.138 65.6605 o
112.45 120.458 o
121.845 103.043 o
104.292 129.458 o
113.498 91.1899 o
112.526 123.011 o
105.205 126.835 o
115.826 125.718 o
100.601 81.9846 o
112.658 123.296 o
104.162 89.5629 o
94.8816 85.6507 o
107.834 71.4381 o
92.4948 97.1147 o
115.385 81.9158 o
105.841 91.5863 o
121.58 96.6486 o
112.629 83.2392 o
117.979 108.906 o
125.124 70.0544 o
111.496 88.9355 o
103.826 73.6157 o
117.593 78.4801 o
98.0338 76.94 o
102.067 111.139 o
113.751 111.309 o
109.207 103.605 o
110.136 93.1145 o
94.7371 85.5085 o
114.525 93.7075 o
116.367 107.34 o
93.6138 83.7192 o
121.217 84.3867 o
123.193 93.1557 o
97.6492 81.6472 o
122.925 94.9381 o
114.421 129.873 o
112.678 91.8735 o
116.995 90.0986 o
95.9584 93.4718 o
107.691 103.464 o
114.143 77.218 o
116.036 81.6205 o
115.807 109.09 o
96.6163 98.4147 o
117.718 111.121 o
102.112 69.7129 o
126.159 128.612 o
126.32 106.865 o
107.047 114.233 o
108.977 96.5918 o
96.5844 78.0885 o
108.191 79.1873 o
119.061 93.2245 o
98.8138 71.6163 o
111.559 109.268 o
129.298 76.3127 o
129.224 116.498 o
98.5453 76.7135 o
128.169 88.8921 o
120.879 124.641 o
99.5495 106.957 o
116.013 120.535 o
120.35 80.7367 o
124.818 81.9353 o
113.567 82.1523 o
101.189 131.36 o
118.794 78.6026 o
121.12 121.74 o
94.8989 118.782 o
118.052 111.197 o
123 109.888 o
107.805 80.0283 o
111.663 80.4523 o
111.227 93.173 o
104.18 116.528 o
111.604 85.6042 o
105.372 84.1117 o
124.487 85.3859 o
132.945 118.224 o
103.494 106.855 o
116.86 135.087 o
99.0652 78.8118 o
120.229 95.273 o
108.985 94.787 o
117.62 131.553 o
95.7893 80.85 o
99.6379 74.1563 o
117.347 95.0006 o
120.613 119.567 o
120.174 108.195 o
100.704 74.2229 o
103.856 73.3246 o
98.46 118.731 o
91.7843 99.1865 o
114.156 130.609 o
116.953 132.038 o
120.148 114.648 o
110.967 92.7762 o
123.342 85.4419 o
101.49 113.246 o
112.151 96.5455 o
101.207 91.8567 o
125.359 87.2916 o
107.817 109.266 o
109.04 137.271 o
102.428 89.655 o
122.36 105.163 o
115.893 74.2071 o
101.525 109.25 o
113.041 84.3348 o
105.709 97.4296 o
101.16 107.189 o
122.633 79.002 o
110.562 94.5261 o
122.034 109.877 o
104.122 89.8261 o
96.5973 77.6135 o
111.471 94.5756 o
97.0364 76.8552 o
120.89 117.738 o
93.9402 89.378 o
107.339 100.561 o
123.14 111.384 o
93.3151 87.8489 o
124.101 116.989 o
121.794 119.938 o
123.194 127.168 o
111.973 121.273 o
117.456 94.843 o
112.462 87.1366 o
124.374 75.7917 o
101.975 79.9956 o
112.959 100.42 o
104.77 133.026 o
117.419 125.236 o
99.8029 107.822 o
113.57 130.444 o
115.549 69.2106 o
97.5196 82.9779 o
99.4754 78.1248 o
110.305 128.632 o
99.6671 110.166 o
109.778 112.607 o
134.568 102.335 o
105.897 125.231 o
99.3278 103.01 o
111.263 72.8237 o
114.333 121.897 o
114.903 117.472 o
99.9632 116.936 o
94.2271 90.2144 o
115.767 96.2789 o
122.178 129.674 o
116.925 127.572 o
103.576 116.987 o
107.119 106.57 o
104.557 67.3847 o
125.697 78.6263 o
113.585 84.604 o
120.602 85.4226 o
105.651 82.6477 o
98.5154 84.9874 o
100.595 77.2157 o
115.088 115.109 o
118.095 120.281 o
112.097 133.342 o
109.882 98.5293 o
106.421 115.957 o
109.06 78.4069 o
119.098 123.462 o
113.186 80.8209 o
123.338 129.905 o
126.338 76.602 o
119.586 107.034 o
112.144 133.313 o
112.661 114.259 o
94.0297 80.8534 o
122.977 77.0241 o
122.449 118.832 o
114.724 88.123 o
111.2 114.784 o
104.107 84.4688 o
110.159 119.994 o
112.919 82.5406 o
110.848 70.6565 o
120.4 102.785 o
132.336 79.4981 o
111.007 60.2556 o
118.384 101.764 o
122.859 115.472 o
116.373 89.9323 o
119.801 99.1624 o
119.041 117.991 o
93.1677 102.489 o
120.687 94.7226 o
118.301 129.508 o
104.966 134.913 o
113.368 91.6752 o
120.391 76.5725 o
133.954 120.983 o
119.909 97.9345 o
99.703 127.057 o
116.386 121.734 o
110.518 92.2033 o
123.826 94.8612 o
121.382 117.373 o
118.223 78.7621 o
108.851 104.687 o
100.746 131.971 o
112.176 78.2451 o
117.302 87.8224 o
111.864 97.0403 o
96.1042 84.3645 o
101.137 129.884 o
97.4957 74.2278 o
122.534 116.122 o
126.7 127.956 o
133.173 88.3045 o
99.0101 89.0327 o
113.461 62.0844 o
123.449 89.6834 o
108.489 77.9058 o
121.465 112.612 o
112.077 78.1964 o
121.942 129.696 o
116.134 89.8497 o
96.6232 83.2249 o
104.179 91.43 o
126.732 106.748 o
106.659 129.122 o
122.904 129.055 o
131.543 86.716 o
93.4904 93.6437 o
103.846 134.42 o
99.3561 78.7588 o
127.81 110.278 o
120.145 118.205 o
99.2227 96.1147 o
118.539 128.693 o
115.159 110.943 o
113.379 110.88 o
112.641 105.682 o
114.409 119.36 o
104.978 76.6647 o
104.537 116.934 o
116.86 107.179 o
112.75 105.132 o
113.709 108.994 o
110.468 116.187 o
115.017 103.856 o
118.416 108.26 o
106.108 120.769 o
109.54 85.3856 o
122.771 102.132 o
112.353 110.664 o
115.764 137.692 o
120.958 129.729 o
119.715 105.965 o
111.472 82.469 o
132.13 92.3934 o
102.672 73.1193 o
117.916 62.0731 o
130.646 95.7657 o
110.202 127.194 o
111.39 92.8838 o
126.284 126.07 o
100.12 75.2035 o
125.03 115.765 o
94.3592 99.2599 o
117.245 88.1277 o
120.685 127.547 o
126.924 84.5954 o
101.977 83.9693 o
93.9047 95.8475 o
115.493 96.9925 o
121.786 65.7306 o
120.079 147.484 o
110.168 116.707 o
116.299 67.1313 o
109.038 121.031 o
112.717 90.2651 o
98.6208 89.0534 o
120.911 70.4794 o
105.674 119.714 o
103.737 84.7915 o
123.511 88.4677 o
109.796 88.6234 o
108.48 85.9502 o
116.482 112.632 o
132.338 115.106 o
94.6374 80.0706 o
119.788 117.915 o
102.85 110.948 o
110.869 107.214 o
116.901 78.2045 o
124.844 123.827 o
115.174 101.62 o
115.331 88.7153 o
134.216 93.8913 o
110.533 102.335 o
113.265 93.6753 o
99.874 94.3322 o
111.985 116.089 o
126.058 82.7874 o
116.961 122.72 o
109.527 117.94 o
101.366 123.872 o
128.588 111.504 o
109.378 103.213 o
107.382 112.924 o
124.335 106.436 o
126.314 145.867 o
115.849 90.9521 o
110.608 111.837 o
113.974 103.637 o
123.474 123.612 o
97.5532 113.172 o
116.54 121.478 o
105.487 105.387 o
121.886 111.194 o
98.0825 106.269 o
120.78 90.0797 o
93.1937 113.186 o
106.947 90.5954 o
132.368 127.752 o
133.716 119.75 o
135.097 105.585 o
108.898 112.334 o
130.09 97.8791 o
109.168 102.565 o
121.433 100.225 o
109.973 113.542 o
112.229 90.6934 o
138.241 89.5949 o
115.697 119.872 o
115.97 86.6206 o
117.336 92.0959 o
102.374 112.803 o
125.536 106.611 o
114.227 86.3831 o
122.858 120.952 o
105.19 92.5935 o
108.673 107.922 o
96.086 80.5154 o
102.119 112.365 o
130.595 86.6571 o
100.305 68.6585 o
96.8368 124.759 o
115.05 73.5334 o
111.648 91.9844 o
121.79 114.696 o
103.544 93.4586 o
125.051 131.476 o
113.769 109.95 o
101.066 67.5518 o
112.59 72.9712 o
111.505 118.495 o
105.863 85.4384 o
116.725 137.243 o
115.661 99.9057 o
116.969 63.0124 o
129.651 113.808 o
116.975 92.2722 o
114.295 104.977 o
120.191 111.672 o
132.866 86.371 o
122.668 82.449 o
109.967 92.4162 o
120.614 69.8574 o
114.146 97.8781 o
109.374 113.74 o
123.642 105.664 o
113.116 119.4 o
110.297 120.302 o
124.642 72.799 o
119.926 106.09 o
117.918 86.1134 o
121.893 132.398 o
118.052 72.1426 o
122.142 93.0657 o
103.571 119.475 o
120.23 111.391 o
99.247 124.857 o
90.1063 104.291 o
113.935 80.9242 o
110.889 72.9284 o
116.731 82.1363 o
120.141 80.8971 o
122.278 91.1976 o
122.727 80.4033 o
113.39 89.2479 o
108.715 122.601 o
112.145 108.616 o
105.897 126.292 o
116.167 131.413 o
136.967 122.742 o
107.03 108.652 o
110.159 109.508 o
100.86 69.2784 o
118.27 122.011 o
115.887 112.461 o
117.302 97.5415 o
118.462 100.696 o
120.074 121.598 o
90.414 91.4402 o
121.982 129.336 o
91.8038 83.5386 o
115.056 88.7963 o
110.783 103.985 o
115.656 86.0288 o
118.015 90.0667 o
129.153 73.3081 o
119.122 119.227 o
128.841 80.5412 o
115.701 101.977 o
121.004 102.865 o
118.735 106.264 o
106.208 108.613 o
120.326 126.864 o
113.222 101.868 o
103.743 121.987 o
117.55 108.552 o
121.098 93.2324 o
115.023 129.752 o
100.554 110.67 o
117.272 132.655 o
117.298 91.9922 o
111.407 123.783 o
113.144 103.43 o
98.1252 91.3056 o
113.615 88.8667 o
93.0829 112.643 o
117.117 124.443 o
107.163 118.398 o
101.766 93.1105 o
115.768 51.3054 o
119.018 99.0838 o
126.308 124.587 o
121.578 124.985 o
120.289 106.443 o
102.708 90.6197 o
114.038 132.348 o
109.377 73.9443 o
113.653 86.0946 o
109.651 114.335 o
114.643 93.0401 o
103.348 67.3548 o
114.095 79.5206 o
133.165 107.212 o
124.562 92.0947 o
112.036 85.9283 o
108.838 74.5106 o
104.8 83.5195 o
110.76 80.7974 o
130.69 84.6369 o
128.496 79.5725 o
120.702 86.9948 o
94.4513 100.409 o
121.039 99.376 o
109.04 102.623 o
120.911 107.617 o
102.208 126.045 o
103.379 106.756 o
96.4495 73.9452 o
107.982 115.011 o
96.4985 100.678 o
115.606 106.216 o
129.248 101.431 o
106.678 63.0042 o
113.626 114.911 o
104.184 129.112 o
128.402 73.8341 o
115.945 65.5324 o
116.329 103.29 o
115.221 85.5943 o
109.074 115.344 o
97.4713 95.3085 o
107.855 82.0722 o
108.715 110.773 o
124.808 128.268 o
108.985 87.2003 o
95.2016 121.575 o
109.53 64.063 o
95.5692 96.4308 o
117.31 94.6734 o
102.926 126.871 o
115.008 123.758 o
125.042 102.733 o
88.6948 68.1162 o
122.334 82.6656 o
106.01 107.827 o
109.307 78.1167 o
126.667 80.1594 o
107.935 84.6801 o
121.991 131.53 o
111.963 108.881 o
108.576 85.438 o
112.524 120.262 o
123.003 66.7318 o
103.544 89.3147 o
116.395 79.6823 o
126.171 74.4761 o
102.231 114.784 o
120.061 87.1827 o
121.322 73.9434 o
117.534 98.1154 o
120.656 94.5889 o
97.5395 88.9224 o
119.416 109.347 o
115.698 89.3093 o
109.205 109.927 o
94.8607 112.294 o
104.59 103.313 o
120.761 81.6296 o
113.627 115.572 o
115.014 67.9637 o
106.195 126.105 o
119.764 90.4889 o
112.792 129.153 o
120.172 76.1064 o
105.285 109.815 o
116.149 123.153 o
117.538 107.112 o
106.423 102.957 o
114.908 147.058 o
118.675 110 o
121.346 80.1178 o
122.334 68.848 o
106.217 118.877 o
108.96 100.87 o
133.188 85.8752 o
121.666 102.913 o
102.906 79.0929 o
105.934 109.009 o
112.878 84.645 o
121.712 100.782 o
105.93 134.467 o
103.029 87.2784 o
115.764 120.85 o
128.257 84.6278 o
123.295 129.3 o
113.306 125.65 o
110.461 82.7606 o
139.038 84.6889 o
112.084 103.381 o
113.616 104.144 o
96.9584 105.777 o
124.484 95.4705 o
118.407 63.6909 o
110.311 123.145 o
109.375 124.021 o
115.283 133.232 o
118.439 123.073 o
121.622 95.7727 o
114.988 84.5273 o
134.157 73.0712 o
132.261 87.5904 o
106.132 100.502 o
114.513 102.525 o
108.845 111.686 o
122.285 70.2726 o
119.754 75.2118 o
116.808 90.6397 o
122.071 105.259 o
110.473 96.6808 o
123.728 108.155 o
116.679 75.8776 o
110.54 78.5828 o
113.141 85.1825 o
106.656 95.7081 o
115.943 102.981 o
137.817 124.953 o
109.264 135.431 o
116.168 88.5306 o
102.167 97.8496 o
117.744 126.418 o
112.345 100.127 o
111.385 107.891 o
112.347 129.166 o
105.347 94.2833 o
121.703 102.244 o
123.214 108.346 o
120.159 115.487 o
118.974 85.8826 o
114.366 76.796 o
101.826 94.1753 o
113.17 85.0087 o
108.296 100.807 o
115.255 96.3517 o
113.828 112.125 o
106.965 71.1454 o
124.348 92.3972 o
123.404 126.07 o
105.963 64.9425 o
120.587 68.2082 o
120.673 132.322 o
112.357 114.426 o
118.883 90.948 o
112.84 60.4562 o
132.814 78.944 o
112.909 102.603 o
109.192 79.7113 o
124.148 123.244 o
110.198 109.819 o
117.354 123.1 o
124.36 104.163 o
105.381 128.226 o
102.048 88.5142 o
111.924 120.58 o
120.118 108.064 o
100.856 85.627 o
114.288 76.0778 o
117.286 88.291 o
97.8432 104.759 o
116.023 90.9488 o
128.139 79.6473 o
117.686 116.438 o
120.813 104.817 o
119.505 119.54 o
96.5693 115.578 o
131.844 78.9631 o
100.258 115.656 o
109.731 88.2232 o
107.128 112.949 o
117.452 112.387 o
118.797 105.92 o
109.541 113.223 o
96.9761 82.8992 o
119.52 79.8821 o
106.109 131.498 o
106.787 122.512 o
118.934 78.3198 o
107.559 120.51 o
124.581 83.0091 o
92.1657 102.687 o
123.465 103.721 o
119.363 73.2753 o
115.951 93.0261 o
109.071 118.486 o
102.923 98.0957 o
117.383 79.71 o
107.774 94.7407 o
101.533 100.473 o
104.723 119.515 o
115.12 111.992 o
134.736 83.1978 o
113.78 90.0158 o
114.382 84.4349 o
115.767 111.639 o
124.952 78.7366 o
130.83 86.2488 o
129.024 75.4446 o
99.9916 67.9188 o
108.114 106.313 o
113.858 86.032 o
114.865 122.023 o
100.529 109.354 o
107.33 108.625 o
92.5338 115.313 o
91.8552 89.52 o
123.212 125.339 o
113.572 93.522 o
102.955 131.611 o
107.46 103.566 o
98.0347 85.5214 o
110.519 91.8479 o
109.78 71.2881 o
108.895 108.019 o
98.1028 70.0629 o
120.639 86.5853 o
113.985 79.3255 o
124.901 88.848 o
122.765 114.562 o
125.868 89.3331 o
120.989 128.976 o
121.465 115.133 o
112.11 105.713 o
102.215 103.232 o
124.918 86.7849 o
116.389 77.5441 o
99.8692 65.954 o
119.637 91.0765 o
105.507 125.623 o
106.055 81.3786 o
111.96 78.0843 o
119.998 133.169 o
114.141 77.1577 o
120.603 86.3489 o
106.143 77.0268 o
104.156 91.2735 o
114.354 87.0861 o
104.694 77.4454 o
112.482 96.5357 o
121.414 95.8839 o
118.105 83.3469 o
110.306 117.598 o
106.7 102.3 o
106.608 105.573 o
113.319 111.262 o
122.316 85.3159 o
123.54 90.9643 o
93.0338 84.9077 o
105.138 120.722 o
119.983 78.7638 o
106.861 94.6963 o
111.783 93.4465 o
116.684 93.5467 o
116.467 109.692 o
115.494 108.003 o
108.412 61.8036 o
97.3731 63.4918 o
95.2444 108.695 o
116.717 84.9839 o
126.613 87.3628 o
108.082 75.7929 o
119.901 91.1178 o
102.722 65.1484 o
131.35 79.7508 o
112.019 107.883 o
116.045 117.957 o
107.959 61.4452 o
113.752 95.4262 o
107.475 92.4559 o
122.251 67.7181 o
116.027 97.3264 o
138.575 104.087 o
101.034 69.3399 o
120.924 124.752 o
96.0257 72.8024 o
119.037 99.8602 o
115.252 118.425 o
112.627 109.886 o
97.8757 89.8828 o
121.027 64.6459 o
110.009 109.503 o
122.242 122.762 o
111.696 138.865 o
127.791 102.428 o
93.3448 83.0329 o
115.554 134.994 o
108.849 118.382 o
95.51 103.101 o
107.343 134.477 o
106.461 94.3666 o
118.953 120.106 o
97.8332 115.662 o
135.124 115.853 o
107.813 75.1895 o
124.022 126.66 o
104.51 115.748 o
120.771 98.5711 o
105.894 96.511 o
121.44 131.852 o
117.918 75.7427 o
128.16 78.8818 o
110.346 122.223 o
108.796 131.459 o
117.643 105.001 o
115.903 68.3638 o
122.181 104.897 o
100.468 107.409 o
121.601 130.845 o
116.904 76.1837 o
119.53 88.097 o
111.829 108.319 o
124.337 98.6383 o
122.331 115.089 o
124.036 99.7198 o
112.008 91.584 o
117.134 119.843 o
95.5453 120.595 o
91.5169 98.8499 o
116.375 102.581 o
99.3984 107.126 o
116.787 129.845 o
106.914 115.373 o
108.603 61.3146 o
108.911 108.634 o
101.848 75.7047 o
109.527 117.641 o
116.493 100.372 o
120.319 91.5737 o
108.295 85.7421 o
110.905 102.102 o
116.03 133.432 o
102.69 122.507 o
101.289 110.54 o
111.291 117.11 o
115.701 93.5844 o
127.263 72.7351 o
135.992 84.887 o
106.533 114.685 o
110.676 108.195 o
110.288 116.07 o
107.623 87.9564 o
104.414 96.3414 o
114.59 112.722 o
118.787 109.249 o
114.774 114.162 o
100.417 80.1251 o
118.287 70.2522 o
117.24 70.0402 o
108.678 107.071 o
116.36 90.1706 o
78.0569 88.7801 o
106.625 101.07 o
124.957 119.591 o
108.82 82.0075 o
113.401 92.5467 o
93.7274 105.533 o
102.438 91.2963 o
102.968 95.3268 o
112.417 83.5598 o
122.19 110.259 o
106.963 81.7465 o
100.649 105.052 o
124.515 139.601 o
98.1045 69.6325 o
113.417 116.369 o
111.639 78.8436 o
134.273 103.601 o
122.724 94.1112 o
124.593 77.0794 o
102.82 75.0431 o
100.438 94.6041 o
118.443 118.314 o
107.002 84.4319 o
106.298 86.9936 o
98.4713 98.708 o
120.63 75.4844 o
108.544 118.794 o
123.819 78.1372 o
105.796 88.3895 o
103.19 91.979 o
125.21 127.728 o
118.041 138.604 o
114.529 95.6305 o
94.5314 82.8935 o
120.149 101.577 o
111.325 131.203 o
102.273 83.6478 o
106.067 83.3715 o
114.301 123.123 o
119.902 76.5392 o
113.091 108.18 o
115.328 86.14 o
127.39 68.6358 o
120.389 106.578 o
118.943 80.9219 o
119.184 119.087 o
125.078 113.83 o
55.0857 112.699 o
124.632 80.682 o
116.334 123.99 o
117.715 90.3083 o
117.177 85.5603 o
118.225 104.193 o
109.648 96.503 o
109.031 103.223 o
106.757 112.792 o
97.2552 96.5087 o
122.187 124.716 o
99.6476 119.57 o
108.056 97.6484 o
103.635 126.627 o
128.293 71.5164 o
119.974 107.734 o
107.982 109.213 o
114.764 106.067 o
126.416 70.8068 o
117.994 117.602 o
126.244 124.67 o
128.168 105.186 o
105.685 136.285 o
106.148 99.9937 o
126.838 121.501 o
114.937 136.315 o
110.419 82.2172 o
114.675 120.352 o
120.889 78.1803 o
100.581 62.7264 o
119.036 95.882 o
114.24 76.1792 o
94.9504 104.353 o
112.71 85.1093 o
107.634 59.7318 o
102.109 80.7428 o
107.264 133.946 o
101.292 78.6965 o
116.378 107.715 o
112.216 108.451 o
114.703 133.704 o
105.166 133.426 o
120.012 118.506 o
111.445 62.761 o
92.2589 82.6897 o
127.121 101.112 o
111.929 78.2805 o
132.737 126.075 o
109.675 97.0122 o
110.439 89.2213 o
114.789 80.6285 o
113.766 98.5329 o
107.789 87.659 o
122.632 110.821 o
120.968 124.473 o
109.736 95.5999 o
118.527 124.638 o
86.7984 64.2921 o
129.43 65.4646 o
112.934 110.405 o
114.032 108.03 o
113.002 94.3416 o
108.652 132.502 o
106.112 100.071 o
119.828 111.244 o
117.799 91.8592 o
112.016 117.695 o
123.007 108.718 o
110.54 56.8089 o
109.414 115.282 o
106.133 115.949 o
108.75 96.3955 o
93.7585 87.3659 o
120.721 120.607 o
126.277 77.7921 o
106.729 110.308 o
111.544 88.0932 o
123.221 112.463 o
126.493 123.146 o
120.124 110.375 o
103.16 72.313 o
122.075 128.397 o
125.497 115.838 o
119.081 102.2 o
116.754 110.654 o
112.467 125.232 o
108.134 110.435 o
118.68 117.083 o
110.924 67.9375 o
109.615 83.0354 o
107.182 113.862 o
110.623 124.82 o
128.245 79.7781 o
109.732 107.478 o
108.441 106.086 o
119.729 64.7778 o
115.666 123.077 o
110.329 128.472 o
118.87 125.259 o
101.585 75.1143 o
116.396 118.517 o
107.265 86.5155 o
114.211 86.1592 o
116.175 102.458 o
116.174 98.6555 o
114.324 89.776 o
115.871 67.2027 o
123.762 117.48 o
106.529 125.975 o
109.325 125.552 o
126.918 86.8967 o
110.812 106.276 o
133.144 125.926 o
102.175 62.8896 o
114.159 91.571 o
116.711 85.1552 o
104.965 110.907 o
122.206 126.134 o
131.209 90.8485 o
102.623 92.1076 o
119.177 110.381 o
115.394 96.7498 o
107.198 62.2753 o
106.419 108.745 o
109.859 81.0811 o
103.582 87.8319 o
101.739 70.0108 o
111.911 83.0521 o
118.298 91.0698 o
117.234 96.7023 o
110.84 116.642 o
121.881 113.472 o
111.128 77.5773 o
117.681 87.1259 o
114.22 112.512 o
93.3919 99.5847 o
107.063 101.243 o
117.97 114.214 o
118.489 94.4587 o
128.655 104.479 o
108.879 80.998 o
109.096 58.3969 o
120.136 97.3902 o
108.186 61.0492 o
118.474 96.7382 o
114.179 125.36 o
115.353 89.7003 o
110.043 97.357 o
118.556 110.693 o
116.828 75.1363 o
130.059 81.7251 o
109.381 85.0414 o
99.6342 108.376 o
118.86 88.8605 o
107.798 70.2028 o
108.47 120.278 o
110.838 75.2103 o
89.1436 104.115 o
114.362 116.817 o
116.06 138.956 o
120.03 106.898 o
115.684 86.3684 o
124.33 130.494 o
111.721 114.704 o
126.862 93.6274 o
121.807 94.2373 o
102.573 102.192 o
115.009 91.7185 o
115.075 94.2786 o
94.9907 85.369 o
99.5245 80.1018 o
127.739 74.5609 o
107.987 61.6555 o
118.994 119.318 o
118.414 93.6404 o
113.446 88.2446 o
106.95 88.144 o
120.834 88.0851 o
116.266 117.175 o
114.577 75.6172 o
123.556 100.077 o
114.825 125.053 o
122.018 129.346 o
115.31 83.4126 o
114.437 111.157 o
101.999 91.81 o
117.22 97.268 o
102.087 67.7032 o
106.813 69.1391 o
121.87 79.2322 o
131.635 111.386 o
122.559 134.266 o
123.373 88.0679 o
127.659 91.1592 o
135.386 109.444 o
119.499 100.796 o
123.482 86.6705 o
102.181 120.749 o
109.863 109.257 o
111.371 122.484 o
93.5545 82.9803 o
118.862 116.901 o
101.461 99.0724 o
106.815 81.3145 o
105.016 77.6764 o
124.026 82.4351 o
109.952 56.4364 o
103.94 97.0943 o
116.163 103.299 o
141.85 99.725 o
119.201 118.259 o
114.562 109.442 o
98.6822 74.376 o
120.451 92.2996 o
102.659 67.7585 o
114.525 69.9503 o
106.256 79.1688 o
118.799 120.693 o
118.563 105.596 o
134.285 88.4955 o
113.127 120.155 o
123.246 85.6532 o
106.696 86.9231 o
134.977 84.7812 o
108.815 81.9065 o
117.96 116.592 o
115.59 79.9677 o
105.717 121.44 o
119.555 91.5274 o
122.449 82.6822 o
116.1 129.79 o
134.719 110.491 o
121.852 73.1673 o
114.429 108.38 o
110.408 103.019 o
104.692 102.076 o
114.883 62.9727 o
114.822 119.405 o
107.071 118.522 o
140.539 91.8973 o
111.047 98.9234 o
135.856 102.387 o
104.143 108.804 o
115.831 92.2519 o
108.581 110.038 o
113.788 76.6727 o
100.747 71.3103 o
121.23 83.3859 o
114.373 69.3719 o
101.791 63.5531 o
111.519 81.8697 o
108.079 86.3232 o
109.28 132.777 o
122.215 122.166 o
117.405 93.4592 o
114.853 103.238 o
117.726 104.284 o
107.632 109.222 o
113.282 83.8604 o
91.116 92.3455 o
108.724 123.525 o
93.2 109.669 o
90.9242 95.0448 o
104.621 85.5116 o
112.995 107.594 o
130.188 95.679 o
100.626 79.3801 o
138.381 84.042 o
111.035 88.3136 o
120.116 99.2334 o
103.065 90.2782 o
113.297 106.485 o
123.321 81.5948 o
119.159 87.4021 o
119.966 65.896 o
123.087 98.2776 o
112.267 116.199 o
114.7 111.193 o
93.7287 116.575 o
106.734 111.377 o
120.233 103.424 o
112.326 101.414 o
112.289 114.532 o
129.388 97.2846 o
125.442 72.4007 o
99.7644 70.6806 o
112.963 129.612 o
104.063 73.8404 o
109.156 98.0923 o
103.632 76.0717 o
103.513 123.456 o
134.264 98.811 o
109.343 121.123 o
122.518 91.0413 o
113.983 93.7495 o
107.208 82.5751 o
107.084 122.019 o
99.3333 76.4091 o
101.995 79.6847 o
125.012 116.5 o
95.1382 66.2704 o
124.523 85.2038 o
129.159 123.944 o
97.9934 91.6707 o
91.6248 103.235 o
121.478 113.776 o
122.14 93.5209 o
122.62 105.921 o
110.519 96.4892 o
115.59 104.703 o
112.773 116.831 o
94.5351 118.215 o
116.631 98.2899 o
120.626 115.864 o
117.895 54.3192 o
131.811 93.9753 o
118.955 104.445 o
115.233 122.926 o
111.108 105.677 o
130.087 101.582 o
105.651 107.171 o
118.408 114.451 o
120.299 85.16 o
124.641 83.0662 o
101.695 123.592 o
131.373 117.551 o
122.942 70.8541 o
118.744 94.2199 o
117.174 98.1385 o
112.792 88.5249 o
118.228 92.4182 o
110.533 102.116 o
120.687 108.722 o
114.508 86.9917 o
116.065 66.2175 o
131.055 79.3099 o
129.538 88.6265 o
117.52 115.227 o
111.53 121.143 o
133.047 103.545 o
121.27 62.2354 o
108.801 88.6965 o
125.284 83.3767 o
118.282 62.0746 o
104.647 94.0266 o
92.3022 98.3496 o
128.515 117.231 o
115.343 90.784 o
124.156 82.0554 o
120.04 69.4717 o
123.993 102.157 o
104.066 68.0673 o
105.011 91.8582 o
107.288 82.31 o
120.734 121.361 o
138.192 93.9663 o
95.2121 99.4181 o
108.287 61.3413 o
114.61 122.743 o
101.1 108.343 o
118.142 106.268 o
104.443 109.506 o
109.936 83.9918 o
101.565 67.8035 o
108.72 59.9318 o
108.798 94.9178 o
121.544 115.319 o
100.87 67.7027 o
117.128 86.8884 o
130.646 121.687 o
115.076 108.85 o
117.225 64.6622 o
117.74 121.099 o
106.168 122.564 o
117.724 85.6372 o
114.853 95.9212 o
112.482 75.8451 o
98.1577 115.612 o
131.941 81.01 o
105.272 121.895 o
115.333 92.7823 o
103.45 92.7695 o
120.352 103.886 o
115.3 81.4851 o
132.143 121.592 o
113.247 106.209 o
119.192 89.5389 o
116.612 84.5836 o
121.926 111.857 o
115.781 112.634 o
108.263 101.083 o
136.644 103.505 o
100.159 90.6635 o
106.862 60.9032 o
103.494 72.4456 o
131.422 119.945 o
131.317 85.1103 o
128.438 115.037 o
88.7134 86.4691 o
109.712 96.9776 o
114.423 64.1189 o
102.609 99.1345 o
94.6859 61.2277 o
104.521 96.8614 o
124.741 70.1782 o
122.542 114.087 o
117.263 107.837 o
121.928 84.4287 o
119.252 119.323 o
105.455 124.23 o
107.346 81.326 o
107.363 75.4962 o
134.749 99.0536 o
134.857 93.4364 o
116.8 90.0694 o
122.565 88.7825 o
120.274 86.92 o
133.668 77.3001 o
111.716 112.32 o
107.085 78.8414 o
118.88 111.988 o
129.608 120.52 o
136.307 116.063 o
118.48 86.9865 o
109.66 119.897 o
129.538 143.785 o
102.799 115.346 o
112.246 104.1 o
141.439 96.0993 o
89.9185 80.4294 o
110.282 109.988 o
132.76 87.1742 o
110.651 81.7428 o
115.77 109.259 o
116.421 97.8333 o
117.14 120.339 o
115.838 97.7907 o
105.308 62.8735 o
111.659 79.9086 o
117.043 123.583 o
113.49 92.7147 o
119.412 66.0174 o
118.374 104.162 o
111.945 119.463 o
116.843 121.587 o
114.33 91.4354 o
92.9629 88.2017 o
118.584 77.1217 o
111.315 118.407 o
116.199 111.904 o
118.261 127.443 o
108.543 80.5299 o
114.189 109.815 o
134.394 107.479 o
112.616 86.0919 o
119.826 82.482 o
135.955 104.721 o
131.135 115.93 o
127.444 76.7815 o
128.19 81.8998 o
138.036 96.3737 o
105.081 65.165 o
101.64 114.071 o
131.746 83.3223 o
103.792 108.138 o
86.9516 82.1307 o
122.345 117.797 o
110.541 57.6538 o
114.873 88.2815 o
120.331 95.4845 o
117.324 104.116 o
106.653 62.6279 o
119.376 107.832 o
116.927 74.6283 o
111.598 113.15 o
114.103 119.582 o
117.666 97.5249 o
121.263 128.604 o
114.238 124.981 o
106.406 61.9367 o
125.882 110.398 o
99.9052 88.7145 o
121.402 98.0913 o
117.949 80.0368 o
119.598 90.8994 o
109.961 113.765 o
120.43 66.8502 o
127.261 101.608 o
119.222 94.8162 o
118.749 81.2663 o
97.834 77.7896 o
98.1995 65.9776 o
106.616 91.2597 o
108.709 120.586 o
99.3547 80.1336 o
105.266 60.8522 o
111.991 110.272 o
110.439 101.874 o
117.02 91.0352 o
116.004 107.231 o
114.769 110.018 o
110.438 135.145 o
119.651 111.38 o
116.265 112.174 o
113.407 92.6461 o
134.152 113.988 o
109.175 107.05 o
117.451 139.746 o
118.481 122.862 o
111.84 132.255 o
118.978 108.514 o
106.53 125.583 o
111.589 122.153 o
108.872 114.067 o
117.446 114.569 o
130.601 140.499 o
111.113 94.9267 o
95.6185 96.2847 o
115.861 63.9951 o
111.742 110.062 o
110.398 91.338 o
118.003 105.597 o
102.38 106.865 o
120.708 125.953 o
129.722 128.017 o
117.098 95.1752 o
116.432 93.7945 o
131.46 87.3574 o
116.829 98.143 o
126.527 62.645 o
116.459 120.833 o
106.5 115.263 o
106.132 102.292 o
117.911 121.511 o
119.09 103.497 o
113.923 79.4074 o
98.7492 57.7308 o
118.48 97.6549 o
90.4342 85.9035 o
110.663 129.783 o
105.746 90.5647 o
117.679 137.654 o
116.135 76.3512 o
124.538 63.7989 o
103.02 70.1172 o
121.595 85.2559 o
118.462 114.61 o
105.164 76.0833 o
115.168 104.665 o
119.524 104.799 o
111.809 88.0306 o
127.144 118.813 o
123.971 85.0519 o
126.54 77.476 o
107.766 115.487 o
118.144 120.97 o
112.059 106.685 o
111.378 96.4142 o
104.748 112.113 o
121.975 82.8986 o
106.604 45.0578 o
108.262 97.5958 o
123.18 125.383 o
107.638 99.7673 o
118.445 87.3076 o
119.348 80.6036 o
126.231 130.008 o
101.046 107.525 o
107.723 89.5151 o
103.952 77.4474 o
96.1184 104.067 o
112.733 79.1783 o
106.278 85.0722 o
107.169 92.7483 o
116.537 88.4979 o
120.996 113.963 o
108.466 88.4745 o
110.518 84.2115 o
109.785 57.8985 o
115.774 121.941 o
129.52 81.0671 o
124.543 93.8824 o
136.215 125.631 o
107.031 83.952 o
122.641 102.079 o
110.505 94.4333 o
123.216 123.131 o
105.587 80.8687 o
114.685 92.4113 o
114.411 53.9282 o
113.892 94.2326 o
116.499 106.935 o
123.974 108.607 o
107.278 109.575 o
108.413 93.0595 o
110.101 124.236 o
107.536 84.7837 o
110.01 121.836 o
124.896 81.9942 o
103.74 70.2613 o
110.703 95.4252 o
108.182 100.545 o
109.832 71.5843 o
121.616 84.9233 o
112.237 107.006 o
136.221 105.191 o
105.618 76.3736 o
121.45 64.4872 o
110.06 100.298 o
111.652 115.157 o
104.384 120.823 o
104.836 119.04 o
114.239 106.551 o
114.48 134.855 o
121.321 105.149 o
106.176 62.3352 o
95.6039 98.0001 o
110.038 106.821 o
120.26 125.757 o
107.323 120.989 o
109.186 118.141 o
118.324 81.1309 o
109.623 94.3673 o
112.687 104.015 o
128.203 106.895 o
113.284 78.3594 o
118.596 116.672 o
117.119 91.271 o
107.72 77.19 o
118.358 111.584 o
114.899 78.6228 o
122.186 133.314 o
101.522 98.236 o
116.026 117.537 o
117.698 81.2156 o
127.652 119.968 o
101.703 91.7203 o
103.513 98.5021 o
102.233 70.7217 o
100.709 73.9862 o
105.641 68.387 o
106.601 102.828 o
136.886 96.9828 o
110.306 119.227 o
122.791 92.0981 o
113.339 115.798 o
120.932 126.692 o
122.363 95.8634 o
120.368 79.2909 o
116.872 76.5893 o
116.353 100.445 o
117.186 96.112 o
113.025 99.443 o
110.089 85.4824 o
100.935 107.784 o
111.231 75.5226 o
103.446 85.1714 o
121.178 90.7192 o
113.216 104.319 o
107.28 93.7847 o
105.518 73.7682 o
114.973 89.8802 o
104.11 65.6204 o
107.772 102.428 o
129.083 94.8995 o
106.86 99.1405 o
109.15 116.514 o
129.604 77.7222 o
125.398 83.6102 o
119.276 103.447 o
106.524 69.9986 o
113.688 123.597 o
138.212 94.3622 o
105.086 75.4852 o
99.6456 80.5459 o
128.423 123.689 o
121.748 101.247 o
97.8645 131.325 o
113.248 96.7768 o
129.316 110.486 o
135.813 139.71 o
117.863 89.9437 o
126.548 132.226 o
123.51 136.171 o
113.76 110.185 o
124.788 113.48 o
113.496 93.1342 o
109.366 85.3682 o
130.575 68.9839 o
111.391 107.759 o
87.8803 77.8046 o
105.218 108.968 o
101.689 74.4853 o
138.05 99.5697 o
130.232 117.291 o
107.614 113.047 o
116.829 79.8311 o
113.881 88.7012 o
128.664 64.0059 o
104.24 114.561 o
110.49 114.749 o
122.188 86.9717 o
105.76 112.087 o
123.342 90.4825 o
121.483 111.602 o
97.7685 62.5798 o
111.058 87.6675 o
120.069 81.0796 o
111.066 112.467 o
118.721 108.884 o
103.407 88.0195 o
125.626 80.5157 o
114.955 95.633 o
109.718 75.7325 o
114.744 88.3395 o
103.719 82.61 o
119.123 62.5264 o
110.661 101.172 o
107.907 58.633 o
118.851 89.4536 o
110.246 120.682 o
106.438 88.9036 o
99.8465 74.8359 o
111.224 101.977 o
114.68 138.702 o
115.871 91.2633 o
120.46 101.087 o
125.636 68.9039 o
95.1855 112.704 o
106.305 79.2492 o
121.525 76.1916 o
119.502 78.123 o
122.198 96.9141 o
112.702 112.695 o
117.922 106.556 o
91.8445 85.672 o
113.106 62.8605 o
117.307 115.526 o
116.924 92.587 o
122.586 105.92 o
112.136 98.7272 o
109.475 106.279 o
122.01 113.578 o
117.883 147.231 o
114.831 76.6772 o
109.491 88.4678 o
109.722 114.601 o
116.688 90.716 o
122.68 115.177 o
107.195 115.046 o
106.517 83.6805 o
102.936 71.2615 o
108.93 94.9011 o
123.016 88.5682 o
113.873 82.2954 o
113.472 110.502 o
108.335 89.5062 o
125.794 99.2209 o
122.622 96.7977 o
103.608 129.21 o
118.452 120.492 o
138.538 99.973 o
114.06 119.338 o
109.346 92.8458 o
115.051 135.591 o
121.975 94.1029 o
103.96 76.3653 o
117.53 116.605 o
102.268 99.3386 o
122.458 77.4631 o
124.36 131.998 o
148.271 88.2577 o
119.029 81.5019 o
114.644 76.0544 o
107.003 127.917 o
109.165 90.8035 o
107.222 84.0356 o
104.153 117.789 o
123.047 125.956 o
134.539 87.2874 o
104.094 108.668 o
101.4 80.3982 o
104.55 50.3143 o
117.018 58.2063 o
101.954 92.0914 o
98.8381 78.9737 o
111.829 100.752 o
104.426 90.5467 o
135.727 82.9359 o
99.6288 87.282 o
120.606 76.2895 o
119.538 102.613 o
121.553 67.7532 o
105.279 109.907 o
108.707 115.581 o
135.048 99.0673 o
100.272 97.426 o
120.023 77.2586 o
121.518 94.8452 o
107 118.241 o
123.39 108.799 o
115.022 74.4013 o
91.1718 90.6698 o
122.541 100.957 o
115.846 108.526 o
90.3326 96.3271 o
104.399 85.3567 o
114.377 129.383 o
108.827 105.626 o
139.572 103.798 o
125.534 70.2331 o
130.981 80.8716 o
102.71 71.7378 o
123.339 124.928 o
118.957 123.567 o
119.486 96.5234 o
118.92 117.231 o
118.691 120.311 o
115.07 98.5417 o
111.59 117.415 o
111.4 75.6196 o
118.937 87.8776 o
99.3452 74.5429 o
124.363 79.5297 o
114.748 131.614 o
120.236 104.84 o
125.321 115.2 o
109.911 59.1315 o
114.413 106.287 o
113.136 90.9401 o
107.27 110.548 o
128.274 98.8798 o
116.224 84.4443 o
99.6619 57.0912 o
104.001 89.6952 o
97.373 65.3815 o
124.075 91.0343 o
109.549 51.905 o
101.147 87.7039 o
124.648 114.721 o
112.734 95.5511 o
98.0315 121.194 o
102.456 71.0148 o
99.4625 107.589 o
104.975 65.2054 o
109.741 86.2732 o
111.725 93.8044 o
109.794 58.8639 o
108.117 68.4466 o
122.929 84.7874 o
98.9518 95.0419 o
128.998 96.7918 o
131.208 128.159 o
124.837 76.2001 o
119.96 114.117 o
108.971 62.5677 o
120.759 100.927 o
127.943 72.6946 o
116.328 119.252 o
111.48 91.3149 o
120.973 112.68 o
116.737 101.183 o
121.8 110.343 o
117.613 89.2138 o
104.718 85.2416 o
130.942 106.959 o
105.446 111.819 o
110.585 56.4631 o
110.145 100.089 o
113.234 102.092 o
112.317 113.816 o
105.033 50.3311 o
100.752 69.1262 o
100.7 97.3487 o
129.115 82.5417 o
125.342 93.2757 o
123.408 113.987 o
121.976 56.722 o
125.288 67.3428 o
109.769 120.055 o
119.557 94.6928 o
113.206 122.376 o
127.124 64.9353 o
117.397 98.386 o
112.64 93.528 o
103.011 93.607 o
113.964 122.398 o
96.6377 108.676 o
111.67 120.628 o
116.838 80.8805 o
101.696 108.39 o
131.394 123.105 o
106.157 105.126 o
101.148 100.784 o
124.903 98.4762 o
135.51 98.5543 o
121.773 125.995 o
110.154 66.4329 o
103.306 115.851 o
108.265 81.1127 o
110.457 96.3205 o
109.552 62.8739 o
118.089 119.008 o
112.621 109.369 o
129.748 118.438 o
97.072 102.677 o
119.197 98.8879 o
113.311 120.43 o
102.6 101.929 o
105.506 67.4209 o
118.33 77.5917 o
115.658 118.195 o
118.87 113.124 o
115.012 121.407 o
108.174 95.8341 o
120.387 99.5694 o
113.211 97.0857 o
118.024 90.6631 o
100.753 71.1893 o
115.881 88.5541 o
103.506 91.6263 o
106.133 87.7855 o
105.55 110.058 o
112.937 124.752 o
110.518 109.434 o
97.042 124.896 o
117.592 59.8406 o
128.802 92.3927 o
104.043 75.9779 o
98.0387 90.3635 o
126.135 82.8512 o
107.035 91.4978 o
108.415 124.301 o
109.165 68.0516 o
95.5055 75.089 o
106.291 99.2627 o
91.7643 70.9397 o
127.307 122.155 o
114.508 92.1813 o
97.6545 105.856 o
111.953 112.576 o
107.906 119.885 o
97.8694 83.2966 o
117.718 106.152 o
108.582 105.935 o
123.828 81.8303 o
104.195 93.592 o
102.662 58.737 o
111.083 119.414 o
98.5902 62.9743 o
119.247 97.796 o
119.956 105.982 o
104.894 103.234 o
124.698 128.887 o
134.943 84.0823 o
105.053 98.7238 o
93.7868 109.369 o
104.57 121.431 o
118.661 103.08 o
114.492 119.398 o
119.015 131.177 o
112.121 101.687 o
106.733 62.31 o
100.211 64.3131 o
106.249 47.988 o
116.056 92.5474 o
126.933 114.905 o
119.863 97.1277 o
125.603 79.318 o
115.638 92.3229 o
92.2334 84.9071 o
114.416 111.263 o
128.939 79.6568 o
135.752 105.435 o
109.686 87.5016 o
127.952 76.8633 o
116.055 103.861 o
117.607 84.5739 o
102.555 97.279 o
125.919 125.891 o
107.006 77.6743 o
121.171 114.537 o
119.455 102.508 o
98.1399 67.3007 o
113.35 90.004 o
110.26 89.9848 o
124.869 55.8106 o
108.968 84.566 o
125.117 82.2187 o
141.609 84.6309 o
120.167 113.077 o
116.909 134.545 o
106.783 112.412 o
125.612 110.636 o
103.716 109.203 o
91.0705 94.5997 o
116.7 61.3445 o
124.771 99.0037 o
112.21 105.457 o
120.311 61.736 o
114.411 68.183 o
102.444 78.6095 o
104.927 83.1765 o
109.162 76.6567 o
102.654 75.3389 o
115.411 123.397 o
112.078 112.18 o
113.352 105.446 o
117.595 118.795 o
113.062 84.3378 o
123.363 107.5 o
119.251 69.7686 o
111.388 91.9005 o
121.038 99.7726 o
95.7749 66.2468 o
121.936 93.0665 o
101.039 76.5336 o
109.998 99.3481 o
119.754 99.9537 o
109.826 75.5543 o
107.806 112.114 o
107.956 138.548 o
137.587 88.0673 o
117.139 58.1141 o
108.163 57.3245 o
106.188 132.809 o
125.752 124.62 o
126.094 90.4883 o
122.413 81.8402 o
110.41 80.8966 o
117.831 100.194 o
132.226 94.0891 o
103.081 120.393 o
99.5991 89.9272 o
99.7559 65.4553 o
104.051 95.0656 o
111.57 94.3027 o
119.636 85.5567 o
108.532 84.9153 o
114.109 92.8125 o
93.6915 104.56 o
116.525 81.8301 o
119.12 125.675 o
95.6334 86.0082 o
122.028 102.797 o
131.947 102.423 o
105.121 108.42 o
109.661 115.064 o
111.281 87.4133 o
119.457 111.228 o
124.85 128.295 o
113.159 98.972 o
130.591 69.7368 o
108.213 97.1479 o
113.271 86.5614 o
104.066 87.4814 o
104.923 89.9756 o
124.444 118.389 o
110.762 94.9043 o
105.707 113.844 o
124.911 62.6252 o
106.8 132.004 o
108.812 65.6827 o
125.347 124.715 o
103.908 103.169 o
129.723 80.9072 o
103.143 66.2135 o
112.795 114.05 o
112.465 61.0531 o
102.887 95.934 o
112.862 90.9743 o
99.2911 68.0605 o
113.728 92.4603 o
107.48 92.3152 o
104.132 106.392 o
117.634 59.5222 o
114.229 86.9656 o
114.328 93.6151 o
119.549 96.6279 o
131.703 89.7764 o
102.651 66.0276 o
125.549 74.6415 o
115.261 89.1982 o
115.551 100.527 o
129.965 102.078 o
107.743 119.743 o
114.306 119.434 o
101.464 103.762 o
119.697 122.795 o
123.674 128.316 o
135.896 105.261 o
93.0091 116.858 o
114.141 106.075 o
122.254 67.5726 o
106.342 92.6367 o
115.71 73.7061 o
106.856 73.2239 o
128.241 63.8987 o
111.549 64.1601 o
107.243 86.113 o
120.867 96.327 o
118.204 116.571 o
129.666 74.3545 o
106.433 47.4348 o
107.541 101.035 o
103.245 89.2952 o
128.644 123.595 o
102.742 96.6063 o
115.631 103.113 o
93.3862 114.035 o
103.501 124.176 o
101.79 105 o
114.149 79.9884 o
123.132 93.242 o
112.315 90.5242 o
118.856 85.5051 o
111.522 121.4 o
122.165 92.9254 o
123.32 83.9931 o
111.185 112.379 o
109.343 78.2365 o
121.758 58.9627 o
105.555 101.893 o
103.502 72.1965 o
122.1 81.5141 o
124.85 110.744 o
129.14 119.231 o
109.748 58.7249 o
107.297 97.9375 o
139.891 91.178 o
110.946 62.643 o
127.437 109.701 o
107.953 89.3236 o
110.972 63.9984 o
119.858 114.818 o
116.632 104.709 o
123.582 95.7375 o
96.2815 114.591 o
141.901 82.8082 o
103.875 82.9465 o
102.657 107.457 o
135.196 97.1919 o
101.999 87.0818 o
115.213 115.113 o
102.326 99.0669 o
114.019 115.841 o
112.667 102.516 o
102.522 130.854 o
97.5485 62.9866 o
99.2022 88.0301 o
125.436 102.003 o
104.875 71.7263 o
120.551 116.161 o
129.08 73.4322 o
105.415 125.218 o
118.047 85.018 o
94.0336 80.6914 o
94.928 95.9465 o
131.628 73.6179 o
110.094 118.9 o
119.311 66.2784 o
115.398 77.1149 o
112.488 62.4406 o
117.216 104.76 o
103.78 69.21 o
127.41 78.9666 o
122.076 81.3181 o
112.292 99.082 o
136.716 90.5162 o
94.2031 97.7323 o
122.213 120.418 o
119.408 80.1196 o
106.712 133.318 o
136.258 148.996 o
127.355 98.9302 o
116.171 82.9081 o
123.173 123.125 o
117.996 123.365 o
117.023 105.284 o
118.304 112.249 o
96.2888 85.1123 o
115.805 119.077 o
127.984 103.595 o
123.919 124.412 o
124.142 95.4071 o
124.292 79.6273 o
123.016 121.902 o
115.274 89.8013 o
94.0164 88.4595 o
112.376 107.835 o
110.514 83.0928 o
113.902 102.885 o
102.673 83.2075 o
112.766 53.9622 o
114.805 120.289 o
117.927 98.4303 o
111.999 106.637 o
96.578 84.6892 o
111.563 61.7947 o
104.753 74.5069 o
117.567 86.6431 o
121.783 100.722 o
118.508 110.631 o
107.163 117.189 o
123.336 98.0492 o
130.675 116.155 o
98.5911 76.992 o
115.969 99.3707 o
110.111 92.0299 o
121.075 65.9145 o
115.71 54.2349 o
113.924 87.2319 o
132.467 84.4491 o
104.77 79.4462 o
109.938 58.6639 o
114.233 86.3852 o
111.522 89.8443 o
122.182 91.2201 o
108.204 116.77 o
115.655 136.04 o
109.152 59.9696 o
101.767 88.3429 o
101.274 70.3861 o
111.949 108.816 o
104.36 93.289 o
104.485 91.377 o
118.846 118.484 o
119.252 66.0853 o
113.142 63.4585 o
121.947 120.178 o
109.828 83.6524 o
112.324 81.8207 o
98.6742 107.671 o
123.894 87.9306 o
117.55 106.706 o
116.718 117.171 o
120.986 114.307 o
106.353 117.166 o
113.725 100.609 o
98.8615 81.7284 o
109.711 122.584 o
124.687 103.241 o
118.936 111.553 o
92.1181 86.3866 o
109.39 121.879 o
112.82 103.758 o
136.506 71.918 o
111.571 92.5724 o
104.144 67.5461 o
103.784 128.55 o
110.95 51.7628 o
105.709 81.5986 o
90.9803 102.209 o
109.789 90.8033 o
102.197 75.1582 o
119.024 74.5046 o
133.343 74.0736 o
120.05 94.5218 o
111.502 117.976 o
101.37 63.5467 o
122.075 88.847 o
115.304 126.617 o
109.296 95.9623 o
104.114 98.2262 o
121.354 115.018 o
105.469 111.747 o
128.434 66.542 o
120.327 66.6223 o
108.383 133.174 o
116.786 120.031 o
119.351 77.6147 o
102.952 100.545 o
104.072 104.536 o
119.132 85.5645 o
88.8693 108.549 o
125.082 115.464 o
128.646 118.727 o
103.123 110.015 o
126.076 118.122 o
112.711 86.7012 o
102.874 88.7468 o
106.845 104.174 o
123.527 66.1436 o
104.272 115.913 o
132.95 67.2419 o
132.519 70.4348 o
98.9957 64.3432 o
102.54 89.9637 o
109.337 83.044 o
119.633 92.1162 o
118.317 89.9636 o
108.249 107.888 o
101.474 99.3712 o
121.663 106.025 o
109.213 119.371 o
108.343 118.46 o
117.242 116.787 o
114.014 94.8192 o
127.609 116.705 o
120.694 95.6203 o
113.334 106.584 o
110.869 96.1918 o
102.599 107.133 o
110.138 92.65 o
108.972 114.065 o
108.279 88.1355 o
133.048 95.9701 o
110.758 122.42 o
110.937 78.3275 o
115.703 83.0126 o
109.919 114.023 o
122.006 91.5571 o
119.857 100.32 o
122.757 89.5602 o
117.257 106.549 o
118.372 76.8581 o
114.065 90.2758 o
112.841 62.3144 o
104.77 100.825 o
129.587 121.844 o
122.272 104.176 o
108.044 125.593 o
111.161 59.7441 o
112.72 116.86 o
114.322 93.3176 o
100.607 105.231 o
114.259 108.742 o
116.066 76.2291 o
144.243 97.6501 o
115.749 96.335 o
111.317 91.9635 o
117.217 114.521 o
110.617 90.7222 o
115.095 89.2783 o
98.0424 63.5415 o
109.965 105.13 o
102.704 96.2418 o
107.017 101.687 o
114.387 112.077 o
116.221 107.865 o
114.989 89.8878 o
131.741 84.0938 o
116.899 114.776 o
120.944 81.7792 o
116.249 111.552 o
103.168 105.664 o
109.381 47.3978 o
117.549 95.9329 o
115.327 118.45 o
112.667 81.1726 o
102.49 89.8121 o
101.989 113.058 o
108.559 89.734 o
114.101 109.124 o
117.138 106.463 o
107.399 79.7137 o
97.6111 63.6837 o
98.5967 63.5716 o
146.207 106.814 o
129.006 105.528 o
117.524 113.221 o
109.075 76.9282 o
119.395 119.947 o
108.499 123.084 o
121.71 93.6519 o
107.318 123.45 o
126.385 102.981 o
110.519 120.935 o
118.777 93.0182 o
115.208 86.8911 o
113.885 129.09 o
104.003 66.5682 o
115.472 92.5444 o
115.032 93.1571 o
104.692 110.803 o
117.753 90.0531 o
107.323 110.995 o
124.056 92.0858 o
122.719 119.651 o
112.069 97.2826 o
106.673 107.338 o
111.738 102.141 o
104.742 94.5719 o
116.85 111.657 o
124.779 84.5344 o
115.106 86.3888 o
123.029 117.845 o
113.772 103.705 o
112.934 92.7468 o
136.168 81.5398 o
117.682 117.295 o
112.95 108.208 o
120.083 69.2478 o
114.475 75.4448 o
115.422 94.3445 o
114.664 140.61 o
105.575 94.3716 o
113.04 80.4286 o
110.778 77.051 o
107.138 88.2275 o
133.221 120.74 o
107.217 78.9345 o
113.072 105.421 o
114.876 91.7164 o
110.336 102.972 o
126.968 70.3089 o
132.366 75.6983 o
131.965 131.328 o
114.024 123.985 o
131.449 88.4027 o
100.269 100.736 o
130.268 98.535 o
110.446 119.316 o
126.721 71.1021 o
121.865 105.338 o
121.606 122.457 o
101.712 73.7327 o
100.296 98.807 o
104.687 60.4368 o
122.995 69.7793 o
117.191 110.138 o
123.791 83.3957 o
85.3523 146.181 o
111.483 96.3071 o
123.75 108.201 o
114.014 79.85 o
111.176 93.734 o
83.865 110.682 o
116.572 75.549 o
113.806 105.353 o
109.647 106.04 o
101.487 87.5228 o
100.911 76.2409 o
136.56 109.319 o
119.403 77.5177 o
125.44 76.4546 o
108.127 65.2906 o
108.509 89.8109 o
113.248 64.7533 o
116.894 124.256 o
107.045 95.1047 o
106.619 112.306 o
114.116 62.3626 o
112.067 113.694 o
100.802 126.709 o
116.525 90.1489 o
121.799 70.9915 o
107.104 95.7129 o
119.139 117.526 o
132.842 78.4455 o
100.084 107.917 o
128.224 117.907 o
109.888 91.7686 o
128.667 125.68 o
122.889 96.8188 o
118.582 65.4515 o
114.556 109.159 o
102.458 107.134 o
102.83 93.9964 o
116.737 102.697 o
104.208 85.2293 o
95.2436 90.1682 o
108.504 59.7227 o
114.021 132.303 o
112.356 109.721 o
111.49 78.1259 o
108.462 107.01 o
108.783 103.411 o
112.891 86.8693 o
110.338 72.1409 o
93.5365 118.45 o
127.433 100.254 o
135.696 82.9568 o
107.53 113.524 o
117.768 76.8949 o
129.649 110.421 o
108.169 98.471 o
121.119 102.014 o
129.881 94.6414 o
120.59 71.6143 o
111.492 114.151 o
109.529 106.522 o
112.254 79.7368 o
109.414 73.5311 o
128.778 121.58 o
115.802 122.525 o
95.0395 106.835 o
112.942 99.5828 o
119.002 119.554 o
98.4938 65.5929 o
113.706 116.069 o
125.583 83.3115 o
103.476 118.273 o
111.574 81.919 o
124.347 129.633 o
125.377 68.9169 o
116.392 86.2472 o
114.419 115.64 o
109.519 118.217 o
114.793 102.211 o
134.649 124.3 o
119.825 65.7782 o
98.5488 62.4703 o
110.151 119.949 o
119.817 94.3167 o
114.346 85.5355 o
116.084 128.111 o
109.209 113.932 o
117.309 117.667 o
111.678 102.631 o
106.47 92.7227 o
120.433 92.8212 o
110.047 79.2331 o
103.02 90.426 o
105.131 90.0082 o
108.016 76.5607 o
123.771 104.065 o
106.194 111.923 o
122.673 96.059 o
111.682 112.181 o
117.678 111.748 o
109.347 65.1788 o
113.829 52.7216 o
123.586 89.5628 o
110.127 107.4 o
112.77 129.45 o
132.053 130.919 o
110.556 48.1997 o
110.476 74.3144 o
115.786 117.634 o
116.234 75.3064 o
119.423 74.2578 o
112.21 94.1823 o
126.519 109.128 o
115.708 109.612 o
109.738 101.989 o
109.92 64.9478 o
118.95 80.2226 o
119.592 84.1356 o
115.178 112.87 o
112.443 58.6282 o
115.792 103.716 o
103.821 84.2877 o
116.067 104.808 o
103.504 105.323 o
118.898 105.463 o
109.859 104.838 o
118.256 112.226 o
95.6814 70.1467 o
99.7519 70.3929 o
138.646 93.1711 o
113.212 115.918 o
108.808 85.4494 o
105.092 79.2919 o
116.388 113.304 o
124.537 114.702 o
123.316 86.988 o
109.889 111.678 o
115.426 98.0362 o
152.02 88.2988 o
115.009 96.1207 o
119.996 88.7164 o
118.773 85.4306 o
115.322 59.621 o
97.5548 77.3603 o
119.035 101.895 o
115.638 114.519 o
106.051 82.7372 o
131.99 99.4223 o
107.245 90.733 o
120.397 77.7237 o
106.088 101.558 o
127.27 83.436 o
97.8347 87.0506 o
106.931 93.9963 o
115.216 92.6864 o
118.805 69.0782 o
126.221 115.032 o
117.104 131.953 o
115.252 116.78 o
125.202 77.3152 o
124.622 98.4216 o
118.662 129.87 o
116.458 100.347 o
101.298 90.576 o
115.069 89.4517 o
124.25 88.795 o
113.646 87.7902 o
116.259 80.5366 o
119.075 91.2807 o
132.094 76.6379 o
167.26 52.2687 o
101.744 127.114 o
98.3586 89.2617 o
104.469 111.953 o
115.958 117.042 o
109.31 91.5332 o
110.491 98.7419 o
109.278 118.832 o
123.188 118.894 o
119.426 94.9183 o
111.012 76.6031 o
115.45 90.0328 o
116.126 72.5517 o
113.803 100.192 o
115.304 82.5001 o
110.179 96.3824 o
119.328 109.068 o
99.3 105.432 o
118.586 105.99 o
100.459 63.9202 o
124.818 77.365 o
111.924 86.3234 o
125.747 85.3218 o
116.062 87.7324 o
99.643 76.8958 o
113.421 122.083 o
112.367 79.4103 o
138.276 116.818 o
109.236 62.0215 o
108.482 89.8541 o
115.698 80.4388 o
105.591 92.0835 o
124.159 88.6335 o
119.205 117.726 o
112.004 105.202 o
117.066 112.501 o
131.992 129.492 o
115.06 96.1281 o
118.293 116.927 o
113.35 97.1609 o
99.8662 102.265 o
121.628 74.4517 o
110.378 102.204 o
116.937 92.701 o
119.935 121.871 o
128.404 126.513 o
114.488 134.217 o
102.449 112.966 o
112.603 92.7905 o
119.872 113.178 o
124.438 88.0652 o
109.853 84.8874 o
105.067 72.2741 o
112.956 98.816 o
122.15 91.2713 o
108.166 60.5078 o
105.512 55.0596 o
123.584 119.721 o
104.701 128.215 o
121.709 84.8708 o
107.534 103.361 o
102.049 59.3651 o
112.201 120.893 o
112.266 118.214 o
109.399 124.469 o
104.216 117.304 o
125.224 104.111 o
118.054 67.8568 o
101.703 57.704 o
125.481 94.3591 o
108.026 112.185 o
109.765 105.62 o
137.072 84.8955 o
113.357 96.6595 o
106.125 120.211 o
134.064 99.4835 o
96.2666 104.898 o
110.325 92.663 o
112.713 111.571 o
108.606 87.4024 o
123.846 109.835 o
123.887 104.873 o
119.793 87.7789 o
106.233 85.3154 o
119.956 86.4538 o
127.7 64.1455 o
105.773 115.681 o
118.371 105.106 o
125.134 91.525 o
106.14 76.7863 o
119.37 84.9352 o
113.24 75.4393 o
129.469 123.492 o
111.146 100.211 o
111.621 104.918 o
113.243 113.003 o
121.302 70.2413 o
131.809 126.01 o
113.438 127.519 o
113.27 108.519 o
119.419 99.9534 o
110.156 112.798 o
114.855 82.4707 o
106.219 84.8199 o
111.291 87.9562 o
120.989 89.6348 o
124.687 89.1204 o
107.064 80.1856 o
138.999 111.96 o
105.46 88.9399 o
123.835 118.67 o
108.504 100.598 o
98.0717 98.8412 o
116.61 117.808 o
117.763 95.372 o
95.5949 69.1317 o
117.274 111.853 o
123.267 95.1943 o
95.8433 107.521 o
107.436 52.5824 o
114.407 91.6333 o
116.167 69.5959 o
108.712 110.395 o
94.292 45.5426 o
135.461 94.1006 o
104.997 116.246 o
53.74 117.197 o
104.737 75.744 o
116.942 55.47 o
107.798 123.386 o
121.75 92.0382 o
119.259 82.888 o
118.157 126.728 o
117.095 65.831 o
113.706 66.6167 o
105.772 48.1675 o
121.501 116.616 o
107.957 66.3491 o
119.608 117.844 o
108.442 85.5247 o
117.237 122.261 o
118.622 77.9945 o
115.14 84.0652 o
113.151 109.884 o
107.897 101.511 o
114.305 108.757 o
100.905 63.4318 o
105.518 130.249 o
110.007 91.1848 o
120.063 77.0396 o
102.589 101.882 o
118.146 113.158 o
117.626 106.809 o
122.448 140.496 o
105.939 105.584 o
112.921 126.755 o
109.895 87.5259 o
109.371 94.1018 o
118.15 102.22 o
131.802 79.965 o
117.487 88.3482 o
116.327 79.0717 o
94.6433 91.4362 o
108.896 81.3921 o
107.901 115.277 o
110.257 96.5609 o
117.807 84.4531 o
112.03 114.356 o
115.247 93.4359 o
125.251 94.3511 o
122.85 99.7817 o
106.321 122.711 o
113.789 93.3133 o
111.946 101.048 o
113.962 113.244 o
98.6884 68.8682 o
116.222 62.4123 o
107.93 113.667 o
109.055 88.8762 o
114.11 105.2 o
110.244 82.4681 o
117.266 104.255 o
125.731 98.1341 o
121.679 114.897 o
115.612 125.446 o
118.066 83.0223 o
115.842 100.889 o
112.657 83.6822 o
100.45 120.833 o
128.018 128.03 o
112.042 118.247 o
125.667 101.181 o
105.341 91.5182 o
115.623 103.445 o
124.777 115.56 o
107.269 89.0978 o
115.309 77.2409 o
118.139 72.3052 o
121.839 117.36 o
113.551 120.194 o
128.195 113.583 o
108.965 94.3092 o
109.558 61.4024 o
109.87 94.344 o
102.33 109.54 o
115.618 106.173 o
130.45 120.069 o
101.498 73.7895 o
128.491 68.0485 o
108.82 107.209 o
118.635 110.029 o
118.279 92.719 o
146.964 54.0623 o
137.794 75.5147 o
137.245 117.6 o
116.956 114.376 o
101.867 80.2452 o
108.989 120.265 o
133.088 127.484 o
118.64 97.1264 o
104.498 79.7565 o
127.255 82.4968 o
114.644 112.586 o
133.207 123.827 o
107.283 118.588 o
109.703 47.6899 o
114.449 126.174 o
112.67 91.8397 o
117.306 104.184 o
129.582 80.3178 o
112.237 91.6938 o
168.115 62.677 o
109.712 120.713 o
115.863 105.329 o
94.2098 114.535 o
112.601 90.2683 o
115.709 92.0337 o
111.393 121.949 o
121.36 97.0356 o
120.021 83.1793 o
116.22 139.139 o
105.619 67.485 o
119.881 106.896 o
106.528 113.933 o
116.635 105.414 o
126.591 114.019 o
108.849 112.691 o
133.329 79.3377 o
131.947 121.408 o
122.108 115.244 o
110.302 118.157 o
105.347 68.5871 o
101.242 65.9237 o
109.72 111.026 o
103.551 55.5694 o
104.122 106.211 o
108.234 111.228 o
116.886 113.488 o
121.099 88.7965 o
102.663 110.69 o
105.847 74.5664 o
134.274 104.88 o
118.999 123.947 o
117.396 98.7632 o
130.998 105.051 o
124.871 79.2579 o
109.163 93.1566 o
102.918 81.9717 o
130.17 122.824 o
129.531 106.828 o
103.499 90.4452 o
129.005 129.862 o
122.266 117.009 o
124.059 117.085 o
121.22 118.249 o
113.65 85.6387 o
110.885 132.349 o
115.39 123.184 o
119.583 84.5336 o
109.724 108.412 o
121.93 97.7804 o
117.068 105.321 o
129.302 106.592 o
134.67 125.803 o
112.666 133.65 o
111.111 108.619 o
119.803 119.504 o
106.572 44.2127 o
121.813 125.134 o
119.206 118.923 o
116.712 98.5665 o
107.471 87.4314 o
119.435 88.8445 o
123.542 75.1739 o
131.946 105.202 o
116.761 114.744 o
108.508 119.933 o
111.692 57.1967 o
127.08 62.8654 o
118.548 103.416 o
104.673 78.1706 o
127.915 69.1678 o
121.327 114.701 o
105.681 103.139 o
112.26 83.748 o
117.641 86.8814 o
105.466 132.088 o
111.347 57.5308 o
105.937 92.9941 o
115.562 104.091 o
112.258 124.88 o
124.21 105.143 o
111.934 119.945 o
133.18 91.0513 o
114.113 96.3573 o
92.8741 100.28 o
115.342 134.667 o
108.561 77.2833 o
114.324 87.9922 o
109.03 59.9973 o
112.89 116.599 o
111.406 113.058 o
125.482 74.4562 o
111.679 136.602 o
106.448 93.5434 o
124.007 108.397 o
120.979 112.84 o
96.416 104.306 o
107.967 108.355 o
115.706 117.928 o
127.015 82.578 o
116.164 105.538 o
112.609 109.492 o
116.507 121.9 o
112.281 107.739 o
125.206 70.873 o
103.262 108.386 o
134.617 137.013 o
117.756 96.2691 o
115.717 94.0215 o
118.202 84.8879 o
116.641 102.672 o
118.58 116.913 o
117.515 133.342 o
119.735 85.3821 o
118.913 118.307 o
126.608 124.694 o
111.31 94.3887 o
92.3753 83.5112 o
121.206 82.4343 o
121.468 98.1873 o
118.247 92.2251 o
119.634 117.108 o
131.166 116.383 o
133.691 103.161 o
122.774 77.8548 o
114.203 117.049 o
123.786 118.551 o
116.411 104.845 o
113.918 54.7108 o
125.707 81.4725 o
112.204 122.399 o
118.676 137.674 o
114.781 96.9625 o
92.8557 101.461 o
121.711 108.441 o
119.342 83.0156 o
98.0481 102.539 o
130.731 87.712 o
114.147 108.784 o
118.758 115.73 o
111.734 52.113 o
112.727 137.759 o
115.32 59.2096 o
118.227 87.4462 o
122.492 111.901 o
146.083 101.078 o
126.536 114.108 o
129.896 77.4924 o
118.543 109.044 o
124.831 58.8519 o
115.706 94.1251 o
121.04 113.823 o
108.342 84.3037 o
117.47 109.189 o
107.534 97.7256 o
118.477 117.464 o
109.592 115.291 o
113.689 98.6913 o
114.278 85.3315 o
123.196 90.6977 o
96.6026 101.777 o
99.8234 84.5299 o
115.286 85.6004 o
112.039 97.3755 o
108.731 74.7525 o
114.107 124.02 o
106.684 99.2201 o
121.757 89.7081 o
116.912 109.303 o
115.627 127.674 o
124.936 111.585 o
121.033 132.348 o
103.707 72.4089 o
115.925 101.334 o
120.656 123.38 o
97.6885 71.0167 o
126.165 97.302 o
110.54 65.3854 o
109.152 60.7704 o
115.791 87.4497 o
122.203 87.3962 o
110.777 106.725 o
95.7947 115.195 o
112.704 60.5924 o
122.462 110.591 o
118.198 78.864 o
115.007 112.023 o
99.4933 116.123 o
106.906 87.7821 o
113.293 107.948 o
89.2688 56.2742 o
120.251 128.699 o
113.157 83.6362 o
119.252 108.862 o
127.546 91.6172 o
110.692 59.8477 o
111.062 111.7 o
125.683 72.3461 o
120.57 79.0997 o
119.585 97.4108 o
111.679 87.1766 o
104.387 83.3273 o
123.567 82.5873 o
113.307 103.884 o
127.189 96.5601 o
107.695 93.5955 o
102.106 130.24 o
109.911 83.6204 o
109.385 119.364 o
122.344 105.438 o
121.154 113.604 o
112.247 118.27 o
118.21 106.304 o
110.071 122.429 o
102.106 64.9619 o
119.467 118.961 o
125.681 129.356 o
124.12 63.2068 o
134.186 94.2617 o
111.666 78.6019 o
110.414 113.605 o
123.098 80.0234 o
118.511 112 o
105.197 109.819 o
115.607 90.5107 o
121.069 67.5713 o
123.599 70.9194 o
132.35 86.3478 o
101.249 58.2489 o
103.285 65.563 o
124.673 73.3323 o
114.978 87.0369 o
114.956 102.933 o
105.027 70.0371 o
127.901 119.268 o
118.28 82.2602 o
99.4706 95.7466 o
106.423 89.9165 o
121.615 122.979 o
105.992 71.4111 o
102.988 90.1709 o
113.259 111.903 o
122.701 129.25 o
grestore
0.502 setgray
gsave
140.4 126 34.2 36 clipbox
/o {
gsave
newpath
translate
0.5 setlinewidth
1 setlinejoin
0 setlinecap
0 -0.25 m
0.0663008 -0.25 0.129895 -0.223658 0.176777 -0.176777 c
0.223658 -0.129895 0.25 -0.0663008 0.25 0 c
0.25 0.0663008 0.223658 0.129895 0.176777 0.176777 c
0.129895 0.223658 0.0663008 0.25 0 0.25 c
-0.0663008 0.25 -0.129895 0.223658 -0.176777 0.176777 c
-0.223658 0.129895 -0.25 0.0663008 -0.25 0 c
-0.25 -0.0663008 -0.223658 -0.129895 -0.176777 -0.176777 c
-0.129895 -0.223658 -0.0663008 -0.25 0 -0.25 c
cl
gsave
0.502 setgray
fill
grestore
stroke
grestore
} bind def
111.976 89.7282 o
117.302 87.8224 o
111.472 82.469 o
116.395 79.6823 o
115.698 89.3093 o
112.878 84.645 o
113.141 85.1825 o
120.639 86.5853 o
116.904 76.1837 o
114.789 80.6285 o
114.324 89.776 o
115.684 86.3684 o
119.159 87.4021 o
120.299 85.16 o
119.192 89.5389 o
121.928 84.4287 o
116.872 76.5893 o
116.829 79.8311 o
113.881 88.7012 o
115.871 91.2633 o
118.937 87.8776 o
116.224 84.4443 o
116.838 80.8805 o
117.607 84.5739 o
118.047 85.018 o
117.567 86.6431 o
112.324 81.8207 o
114.065 90.2758 o
115.095 89.2783 o
123.316 86.988 o
116.062 87.7324 o
115.698 80.4388 o
119.793 87.7789 o
115.14 84.0652 o
117.807 84.4531 o
117.641 86.8814 o
114.278 85.3315 o
grestore
0.000 1.000 1.000 setrgbcolor
gsave
140.4 126 34.2 36 clipbox
/o {
gsave
newpath
translate
0.5 setlinewidth
1 setlinejoin
0 setlinecap
0 -0.25 m
0.0663008 -0.25 0.129895 -0.223658 0.176777 -0.176777 c
0.223658 -0.129895 0.25 -0.0663008 0.25 0 c
0.25 0.0663008 0.223658 0.129895 0.176777 0.176777 c
0.129895 0.223658 0.0663008 0.25 0 0.25 c
-0.0663008 0.25 -0.129895 0.223658 -0.176777 0.176777 c
-0.223658 0.129895 -0.25 0.0663008 -0.25 0 c
-0.25 -0.0663008 -0.223658 -0.129895 -0.176777 -0.176777 c
-0.129895 -0.223658 -0.0663008 -0.25 0 -0.25 c
cl
gsave
0.000 1.000 1.000 setrgbcolor
fill
grestore
stroke
grestore
} bind def
116.433 86.287 o
113.337 82.9229 o
117.088 86.7008 o
114.257 84.8069 o
117.125 87.7884 o
118.192 85.7961 o
114.649 81.7616 o
116.931 84.6361 o
117.197 87.2678 o
115.469 84.6343 o
117.849 87.9403 o
113.921 84.0887 o
117.188 88.9496 o
114.155 81.9256 o
115.021 86.9692 o
115.452 86.0326 o
116.41 84.6852 o
115.241 83.9521 o
115.614 88.4722 o
115.946 88.3101 o
116.851 86.6536 o
116.865 87.1218 o
115.535 82.7654 o
115.318 86.5742 o
114.857 80.2165 o
114.368 80.7112 o
116.874 88.0449 o
118.853 84.7579 o
115.922 81.8235 o
116.352 81.787 o
116.721 83.32 o
115.512 85.0529 o
115.123 82.4129 o
117.71 86.7174 o
116.028 88.2054 o
115.1 85.949 o
116.707 86.5295 o
115.681 82.3377 o
117.167 83.085 o
117.001 85.5578 o
118.181 85.1543 o
116.122 83.8773 o
115.123 82.4129 o
115.793 86.9205 o
115.118 83.9904 o
114.534 82.0641 o
grestore
1.000 0.000 0.000 setrgbcolor
gsave
140.4 126 34.2 36 clipbox
/o {
gsave
newpath
translate
0.5 setlinewidth
1 setlinejoin
0 setlinecap
0 -0.25 m
0.0663008 -0.25 0.129895 -0.223658 0.176777 -0.176777 c
0.223658 -0.129895 0.25 -0.0663008 0.25 0 c
0.25 0.0663008 0.223658 0.129895 0.176777 0.176777 c
0.129895 0.223658 0.0663008 0.25 0 0.25 c
-0.0663008 0.25 -0.129895 0.223658 -0.176777 0.176777 c
-0.223658 0.129895 -0.25 0.0663008 -0.25 0 c
-0.25 -0.0663008 -0.223658 -0.129895 -0.176777 -0.176777 c
-0.129895 -0.223658 -0.0663008 -0.25 0 -0.25 c
cl
gsave
1.000 0.000 0.000 setrgbcolor
fill
grestore
stroke
grestore
} bind def
107.136 121.86 o
108.312 126.62 o
107.89 125.548 o
108.75 122.862 o
107.934 123.597 o
109.626 126.094 o
109.305 125.948 o
110.113 127.726 o
109.826 127.053 o
109.057 120.694 o
110.252 125.594 o
110.042 123.052 o
109.897 129.28 o
111.887 125.748 o
109.221 126.604 o
110.341 125.584 o
110.58 124.321 o
110.979 122.912 o
grestore
1.000 setlinewidth
0 setlinejoin
2 setlinecap
0.000 setgray
gsave
34.2 162 m
174.6 162 l
stroke
grestore
gsave
174.6 36 m
174.6 162 l
stroke
grestore
gsave
34.2 36 m
174.6 36 l
stroke
grestore
gsave
34.2 36 m
34.2 162 l
stroke
grestore
0.500 setlinewidth
1 setlinejoin
0 setlinecap
gsave
/o {
gsave
newpath
translate
0.5 setlinewidth
1 setlinejoin
0 setlinecap
0 0 m
0 4 l
gsave
0.000 setgray
fill
grestore
stroke
grestore
} bind def
34.2 36 o
grestore
gsave
/o {
gsave
newpath
translate
0.5 setlinewidth
1 setlinejoin
0 setlinecap
0 0 m
0 -4 l
gsave
0.000 setgray
fill
grestore
stroke
grestore
} bind def
34.2 162 o
grestore
/BitstreamVeraSans-Roman findfont
6.000 scalefont
setfont
gsave
28.387500 27.437500 translate
0.000000 rotate
0.000000 0.000000 m /minus glyphshow
5.027344 0.000000 m /eight glyphshow
8.844727 0.000000 m /zero glyphshow
grestore
gsave
/o {
gsave
newpath
translate
0.5 setlinewidth
1 setlinejoin
0 setlinecap
0 0 m
0 4 l
gsave
0.000 setgray
fill
grestore
stroke
grestore
} bind def
54.2571 36 o
grestore
gsave
/o {
gsave
newpath
translate
0.5 setlinewidth
1 setlinejoin
0 setlinecap
0 0 m
0 -4 l
gsave
0.000 setgray
fill
grestore
stroke
grestore
} bind def
54.2571 162 o
grestore
gsave
48.444643 27.437500 translate
0.000000 rotate
0.000000 0.000000 m /minus glyphshow
5.027344 0.000000 m /six glyphshow
8.844727 0.000000 m /zero glyphshow
grestore
gsave
/o {
gsave
newpath
translate
0.5 setlinewidth
1 setlinejoin
0 setlinecap
0 0 m
0 4 l
gsave
0.000 setgray
fill
grestore
stroke
grestore
} bind def
74.3143 36 o
grestore
gsave
/o {
gsave
newpath
translate
0.5 setlinewidth
1 setlinejoin
0 setlinecap
0 0 m
0 -4 l
gsave
0.000 setgray
fill
grestore
stroke
grestore
} bind def
74.3143 162 o
grestore
gsave
68.501786 27.437500 translate
0.000000 rotate
0.000000 0.000000 m /minus glyphshow
5.027344 0.000000 m /four glyphshow
8.844727 0.000000 m /zero glyphshow
grestore
gsave
/o {
gsave
newpath
translate
0.5 setlinewidth
1 setlinejoin
0 setlinecap
0 0 m
0 4 l
gsave
0.000 setgray
fill
grestore
stroke
grestore
} bind def
94.3714 36 o
grestore
gsave
/o {
gsave
newpath
translate
0.5 setlinewidth
1 setlinejoin
0 setlinecap
0 0 m
0 -4 l
gsave
0.000 setgray
fill
grestore
stroke
grestore
} bind def
94.3714 162 o
grestore
gsave
88.558929 27.437500 translate
0.000000 rotate
0.000000 0.000000 m /minus glyphshow
5.027344 0.000000 m /two glyphshow
8.844727 0.000000 m /zero glyphshow
grestore
gsave
/o {
gsave
newpath
translate
0.5 setlinewidth
1 setlinejoin
0 setlinecap
0 0 m
0 4 l
gsave
0.000 setgray
fill
grestore
stroke
grestore
} bind def
114.429 36 o
grestore
gsave
/o {
gsave
newpath
translate
0.5 setlinewidth
1 setlinejoin
0 setlinecap
0 0 m
0 -4 l
gsave
0.000 setgray
fill
grestore
stroke
grestore
} bind def
114.429 162 o
grestore
gsave
112.912946 27.437500 translate
0.000000 rotate
0.000000 0.000000 m /zero glyphshow
grestore
gsave
/o {
gsave
newpath
translate
0.5 setlinewidth
1 setlinejoin
0 setlinecap
0 0 m
0 4 l
gsave
0.000 setgray
fill
grestore
stroke
grestore
} bind def
134.486 36 o
grestore
gsave
/o {
gsave
newpath
translate
0.5 setlinewidth
1 setlinejoin
0 setlinecap
0 0 m
0 -4 l
gsave
0.000 setgray
fill
grestore
stroke
grestore
} bind def
134.486 162 o
grestore
gsave
131.087277 27.437500 translate
0.000000 rotate
0.000000 0.000000 m /two glyphshow
3.817383 0.000000 m /zero glyphshow
grestore
gsave
/o {
gsave
newpath
translate
0.5 setlinewidth
1 setlinejoin
0 setlinecap
0 0 m
0 4 l
gsave
0.000 setgray
fill
grestore
stroke
grestore
} bind def
154.543 36 o
grestore
gsave
/o {
gsave
newpath
translate
0.5 setlinewidth
1 setlinejoin
0 setlinecap
0 0 m
0 -4 l
gsave
0.000 setgray
fill
grestore
stroke
grestore
} bind def
154.543 162 o
grestore
gsave
151.074107 27.437500 translate
0.000000 rotate
0.000000 0.000000 m /four glyphshow
3.817383 0.000000 m /zero glyphshow
grestore
gsave
/o {
gsave
newpath
translate
0.5 setlinewidth
1 setlinejoin
0 setlinecap
0 0 m
0 4 l
gsave
0.000 setgray
fill
grestore
stroke
grestore
} bind def
174.6 36 o
grestore
gsave
/o {
gsave
newpath
translate
0.5 setlinewidth
1 setlinejoin
0 setlinecap
0 0 m
0 -4 l
gsave
0.000 setgray
fill
grestore
stroke
grestore
} bind def
174.6 162 o
grestore
gsave
171.193750 27.437500 translate
0.000000 rotate
0.000000 0.000000 m /six glyphshow
3.817383 0.000000 m /zero glyphshow
grestore
gsave
90.900000 15.187500 translate
0.000000 rotate
/Cmr10 findfont
8.0 scalefont
setfont
0.000000 0.000000 moveto
/X glyphshow

/BitstreamVeraSans-Roman findfont
8.0 scalefont
setfont
6.000000 0.000000 moveto
/space glyphshow

/Cmr10 findfont
8.0 scalefont
setfont
8.542969 0.000000 moveto
/parenleft glyphshow

11.648438 0.000000 moveto
/k glyphshow

15.863281 0.000000 moveto
/p glyphshow

20.304688 0.000000 moveto
/c glyphshow

23.855469 0.000000 moveto
/parenright glyphshow


grestore
gsave
/o {
gsave
newpath
translate
0.5 setlinewidth
1 setlinejoin
0 setlinecap
0 0 m
4 0 l
gsave
0.000 setgray
fill
grestore
stroke
grestore
} bind def
34.2 36 o
grestore
gsave
/o {
gsave
newpath
translate
0.5 setlinewidth
1 setlinejoin
0 setlinecap
0 0 m
-4 0 l
gsave
0.000 setgray
fill
grestore
stroke
grestore
} bind def
174.6 36 o
grestore
gsave
18.575000 34.343750 translate
0.000000 rotate
0.000000 0.000000 m /minus glyphshow
5.027344 0.000000 m /four glyphshow
8.844727 0.000000 m /zero glyphshow
grestore
gsave
/o {
gsave
newpath
translate
0.5 setlinewidth
1 setlinejoin
0 setlinecap
0 0 m
4 0 l
gsave
0.000 setgray
fill
grestore
stroke
grestore
} bind def
34.2 51.75 o
grestore
gsave
/o {
gsave
newpath
translate
0.5 setlinewidth
1 setlinejoin
0 setlinecap
0 0 m
-4 0 l
gsave
0.000 setgray
fill
grestore
stroke
grestore
} bind def
174.6 51.75 o
grestore
gsave
18.575000 50.093750 translate
0.000000 rotate
0.000000 0.000000 m /minus glyphshow
5.027344 0.000000 m /three glyphshow
8.844727 0.000000 m /zero glyphshow
grestore
gsave
/o {
gsave
newpath
translate
0.5 setlinewidth
1 setlinejoin
0 setlinecap
0 0 m
4 0 l
gsave
0.000 setgray
fill
grestore
stroke
grestore
} bind def
34.2 67.5 o
grestore
gsave
/o {
gsave
newpath
translate
0.5 setlinewidth
1 setlinejoin
0 setlinecap
0 0 m
-4 0 l
gsave
0.000 setgray
fill
grestore
stroke
grestore
} bind def
174.6 67.5 o
grestore
gsave
18.575000 65.843750 translate
0.000000 rotate
0.000000 0.000000 m /minus glyphshow
5.027344 0.000000 m /two glyphshow
8.844727 0.000000 m /zero glyphshow
grestore
gsave
/o {
gsave
newpath
translate
0.5 setlinewidth
1 setlinejoin
0 setlinecap
0 0 m
4 0 l
gsave
0.000 setgray
fill
grestore
stroke
grestore
} bind def
34.2 83.25 o
grestore
gsave
/o {
gsave
newpath
translate
0.5 setlinewidth
1 setlinejoin
0 setlinecap
0 0 m
-4 0 l
gsave
0.000 setgray
fill
grestore
stroke
grestore
} bind def
174.6 83.25 o
grestore
gsave
18.575000 81.593750 translate
0.000000 rotate
0.000000 0.000000 m /minus glyphshow
5.027344 0.000000 m /one glyphshow
8.844727 0.000000 m /zero glyphshow
grestore
gsave
/o {
gsave
newpath
translate
0.5 setlinewidth
1 setlinejoin
0 setlinecap
0 0 m
4 0 l
gsave
0.000 setgray
fill
grestore
stroke
grestore
} bind def
34.2 99 o
grestore
gsave
/o {
gsave
newpath
translate
0.5 setlinewidth
1 setlinejoin
0 setlinecap
0 0 m
-4 0 l
gsave
0.000 setgray
fill
grestore
stroke
grestore
} bind def
174.6 99 o
grestore
gsave
27.168750 97.343750 translate
0.000000 rotate
0.000000 0.000000 m /zero glyphshow
grestore
gsave
/o {
gsave
newpath
translate
0.5 setlinewidth
1 setlinejoin
0 setlinecap
0 0 m
4 0 l
gsave
0.000 setgray
fill
grestore
stroke
grestore
} bind def
34.2 114.75 o
grestore
gsave
/o {
gsave
newpath
translate
0.5 setlinewidth
1 setlinejoin
0 setlinecap
0 0 m
-4 0 l
gsave
0.000 setgray
fill
grestore
stroke
grestore
} bind def
174.6 114.75 o
grestore
gsave
23.621875 113.093750 translate
0.000000 rotate
0.000000 0.000000 m /one glyphshow
3.817383 0.000000 m /zero glyphshow
grestore
gsave
/o {
gsave
newpath
translate
0.5 setlinewidth
1 setlinejoin
0 setlinecap
0 0 m
4 0 l
gsave
0.000 setgray
fill
grestore
stroke
grestore
} bind def
34.2 130.5 o
grestore
gsave
/o {
gsave
newpath
translate
0.5 setlinewidth
1 setlinejoin
0 setlinecap
0 0 m
-4 0 l
gsave
0.000 setgray
fill
grestore
stroke
grestore
} bind def
174.6 130.5 o
grestore
gsave
23.403125 128.843750 translate
0.000000 rotate
0.000000 0.000000 m /two glyphshow
3.817383 0.000000 m /zero glyphshow
grestore
gsave
/o {
gsave
newpath
translate
0.5 setlinewidth
1 setlinejoin
0 setlinecap
0 0 m
4 0 l
gsave
0.000 setgray
fill
grestore
stroke
grestore
} bind def
34.2 146.25 o
grestore
gsave
/o {
gsave
newpath
translate
0.5 setlinewidth
1 setlinejoin
0 setlinecap
0 0 m
-4 0 l
gsave
0.000 setgray
fill
grestore
stroke
grestore
} bind def
174.6 146.25 o
grestore
gsave
23.418750 144.593750 translate
0.000000 rotate
0.000000 0.000000 m /three glyphshow
3.817383 0.000000 m /zero glyphshow
grestore
gsave
/o {
gsave
newpath
translate
0.5 setlinewidth
1 setlinejoin
0 setlinecap
0 0 m
4 0 l
gsave
0.000 setgray
fill
grestore
stroke
grestore
} bind def
34.2 162 o
grestore
gsave
/o {
gsave
newpath
translate
0.5 setlinewidth
1 setlinejoin
0 setlinecap
0 0 m
-4 0 l
gsave
0.000 setgray
fill
grestore
stroke
grestore
} bind def
174.6 162 o
grestore
gsave
23.262500 160.343750 translate
0.000000 rotate
0.000000 0.000000 m /four glyphshow
3.817383 0.000000 m /zero glyphshow
grestore
gsave
11.575000 86.000000 translate
90.000000 rotate
/Cmr10 findfont
8.0 scalefont
setfont
0.000000 0.000000 moveto
/Z glyphshow

/BitstreamVeraSans-Roman findfont
8.0 scalefont
setfont
4.886719 0.000000 moveto
/space glyphshow

/Cmr10 findfont
8.0 scalefont
setfont
7.429688 0.000000 moveto
/parenleft glyphshow

10.535156 0.000000 moveto
/k glyphshow

14.750000 0.000000 moveto
/p glyphshow

19.191406 0.000000 moveto
/c glyphshow

22.742188 0.000000 moveto
/parenright glyphshow


grestore

end
showpage
