%!PS-Adobe-3.0 EPSF-3.0
%%Title: /Users/iuliasimion/bullock_johnston/denis_erkal/vasily/Figures/69684_1351496.0_xz.eps
%%Creator: matplotlib version 1.4.3, http://matplotlib.org/
%%CreationDate: Sat Aug 19 14:41:39 2017
%%Orientation: portrait
%%BoundingBox: 216 306 396 486
%%EndComments
%%BeginProlog
/mpldict 9 dict def
mpldict begin
/m { moveto } bind def
/l { lineto } bind def
/r { rlineto } bind def
/c { curveto } bind def
/cl { closepath } bind def
/box {
m
1 index 0 r
0 exch r
neg 0 r
cl
} bind def
/clipbox {
box
clip
newpath
} bind def
%!PS-Adobe-3.0 Resource-Font
%%Title: Bitstream Vera Sans
%%Copyright: Copyright (c) 2003 by Bitstream, Inc. All Rights Reserved.
%%Creator: Converted from TrueType to type 3 by PPR
25 dict begin
/_d{bind def}bind def
/_m{moveto}_d
/_l{lineto}_d
/_cl{closepath eofill}_d
/_c{curveto}_d
/_sc{7 -1 roll{setcachedevice}{pop pop pop pop pop pop}ifelse}_d
/_e{exec}_d
/FontName /BitstreamVeraSans-Roman def
/PaintType 0 def
/FontMatrix[.001 0 0 .001 0 0]def
/FontBBox[-183 -236 1287 928]def
/FontType 3 def
/Encoding [ /space /zero /one /two /four /five /six /eight /minus ] def
/FontInfo 10 dict dup begin
/FamilyName (Bitstream Vera Sans) def
/FullName (Bitstream Vera Sans) def
/Notice (Copyright (c) 2003 by Bitstream, Inc. All Rights Reserved. Bitstream Vera is a trademark of Bitstream, Inc.) def
/Weight (Roman) def
/Version (Release 1.10) def
/ItalicAngle 0.0 def
/isFixedPitch false def
/UnderlinePosition -213 def
/UnderlineThickness 143 def
end readonly def
/CharStrings 9 dict dup begin
/space{318 0 0 0 0 0 _sc
}_d
/zero{636 0 66 -13 570 742 _sc
318 664 _m
267 664 229 639 203 589 _c
177 539 165 464 165 364 _c
165 264 177 189 203 139 _c
229 89 267 64 318 64 _c
369 64 407 89 433 139 _c
458 189 471 264 471 364 _c
471 464 458 539 433 589 _c
407 639 369 664 318 664 _c
318 742 _m
399 742 461 709 505 645 _c
548 580 570 486 570 364 _c
570 241 548 147 505 83 _c
461 19 399 -13 318 -13 _c
236 -13 173 19 130 83 _c
87 147 66 241 66 364 _c
66 486 87 580 130 645 _c
173 709 236 742 318 742 _c
_cl}_d
/one{636 0 110 0 544 729 _sc
124 83 _m
285 83 _l
285 639 _l
110 604 _l
110 694 _l
284 729 _l
383 729 _l
383 83 _l
544 83 _l
544 0 _l
124 0 _l
124 83 _l
_cl}_d
/two{{636 0 73 0 536 742 _sc
192 83 _m
536 83 _l
536 0 _l
73 0 _l
73 83 _l
110 121 161 173 226 239 _c
290 304 331 346 348 365 _c
380 400 402 430 414 455 _c
426 479 433 504 433 528 _c
433 566 419 598 392 622 _c
365 646 330 659 286 659 _c
255 659 222 653 188 643 _c
154 632 117 616 78 594 _c
78 694 _l
118 710 155 722 189 730 _c
223 738 255 742 284 742 _c
}_e{359 742 419 723 464 685 _c
509 647 532 597 532 534 _c
532 504 526 475 515 449 _c
504 422 484 390 454 354 _c
446 344 420 317 376 272 _c
332 227 271 164 192 83 _c
_cl}_e}_d
/four{636 0 49 0 580 729 _sc
378 643 _m
129 254 _l
378 254 _l
378 643 _l
352 729 _m
476 729 _l
476 254 _l
580 254 _l
580 172 _l
476 172 _l
476 0 _l
378 0 _l
378 172 _l
49 172 _l
49 267 _l
352 729 _l
_cl}_d
/five{{636 0 77 -13 549 729 _sc
108 729 _m
495 729 _l
495 646 _l
198 646 _l
198 467 _l
212 472 227 476 241 478 _c
255 480 270 482 284 482 _c
365 482 429 459 477 415 _c
525 370 549 310 549 234 _c
549 155 524 94 475 51 _c
426 8 357 -13 269 -13 _c
238 -13 207 -10 175 -6 _c
143 -1 111 6 77 17 _c
77 116 _l
106 100 136 88 168 80 _c
199 72 232 69 267 69 _c
}_e{323 69 368 83 401 113 _c
433 143 450 183 450 234 _c
450 284 433 324 401 354 _c
368 384 323 399 267 399 _c
241 399 214 396 188 390 _c
162 384 135 375 108 363 _c
108 729 _l
_cl}_e}_d
/six{{636 0 70 -13 573 742 _sc
330 404 _m
286 404 251 388 225 358 _c
199 328 186 286 186 234 _c
186 181 199 139 225 109 _c
251 79 286 64 330 64 _c
374 64 409 79 435 109 _c
461 139 474 181 474 234 _c
474 286 461 328 435 358 _c
409 388 374 404 330 404 _c
526 713 _m
526 623 _l
501 635 476 644 451 650 _c
425 656 400 659 376 659 _c
310 659 260 637 226 593 _c
}_e{192 549 172 482 168 394 _c
187 422 211 444 240 459 _c
269 474 301 482 336 482 _c
409 482 467 459 509 415 _c
551 371 573 310 573 234 _c
573 159 550 99 506 54 _c
462 9 403 -13 330 -13 _c
246 -13 181 19 137 83 _c
92 147 70 241 70 364 _c
70 479 97 571 152 639 _c
206 707 280 742 372 742 _c
396 742 421 739 447 735 _c
472 730 498 723 526 713 _c
_cl}_e}_d
/eight{{636 0 68 -13 568 742 _sc
318 346 _m
271 346 234 333 207 308 _c
180 283 167 249 167 205 _c
167 161 180 126 207 101 _c
234 76 271 64 318 64 _c
364 64 401 76 428 102 _c
455 127 469 161 469 205 _c
469 249 455 283 429 308 _c
402 333 365 346 318 346 _c
219 388 _m
177 398 144 418 120 447 _c
96 476 85 511 85 553 _c
85 611 105 657 147 691 _c
188 725 245 742 318 742 _c
}_e{390 742 447 725 489 691 _c
530 657 551 611 551 553 _c
551 511 539 476 515 447 _c
491 418 459 398 417 388 _c
464 377 501 355 528 323 _c
554 291 568 251 568 205 _c
568 134 546 80 503 43 _c
459 5 398 -13 318 -13 _c
237 -13 175 5 132 43 _c
89 80 68 134 68 205 _c
68 251 81 291 108 323 _c
134 355 171 377 219 388 _c
183 544 _m
183 506 194 476 218 455 _c
}_e{242 434 275 424 318 424 _c
360 424 393 434 417 455 _c
441 476 453 506 453 544 _c
453 582 441 611 417 632 _c
393 653 360 664 318 664 _c
275 664 242 653 218 632 _c
194 611 183 582 183 544 _c
_cl}_e}_d
/minus{838 0 106 272 732 355 _sc
106 355 _m
732 355 _l
732 272 _l
106 272 _l
106 355 _l
_cl}_d
end readonly def

/BuildGlyph
 {exch begin
 CharStrings exch
 2 copy known not{pop /.notdef}if
 true 3 1 roll get exec
 end}_d

/BuildChar {
 1 index /Encoding get exch get
 1 index /BuildGlyph get exec
}_d

FontName currentdict end definefont pop
%!PS-Adobe-3.0 Resource-Font
%%Title: cmr10
%%Copyright: Copyright (C) 1994, Basil K. Malyshev. All Rights Reserved.012BaKoMa Fonts Collection, Level-B.
%%Creator: Converted from TrueType to type 3 by PPR
25 dict begin
/_d{bind def}bind def
/_m{moveto}_d
/_l{lineto}_d
/_cl{closepath eofill}_d
/_c{curveto}_d
/_sc{7 -1 roll{setcachedevice}{pop pop pop pop pop pop}ifelse}_d
/_e{exec}_d
/FontName /Cmr10 def
/PaintType 0 def
/FontMatrix[.001 0 0 .001 0 0]def
/FontBBox[-44 -250 1009 750]def
/FontType 3 def
/Encoding [ /Z /k /parenright /parenleft /c /p /X ] def
/FontInfo 10 dict dup begin
/FamilyName (cmr10) def
/FullName (cmr10) def
/Notice (Copyright (C) 1994, Basil K. Malyshev. All Rights Reserved.012BaKoMa Fonts Collection, Level-B. ) def
/Weight (Regular) def
/Version (1.1/12-Nov-94) def
/ItalicAngle 0.0 def
/isFixedPitch false def
/UnderlinePosition -133 def
/UnderlineThickness 20 def
end readonly def
/CharStrings 7 dict dup begin
/Z{{611 0 56 0 560 683 _sc
67 0 _m
59 0 56 3 56 11 _c
56 25 _l
56 27 56 29 58 31 _c
447 648 _l
306 648 _l
259 648 220 641 190 629 _c
160 617 137 596 121 568 _c
105 540 98 502 98 454 _c
69 454 _l
80 683 _l
543 683 _l
550 683 554 679 554 672 _c
554 660 _l
554 657 553 655 553 654 _c
164 38 _l
311 38 _l
346 38 378 41 406 48 _c
}_e{434 54 458 67 478 86 _c
491 99 501 116 509 136 _c
517 156 522 176 524 195 _c
526 213 528 239 531 271 _c
560 271 _l
543 0 _l
67 0 _l
_cl}_e}_d
/k{{527 0 26 0 511 694 _sc
26 0 _m
26 35 _l
48 35 67 36 82 40 _c
96 44 104 53 104 67 _c
104 592 _l
104 610 101 623 96 631 _c
90 639 83 643 73 645 _c
63 647 47 648 26 648 _c
26 683 _l
174 694 _l
174 219 _l
308 337 _l
321 349 328 361 328 372 _c
328 380 325 386 320 390 _c
314 394 308 396 300 396 _c
300 431 _l
488 431 _l
488 396 _l
}_e{442 396 397 376 352 337 _c
281 275 _l
408 94 _l
426 69 440 53 452 46 _c
464 38 483 35 511 35 _c
511 0 _l
312 0 _l
312 35 _l
334 35 346 42 346 56 _c
346 66 340 78 328 94 _c
232 231 _l
171 178 _l
171 67 _l
171 53 178 44 193 40 _c
207 36 226 35 249 35 _c
249 0 _l
26 0 _l
_cl}_e}_d
/parenright{{388 0 56 -249 291 750 _sc
65 -249 _m
59 -249 56 -246 56 -240 _c
56 -237 56 -235 58 -234 _c
172 -122 229 38 229 250 _c
229 462 172 623 60 733 _c
57 734 56 737 56 741 _c
56 743 57 745 59 747 _c
61 749 63 750 65 750 _c
74 750 _l
76 750 77 749 79 748 _c
127 710 167 664 199 610 _c
231 556 254 498 269 437 _c
283 376 291 314 291 250 _c
291 202 287 156 279 110 _c
}_e{271 64 258 20 241 -24 _c
223 -68 201 -108 175 -146 _c
148 -184 116 -217 79 -247 _c
77 -248 76 -249 74 -249 _c
65 -249 _l
_cl}_e}_d
/parenleft{{388 0 97 -249 332 750 _sc
310 -247 _m
272 -217 240 -184 214 -146 _c
187 -108 165 -67 148 -25 _c
131 17 118 62 110 109 _c
101 155 97 202 97 250 _c
97 298 101 345 110 392 _c
118 438 131 483 149 527 _c
166 570 188 611 215 649 _c
242 687 274 720 310 748 _c
310 749 311 750 315 750 _c
324 750 _l
326 750 327 749 329 747 _c
331 745 332 743 332 741 _c
332 738 331 736 330 735 _c
}_e{297 703 270 668 248 632 _c
226 596 209 557 196 516 _c
183 474 174 432 168 388 _c
162 344 159 298 159 250 _c
159 38 215 -122 329 -232 _c
331 -234 332 -236 332 -240 _c
332 -242 331 -244 329 -246 _c
327 -248 326 -249 324 -249 _c
315 -249 _l
311 -249 310 -248 310 -247 _c
_cl}_e}_d
/c{{444 0 33 -10 415 448 _sc
249 -10 _m
208 -10 171 0 139 21 _c
106 41 80 69 61 104 _c
42 139 33 176 33 216 _c
33 255 42 293 61 329 _c
79 365 105 393 138 415 _c
171 437 208 448 249 448 _c
288 448 324 440 356 425 _c
388 409 404 384 404 350 _c
404 337 399 326 390 316 _c
380 306 369 302 356 302 _c
342 302 331 306 322 316 _c
312 326 308 337 308 350 _c
}_e{308 362 311 372 319 381 _c
327 389 336 395 347 397 _c
324 411 292 419 250 419 _c
218 419 192 408 173 387 _c
153 365 140 339 132 308 _c
124 277 120 246 120 216 _c
120 183 124 152 134 122 _c
144 92 159 67 181 47 _c
202 27 229 18 261 18 _c
293 18 320 27 342 47 _c
364 66 379 91 387 123 _c
387 127 389 129 395 129 _c
407 129 _l
409 129 410 128 412 126 _c
}_e{414 124 415 122 415 120 _c
415 117 _l
405 77 385 46 355 24 _c
325 1 289 -10 249 -10 _c
_cl}_e}_d
/p{{555 0 26 -193 522 442 _sc
26 -193 _m
26 -158 _l
48 -158 67 -156 82 -152 _c
96 -148 104 -139 104 -126 _c
104 355 _l
104 373 97 384 84 389 _c
71 393 52 396 26 396 _c
26 431 _l
174 442 _l
174 380 _l
192 400 213 415 237 426 _c
261 436 287 442 315 442 _c
354 442 389 431 421 410 _c
453 388 477 360 495 326 _c
513 291 522 254 522 216 _c
522 175 512 137 492 103 _c
}_e{472 68 446 40 412 20 _c
378 0 340 -10 300 -10 _c
251 -10 210 9 177 48 _c
177 -126 _l
177 -139 184 -148 199 -152 _c
213 -156 232 -158 255 -158 _c
255 -193 _l
26 -193 _l
177 97 _m
188 73 204 54 225 38 _c
246 22 269 15 294 15 _c
317 15 337 21 355 33 _c
373 45 388 62 400 83 _c
412 104 420 126 426 149 _c
432 172 435 194 435 216 _c
435 242 430 271 420 302 _c
}_e{410 333 396 359 376 381 _c
356 402 333 413 305 413 _c
278 413 253 406 231 392 _c
208 378 190 360 177 336 _c
177 97 _l
_cl}_e}_d
/X{{750 0 23 0 726 683 _sc
23 0 _m
23 35 _l
91 35 138 54 165 92 _c
331 339 _l
147 619 _l
136 631 122 639 104 643 _c
86 646 64 648 37 648 _c
37 683 _l
317 683 _l
317 648 _l
305 648 291 645 275 641 _c
259 636 252 629 252 621 _c
252 619 252 618 253 617 _c
384 418 _l
499 590 _l
501 596 503 600 503 604 _c
503 618 496 628 482 636 _c
468 644 454 648 440 648 _c
}_e{440 683 _l
684 683 _l
684 648 _l
616 648 569 629 542 591 _c
405 386 _l
616 64 _l
627 51 641 43 659 40 _c
677 36 699 35 726 35 _c
726 0 _l
446 0 _l
446 35 _l
456 35 470 37 486 42 _c
502 46 511 53 511 62 _c
511 64 510 65 510 66 _c
352 307 _l
208 93 _l
206 89 205 84 205 79 _c
205 65 211 55 225 47 _c
238 39 252 35 267 35 _c
267 0 _l
}_e{23 0 _l
_cl}_e}_d
end readonly def

/BuildGlyph
 {exch begin
 CharStrings exch
 2 copy known not{pop /.notdef}if
 true 3 1 roll get exec
 end}_d

/BuildChar {
 1 index /Encoding get exch get
 1 index /BuildGlyph get exec
}_d

FontName currentdict end definefont pop
end
%%EndProlog
mpldict begin
216 306 translate
180 180 0 0 clipbox
gsave
0 0 m
180 0 l
180 180 l
0 180 l
cl
1.000 setgray
fill
grestore
gsave
34.2 36 m
174.6 36 l
174.6 162 l
34.2 162 l
cl
1.000 setgray
fill
grestore
0.500 setlinewidth
1 setlinejoin
0 setlinecap
[] 0 setdash
0.000 setgray
gsave
140.4 126 34.2 36 clipbox
/o {
gsave
newpath
translate
0.5 setlinewidth
1 setlinejoin
0 setlinecap
0 -0.25 m
0.0663008 -0.25 0.129895 -0.223658 0.176777 -0.176777 c
0.223658 -0.129895 0.25 -0.0663008 0.25 0 c
0.25 0.0663008 0.223658 0.129895 0.176777 0.176777 c
0.129895 0.223658 0.0663008 0.25 0 0.25 c
-0.0663008 0.25 -0.129895 0.223658 -0.176777 0.176777 c
-0.223658 0.129895 -0.25 0.0663008 -0.25 0 c
-0.25 -0.0663008 -0.223658 -0.129895 -0.176777 -0.176777 c
-0.129895 -0.223658 -0.0663008 -0.25 0 -0.25 c
cl
gsave
0.000 setgray
fill
grestore
stroke
grestore
} bind def
94.5638 86.4911 o
81.1053 87.5204 o
92.6127 87.3035 o
109.691 87.9618 o
93.6004 87.7676 o
114.539 86.8231 o
98.3936 86.8968 o
102.776 85.3436 o
72.0658 84.3311 o
111.653 85.6784 o
77.5239 85.307 o
88.2878 86.1748 o
94.8762 86.0523 o
116.146 85.6461 o
102.689 85.3244 o
101.174 88.262 o
83.2323 86.4246 o
93.5467 85.8391 o
100.449 89.0252 o
110.083 87.1388 o
109.299 84.6495 o
118.015 82.1107 o
80.9848 86.4491 o
109.563 87.6459 o
85.0191 87.0902 o
78.4337 92.9667 o
80.0251 86.98 o
96.3814 85.7232 o
108.544 91.2987 o
86.9695 86.2558 o
103.152 87.9318 o
104.966 86.099 o
92.6745 87.0819 o
90.2077 85.635 o
80.9916 86.6581 o
103.179 85.7021 o
85.1399 91.7559 o
109.396 85.4984 o
95.1042 86.6321 o
109.736 87.6826 o
99.577 88.5518 o
78.0996 78.8638 o
86.1004 87.1981 o
108.774 86.372 o
96.4144 85.3659 o
101.156 89.4946 o
90.9426 85.5678 o
85.7798 81.858 o
91.3444 85.9556 o
102.153 86.6467 o
110.087 88.6841 o
100.746 89.7333 o
87.2435 87.8013 o
110.423 82.1384 o
109.925 85.8491 o
95.9696 87.6645 o
85.7491 84.416 o
88.7173 86.2753 o
116.049 89.7435 o
114.029 81.5759 o
87.9534 85.7375 o
91.4882 90.2974 o
103.757 78.0616 o
97.2217 86.5473 o
102.413 85.8506 o
108.245 86.8897 o
126.162 90.8705 o
103.611 89.0042 o
100.224 86.9425 o
87.3408 85.4903 o
86.9815 85.586 o
90.2918 86.4048 o
79.1057 75.2829 o
80.4073 85.2455 o
94.8372 86.1674 o
108.381 88.0515 o
98.1671 86.5599 o
92.3631 84.1908 o
72.6849 87.9594 o
105.453 77.5064 o
82.5829 85.9071 o
106.843 86.3158 o
97.6263 87.7724 o
110.309 84.0859 o
103.827 88.6199 o
96.9919 87.5557 o
93.8834 83.0375 o
108.037 85.0984 o
109.066 85.7252 o
94.7828 87.0212 o
80.2862 87.3145 o
73.8404 85.6782 o
101.681 88.4946 o
86.4041 86.5197 o
71.0018 89.9745 o
98.1284 86.2725 o
103.809 96.953 o
91.16 87.9981 o
75.9587 84.0038 o
110.388 83.7854 o
113.92 87.4485 o
89.9067 88.5138 o
96.2526 87.2477 o
74.0389 87.5653 o
92.2294 85.2479 o
82.0427 79.5067 o
112.047 72.8139 o
65.1412 92.967 o
108.582 88.7465 o
91.5629 81.9796 o
104.595 87.3119 o
110.997 87.6431 o
103.101 85.2308 o
110.567 72.1282 o
98.7085 86.6116 o
124.581 80.8868 o
95.214 86.5161 o
103.588 91.2262 o
126.79 83.5894 o
80.7629 90.868 o
95.4054 86.7038 o
105.357 87.4926 o
93.4744 86.3931 o
105.617 85.5306 o
92.5371 84.7587 o
82.5611 83.1764 o
94.1551 85.3621 o
86.4257 81.4444 o
109.413 86.4538 o
98.6995 80.7602 o
128.094 85.8794 o
83.2746 86.7893 o
82.5481 86.134 o
97.7185 86.4777 o
92.015 87.0939 o
75.4079 101.085 o
110.595 80.6919 o
107.401 84.6967 o
79.2207 84.6297 o
100.525 85.5235 o
101.858 86.3315 o
85.3914 86.1315 o
93.1545 84.6858 o
71.9751 105.413 o
85.6866 86.4507 o
72.2166 89.1838 o
97.2012 86.8822 o
83.6583 83.6601 o
100.919 88.3092 o
100.741 89.5462 o
129.379 93.5284 o
95.162 82.4326 o
116.861 93.0231 o
96.9359 82.4319 o
95.9358 85.0115 o
96.3336 88.809 o
111.582 86.3036 o
90.0605 87.558 o
80.6195 85.5771 o
94.3689 68.9669 o
103.095 83.7044 o
112.605 85.2539 o
113.922 92.9934 o
115.643 77.2404 o
94.893 85.9315 o
127.247 78.1348 o
107.626 90.7244 o
94.9291 86.2735 o
92.6866 87.091 o
78.3013 85.9666 o
84.6204 88.1083 o
111.412 87.5017 o
100.379 89.4174 o
96.8326 86.1824 o
79.4064 91.6306 o
99.9396 86.6343 o
93.8033 81.5403 o
93.0618 88.7316 o
119.802 88.8826 o
104.337 83.7198 o
73.2826 100.802 o
99.4595 77.4257 o
113.058 94.3574 o
93.2097 84.7144 o
72.4765 87.9613 o
72.187 74.6751 o
112.541 97.5386 o
95.2862 85.3387 o
100.865 86.7059 o
102.788 84.3899 o
85.9596 87.7768 o
100.597 77.8763 o
114.886 92.6309 o
71.7243 85.944 o
105.249 91.0901 o
84.0071 92.9566 o
76.5093 87.2683 o
90.3129 85.4914 o
103.352 88.6946 o
108.182 99.1938 o
91.2827 83.1263 o
98.3224 86.7987 o
87.9302 87.2612 o
87.1527 88.3118 o
100.486 88.1851 o
80.5415 97.2261 o
61.5139 106.419 o
108.05 83.3172 o
79.9349 91.7057 o
82.692 88.179 o
62.3934 79.4788 o
88.5597 91.2013 o
92.5163 90.049 o
97.1726 97.8638 o
80.9716 80.5783 o
106.257 81.4724 o
82.7373 89.2645 o
114.239 89.8541 o
109.607 84.01 o
110.133 88.8297 o
101.558 85.4463 o
80.4092 84.9365 o
79.2877 84.1445 o
88.5968 88.9529 o
89.2934 80.1706 o
80.4135 89.9608 o
101.693 80.2895 o
80.3187 75.3703 o
64.0829 80.7028 o
126.715 92.826 o
107.955 85.6359 o
85.8655 96.1341 o
116.72 97.1057 o
83.1745 89.4559 o
89.2142 85.7343 o
88.5037 86.1232 o
101.472 87.5578 o
85.3637 78.855 o
85.1801 86.1633 o
92.7172 87.5111 o
90.4224 78.4823 o
95.2954 87.1294 o
98.5449 87.7795 o
93.531 85.3715 o
108.168 85.9285 o
94.4473 86.5766 o
76.1217 93.7437 o
105.894 85.211 o
102.513 86.2028 o
88.3911 85.6799 o
77.7974 68.8479 o
105.463 85.5279 o
94.1939 89.9208 o
87.0219 79.1338 o
77.1758 87.3025 o
79.398 85.1089 o
95.3286 89.7518 o
75.5988 81.3687 o
94.0734 84.9331 o
114.862 74.52 o
81.7194 86.9863 o
71.2531 88.7761 o
82.2639 88.0291 o
79.6189 90.8281 o
98.9084 92.3111 o
109.806 76.2696 o
113.617 77.6507 o
70.3145 85.5216 o
98.4317 84.5468 o
90.4485 93.9868 o
97.751 73.9079 o
95.7278 86.3132 o
80.0419 81.5591 o
95.9876 85.343 o
71.3575 102.395 o
102.762 88.2131 o
90.0734 84.6215 o
103.847 99.0416 o
116.57 80.179 o
105.674 87.6144 o
89.0449 87.0629 o
102.371 87.4125 o
95.294 85.8641 o
101.108 85.8608 o
110.419 78.8913 o
82.1506 86.2192 o
108.523 84.5424 o
85.0306 96.4476 o
107.766 81.5495 o
81.9774 92.8303 o
116.946 85.0068 o
87.3906 86.9999 o
104.015 78.6481 o
100.889 85.1581 o
81.4973 87.5708 o
101.049 69.9834 o
99.8212 89.1819 o
93.0689 83.2323 o
82.2771 84.5383 o
110.384 76.5755 o
73.0902 82.1006 o
78.6725 82.9935 o
125.047 89.8728 o
77.4614 74.0845 o
88.9746 86.0877 o
80.9476 80.1022 o
94.709 87.8673 o
82.6189 86.8786 o
82.3433 87.9833 o
118.313 80.7557 o
94.0719 91.8816 o
90.588 88.7977 o
87.9309 79.369 o
86.6116 85.2183 o
88.7671 93.6632 o
112.595 82.3553 o
83.7022 81.285 o
88.9141 88.1249 o
119.366 93.7788 o
63.8856 87.1932 o
91.4302 77.7293 o
92.2973 86.0421 o
67.0493 83.6284 o
71.6792 92.0015 o
82.9768 80.894 o
81.7286 86.7732 o
83.3949 97.3632 o
83.0671 85.0823 o
98.3006 64.9058 o
107.687 83.3463 o
80.4184 89.8916 o
105.573 69.5141 o
120.622 80.1051 o
96.1023 86.3564 o
92.7218 87.7237 o
105.335 97.1777 o
108.937 84.9015 o
93.2972 87.2107 o
87.2596 89.7656 o
73.407 80.6662 o
81.9666 87.2615 o
92.0241 76.0992 o
83.6999 85.5477 o
92.9421 87.0587 o
109.015 85.1081 o
105.892 87.062 o
75.9714 81.8815 o
111.095 84.1932 o
70.7333 79.2995 o
91.6458 90.8553 o
124.265 81.6702 o
97.9568 80.5307 o
99.1629 87.2836 o
103.413 95.3191 o
104.318 88.4099 o
126.295 80.7206 o
85.5862 72.855 o
71.4604 83.581 o
92.1458 72.3706 o
127.529 82.7617 o
92.2239 89.2597 o
82.6148 87.3337 o
100.06 86.5851 o
101.88 90.7772 o
95.0148 87.9009 o
92.4731 85.9531 o
92.3427 86.5526 o
71.8456 90.0007 o
98.26 91.9135 o
96.5773 89.3865 o
101.472 85.1753 o
69.2323 105.658 o
100.402 81.2184 o
86.1838 84.6064 o
92.9568 87.0369 o
111.472 88.1719 o
87.3199 86.334 o
112.411 86.1441 o
98.5898 71.5054 o
75.905 87.2065 o
107.671 88.8959 o
116.485 82.5445 o
81.6262 78.0052 o
105.78 81.8013 o
97.947 88.9022 o
81.6423 84.9919 o
113.304 94.4982 o
115.401 87.8136 o
62.1305 96.2195 o
95.0679 86.7522 o
102.683 89.1969 o
128.789 87.7962 o
97.953 88.8134 o
90.8727 87.8995 o
89.6279 86.5511 o
86.73 82.8589 o
91.8389 84.7993 o
86.8372 82.2138 o
94.0801 76.8528 o
106.692 85.4938 o
84.2828 84.0491 o
96.808 81.7556 o
99.123 87.009 o
82.2128 89.989 o
89.3336 93.366 o
99.2174 76.5024 o
84.3839 78.6745 o
102.509 87.0262 o
101.012 84.8354 o
97.8528 101.517 o
97.9815 86.2439 o
102.832 94.9592 o
84.2905 85.0393 o
96.9493 81.1182 o
142.257 73.0561 o
116.383 83.9286 o
112.351 84.9953 o
101.536 88.9069 o
100.881 82.9366 o
107.259 87.4041 o
95.009 83.8969 o
63.8466 79.7203 o
107.319 84.9426 o
89.1727 87.9177 o
117.197 85.9032 o
100.265 94.0106 o
94.7989 90.1353 o
70.5 80.5209 o
75.6042 90.9161 o
91.5966 86.9974 o
93.8034 84.4735 o
110.423 81.4546 o
94.9332 84.9802 o
114.501 89.398 o
83.5908 81.6775 o
92.5559 86.2053 o
85.0317 94.6029 o
89.8018 86.5608 o
77.2581 81.679 o
96.7907 93.7826 o
102.123 86.0502 o
98.84 87.0291 o
84.6408 85.5433 o
104.371 87.3464 o
86.681 76.975 o
87.6839 86.3204 o
79.1977 89.148 o
82.4621 77.5547 o
67.6567 96.6691 o
96.7643 84.0227 o
102.231 86.6575 o
99.5907 85.5398 o
68.2247 98.8857 o
88.3658 87.1216 o
122.187 92.1066 o
87.9565 79.5729 o
70.9549 85.8324 o
83.7546 89.7215 o
103.318 71.0868 o
121.61 78.0707 o
99.9136 78.4507 o
110.318 91.8905 o
93.6604 72.8821 o
87.573 87.4082 o
86.3121 79.5961 o
104.454 79.2422 o
82.1729 86.3086 o
124.687 95.5805 o
95.5452 85.2031 o
111.285 79.5071 o
95.0435 84.8768 o
108.065 86.2235 o
89.6707 86.0256 o
123.977 87.9614 o
71.4727 74.2564 o
101.239 95.8031 o
57.9658 86.8037 o
95.7442 83.4727 o
81.62 91.8369 o
99.8677 96.3617 o
87.9492 83.0982 o
111.068 94.5915 o
105.327 82.2159 o
109.532 88.1889 o
89.6271 87.3538 o
93.2298 89.7677 o
90.67 99.1133 o
101.451 85.7756 o
90.0002 77.5786 o
109.064 95.3166 o
83.0738 85.2111 o
97.8351 81.9102 o
90.7677 88.0666 o
97.3855 76.7615 o
77.1895 75.166 o
60.3914 87.9737 o
84.1894 80.6917 o
94.7426 86.4165 o
106.734 94.4765 o
79.7893 85.2911 o
53.8858 77.2613 o
85.1274 88.0792 o
108.137 86.5638 o
119.355 90.488 o
94.7709 86.0811 o
78.2972 82.5047 o
76.3645 85.2959 o
105.492 85.6065 o
91.6461 89.0063 o
88.9702 102.405 o
107.231 100.953 o
95.3106 87.9536 o
89.299 90.6522 o
106.948 70.8303 o
89.5221 89.6321 o
89.4898 88.5463 o
101.145 92.3393 o
102.6 86.9784 o
79.4506 83.9376 o
76.4374 83.9974 o
108.375 82.5261 o
109.501 88.5272 o
80.3478 82.6684 o
75.6057 89.0504 o
126.955 91.5688 o
94.6259 95.8705 o
95.3979 87.5874 o
95.2796 86.5988 o
103.945 85.0159 o
93.2831 87.0353 o
76.9413 80.9906 o
92.7687 87.194 o
99.4147 85.0473 o
91.395 79.3694 o
105.724 104.407 o
55.2748 103.255 o
61.2163 90.9302 o
91.8169 87.4791 o
91.4098 86.3519 o
97.9999 87.4738 o
112.68 85.6538 o
108.75 85.6754 o
89.7919 93.62 o
76.5406 76.1432 o
90.1052 91.1294 o
112.933 104.447 o
82.3371 86.0143 o
82.5857 84.1702 o
113.868 84.6675 o
79.4101 72.3407 o
54.1959 90.5903 o
69.4391 82.5805 o
80.9354 87.2216 o
98.0172 84.3558 o
79.066 87.2178 o
107.965 82.3389 o
97.1652 75.4224 o
92.5943 88.0911 o
88.6879 87.1486 o
92.2993 90.0982 o
110.448 85.7239 o
101.04 85.3589 o
82.6233 84.9291 o
88.4158 102.928 o
100.766 90.7357 o
110.812 86.4904 o
93.1336 87.0992 o
120.164 88.9943 o
92.6004 87.5358 o
93.7847 83.8326 o
73.2433 93.6255 o
81.3466 84.4937 o
94.2432 87.3266 o
114.361 97.4433 o
84.9403 82.3079 o
93.0727 92.1181 o
89.8718 88.1633 o
69.9725 88.2096 o
107.311 82.0666 o
135.851 87.3187 o
116.34 84.6136 o
75.8408 85.3471 o
96.5211 85.0856 o
93.4927 88.4343 o
98.3646 89.4821 o
81.4901 86.4506 o
68.6625 79.4193 o
98.9077 94.1973 o
85.1093 91.5593 o
97.242 86.214 o
127.136 86.017 o
96.815 102.086 o
87.8899 83.7614 o
80.1164 85.2348 o
91.916 87.5864 o
86.894 90.4245 o
91.5401 86.5148 o
92.443 95.9773 o
121.649 81.3713 o
105.965 71.1925 o
97.6779 85.0519 o
70.1528 81.5951 o
96.9861 86.7284 o
72.2934 76.6027 o
100.049 85.9265 o
83.371 86.9008 o
100.452 86.9826 o
109.977 86.241 o
110.847 116.224 o
96.9876 82.103 o
81.8555 70.9152 o
96.4699 88.0368 o
104.264 93.2237 o
114.665 87.4721 o
79.3834 78.7748 o
75.0956 71.0495 o
92.2909 72.2603 o
88.0585 89.1564 o
93.8606 87.0006 o
71.853 90.9729 o
106.772 86.5236 o
94.3314 86.0974 o
108.973 90.842 o
105.018 92.6248 o
90.1682 93.9688 o
113.236 85.7427 o
85.7241 80.7642 o
110.076 88.6145 o
83.5946 88.3859 o
96.4054 93.3641 o
77.3635 80.0088 o
100.565 75.3533 o
93.1598 89.9237 o
138.968 90.2782 o
102.603 84.4369 o
93.0351 85.1107 o
84.6876 85.2774 o
91.7925 91.8135 o
69.8052 81.5734 o
91.6346 86.2928 o
104.777 81.8748 o
100.144 94.9984 o
83.606 88.5062 o
63.3894 84.9349 o
88.1001 91.4816 o
95.4043 86.4302 o
92.6339 91.0347 o
115.337 88.5889 o
109.176 90.3703 o
102.8 92.6159 o
86.8712 88.507 o
81.2127 73.0083 o
53.1702 81.3944 o
98.1811 81.8054 o
99.4257 88.8147 o
88.3717 81.773 o
109.081 87.102 o
83.3798 75.9411 o
64.1725 85.4349 o
76.5673 80.9531 o
92.5113 69.5091 o
117.833 78.2795 o
102.685 87.7162 o
122.11 91.7319 o
104.924 87.8627 o
101.769 84.3164 o
103.642 99.393 o
89.9437 92.4713 o
108.906 81.5093 o
115.834 78.3391 o
106.746 78.6615 o
126.681 98.7656 o
73.4346 80.3153 o
98.0061 82.3559 o
88.3657 85.0496 o
116.992 85.8239 o
90.7888 73.0623 o
96.3827 86.6691 o
79.1374 86.2754 o
94.7817 87.8467 o
72.7353 100.909 o
85.3458 84.0353 o
100.693 86.9949 o
66.3689 62.2364 o
85.7254 101.794 o
75.8179 93.9958 o
91.7375 85.6911 o
85.8142 82.9844 o
101.177 73.2672 o
95.9117 87.7282 o
107.837 88.5573 o
106.184 87.7503 o
101.03 76.3877 o
104.6 86.3457 o
79.9997 77.0734 o
107.002 84.104 o
98.105 85.6124 o
97.6046 85.4009 o
92.6515 78.9546 o
85.4329 84.898 o
99.1397 86.614 o
87.9321 85.6893 o
93.0863 80.6632 o
99.6356 75.1895 o
95.8842 84.5211 o
108.116 106.351 o
123.908 71.8818 o
82.9934 83.541 o
76.2243 86.2265 o
104.681 95.1659 o
92.0913 79.6783 o
102.518 87.351 o
125.283 73.1962 o
91.3864 84.5274 o
97.261 82.9275 o
91.0256 88.3055 o
108.302 84.9977 o
96.4643 86.7757 o
94.1548 83.9717 o
98.4108 83.6447 o
90.2242 86.7572 o
103.414 84.0795 o
108.528 86.0182 o
85.4891 98.2325 o
95.7136 86.6393 o
106.657 94.9224 o
92.8845 82.2158 o
97.2949 88.277 o
96.3758 85.7826 o
108.971 83.2002 o
103.076 99.7511 o
90.0891 88.1726 o
96.9957 85.8438 o
86.4932 88.4323 o
94.6171 88.8487 o
79.0865 89.5601 o
91.2975 85.1038 o
106.332 78.0275 o
106.464 83.838 o
79.9907 89.0405 o
89.0555 85.311 o
117.709 93.4153 o
71.0178 105.314 o
108.97 86.2087 o
87.3765 88.7793 o
81.6818 88.4605 o
105.366 81.4994 o
83.8843 90.0378 o
111.614 91.5698 o
68.1032 85.0111 o
87.6086 87.1505 o
80.0675 86.8608 o
93.1596 85.9833 o
103.96 86.1659 o
93.7417 86.9399 o
104.694 104.159 o
107.884 77.8263 o
109.592 75.8045 o
89.8591 82.3411 o
86.4452 87.2436 o
72.2406 86.6178 o
68.1837 72.5633 o
119.414 83.5258 o
106.814 91.1218 o
90.4936 82.8524 o
81.9698 98.8114 o
86.2548 86.2614 o
89.7504 97.6486 o
142.331 89.8608 o
78.2389 89.8865 o
94.8368 78.6198 o
123.785 90.9369 o
96.4283 86.1851 o
84.4008 80.7332 o
99.1031 83.0093 o
80.5768 86.8884 o
90.9712 89.7863 o
92.0423 88.7972 o
93.4927 88.9066 o
91.7461 85.1062 o
81.5972 89.6397 o
107.772 89.292 o
96.0443 85.4929 o
105.364 84.7066 o
69.1402 84.0441 o
127.904 91.7597 o
119.514 89.2696 o
99.5917 92.5299 o
98.795 92.8208 o
86.5433 85.8385 o
115.522 92.2393 o
91.5403 88.8906 o
101.507 96.9777 o
98.2912 90.0326 o
91.0866 86.773 o
100.311 88.3836 o
92.3091 86.365 o
65.5365 91.3206 o
75.549 95.6253 o
93.2087 91.1364 o
104.496 87.002 o
88.6198 89.9678 o
121.767 96.6988 o
93.3931 84.8781 o
67.9391 69.625 o
100.285 86.9869 o
114.632 87.8042 o
53.3189 90.7442 o
95.3592 88.6632 o
112.179 88.3249 o
105.279 80.198 o
83.5192 86.8579 o
96.3614 91.9654 o
74.7965 71.219 o
92.4897 84.8357 o
87.7034 88.7545 o
82.9833 87.8596 o
107.253 93.3799 o
89.6315 83.7643 o
77.3702 73.0294 o
101.634 85.0407 o
58.8152 80.5388 o
100.075 74.0315 o
95.7021 87.1794 o
91.7566 89.7384 o
74.8285 84.7401 o
58.8608 86.5936 o
104.7 86.8609 o
96.6393 81.4467 o
98.6208 84.4235 o
114.594 91.9215 o
66.4433 79.9926 o
98.224 86.8695 o
112.958 105.545 o
122.63 84.8872 o
100.008 85.9586 o
121.393 86.9419 o
100.277 85.314 o
107.818 86.8134 o
97.4545 86.9464 o
135.089 97.1042 o
68.3306 73.3377 o
93.4995 91.6078 o
100.022 89.9926 o
94.5454 86.5643 o
89.8331 84.9665 o
90.3209 92.352 o
91.2125 95.1036 o
81.8738 85.207 o
105.839 72.4327 o
100.239 86.5086 o
98.0926 86.7436 o
94.353 98.0914 o
101.936 83.5698 o
116.083 81.1869 o
94.0332 88.034 o
107.397 90.3048 o
106.088 92.3251 o
69.1254 94.6959 o
81.158 104.369 o
102.074 82.2528 o
88.459 85.7711 o
83.0583 91.6194 o
98.5669 68.8652 o
77.1374 89.4775 o
77.9905 66.3603 o
71.3648 86.5679 o
56.8829 85.745 o
89.1384 87.0391 o
123.485 94.2276 o
60.0403 84.7691 o
77.7494 85.4819 o
90.5834 85.8203 o
106.288 90.8231 o
98.4525 84.3387 o
120.627 100.864 o
101.238 68.2807 o
92.8411 76.8345 o
101.322 90.8281 o
98.0116 81.9383 o
88.2614 77.8043 o
99.7914 85.954 o
63.7222 78.7243 o
93.8275 88.3842 o
61.8909 76.4404 o
94.2565 69.5014 o
92.2789 96.7817 o
87.2108 90.776 o
92.6096 87.8159 o
99.6174 89.7573 o
105.73 86.4305 o
102.95 78.2359 o
101.339 73.4323 o
67.1828 80.7366 o
82.0406 83.5425 o
132.814 88.1383 o
108.905 83.6768 o
128.311 73.9594 o
101.391 89.4732 o
103.835 91.359 o
80.5207 87.1133 o
102.462 74.5478 o
101.428 98.2185 o
95.7635 87.4082 o
71.8027 81.6114 o
79.3443 83.1464 o
109.954 89.8608 o
100.562 85.8689 o
85.5571 86.7673 o
110.134 91.6941 o
88.6492 87.1035 o
91.1177 85.0258 o
96.4462 87.0742 o
85.2786 89.4051 o
81.9287 84.4191 o
111.136 86.3202 o
109.02 84.4937 o
60.1599 77.5494 o
96.2631 87.6247 o
94.109 87.6851 o
74.2971 80.2983 o
88.2731 86.6827 o
91.8718 86.5808 o
87.9867 90.0514 o
113.2 83.9195 o
89.6398 86.4043 o
84.3924 86.8372 o
101.46 86.2979 o
94.3273 88.1736 o
115.109 77.2157 o
111.54 94.6323 o
96.1954 84.3338 o
71.689 77.2897 o
60.4688 94.7067 o
93.937 96.7021 o
86.2386 85.9772 o
106.818 85.536 o
80.4289 87.1325 o
92.0334 84.4701 o
104.871 97.3816 o
58.0292 86.4686 o
108.088 89.1563 o
126.967 76.525 o
100.106 88.2365 o
82.1339 77.453 o
91.1147 84.1152 o
71.0767 88.3008 o
101.601 86.1062 o
105.405 88.5895 o
112.029 80.0266 o
86.8361 84.1659 o
96.8221 85.7773 o
86.3801 86.0486 o
94.738 87.2352 o
137.719 91.8751 o
86.1751 87.4234 o
88.3085 86.5264 o
103.975 87.559 o
95.7607 86.9548 o
91.7143 86.0438 o
117.37 77.1898 o
79.8172 85.0681 o
95.4234 91.0917 o
91.613 90.0703 o
104.684 94.0378 o
96.59 86.1003 o
96.9339 86.3386 o
81.496 74.0825 o
105.299 86.1922 o
90.463 86.1884 o
110.413 87.8792 o
80.2036 86.7034 o
89.4059 87.2209 o
100.632 81.8562 o
90.3078 81.3975 o
107.532 90.5505 o
85.7456 95.9591 o
96.8978 83.9426 o
81.139 87.373 o
87.0477 78.4265 o
142.638 76.2514 o
59.4229 78.8474 o
96.4327 80.9413 o
102.925 85.9274 o
113.521 83.868 o
115.54 85.9378 o
50.8523 84.4262 o
116.438 100.374 o
115.978 95.5273 o
87.2253 89.9067 o
83.1666 87.9574 o
91.8068 84.9243 o
106.974 84.8314 o
92.7904 74.387 o
87.799 86.2178 o
100.198 86.3638 o
75.0286 85.1609 o
107.931 103.746 o
113.974 96.5455 o
115.59 89.6448 o
95.9081 84.2525 o
106.061 87.8156 o
104.265 87.8883 o
62.2362 83.8406 o
102.136 87.7775 o
86.07 91.0453 o
80.4412 70.6328 o
101.175 85.8131 o
76.4446 77.6647 o
106.464 84.3525 o
85.0424 84.2018 o
85.1345 84.6947 o
117.651 91.913 o
95.5536 86.0076 o
78.0334 86.5054 o
102.655 77.9197 o
72.1774 98.272 o
119.869 100.735 o
83.507 101.467 o
86.2069 87.6322 o
79.4011 86.3295 o
71.4822 77.205 o
120.404 93.5444 o
97.3945 86.2254 o
94.6121 89.3221 o
85.9343 84.1925 o
111.697 86.7012 o
96.6953 104.441 o
113.605 86.7102 o
63.7816 91.5187 o
94.1376 88.0994 o
94.6417 87.1621 o
89.0334 75.5344 o
65.2975 98.6387 o
93.8532 85.6141 o
79.0924 86.3791 o
71.9824 75.8281 o
102.271 85.647 o
85.3381 82.9579 o
108.969 86.956 o
85.0539 86.6078 o
108.856 81.8087 o
96.1617 86.7844 o
84.6141 100.537 o
95.3284 87.6975 o
75.0629 88.5 o
85.8318 84.7938 o
69.1665 81.8742 o
83.3067 90.8533 o
87.2827 83.9466 o
94.997 91.4625 o
107.716 104.138 o
98.0342 66.0367 o
99.5154 79.4206 o
107.708 89.07 o
103.355 83.2721 o
103.283 85.9214 o
67.0483 88.3432 o
96.6347 88.0927 o
91.8753 86.6819 o
130.582 87.0938 o
117.58 76.7135 o
92.2184 86.1738 o
75.2467 86.9416 o
87.4687 85.9979 o
95.731 84.2389 o
88.8248 83.8896 o
85.3104 83.8427 o
120.825 88.7456 o
109.11 90.241 o
68.7146 86.64 o
98.4903 86.056 o
111.165 78.3346 o
92.8787 86.2547 o
98.1247 87.0704 o
93.3086 81.3468 o
102.827 85.3187 o
93.3324 87.873 o
106.016 84.4297 o
97.3608 85.5816 o
97.9707 82.0177 o
99.1712 90.141 o
93.8023 86.7694 o
70.0242 85.7137 o
59.72 92.6471 o
100.011 86.7925 o
87.7313 88.9951 o
105.677 84.5502 o
97.6173 89.5303 o
84.6075 87.0818 o
95.4375 88.9397 o
116.435 85.6988 o
104.749 86.9617 o
91.8941 87.2697 o
89.5953 88.2214 o
82.4537 87.517 o
89.4387 87.4165 o
80.1589 91.3205 o
108.642 89.2896 o
89.3442 86.5187 o
98.6458 84.2682 o
76.7465 81.4852 o
91.1201 84.2493 o
114.597 79.5682 o
94.326 86.0159 o
66.7896 97.1503 o
81.8127 92.7885 o
89.6085 85.9822 o
109.759 87.3022 o
103.839 89.772 o
102.274 83.9475 o
93.3643 88.784 o
106.203 86.8337 o
85.423 90.5937 o
113.792 89.614 o
110.371 87.7132 o
102.761 87.8539 o
100.044 88.1007 o
99.2084 85.3305 o
82.6924 89.2265 o
92.6462 86.943 o
103.661 89.2715 o
133.72 69.7359 o
95.8027 82.4526 o
80.9905 92.381 o
93.4846 86.7261 o
94.6857 92.0275 o
71.9548 87.2997 o
64.1683 85.5336 o
75.7216 73.4044 o
89.2812 87.5084 o
99.1555 86.2647 o
89.4389 89.7857 o
151.895 102.171 o
102.132 88.5038 o
73.4645 80.3372 o
102.473 98.0336 o
63.4084 92.2387 o
118.275 84.4612 o
89.623 78.995 o
81.0061 75.3878 o
68.4609 90.263 o
88.7948 89.4945 o
74.9055 91.1653 o
89.359 85.4127 o
99.5472 82.0834 o
104.553 86.1931 o
98.1745 81.2317 o
79.9993 87.0903 o
80.0079 88.428 o
79.8735 80.5355 o
144.056 69.5048 o
111.185 94.2724 o
103.441 81.2967 o
68.4473 75.5473 o
113.967 78.3 o
93.3649 86.6757 o
114.056 83.9127 o
91.2468 88.1552 o
111.539 87.9289 o
101.616 81.2105 o
82.5265 86.6493 o
93.0845 86.3196 o
72.5822 98.2491 o
71.09 86.0191 o
115.803 92.6174 o
77.6324 99.4474 o
106.759 98.1663 o
89.1595 85.8354 o
101.013 86.6427 o
99.9015 87.9083 o
93.5147 76.8548 o
88.9832 82.3117 o
118.756 87.5423 o
88.0531 65.4682 o
97.5504 87.2521 o
93.2937 87.6066 o
81.7094 76.4191 o
102.611 93.4387 o
101.051 84.5076 o
92.4804 87.1347 o
84.1713 84.6148 o
129.667 77.7841 o
102.936 86.2781 o
88.2691 92.3383 o
97.5004 88.7171 o
93.3191 86.0748 o
79.5497 85.2187 o
80.563 66.1631 o
96.0579 86.8459 o
67.691 97.7852 o
82.9739 77.6756 o
77.3935 78.7802 o
95.4261 78.7696 o
68.4898 80.3071 o
108.101 85.7736 o
62.0255 89.6798 o
92.402 84.9784 o
93.5689 86.6554 o
60.6323 99.6316 o
96.1284 84.5593 o
104.473 84.1493 o
138.268 89.1858 o
74.0008 104.943 o
77.0732 91.9812 o
128.032 95.8486 o
92.4572 83.8752 o
115.464 74.4968 o
95.7621 86.7286 o
97.5944 86.4446 o
88.7082 73.6975 o
122.078 79.6064 o
89.4491 85.55 o
84.2334 79.8776 o
83.89 93.4221 o
109.927 75.7787 o
89.984 86.7349 o
92.2483 86.6203 o
92.7197 81.2639 o
108.605 92.4572 o
94.273 94.2597 o
97.8329 88.6996 o
127.081 84.4064 o
104.015 94.1914 o
89.8832 80.3648 o
80.0399 83.212 o
103.626 80.7685 o
88.9199 88.855 o
85.0502 87.5805 o
92.5845 84.868 o
65.9306 88.9988 o
80.0358 85.5332 o
72.2333 81.8595 o
101.848 80.8876 o
66.5249 97.7342 o
105.101 98.5484 o
90.1224 87.5874 o
94.9172 86.5951 o
103.016 81.6381 o
95.8715 84.165 o
87.7926 87.239 o
108.601 93.4747 o
101.037 81.8104 o
104.133 73.8772 o
95.8624 87.3886 o
115.23 80.1677 o
108.266 84.1453 o
64.0556 87.3917 o
95.6052 91.5919 o
102.611 81.8858 o
70.9316 94.6822 o
89.6661 86.0092 o
68.1356 83.2895 o
85.6693 90.2874 o
60.8921 79.6093 o
99.5964 81.2598 o
92.7299 88.0006 o
76.6696 95.2891 o
92.9452 89.4867 o
97.4867 85.8231 o
79.9811 86.0257 o
130.556 85.2712 o
67.0623 76.104 o
80.2474 90.6402 o
123.879 82.3064 o
104.505 73.1759 o
101.324 87.3738 o
100.352 79.2921 o
90.7672 86.1897 o
94.2501 84.6942 o
72.4923 82.4621 o
92.7124 102.183 o
94.3822 87.6626 o
94.5102 98.799 o
87.5267 90.0169 o
87.5808 96.0731 o
85.9826 86.933 o
96.8615 86.7172 o
97.8069 109.083 o
98.2983 65.1449 o
91.3789 93.7433 o
93.7813 100.846 o
88.7209 85.3969 o
107.532 85.3505 o
95.3541 87.6665 o
98.0534 79.5441 o
82.9331 87.0965 o
105.323 80.9345 o
107.607 70.5387 o
94.1372 81.395 o
106.745 84.1227 o
90.1778 77.2672 o
88.9973 85.571 o
93.6712 79.6588 o
109.734 85.8158 o
38.1575 78.2638 o
92.7027 88.9105 o
94.9398 88.0785 o
69.3106 80.0744 o
99.129 88.5233 o
72.0492 98.0294 o
103.512 85.8601 o
86.499 87.3902 o
87.7969 80.4294 o
102.13 85.1971 o
86.0844 95.41 o
89.3553 82.1399 o
86.3635 88.5292 o
114.48 85.9355 o
84.5574 94.0176 o
92.9193 88.7393 o
85.8382 83.2087 o
104.919 80.7825 o
75.823 87.0235 o
96.1468 88.0267 o
88.3318 98.6376 o
97.8217 86.1582 o
68.8569 79.0789 o
91.5403 88.8186 o
99.3962 84.293 o
74.0015 89.6066 o
102.711 82.8596 o
106.868 85.1107 o
79.5642 86.1428 o
89.9783 89.1424 o
118.311 74.4148 o
78.1574 98.9012 o
98.488 86.4321 o
91.6626 96.3565 o
109.029 82.6113 o
105.498 87.8037 o
101.117 84.334 o
86.8798 83.8064 o
95.4264 86.0289 o
90.4016 79.3282 o
98.0232 84.3705 o
55.8144 96.0291 o
86.8024 88.7402 o
87.2579 84.3278 o
100.304 85.8221 o
112.17 83.4039 o
87.2986 74.9286 o
105.475 84.8749 o
104.828 86.6696 o
88.7389 91.4513 o
105.147 98.028 o
108.871 90.0386 o
82.7741 84.1232 o
84.5773 98.7812 o
113.333 96.2666 o
137.398 76.424 o
109.967 91.9972 o
101.062 79.7671 o
86.2544 80.4388 o
92.1796 87.2262 o
79.6651 86.9748 o
78.0051 99.9342 o
92.7767 85.4409 o
100.826 85.8597 o
85.6561 76.3343 o
83.8208 88.3301 o
98.8226 88.586 o
132.656 98.0394 o
98.032 86.9028 o
79.8323 84.856 o
82.6273 86.0797 o
101.28 86.5956 o
94.5298 62.5619 o
89.4984 87.2062 o
101.061 85.0311 o
86.3955 88.1478 o
106.467 80.1482 o
86.6503 97.8139 o
84.9832 83.7599 o
92.3067 86.582 o
97.77 94.4414 o
100.849 86.1699 o
94.7295 85.2737 o
96.1896 87.5386 o
97.5461 88.6591 o
95.8489 78.2825 o
91.387 87.7133 o
88.7297 90.3856 o
94.9916 84.9804 o
90.5946 87.8071 o
114.171 87.1439 o
94.1321 87.2075 o
99.9376 83.4888 o
97.5016 85.2655 o
93.0424 84.1208 o
103.09 83.7763 o
105.953 101.124 o
88.3202 95.0667 o
108.085 86.7747 o
90.7525 87.0812 o
114.252 87.5076 o
81.9627 89.1657 o
106.4 85.7401 o
99.8625 89.1453 o
93.8065 78.6448 o
95.0764 85.1308 o
94.1624 86.0786 o
94.973 82.1493 o
94.3731 86.3405 o
88.7875 73.6698 o
104.836 82.484 o
96.0474 89.4948 o
86.4893 89.5956 o
95.3063 86.7817 o
82.2534 85.5594 o
107.766 87.0679 o
121.334 80.9937 o
89.2595 86.9788 o
114.534 74.206 o
101.731 82.8043 o
95.1451 86.9256 o
91.5923 85.9764 o
94.8167 86.3641 o
103.701 79.1592 o
83.8133 86.4616 o
81.3378 84.2025 o
93.9192 79.0552 o
114.093 92.5042 o
70.0608 87.2279 o
57.0826 93.3974 o
82.5513 85.5835 o
108.033 88.5887 o
90.6205 86.0558 o
120.385 52.2875 o
86.7488 87.1363 o
86.6134 94.8247 o
87.1802 97.2232 o
79.1452 80.44 o
96.7026 105.682 o
86.9344 85.3546 o
81.8217 76.9964 o
98.278 86.5365 o
84.9287 86.4098 o
67.339 95.0505 o
103.306 91.9315 o
79.7858 95.0887 o
77.9134 88.1105 o
79.2684 80.3021 o
68.0998 99.644 o
96.1493 85.111 o
94.1312 87.674 o
85.1001 87.1865 o
80.5521 84.8929 o
83.5739 88.9968 o
100.567 94.0945 o
57.1595 74.4875 o
90.3398 89.5714 o
120.988 80.1069 o
86.8381 66.4672 o
89.7476 87.0751 o
107.466 89.4593 o
103.011 87.4884 o
82.0729 100.132 o
85.4552 100.476 o
88.3605 90.7807 o
103.22 74.4143 o
107.641 75.4067 o
82.993 88.9807 o
100.468 86.1853 o
92.6437 86.8238 o
83.4664 80.84 o
85.9349 98.3555 o
93.1986 86.6671 o
102.69 87.0048 o
82.8161 82.4931 o
107.302 78.4885 o
91.2829 87.1854 o
113.41 85.0334 o
60.3949 107.657 o
96.8563 91.4109 o
65.5108 74.5295 o
94.6573 102.681 o
90.4189 70.4462 o
86.372 85.1853 o
100.14 86.638 o
87.4178 89.2862 o
119.796 103.064 o
88.6107 87.0523 o
90.0321 97.0798 o
91.2738 84.3444 o
105.235 87.0504 o
94.4435 86.3237 o
90.0216 79.6958 o
65.4255 85.0144 o
104.625 84.5973 o
95.388 85.6357 o
88.0398 81.7859 o
103.799 85.9277 o
85.0155 62.8786 o
93.7056 88.2504 o
104.709 84.1197 o
118.473 88.1844 o
86.6182 93.3747 o
89.1171 95.1327 o
97.314 92.8188 o
116.855 91.9993 o
65.153 84.0645 o
104.344 67.4182 o
84.4863 87.802 o
94.7853 94.4036 o
88.0794 88.8773 o
103.687 86.3795 o
118.747 77.1311 o
83.8669 72.4453 o
66.894 98.4821 o
94.4027 83.0622 o
97.1851 83.97 o
89.1815 102.294 o
96.7254 89.6503 o
75.1457 84.8914 o
103.064 86.4445 o
100.167 85.5821 o
80.2506 89.4677 o
95.4959 85.9539 o
71.9619 77.1886 o
99.1464 89.3188 o
130.649 89.5706 o
123.387 90.7848 o
83.7596 92.4991 o
110.788 90.0644 o
72.3171 84.3645 o
115.733 88.2614 o
76.618 68.722 o
95.7003 79.6545 o
78.8892 88.3933 o
98.5531 84.0909 o
110.463 82.2652 o
84.2454 78.4005 o
77.7805 80.4097 o
90.7351 90.3803 o
81.0251 77.5562 o
80.6971 90.6145 o
100.329 86.0176 o
98.6006 87.0477 o
97.6689 87.4804 o
83.9304 87.9787 o
83.5015 87.1614 o
84.7416 95.6729 o
98.0573 84.499 o
90.4119 87.8329 o
71.03 87.1148 o
118.079 89.0996 o
106.344 87.7065 o
72.2284 94.6154 o
89.8401 84.7203 o
89.1055 79.9422 o
109.009 80.4728 o
96.1881 85.6975 o
85.2507 89.5806 o
106.82 86.8917 o
113.472 78.0966 o
109.71 84.9044 o
57.8625 93.2635 o
101.278 85.8373 o
78.2437 105.656 o
99.1905 91.5564 o
105.84 85.9745 o
105.208 82.6357 o
92.8324 86.6479 o
104.943 86.7061 o
65.0323 72.7926 o
89.4407 71.565 o
106.917 89.2741 o
125.441 79.1622 o
78.8159 73.8767 o
106.181 72.4366 o
104.113 83.6964 o
125.602 88.0114 o
95.2153 83.2056 o
102.042 86.1353 o
94.7073 95.2908 o
100.665 56.5584 o
81.2664 78.8198 o
96.2571 86.3535 o
91.4546 73.328 o
86.0977 90.5331 o
91.8012 86.1397 o
76.6731 70.5015 o
90.7262 89.7097 o
86.3004 85.0001 o
100.866 84.2248 o
92.644 89.3525 o
88.6816 85.5792 o
105.05 85.4711 o
86.819 86.2077 o
86.2224 82.9799 o
103.929 83.4926 o
97.2976 84.2861 o
75.8055 86.2185 o
61.7295 82.4278 o
94.9328 82.6029 o
77.9306 88.5003 o
94.238 85.8172 o
101.925 93.5944 o
70.1373 95.2604 o
67.5231 95.5589 o
98.36 86.4603 o
91.1104 106.956 o
112.532 79.3461 o
62.4171 98.922 o
87.6685 86.2256 o
94.6967 71.7127 o
96.1922 87.4021 o
136.88 94.7725 o
100.622 88.1061 o
95.0747 93.8877 o
99.5437 88.3387 o
87.9829 84.025 o
106.539 83.3667 o
80.604 70.2785 o
92.5845 85.2588 o
98.1684 96.4241 o
109.714 86.35 o
117.874 85.5732 o
95.5368 75.6099 o
90.8762 94.8531 o
91.5065 86.495 o
100.054 87.6304 o
86.578 83.8456 o
74.549 88.6944 o
103.98 94.4045 o
90.1371 98.0571 o
96.6517 87.4498 o
104.934 84.4404 o
94.9232 81.9258 o
84.0524 86.5999 o
89.8172 94.8213 o
96.2159 85.7262 o
96.5814 84.2197 o
77.7595 89.4182 o
97.003 79.0647 o
111.769 89.5755 o
95.4155 86.913 o
119.205 90.9904 o
85.3783 87.508 o
94.7262 87.9 o
74.7673 80.6619 o
88.0216 76.5732 o
111.535 81.4991 o
104.338 82.5192 o
99.1654 82.7119 o
129.698 88.1097 o
86.2828 79.9049 o
93.9021 86.2434 o
88.1171 82.819 o
103.779 80.9313 o
121.66 88.3707 o
95.4184 88.8998 o
61.7642 101.436 o
90.9951 76.869 o
101.77 84.9315 o
106.669 84.1005 o
101.802 81.7671 o
95.9319 79.4685 o
117.653 85.1517 o
103.268 89.0134 o
83.0406 87.6357 o
102.138 85.5364 o
93.1274 87.5186 o
92.7455 86.4001 o
102.942 85.547 o
94.6089 89.6477 o
128.258 88.9189 o
118.881 83.3065 o
89.8764 85.3717 o
97.999 85.8769 o
119.462 70.7612 o
86.0276 86.4621 o
96.0038 93.7948 o
74.2907 78.8893 o
91.9982 73.7217 o
127.276 85.2361 o
88.4049 90.5189 o
78.1283 86.2698 o
101.856 87.1992 o
66.4548 72.3671 o
58.5108 73.6439 o
84.8732 83.8567 o
105.952 82.8768 o
86.2407 79.6977 o
87.6282 97.5079 o
71.1972 109.603 o
91.5663 88.8664 o
86.0283 84.8735 o
103.217 68.2946 o
88.3271 86.1951 o
86.0038 89.3083 o
83.8114 87.5818 o
76.477 85.0474 o
112.814 80.7113 o
97.249 87.0431 o
105.952 72.3786 o
85.5316 71.7136 o
85.4525 86.3199 o
95.9581 88.696 o
77.1272 84.3126 o
77.6265 84.7779 o
95.8271 90.4428 o
107.42 90.4774 o
96.3911 99.4768 o
99.4265 86.2227 o
91.1763 87.7718 o
95.5497 84.7572 o
94.0174 89.5402 o
94.83 88.7705 o
70.8221 71.5891 o
132.207 82.9826 o
119.414 72.0158 o
113.396 71.9453 o
95.4232 58.861 o
90.1898 72.9251 o
100.598 86.3001 o
82.6284 90.9718 o
111.179 87.2771 o
77.6913 97.2023 o
78.4041 82.6241 o
49.0435 87.1705 o
104.673 92.639 o
81.3312 92.0317 o
95.6816 84.5721 o
70.2837 93.0864 o
78.74 92.9281 o
101.226 88.193 o
109.336 85.4727 o
105.281 79.3069 o
113.67 86.1142 o
141.074 87.8038 o
95.9174 86.3081 o
95.2344 86.4636 o
82.833 87.1618 o
74.9138 80.2487 o
71.85 75.9572 o
112.285 72.1373 o
86.1454 87.0925 o
100.827 90.0436 o
96.1612 100.112 o
118.953 86.5063 o
102.804 90.2868 o
105.423 94.3347 o
95.5117 88.4 o
109.866 75.0748 o
102.313 86.0073 o
104.513 83.5806 o
159.803 96.5684 o
103.608 71.1529 o
102.691 88.0819 o
98.9259 87.4851 o
93.2586 82.8264 o
74.3822 73.8702 o
93.0127 83.5368 o
92.2611 90.7648 o
113.126 88.8865 o
95.7547 84.8776 o
123.627 75.6782 o
104.818 79.0426 o
86.8708 89.2755 o
93.8352 88.7736 o
99.3417 86.6132 o
82.1693 85.9629 o
102.323 85.8027 o
79.3744 87.8897 o
75.2108 92.3415 o
96.9721 87.0294 o
98.188 80.8884 o
104.408 69.8095 o
119.42 83.4283 o
113.262 80.8403 o
115.514 101.79 o
115.512 90.9146 o
107.195 86.2927 o
77.2222 89.5846 o
108.963 94.3147 o
73.0189 87.3762 o
71.269 95.5183 o
109.912 84.7945 o
88.1972 85.0168 o
85.1742 96.8895 o
87.7378 85.622 o
122.557 73.9285 o
119.36 82.4065 o
104.154 86.8536 o
69.3842 91.284 o
68.9964 89.4958 o
89.2858 85.9932 o
113.042 86.0127 o
95.549 88.0856 o
56.2635 82.7136 o
66.3724 86.0387 o
107.864 84.4547 o
114.289 85.0867 o
69.0917 88.4099 o
75.062 76.3619 o
92.9496 84.2103 o
136.678 81.3924 o
60.9113 83.3983 o
87.6277 86.7243 o
68.6198 100.602 o
59.6032 84.4177 o
94.8513 71.8282 o
113.871 111.597 o
99.1737 90.5674 o
91.5607 87.6676 o
91.4922 88.8465 o
88.2601 89.7589 o
87.8399 83.5872 o
94.2081 87.153 o
110.09 87.0926 o
83.0169 86.5505 o
92.5971 85.3646 o
133.953 79.7897 o
102.289 102.489 o
69.0147 91.1185 o
87.0045 90.0768 o
97.7941 87.6251 o
93.9884 91.2908 o
112.948 90.2401 o
115.547 102.234 o
82.8059 91.9628 o
64.0897 99.6717 o
107.2 94.7342 o
84.8497 90.8415 o
101.862 92.2063 o
103.103 81.8137 o
93.2798 77.24 o
87.0231 88.4334 o
112.487 86.0324 o
102.408 84.9532 o
83.9737 86.4851 o
78.6322 82.2369 o
94.6585 89.602 o
96.3133 88.111 o
100.079 99.1911 o
103.051 84.6533 o
103.322 73.9214 o
80.8205 87.2165 o
99.7078 78.9252 o
94.8921 86.2942 o
86.2442 84.1396 o
87.7659 88.5832 o
89.0607 98.2443 o
65.7936 85.5531 o
110.989 89.5709 o
91.4073 85.8697 o
99.6062 95.6297 o
91.8257 85.406 o
117.543 95.9979 o
76.2514 88.8027 o
101.637 85.6418 o
109.167 87.3154 o
101.95 87.2444 o
99.1647 72.2989 o
117.063 78.6965 o
60.04 91.8069 o
100.4 82.4133 o
99.6813 95.6521 o
102.427 84.849 o
89.8562 85.8863 o
101.937 77.3456 o
89.0387 84.7401 o
92.298 99.3407 o
81.9693 85.2823 o
97.8372 82.8604 o
104.531 82.2645 o
105.851 68.4888 o
140.05 81.0426 o
75.2119 91.9284 o
103.355 87.8995 o
93.8622 83.9036 o
95.5819 83.9663 o
104.246 86.7866 o
130.161 97.1043 o
102.502 88.8092 o
93.3559 87.7561 o
99.1611 86.8996 o
83.7101 87.9992 o
95.0324 85.7175 o
135.433 104.783 o
80.3585 91.243 o
90.5219 72.1344 o
105.705 81.9663 o
67.0736 76.5975 o
82.3699 87.6555 o
88.7961 86.8752 o
94.1831 88.4212 o
81.0328 78.6221 o
63.9266 83.8153 o
93.5869 87.0135 o
102.415 66.67 o
80.355 76.477 o
103.118 101.793 o
93.056 86.1776 o
77.6223 77.5859 o
89.8397 95.8736 o
101.934 87.6894 o
122.653 97.4744 o
89.9117 85.0671 o
92.668 86.4978 o
106.611 84.9085 o
99.4635 86.5927 o
97.3825 85.4591 o
77.9053 83.291 o
43.7624 81.0774 o
95.4666 88.5389 o
91.797 98.6287 o
129.113 83.833 o
98.4045 80.9848 o
90.4904 84.6169 o
95.3538 80.4498 o
111.547 87.4382 o
103.119 84.4184 o
86.9997 85.5121 o
76.8876 79.87 o
104.192 84.5093 o
100.16 104.734 o
126.347 83.2776 o
70.1908 79.5486 o
102.353 99.2863 o
98.5466 76.71 o
117.93 100.159 o
86.4327 86.511 o
99.2032 81.7098 o
95.4131 90.9857 o
70.3729 81.714 o
95.618 90.9439 o
96.4723 82.6198 o
95.3273 87.0066 o
56.5109 86.516 o
62.9575 80.6926 o
94.0824 85.0094 o
102.329 87.6437 o
103.908 83.5228 o
94.4141 86.1771 o
80.5779 86.6507 o
136.984 74.8358 o
79.7779 85.9604 o
86.3279 89.8449 o
97.4924 72.8188 o
80.236 90.8755 o
121.302 80.9506 o
129.507 82.8112 o
65.0771 84.0652 o
121.442 83.1778 o
103.601 91.5786 o
98.4722 88.3126 o
99.059 86.6514 o
93.7247 85.926 o
125.667 84.6517 o
96.5102 86.0129 o
83.653 84.807 o
67.5035 82.664 o
81.3346 86.3569 o
81.1296 93.1275 o
50.0761 85.1123 o
88.7882 82.0684 o
89.0712 76.9461 o
81.6476 85.0068 o
95.108 87.3362 o
100.196 85.4558 o
77.4976 86.5358 o
89.1637 84.5003 o
96.915 86.4897 o
101.137 86.8773 o
99.3816 87.419 o
102.693 88.3368 o
74.3902 90.7325 o
91.2155 99.3729 o
104.107 86.3657 o
112.096 88.0426 o
111.693 84.6302 o
103.435 86.2018 o
107.037 75.0423 o
120.882 82.3053 o
87.3558 82.8289 o
79.1134 92.3273 o
62.8409 78.6277 o
62.2878 88.2955 o
104.16 87.2389 o
81.9217 87.066 o
77.6535 78.8781 o
66.2026 81.3072 o
96.2164 86.0964 o
101.782 86.3941 o
88.4362 85.2655 o
93.3412 73.0445 o
144.77 98.3737 o
83.1228 77.8476 o
93.9941 92.1084 o
107.971 86.2844 o
121.228 89.3359 o
97.2575 86.9296 o
106.007 87.4545 o
84.0193 80.6324 o
83.1977 102.981 o
84.6162 85.5926 o
82.0422 87.412 o
81.8873 82.9182 o
99.2481 75.4981 o
87.6153 86.4512 o
105.652 87.4901 o
122.438 87.0788 o
94.3796 90.7763 o
92.8988 80.4091 o
83.7918 84.7649 o
79.2157 90.9999 o
92.5885 88.0072 o
113.575 86.8605 o
81.2732 100.108 o
114.817 93.5113 o
82.8995 84.2937 o
112.81 93.4892 o
86.7361 96.1716 o
94.6648 87.0777 o
107.836 79.9087 o
89.4974 87.7423 o
88.3028 90.376 o
99.031 96.6967 o
108.766 90.8095 o
92.2732 85.5038 o
89.2307 85.3535 o
97.7608 89.23 o
99.8185 89.7425 o
103.94 82.0376 o
118.894 83.5069 o
91.464 90.1312 o
96.7747 88.8758 o
102.381 84.0543 o
69.1721 83.4649 o
98.1582 85.2363 o
96.0147 89.1913 o
106.548 91.6454 o
70.1363 65.8354 o
127.301 95.117 o
87.6715 87.0036 o
79.2261 82.6846 o
95.8559 91.8914 o
89.6241 91.6206 o
60.836 99.738 o
88.5993 86.3096 o
87.8147 81.0836 o
105.204 98.7898 o
86.1545 84.0867 o
84.7875 88.7011 o
110.606 87.267 o
102.78 86.5037 o
111.468 96.9446 o
99.2011 86.7544 o
108.152 73.7563 o
92.9945 79.2897 o
75.1615 88.1877 o
141.191 60.8216 o
62.5812 88.8285 o
124.02 93.9152 o
71.6354 87.7598 o
111.879 90.7116 o
119.838 93.7319 o
89.8904 76.0625 o
104.682 84.5386 o
86.88 89.5324 o
93.2836 80.6406 o
131.119 68.7869 o
117.398 90.0556 o
93.0618 83.5413 o
89.2152 87.2285 o
83.8576 85.0333 o
110.564 87.168 o
100.113 85.9059 o
80.2549 83.8095 o
129.459 82.0545 o
97.5076 86.5778 o
72.2006 90.3192 o
97.2281 86.0391 o
101.973 85.4768 o
96.9556 87.2533 o
116.101 87.3806 o
101.381 84.3222 o
60.4969 81.1462 o
106.87 94.9414 o
93.4535 87.2621 o
123.292 80.5946 o
88.3008 86.6284 o
114.442 88.7425 o
99.3739 82.3581 o
98.4193 81.8036 o
97.8803 86.8287 o
90.8935 79.4008 o
89.783 73.0559 o
116.091 74.4717 o
110.433 80.9177 o
95.6719 113.766 o
70.9029 90.7543 o
105.743 91.9362 o
78.727 97.0345 o
98.0013 91.8425 o
85.6108 89.083 o
86.7022 85.5403 o
96.9017 85.9292 o
87.6279 80.5522 o
38.2789 74.4116 o
92.5283 85.9611 o
97.8109 86.4522 o
49.53 85.5713 o
121.284 80.7562 o
89.6713 78.6983 o
74.0606 88.5091 o
60.7426 91.7031 o
82.4858 79.9695 o
82.115 86.876 o
92.3655 87.1244 o
94.7481 82.875 o
86.3027 85.6934 o
95.5507 84.0573 o
97.8059 86.3546 o
110.992 86.2565 o
118.027 89.6321 o
92.3351 86.6916 o
94.0229 84.5049 o
85.9681 83.9081 o
96.6111 87.6366 o
86.1676 87.4797 o
102.997 85.9631 o
54.8652 86.8127 o
83.2758 85.565 o
97.8095 85.7321 o
93.8226 86.327 o
93.0471 85.3969 o
98.6617 85.9263 o
79.8799 85.5454 o
85.2295 81.4726 o
105.128 92.4541 o
98.2572 86.8052 o
107.727 95.7221 o
116.949 85.1245 o
96.7463 83.6662 o
79.4004 82.8187 o
108.317 75.3018 o
88.2442 82.2387 o
109.314 87.6668 o
124.596 78.0232 o
88.0599 91.5226 o
74.2064 73.046 o
109.73 83.6543 o
79.9459 87.2733 o
83.3586 67.5003 o
93.7486 85.6123 o
85.4672 80.3742 o
100.271 88.6977 o
68.0776 79.2051 o
98.2552 87.8064 o
96.8151 87.0122 o
112.678 87.1298 o
101.772 92.3609 o
74.6029 91.9601 o
107.848 81.1719 o
86.7667 91.4898 o
74.485 86.4656 o
100.615 81.5737 o
94.8113 85.7445 o
98.7676 88.8247 o
80.2956 84.2221 o
86.4061 88.1613 o
80.6848 82.4456 o
99.4843 68.543 o
104.743 83.392 o
76.9645 89.6049 o
92.0156 85.5248 o
161.073 78.5224 o
69.4449 90.8513 o
95.1498 85.8998 o
73.6051 87.5397 o
103.315 82.7963 o
124.853 77.9908 o
91.3367 74.188 o
110.572 87.1587 o
85.9057 100.533 o
95.957 85.7101 o
87.7744 82.3231 o
96.3719 85.2767 o
83.6729 80.2295 o
106.142 87.1174 o
157.431 85.5124 o
112.44 74.221 o
115.665 73.6155 o
92.5017 97.6506 o
110.639 86.6145 o
53.5545 81.2506 o
91.1903 98.7046 o
133.064 78.8438 o
107.917 76.0492 o
87.159 85.2733 o
106.298 87.8207 o
82.7642 95.9187 o
83.8185 85.8092 o
92.8351 85.932 o
122.108 86.0576 o
117.161 73.6985 o
83.7573 85.8834 o
73.5054 81.5933 o
110.381 84.9229 o
116.934 90.511 o
85.9677 81.3614 o
74.2937 79.7097 o
75.7557 88.0893 o
100.302 87.1988 o
98.327 85.6457 o
92.6105 85.9784 o
101.432 81.793 o
70.9063 86.4884 o
90.1279 85.4605 o
73.3398 101.269 o
64.0611 87.4248 o
96.3167 88.3178 o
108.918 92.3117 o
96.696 85.5646 o
79.2752 87.4084 o
61.5545 84.6752 o
82.9975 99.4317 o
100.529 64.0313 o
80.4061 85.1078 o
109.357 85.1155 o
89.4566 83.3705 o
71.4659 80.3993 o
77.3136 82.8809 o
91.3393 86.9297 o
104.171 88.0176 o
100.846 86.3036 o
70.211 91.0217 o
87.9548 86.5681 o
97.3526 87.6241 o
99.2966 84.234 o
104.681 97.8839 o
95.7959 89.5847 o
94.6676 80.2165 o
104.424 89.3351 o
103.892 85.6458 o
96.0015 88.6891 o
81.7629 84.1304 o
80.575 88.0442 o
87.3882 90.229 o
118.723 83.8523 o
96.107 78.8654 o
96.9077 86.1152 o
89.3841 85.4883 o
100.677 82.625 o
112.929 78.9761 o
108.335 87.0262 o
146.612 105.018 o
112.761 82.2293 o
96.7629 85.0136 o
86.0539 89.742 o
96.1729 85.9116 o
101.432 104.217 o
102.764 87.2799 o
56.1475 78.2799 o
92.8748 75.994 o
105.556 86.3015 o
96.1406 88.1523 o
97.4743 87.0873 o
123.963 91.0245 o
101.15 78.1805 o
87.0891 91.9018 o
103.477 86.8703 o
89.2586 83.0803 o
94.0895 69.1241 o
105.471 97.8927 o
103.953 80.943 o
123.673 90.6744 o
106.522 85.4619 o
99.5279 86.4571 o
78.6763 69.3488 o
131.263 73.0303 o
88.328 82.5098 o
66.8983 77.4432 o
88.4672 77.1444 o
121.215 98.1605 o
100 85.9508 o
102.136 87.177 o
128.847 78.3883 o
106.373 99.9853 o
85.43 80.7667 o
82.0263 89.1582 o
86.7221 83.6726 o
98.7793 88.9392 o
79.8442 101.967 o
120.598 77.5299 o
78.0085 86.4506 o
80.8341 82.7981 o
94.1577 69.9316 o
99.0349 92.2851 o
66.4809 83.616 o
119.802 91.1051 o
71.2785 74.0205 o
107.446 94.313 o
93.7702 88.9366 o
90.5541 85.1123 o
89.1616 51.6037 o
79.5573 91.5417 o
83.3792 88.98 o
85.9324 91.9319 o
87.6158 106.547 o
76.9131 95.7524 o
84.1086 89.4481 o
101.545 94.2492 o
108.103 93.4417 o
113.083 82.0471 o
84.626 87.836 o
82.5462 88.7833 o
91.5622 86.7632 o
52.9027 88.2941 o
120.204 83.7858 o
84.3324 88.7269 o
112.43 78.8208 o
75.815 79.5315 o
103.87 86.1762 o
106.073 86.415 o
145.521 72.9143 o
119.009 85.4042 o
109.984 89.2917 o
125.814 94.0123 o
101.395 97.3226 o
112.963 74.8233 o
87.4983 87.4823 o
88.1102 85.7033 o
96.9653 85.1433 o
87.8084 79.7141 o
77.7981 81.4242 o
106.442 96.8012 o
72.6632 88.0967 o
93.6575 87.3546 o
103.621 106.559 o
87.8992 89.625 o
91.8721 85.0394 o
133.824 77.1109 o
89.3769 84.8908 o
82.3739 78.8198 o
121.86 87.5239 o
94.1311 99.5454 o
101.701 87.1601 o
85.2999 86.1764 o
63.9577 128.691 o
82.3646 63.2088 o
83.9249 86.3957 o
102.553 89.3286 o
75.658 97.3095 o
104.418 88.5036 o
78.387 92.1522 o
94.1318 104.238 o
71.3567 86.893 o
88.9243 84.3756 o
89.2546 85.8041 o
81.283 81.856 o
109.751 86.419 o
134.829 99.3118 o
93.8336 99.9024 o
82.3659 77.4144 o
81.1693 90.8633 o
100.887 86.4722 o
90.2408 86.6118 o
111.336 69.3599 o
66.6025 88.2605 o
88.8077 78.2405 o
93.9308 86.9868 o
94.7244 90.9695 o
81.5872 91.5604 o
73.2897 103.834 o
87.8226 88.0245 o
110.371 83.482 o
104.2 85.2738 o
89.4311 88.431 o
98.0122 85.167 o
87.1334 85.483 o
107.309 88.2487 o
83.5127 86.4821 o
85.5275 89.6137 o
96.1425 74.1333 o
86.846 89.0552 o
65.6212 83.3158 o
111.314 91.7298 o
100.624 88.4642 o
87.2808 87.4061 o
80.2049 81.3409 o
96.8207 93.1245 o
123.66 95.4946 o
118.956 75.5992 o
84.5874 78.0405 o
94.1929 86.05 o
90.3796 86.6547 o
100.183 95.8841 o
111.071 93.756 o
98.6075 77.1716 o
105.469 78.9555 o
108.552 84.5711 o
86.5378 87.6703 o
102.665 82.8014 o
90.5903 90.9643 o
93.4309 85.134 o
101.315 77.9685 o
93.9422 83.6721 o
94.9374 85.9869 o
96.5904 81.68 o
101.348 90.0423 o
89.9176 86.2128 o
77.2893 102.344 o
100.315 92.9339 o
127.962 79.2419 o
97.1848 82.5954 o
113.251 98.6323 o
92.2672 85.2916 o
104.465 93.0909 o
93.679 82.5855 o
81.7245 87.6687 o
107.862 92.0716 o
105.428 93.7295 o
98.4173 87.7934 o
103.079 87.2239 o
80.0913 90.0212 o
75.5716 94.4718 o
133.944 89.3075 o
92.2925 75.9972 o
91.2622 66.7933 o
86.3789 74.9458 o
65.5183 83.8114 o
103.047 79.0334 o
119.356 76.3925 o
107.376 85.6171 o
61.9927 60.7522 o
72.847 86.097 o
112.025 82.7001 o
93.831 86.6678 o
78.686 87.425 o
90.9192 82.2012 o
99.3919 83.3015 o
97.2411 81.1595 o
107.483 77.0795 o
105.659 79.6393 o
96.1402 86.7927 o
55.89 104.167 o
95.7962 86.7999 o
94.2766 88.1284 o
96.3747 76.6207 o
83.92 77.9765 o
113.673 85.7753 o
111.773 88.1161 o
99.8015 81.0507 o
94.8101 78.0967 o
91.2915 84.0192 o
102.128 88.0163 o
101.316 92.1475 o
83.9907 87.7787 o
123.773 77.7021 o
114.418 85.7356 o
99.7588 83.2377 o
82.0344 84.5458 o
103.37 95.1697 o
102.395 102.481 o
83.3821 87.3463 o
82.0893 101.303 o
117.474 58.5324 o
103.612 80.7586 o
92.9158 94.1837 o
73.0849 87.1272 o
47.1366 101.465 o
87.6575 94.2205 o
102.373 88.591 o
50.0391 128.298 o
87.5852 86.9565 o
112.489 84.8463 o
100.992 86.5911 o
94.0558 86.3322 o
108.289 88.7586 o
100.726 83.1212 o
100.067 87.446 o
92.2394 83.4092 o
103.646 89.9373 o
100.803 80.9231 o
100.032 92.2857 o
56.9558 82.3498 o
135.24 86.629 o
92.1584 86.871 o
98.0297 80.5708 o
57.8864 74.1692 o
85.0138 87.3336 o
94.8502 94.5305 o
75.9789 88.9256 o
84.5762 83.539 o
95.4237 85.8654 o
98.9454 83.8213 o
91.5648 85.736 o
83.6987 89.6364 o
98.7719 87.2134 o
98.012 82.6847 o
62.1649 88.9408 o
94.5409 86.1553 o
101.858 87.8185 o
85.221 90.9622 o
116.113 86.396 o
122.541 87.4581 o
77.7136 97.793 o
110.178 88.0297 o
96.0887 85.7995 o
109.306 92.1519 o
129.029 75.9558 o
94.5319 87.5297 o
113.62 80.8085 o
105.073 80.6813 o
98.4825 87.5695 o
93.6826 83.2487 o
130.686 70.0752 o
103.147 76.8476 o
109.373 96.1394 o
102.41 73.0408 o
136.786 92.2624 o
98.5403 89.9937 o
119.774 73.0865 o
105.634 89.278 o
89.6278 84.8712 o
93.5627 85.2869 o
98.1651 82.5649 o
91.8066 84.1571 o
88.5139 87.1587 o
96.7752 86.5601 o
106.026 86.9345 o
92.4108 93.4192 o
104.123 90.4429 o
118.767 81.6199 o
108.308 81.6975 o
117.954 92.4411 o
89.1959 85.5467 o
148.645 87.5268 o
78.2898 86.856 o
112.765 92.3461 o
111.085 88.927 o
110.89 74.8 o
93.2096 88.8498 o
92.2638 78.7392 o
95.0585 84.0998 o
76.1464 83.8175 o
91.7557 86.7173 o
80.7631 85.9825 o
81.508 88.5948 o
87.9591 86.6123 o
109.775 72.4077 o
104.882 86.4785 o
81.389 90.5422 o
91.0006 87.0536 o
85.0056 83.3189 o
88.5861 85.747 o
86.254 88.1586 o
98.7165 83.1433 o
91.3657 83.7943 o
58.4515 78.2011 o
78.5065 89.7422 o
61.7246 92.6158 o
98.5086 87.8431 o
98.0744 80.0379 o
97.1057 85.5431 o
97.5872 85.8983 o
94.9041 86.8884 o
101.562 85.2006 o
81.2657 85.278 o
68.7623 79.679 o
110.857 84.2951 o
119.041 72.2806 o
96.302 92.083 o
100.804 89.846 o
100.027 84.1848 o
83.0796 88.7716 o
96.0348 80.8864 o
111.887 95.7145 o
95.1448 87.2276 o
97.5431 87.3568 o
100.9 84.9001 o
88.5745 85.2497 o
91.8662 95.9671 o
85.9078 86.4866 o
95.5985 86.4846 o
127.527 98.604 o
96.6644 88.3453 o
57.1691 90.8617 o
99.7758 82.9207 o
78.8203 83.3993 o
77.908 85.8163 o
89.0337 87.1482 o
89.5309 91.4239 o
102.336 84.425 o
132.185 92.4535 o
116.137 83.6376 o
101.575 85.1157 o
103.192 85.2305 o
110.683 85.3232 o
68.8166 89.1734 o
79.142 84.1001 o
93.6839 86.6243 o
98.1548 87.6743 o
119.066 101.96 o
92.639 83.2676 o
103.861 80.0856 o
106.262 87.5105 o
73.3957 80.6725 o
100.316 74.5207 o
69.267 102.572 o
88.0478 85.5276 o
135.605 77.2234 o
83.0035 70.208 o
82.2209 93.5537 o
74.5623 100.785 o
91.0557 100.866 o
123.679 58.6178 o
101.573 79.7286 o
86.8459 85.7606 o
114.797 86.6113 o
106.474 79.8694 o
101.33 75.9549 o
77.5645 99.6589 o
86.886 65.1046 o
106.282 81.6379 o
86.4584 87.006 o
106.408 91.2803 o
87.6649 93.1881 o
93.7489 80.5669 o
84.5311 75.9745 o
99.2686 86.941 o
107.381 87.967 o
130.943 74.8029 o
117.118 71.9328 o
94.0664 86.8136 o
98.671 80.7462 o
84.5087 80.2757 o
91.902 83.6903 o
91.0757 91.7389 o
100.175 83.1869 o
90.021 94.2257 o
95.9577 86.6468 o
70.6111 65.6734 o
99.8403 90.5167 o
98.5269 89.1592 o
106.674 85.3785 o
70.7789 93.0795 o
90.4624 87.6333 o
94.8844 86.7173 o
103.54 92.6175 o
96.3477 84.076 o
96.5855 79.9718 o
92.8817 78.2892 o
89.4382 79.4934 o
89.8228 83.0558 o
76.5987 88.73 o
154.18 92.5912 o
81.2647 87.9187 o
101.125 85.3382 o
99.9337 82.6834 o
135.938 71.8525 o
109.613 85.2244 o
94.5617 87.1552 o
97.5966 94.3618 o
93.1481 85.9042 o
122.849 81.9888 o
126.79 92.0299 o
88.5393 85.5314 o
119.36 79.4642 o
104.853 89.951 o
69.4465 86.5041 o
107.538 87.7118 o
100.969 85.1617 o
100.946 89.5463 o
80.9186 142.401 o
103.857 87.0136 o
79.7382 78.537 o
105.983 93.4615 o
87.2052 86.3311 o
93.2782 82.4192 o
109.444 90.9375 o
88.5868 85.6936 o
130.994 100.505 o
81.3852 87.8116 o
92.6386 87.5467 o
79.3311 103.012 o
69.7533 84.6261 o
99.435 83.2418 o
99.63 85.644 o
121.866 80.9173 o
90.5307 86.6695 o
104.503 64.2676 o
83.378 87.1301 o
90.1576 84.6098 o
78.2164 80.3123 o
95.9272 87.4546 o
98.2112 83.5495 o
94.0117 82.4063 o
124.582 87.3299 o
93.7146 82.8964 o
109.824 91.7316 o
85.4123 92.1848 o
112.403 63.9612 o
90.0429 90.6268 o
92.381 86.6428 o
89.5213 90.1861 o
103.668 87.4943 o
107.592 84.2856 o
96.228 92.2246 o
91.0317 83.5974 o
89.6253 84.0477 o
60.1345 103.467 o
94.4586 87.0862 o
126.342 96.1387 o
122.736 83.9591 o
79.0292 78.3263 o
93.5252 86.0351 o
83.835 56.3217 o
89.2205 95.0588 o
102.195 101.036 o
72.7388 81.0791 o
68.8954 85.0276 o
58.7128 85.7094 o
90.5552 80.7794 o
98.3844 100.704 o
81.0883 87.1268 o
111.614 93.0199 o
100.161 87.5122 o
111.504 89.7609 o
81.4601 83.8011 o
82.9042 88.5398 o
85.9301 85.5239 o
84.6851 96.729 o
106.498 78.4269 o
103.049 80.0309 o
115.023 83.2666 o
96.1872 84.5721 o
96.8843 90.2222 o
90.5271 82.3028 o
78.8251 85.9094 o
113.523 86.9927 o
100.343 89.6335 o
102.612 72.6937 o
48.8119 80.51 o
103.156 91.3744 o
109.316 87.6783 o
89.6652 80.334 o
97.6315 88.4742 o
106.715 70.7317 o
97.8192 85.4841 o
145.814 87.1593 o
110.629 104.413 o
99.7842 86.7562 o
102.483 98.4312 o
120.124 90.3241 o
80.0552 87.6212 o
96.0013 83.7701 o
96.0079 87.7819 o
120.5 98.0843 o
83.0399 79.5958 o
78.4963 99.019 o
119.092 89.2818 o
48.9932 91.3283 o
83.5741 84.9147 o
104.842 86.9458 o
84.1732 103.65 o
114.037 83.734 o
75.6906 88.3157 o
57.3143 98.6688 o
124.145 93.6883 o
84.9519 87.4296 o
107.855 84.3254 o
75.5934 100.888 o
109.695 84.1265 o
86.3806 87.3935 o
101.23 84.9943 o
88.333 86.5553 o
91.3486 82.5307 o
83.0272 90.0901 o
76.6703 114.152 o
103.655 87.5521 o
95.1791 70.1106 o
80.8813 95.5034 o
109.273 90.8625 o
115.503 100.595 o
109.263 85.611 o
93.8076 86.2149 o
110.673 86.7481 o
88.3962 86.1166 o
93.8236 87.8058 o
81.1906 80.8126 o
105.006 91.3544 o
86.0691 91.242 o
112.36 68.0684 o
108.37 83.8435 o
92.7854 87.3926 o
105.123 89.5179 o
78.6018 78.356 o
79.9907 86.9102 o
68.0448 80.0026 o
75.8124 77.2053 o
98.0271 87.7098 o
99.3744 84.5752 o
65.5259 54.4009 o
96.3936 87.1405 o
93.9109 86.7957 o
125.996 96.5855 o
96.8077 77.7371 o
58.1821 81.1411 o
87.2736 88.4041 o
141.598 80.1147 o
94.6104 87.03 o
105.782 88.2351 o
107.76 87.1334 o
90.4137 87.2305 o
67.1605 53.4447 o
96.5996 85.4242 o
112.804 97.0518 o
66.431 81.7254 o
89.7412 75.5445 o
102.568 84.853 o
111.752 90.2275 o
88.5468 85.3987 o
116.069 89.5194 o
98.9136 82.4311 o
101.235 86.0928 o
100.362 70.5865 o
106.923 88.2476 o
79.6221 101.825 o
87.1214 86.4225 o
92.1098 92.6444 o
120.938 75.6893 o
87.3793 86.5592 o
94.0207 87.3256 o
101.699 84.6168 o
82.3882 79.5623 o
92.2679 89.0905 o
103.012 82.4732 o
119.661 81.7431 o
92.5579 68.8944 o
70.5928 90.6119 o
76.1313 79.929 o
80.8033 83.1575 o
72.641 69.701 o
100.611 85.8301 o
71.7473 70.0802 o
90.4887 83.8353 o
108.084 89.1701 o
89.3782 85.9533 o
130.558 69.8647 o
62.9661 80.2985 o
76.2255 86.2624 o
106.48 83.6138 o
136.679 82.7816 o
91.88 81.0003 o
111.258 79.1356 o
91.149 84.2153 o
119.636 78.135 o
96.9486 100.501 o
73.3769 76.9485 o
93.749 93.0683 o
99.4669 82.3918 o
113.849 97.8174 o
90.2179 86.8835 o
92.3897 86.7789 o
91.0131 86.3951 o
102.862 88.7565 o
112.971 87.0017 o
101.528 84.8632 o
85.6733 81.7216 o
88.7794 80.7551 o
75.1248 87.0289 o
95.8454 87.3014 o
108.067 88.3321 o
71.1878 97.4356 o
114.567 84.5008 o
87.375 88.4997 o
110.975 58.6973 o
108.93 79.032 o
85.7907 73.9351 o
96.4353 87.1966 o
89.8848 89.6513 o
97.8896 84.6272 o
150.99 89.0851 o
93.9857 87.1686 o
74.1159 94.8664 o
91.901 85.804 o
77.7075 98.1073 o
99.1288 85.6494 o
93.8262 87.4086 o
96.1174 86.4831 o
101.241 88.3007 o
68.7852 97.7665 o
84.7714 83.041 o
109.482 89.3705 o
85.3286 82.9336 o
88.7601 87.3335 o
119.076 64.8844 o
88.3013 84.3753 o
89.7773 82.9356 o
88.8917 87.6734 o
107.76 99.5588 o
91.9123 85.9901 o
86.1867 90.1986 o
90.082 87.3882 o
86.5877 88.5807 o
74.8653 86.5941 o
77.7169 84.3556 o
138.825 85.7741 o
87.0149 100.798 o
77.9967 91.7841 o
96.0274 88.9899 o
111.796 80.2085 o
120.693 68.9692 o
79.105 85.6609 o
91.4119 88.0145 o
101.524 87.0403 o
113.565 87.1836 o
84.4492 91.845 o
99.1994 90.363 o
85.9527 89.4119 o
99.053 87.3672 o
95.9091 85.329 o
89.2062 82.7525 o
88.864 92.1051 o
92.7916 85.5038 o
103.474 96.936 o
99.153 88.5056 o
100.668 68.9884 o
88.2333 88.89 o
84.6664 92.739 o
86.2075 90.6959 o
86.5232 81.7047 o
102.532 88.6357 o
130.08 91.1253 o
93.5551 82.0376 o
107.845 87.872 o
106.79 86.477 o
93.0651 86.0776 o
87.4778 87.5456 o
94.8771 86.6001 o
72.5135 83.1199 o
77.2786 87.3602 o
105.786 84.5316 o
68.1443 102.123 o
110.901 85.6685 o
89.4579 82.1527 o
98.0234 83.0676 o
86.9671 88.2761 o
96.0354 88.4672 o
80.9675 102.644 o
91.8974 82.0161 o
81.0166 82.755 o
89.5366 86.1895 o
93.0455 87.9259 o
83.1039 86.2529 o
111.385 104.385 o
122.028 89.4756 o
95.2337 72.9822 o
91.995 84.8408 o
82.6989 86.9571 o
109.38 84.0459 o
94.6228 86.2751 o
93.7774 82.2374 o
75.2024 95.7987 o
106.822 87.1112 o
104.763 88.7963 o
42.6892 93.5641 o
104.246 77.1507 o
85.23 94.9514 o
80.5223 87.3573 o
106.586 94.0588 o
128.184 91.0351 o
67.1976 66.2217 o
70.9127 73.9149 o
101.237 103.931 o
74.0746 87.7176 o
99.3638 95.0345 o
106.977 79.5298 o
131.163 88.8764 o
105.721 83.2934 o
114.742 72.5738 o
110.516 66.1193 o
79.2996 87.0166 o
100.759 85.6327 o
87.4951 80.8475 o
110.464 81.718 o
106.354 85.2664 o
98.0352 86.8382 o
123.593 91.8891 o
138.044 103.833 o
81.8976 92.9655 o
95.4278 87.9069 o
84.9248 86.3661 o
141.871 80.6516 o
123.944 94.3108 o
109.278 86.8321 o
100.76 90.486 o
83.9455 87.7895 o
104.436 78.7736 o
149.524 106.622 o
79.5341 94.8904 o
99.2702 81.5411 o
70.696 87.8015 o
92.059 86.1656 o
94.917 85.7348 o
79.7346 84.0694 o
107.878 72.1721 o
77.5277 74.484 o
106.048 86.3798 o
87.8076 81.5415 o
121.247 78.5999 o
131.413 90.1257 o
90.7156 85.9635 o
92.2517 96.3631 o
89.7236 86.1006 o
97.3479 74.7215 o
105.598 93.4814 o
78.0294 93.6406 o
67.7776 102.684 o
102.793 86.6317 o
63.3751 80.0103 o
92.6709 92.142 o
103.689 85.1417 o
105.347 85.4373 o
114.307 88.0672 o
109.067 88.2311 o
80.8211 83.8098 o
99.9976 79.6227 o
78.7531 87.2986 o
89.5322 66.408 o
100.547 84.6316 o
102.774 84.6321 o
101.06 88.1065 o
97.4073 89.982 o
46.7731 92.3334 o
83.4092 86.4269 o
103.836 89.1009 o
99.944 85.677 o
87.4525 89.2591 o
108.547 84.4071 o
96.7512 79.014 o
92.7391 85.9891 o
118.4 96.2499 o
86.8894 83.7691 o
112.555 94.6847 o
94.7281 87.8682 o
103.692 91.076 o
90.1096 87.4033 o
104.239 96.8829 o
105.965 101.405 o
117.421 72.0807 o
129.284 73.7096 o
86.7984 84.9444 o
84.2444 85.324 o
105.059 90.0879 o
86.1391 92.332 o
88.4094 85.3165 o
93.542 87.6449 o
88.9256 84.7373 o
89.1744 52.2032 o
90.0755 88.0151 o
84.7725 89.4855 o
56.4861 79.9576 o
119.304 72.4345 o
89.1363 100.304 o
88.511 86.5596 o
79.2681 86.9649 o
76.9788 84.4674 o
74.9229 90.8303 o
160.719 93.632 o
78.8952 86.0753 o
92.1857 86.4176 o
86.73 88.2633 o
132.59 72.0963 o
153.583 76.556 o
107.207 92.294 o
93.65 88.5377 o
85.9198 88.0199 o
84.7529 90.1516 o
77.8973 91.2866 o
89.3277 83.914 o
85.7946 91.4456 o
81.5409 82.0584 o
127.677 88.7585 o
101.131 82.4564 o
128.579 93.3225 o
85.1654 91.5194 o
93.7209 87.4655 o
102.231 90.9908 o
85.4181 89.0165 o
95.008 86.5137 o
85.78 83.1035 o
106.146 85.0456 o
93.3958 75.9705 o
104.397 90.4676 o
73.6067 84.0684 o
78.8819 87.2786 o
78.3852 103.613 o
88.2252 85.726 o
94.7522 83.8285 o
100.93 87.5331 o
76.5879 80.4814 o
83.5055 84.9182 o
85.4395 84.0016 o
80.6137 86.6991 o
103.78 88.7088 o
107.279 85.7269 o
91.4467 87.8329 o
124.133 84.6653 o
95.4194 74.7126 o
100.666 87.3919 o
90.661 85.6487 o
94.5006 77.6904 o
107.463 87.8075 o
92.4696 103.895 o
80.5965 85.6276 o
124.66 97.9399 o
104.428 82.4788 o
71.7362 85.7533 o
93.4673 86.5364 o
103.566 85.4756 o
101.824 89.1142 o
102.312 86.5413 o
97.6125 88.3956 o
84.9244 85.4638 o
91.1118 85.1428 o
124.79 94.8087 o
91.2675 85.3487 o
104.807 88.3221 o
95.4911 87.9858 o
108.277 80.4415 o
95.8714 74.6205 o
85.1777 87.8221 o
95.8199 84.6854 o
93.0736 88.4226 o
73.4655 57.5082 o
93.7474 87.1074 o
107.54 86.982 o
92.9565 82.2594 o
94.5683 85.6389 o
93.4385 87.9784 o
81.3122 84.6439 o
94.8657 86.6477 o
73.0259 71.1345 o
98.404 83.4522 o
104.866 94.611 o
101.017 82.496 o
89.6716 93.0433 o
71.3496 69.7312 o
104.11 72.9406 o
94.3636 87.8392 o
99.6405 89.4673 o
82.9557 91.026 o
109.386 89.2326 o
89.9731 70.0219 o
106.324 86.6825 o
109.648 92.1457 o
100.772 89.6899 o
94.2536 86.1297 o
90.5411 90.3072 o
103.408 91.7449 o
75.1928 83.7858 o
99.3232 85.1676 o
97.939 88.556 o
120.168 74.659 o
87.7853 87.494 o
91.1731 88.2957 o
129.538 99.8984 o
95.2481 83.3412 o
86.5389 83.6903 o
67.3276 99.5245 o
59.2311 78.5501 o
94.7509 87.2224 o
62.953 93.2583 o
117.739 85.4734 o
96.5141 87.2448 o
85.1996 69.2845 o
84.1411 85.006 o
108.101 85.374 o
93.3117 86.0607 o
98.2541 85.8046 o
87.4988 83.4513 o
42.7259 92.3691 o
110.545 83.6544 o
98.7801 81.4916 o
90.8464 85.3029 o
96.233 81.2205 o
90.5069 87.0764 o
109.245 79.371 o
96.9166 77.2954 o
97.8038 87.2521 o
108.172 67.7209 o
91.3548 88.3326 o
109.49 93.0555 o
99.4004 83.4212 o
61.7915 71.1805 o
104.585 76.9528 o
95.7445 75.5161 o
91.8155 87.3712 o
126.159 95.4483 o
113.026 84.0327 o
92.5758 80.5989 o
95.3171 85.862 o
77.5553 111.523 o
102.792 86.3089 o
50.5802 86.1914 o
106.624 82.0924 o
87.3095 87.1379 o
98.5737 88.075 o
92.9765 86.35 o
74.7106 87.3393 o
92.2902 88.4122 o
95.8963 78.2472 o
97.696 88.1412 o
113.866 81.7882 o
94.4995 86.1177 o
115.881 83.1675 o
116.819 84.0641 o
72.2444 75.2557 o
97.7161 87.9673 o
92.9861 88.9635 o
99.4973 90.0727 o
69.5149 81.809 o
103.085 110.502 o
103.219 87.6914 o
98.5115 89.0339 o
86.3787 88.8453 o
93.8382 79.4861 o
86.0004 109.488 o
89.8795 84.8321 o
88.2803 84.1418 o
82.0479 84.1269 o
99.043 92.9269 o
95.6946 85.163 o
105.377 89.4199 o
110.664 89.9461 o
85.2825 87.3903 o
66.2199 79.0047 o
67.0031 84.4981 o
87.8341 87.0083 o
73.4664 85.177 o
109.728 84.8718 o
89.3886 91.4144 o
110.126 85.6748 o
108.084 100.449 o
99.7262 87.3974 o
96.2605 78.3145 o
84.7438 86.5103 o
107.451 85.0043 o
88.4787 88.2419 o
106.956 88.6614 o
147.171 83.178 o
125.23 85.4697 o
109.064 81.2991 o
94.5 75.072 o
91.1108 86.7713 o
137.384 76.7503 o
88.5189 85.952 o
88.225 81.0189 o
93.9943 90.9176 o
70.5117 76.8728 o
104.88 89.0915 o
94.3242 86.5251 o
155.288 79.6121 o
94.3399 86.639 o
140.749 74.7162 o
91.4448 85.2375 o
78.3796 79.1085 o
102.907 79.1195 o
101.54 84.7672 o
79.5243 89.9189 o
90.9736 87.8552 o
124.774 103.05 o
104.707 79.157 o
110.499 69.6468 o
102.639 86.9271 o
84.4243 89.6373 o
81.6462 80.4466 o
70.0949 85.9739 o
96.3225 86.0866 o
73.5577 88.8469 o
91.1886 101.437 o
91.358 86.4485 o
133.229 90.3023 o
101.034 77.8372 o
63.563 100.121 o
96.109 85.9475 o
107.488 80.62 o
82.2961 86.4456 o
122.986 110.362 o
106.598 82.0968 o
94.5874 86.9172 o
87.3538 84.6421 o
129.358 72.9571 o
83.6698 88.1666 o
93.9511 86.4811 o
99.9749 87.845 o
106.065 83.4621 o
105.005 86.6726 o
97.913 77.7007 o
69.639 84.4695 o
87.0291 98.0284 o
67.5626 83.6176 o
112.682 88.5917 o
103.033 88.2064 o
100.728 85.7102 o
134.303 71.9897 o
grestore
0.502 setgray
gsave
140.4 126 34.2 36 clipbox
/o {
gsave
newpath
translate
0.5 setlinewidth
1 setlinejoin
0 setlinecap
0 -0.25 m
0.0663008 -0.25 0.129895 -0.223658 0.176777 -0.176777 c
0.223658 -0.129895 0.25 -0.0663008 0.25 0 c
0.25 0.0663008 0.223658 0.129895 0.176777 0.176777 c
0.129895 0.223658 0.0663008 0.25 0 0.25 c
-0.0663008 0.25 -0.129895 0.223658 -0.176777 0.176777 c
-0.223658 0.129895 -0.25 0.0663008 -0.25 0 c
-0.25 -0.0663008 -0.223658 -0.129895 -0.176777 -0.176777 c
-0.129895 -0.223658 -0.0663008 -0.25 0 -0.25 c
cl
gsave
0.502 setgray
fill
grestore
stroke
grestore
} bind def
95.162 82.4326 o
93.8033 81.5403 o
98.0061 82.3559 o
97.9707 82.0177 o
94.1372 81.395 o
94.973 82.1493 o
101.731 82.8043 o
98.188 80.8884 o
93.2836 80.6406 o
100.615 81.5737 o
101.432 81.793 o
94.6676 80.2165 o
100.677 82.625 o
99.7588 83.2377 o
96.0348 80.8864 o
93.7489 80.5669 o
grestore
0.000 1.000 1.000 setrgbcolor
gsave
140.4 126 34.2 36 clipbox
/o {
gsave
newpath
translate
0.5 setlinewidth
1 setlinejoin
0 setlinecap
0 -0.25 m
0.0663008 -0.25 0.129895 -0.223658 0.176777 -0.176777 c
0.223658 -0.129895 0.25 -0.0663008 0.25 0 c
0.25 0.0663008 0.223658 0.129895 0.176777 0.176777 c
0.129895 0.223658 0.0663008 0.25 0 0.25 c
-0.0663008 0.25 -0.129895 0.223658 -0.176777 0.176777 c
-0.223658 0.129895 -0.25 0.0663008 -0.25 0 c
-0.25 -0.0663008 -0.223658 -0.129895 -0.176777 -0.176777 c
-0.129895 -0.223658 -0.0663008 -0.25 0 -0.25 c
cl
gsave
0.000 1.000 1.000 setrgbcolor
fill
grestore
stroke
grestore
} bind def
96.3763 82.3318 o
93.2797 81.2553 o
97.0309 82.4643 o
94.1997 81.8582 o
97.0677 82.8123 o
98.1348 82.1747 o
94.592 80.8837 o
96.8738 81.8035 o
97.1394 82.6457 o
95.4117 81.803 o
97.7918 82.8609 o
93.8634 81.6284 o
97.1309 83.1839 o
94.0982 80.9362 o
94.9634 82.5501 o
95.3949 82.2504 o
96.3527 81.8193 o
95.1835 81.5847 o
95.5567 83.0311 o
95.8891 82.9792 o
96.7943 82.4491 o
96.8081 82.599 o
95.4774 81.2049 o
95.2611 82.4237 o
94.8 80.3893 o
94.3106 80.5476 o
96.8171 82.8944 o
98.7957 81.8425 o
95.8645 80.9035 o
96.2946 80.8918 o
96.6643 81.3824 o
95.4547 81.9369 o
95.0663 81.0921 o
97.6524 82.4696 o
95.9709 82.9457 o
95.0431 82.2237 o
96.6496 82.4095 o
95.6235 81.0681 o
97.1099 81.3072 o
96.9434 82.0985 o
98.1234 81.9694 o
96.0646 81.5607 o
95.0663 81.0921 o
95.7362 82.5346 o
95.0613 81.5969 o
94.4764 80.9805 o
grestore
1.000 0.000 0.000 setrgbcolor
gsave
140.4 126 34.2 36 clipbox
/o {
gsave
newpath
translate
0.5 setlinewidth
1 setlinejoin
0 setlinecap
0 -0.25 m
0.0663008 -0.25 0.129895 -0.223658 0.176777 -0.176777 c
0.223658 -0.129895 0.25 -0.0663008 0.25 0 c
0.25 0.0663008 0.223658 0.129895 0.176777 0.176777 c
0.129895 0.223658 0.0663008 0.25 0 0.25 c
-0.0663008 0.25 -0.129895 0.223658 -0.176777 0.176777 c
-0.223658 0.129895 -0.25 0.0663008 -0.25 0 c
-0.25 -0.0663008 -0.223658 -0.129895 -0.176777 -0.176777 c
-0.129895 -0.223658 -0.0663008 -0.25 0 -0.25 c
cl
gsave
1.000 0.000 0.000 setrgbcolor
fill
grestore
stroke
grestore
} bind def
87.0784 93.7154 o
88.2547 95.2384 o
87.8333 94.8952 o
88.6933 94.0359 o
87.8771 94.2709 o
89.5684 95.07 o
89.2483 95.0234 o
90.0559 95.5923 o
89.7686 95.3771 o
89.0003 93.3422 o
90.1946 94.9102 o
89.985 94.0965 o
89.8395 96.0897 o
91.8295 94.9594 o
89.1634 95.2334 o
90.2836 94.9067 o
90.5228 94.5026 o
90.922 94.0517 o
grestore
1.000 setlinewidth
0 setlinejoin
2 setlinecap
0.000 setgray
gsave
34.2 162 m
174.6 162 l
stroke
grestore
gsave
174.6 36 m
174.6 162 l
stroke
grestore
gsave
34.2 36 m
174.6 36 l
stroke
grestore
gsave
34.2 36 m
34.2 162 l
stroke
grestore
0.500 setlinewidth
1 setlinejoin
0 setlinecap
gsave
/o {
gsave
newpath
translate
0.5 setlinewidth
1 setlinejoin
0 setlinecap
0 0 m
0 4 l
gsave
0.000 setgray
fill
grestore
stroke
grestore
} bind def
34.2 36 o
grestore
gsave
/o {
gsave
newpath
translate
0.5 setlinewidth
1 setlinejoin
0 setlinecap
0 0 m
0 -4 l
gsave
0.000 setgray
fill
grestore
stroke
grestore
} bind def
34.2 162 o
grestore
/BitstreamVeraSans-Roman findfont
6.000 scalefont
setfont
gsave
28.387500 27.437500 translate
0.000000 rotate
0.000000 0.000000 m /minus glyphshow
5.027344 0.000000 m /six glyphshow
8.844727 0.000000 m /zero glyphshow
grestore
gsave
/o {
gsave
newpath
translate
0.5 setlinewidth
1 setlinejoin
0 setlinecap
0 0 m
0 4 l
gsave
0.000 setgray
fill
grestore
stroke
grestore
} bind def
54.2571 36 o
grestore
gsave
/o {
gsave
newpath
translate
0.5 setlinewidth
1 setlinejoin
0 setlinecap
0 0 m
0 -4 l
gsave
0.000 setgray
fill
grestore
stroke
grestore
} bind def
54.2571 162 o
grestore
gsave
48.444643 27.437500 translate
0.000000 rotate
0.000000 0.000000 m /minus glyphshow
5.027344 0.000000 m /four glyphshow
8.844727 0.000000 m /zero glyphshow
grestore
gsave
/o {
gsave
newpath
translate
0.5 setlinewidth
1 setlinejoin
0 setlinecap
0 0 m
0 4 l
gsave
0.000 setgray
fill
grestore
stroke
grestore
} bind def
74.3143 36 o
grestore
gsave
/o {
gsave
newpath
translate
0.5 setlinewidth
1 setlinejoin
0 setlinecap
0 0 m
0 -4 l
gsave
0.000 setgray
fill
grestore
stroke
grestore
} bind def
74.3143 162 o
grestore
gsave
68.501786 27.437500 translate
0.000000 rotate
0.000000 0.000000 m /minus glyphshow
5.027344 0.000000 m /two glyphshow
8.844727 0.000000 m /zero glyphshow
grestore
gsave
/o {
gsave
newpath
translate
0.5 setlinewidth
1 setlinejoin
0 setlinecap
0 0 m
0 4 l
gsave
0.000 setgray
fill
grestore
stroke
grestore
} bind def
94.3714 36 o
grestore
gsave
/o {
gsave
newpath
translate
0.5 setlinewidth
1 setlinejoin
0 setlinecap
0 0 m
0 -4 l
gsave
0.000 setgray
fill
grestore
stroke
grestore
} bind def
94.3714 162 o
grestore
gsave
92.855804 27.437500 translate
0.000000 rotate
0.000000 0.000000 m /zero glyphshow
grestore
gsave
/o {
gsave
newpath
translate
0.5 setlinewidth
1 setlinejoin
0 setlinecap
0 0 m
0 4 l
gsave
0.000 setgray
fill
grestore
stroke
grestore
} bind def
114.429 36 o
grestore
gsave
/o {
gsave
newpath
translate
0.5 setlinewidth
1 setlinejoin
0 setlinecap
0 0 m
0 -4 l
gsave
0.000 setgray
fill
grestore
stroke
grestore
} bind def
114.429 162 o
grestore
gsave
111.030134 27.437500 translate
0.000000 rotate
0.000000 0.000000 m /two glyphshow
3.817383 0.000000 m /zero glyphshow
grestore
gsave
/o {
gsave
newpath
translate
0.5 setlinewidth
1 setlinejoin
0 setlinecap
0 0 m
0 4 l
gsave
0.000 setgray
fill
grestore
stroke
grestore
} bind def
134.486 36 o
grestore
gsave
/o {
gsave
newpath
translate
0.5 setlinewidth
1 setlinejoin
0 setlinecap
0 0 m
0 -4 l
gsave
0.000 setgray
fill
grestore
stroke
grestore
} bind def
134.486 162 o
grestore
gsave
131.016964 27.437500 translate
0.000000 rotate
0.000000 0.000000 m /four glyphshow
3.817383 0.000000 m /zero glyphshow
grestore
gsave
/o {
gsave
newpath
translate
0.5 setlinewidth
1 setlinejoin
0 setlinecap
0 0 m
0 4 l
gsave
0.000 setgray
fill
grestore
stroke
grestore
} bind def
154.543 36 o
grestore
gsave
/o {
gsave
newpath
translate
0.5 setlinewidth
1 setlinejoin
0 setlinecap
0 0 m
0 -4 l
gsave
0.000 setgray
fill
grestore
stroke
grestore
} bind def
154.543 162 o
grestore
gsave
151.136607 27.437500 translate
0.000000 rotate
0.000000 0.000000 m /six glyphshow
3.817383 0.000000 m /zero glyphshow
grestore
gsave
/o {
gsave
newpath
translate
0.5 setlinewidth
1 setlinejoin
0 setlinecap
0 0 m
0 4 l
gsave
0.000 setgray
fill
grestore
stroke
grestore
} bind def
174.6 36 o
grestore
gsave
/o {
gsave
newpath
translate
0.5 setlinewidth
1 setlinejoin
0 setlinecap
0 0 m
0 -4 l
gsave
0.000 setgray
fill
grestore
stroke
grestore
} bind def
174.6 162 o
grestore
gsave
171.185937 27.437500 translate
0.000000 rotate
0.000000 0.000000 m /eight glyphshow
3.817383 0.000000 m /zero glyphshow
grestore
gsave
90.900000 15.187500 translate
0.000000 rotate
/Cmr10 findfont
8.0 scalefont
setfont
0.000000 0.000000 moveto
/X glyphshow

/BitstreamVeraSans-Roman findfont
8.0 scalefont
setfont
6.000000 0.000000 moveto
/space glyphshow

/Cmr10 findfont
8.0 scalefont
setfont
8.542969 0.000000 moveto
/parenleft glyphshow

11.648438 0.000000 moveto
/k glyphshow

15.863281 0.000000 moveto
/p glyphshow

20.304688 0.000000 moveto
/c glyphshow

23.855469 0.000000 moveto
/parenright glyphshow


grestore
gsave
/o {
gsave
newpath
translate
0.5 setlinewidth
1 setlinejoin
0 setlinecap
0 0 m
4 0 l
gsave
0.000 setgray
fill
grestore
stroke
grestore
} bind def
34.2 36 o
grestore
gsave
/o {
gsave
newpath
translate
0.5 setlinewidth
1 setlinejoin
0 setlinecap
0 0 m
-4 0 l
gsave
0.000 setgray
fill
grestore
stroke
grestore
} bind def
174.6 36 o
grestore
gsave
14.762500 34.343750 translate
0.000000 rotate
0.000000 0.000000 m /minus glyphshow
5.027344 0.000000 m /one glyphshow
8.844727 0.000000 m /zero glyphshow
12.662109 0.000000 m /zero glyphshow
grestore
gsave
/o {
gsave
newpath
translate
0.5 setlinewidth
1 setlinejoin
0 setlinecap
0 0 m
4 0 l
gsave
0.000 setgray
fill
grestore
stroke
grestore
} bind def
34.2 61.2 o
grestore
gsave
/o {
gsave
newpath
translate
0.5 setlinewidth
1 setlinejoin
0 setlinecap
0 0 m
-4 0 l
gsave
0.000 setgray
fill
grestore
stroke
grestore
} bind def
174.6 61.2 o
grestore
gsave
18.575000 59.543750 translate
0.000000 rotate
0.000000 0.000000 m /minus glyphshow
5.027344 0.000000 m /five glyphshow
8.844727 0.000000 m /zero glyphshow
grestore
gsave
/o {
gsave
newpath
translate
0.5 setlinewidth
1 setlinejoin
0 setlinecap
0 0 m
4 0 l
gsave
0.000 setgray
fill
grestore
stroke
grestore
} bind def
34.2 86.4 o
grestore
gsave
/o {
gsave
newpath
translate
0.5 setlinewidth
1 setlinejoin
0 setlinecap
0 0 m
-4 0 l
gsave
0.000 setgray
fill
grestore
stroke
grestore
} bind def
174.6 86.4 o
grestore
gsave
27.168750 84.743750 translate
0.000000 rotate
0.000000 0.000000 m /zero glyphshow
grestore
gsave
/o {
gsave
newpath
translate
0.5 setlinewidth
1 setlinejoin
0 setlinecap
0 0 m
4 0 l
gsave
0.000 setgray
fill
grestore
stroke
grestore
} bind def
34.2 111.6 o
grestore
gsave
/o {
gsave
newpath
translate
0.5 setlinewidth
1 setlinejoin
0 setlinecap
0 0 m
-4 0 l
gsave
0.000 setgray
fill
grestore
stroke
grestore
} bind def
174.6 111.6 o
grestore
gsave
23.434375 109.943750 translate
0.000000 rotate
0.000000 0.000000 m /five glyphshow
3.817383 0.000000 m /zero glyphshow
grestore
gsave
/o {
gsave
newpath
translate
0.5 setlinewidth
1 setlinejoin
0 setlinecap
0 0 m
4 0 l
gsave
0.000 setgray
fill
grestore
stroke
grestore
} bind def
34.2 136.8 o
grestore
gsave
/o {
gsave
newpath
translate
0.5 setlinewidth
1 setlinejoin
0 setlinecap
0 0 m
-4 0 l
gsave
0.000 setgray
fill
grestore
stroke
grestore
} bind def
174.6 136.8 o
grestore
gsave
19.809375 135.143750 translate
0.000000 rotate
0.000000 0.000000 m /one glyphshow
3.817383 0.000000 m /zero glyphshow
7.634766 0.000000 m /zero glyphshow
grestore
gsave
/o {
gsave
newpath
translate
0.5 setlinewidth
1 setlinejoin
0 setlinecap
0 0 m
4 0 l
gsave
0.000 setgray
fill
grestore
stroke
grestore
} bind def
34.2 162 o
grestore
gsave
/o {
gsave
newpath
translate
0.5 setlinewidth
1 setlinejoin
0 setlinecap
0 0 m
-4 0 l
gsave
0.000 setgray
fill
grestore
stroke
grestore
} bind def
174.6 162 o
grestore
gsave
19.809375 160.343750 translate
0.000000 rotate
0.000000 0.000000 m /one glyphshow
3.817383 0.000000 m /five glyphshow
7.634766 0.000000 m /zero glyphshow
grestore
gsave
7.762500 86.000000 translate
90.000000 rotate
/Cmr10 findfont
8.0 scalefont
setfont
0.000000 0.000000 moveto
/Z glyphshow

/BitstreamVeraSans-Roman findfont
8.0 scalefont
setfont
4.886719 0.000000 moveto
/space glyphshow

/Cmr10 findfont
8.0 scalefont
setfont
7.429688 0.000000 moveto
/parenleft glyphshow

10.535156 0.000000 moveto
/k glyphshow

14.750000 0.000000 moveto
/p glyphshow

19.191406 0.000000 moveto
/c glyphshow

22.742188 0.000000 moveto
/parenright glyphshow


grestore

end
showpage
