%!PS-Adobe-3.0 EPSF-3.0
%%Title: /Users/iuliasimion/bullock_johnston/denis_erkal/vasily/Figures/69684_1351496.0_xy.eps
%%Creator: matplotlib version 1.4.3, http://matplotlib.org/
%%CreationDate: Sat Aug 19 14:41:38 2017
%%Orientation: portrait
%%BoundingBox: 216 306 396 486
%%EndComments
%%BeginProlog
/mpldict 9 dict def
mpldict begin
/m { moveto } bind def
/l { lineto } bind def
/r { rlineto } bind def
/c { curveto } bind def
/cl { closepath } bind def
/box {
m
1 index 0 r
0 exch r
neg 0 r
cl
} bind def
/clipbox {
box
clip
newpath
} bind def
%!PS-Adobe-3.0 Resource-Font
%%Title: Bitstream Vera Sans
%%Copyright: Copyright (c) 2003 by Bitstream, Inc. All Rights Reserved.
%%Creator: Converted from TrueType to type 3 by PPR
25 dict begin
/_d{bind def}bind def
/_m{moveto}_d
/_l{lineto}_d
/_cl{closepath eofill}_d
/_c{curveto}_d
/_sc{7 -1 roll{setcachedevice}{pop pop pop pop pop pop}ifelse}_d
/_e{exec}_d
/FontName /BitstreamVeraSans-Roman def
/PaintType 0 def
/FontMatrix[.001 0 0 .001 0 0]def
/FontBBox[-183 -236 1287 928]def
/FontType 3 def
/Encoding [ /space /zero /two /four /six /eight /minus ] def
/FontInfo 10 dict dup begin
/FamilyName (Bitstream Vera Sans) def
/FullName (Bitstream Vera Sans) def
/Notice (Copyright (c) 2003 by Bitstream, Inc. All Rights Reserved. Bitstream Vera is a trademark of Bitstream, Inc.) def
/Weight (Roman) def
/Version (Release 1.10) def
/ItalicAngle 0.0 def
/isFixedPitch false def
/UnderlinePosition -213 def
/UnderlineThickness 143 def
end readonly def
/CharStrings 7 dict dup begin
/space{318 0 0 0 0 0 _sc
}_d
/zero{636 0 66 -13 570 742 _sc
318 664 _m
267 664 229 639 203 589 _c
177 539 165 464 165 364 _c
165 264 177 189 203 139 _c
229 89 267 64 318 64 _c
369 64 407 89 433 139 _c
458 189 471 264 471 364 _c
471 464 458 539 433 589 _c
407 639 369 664 318 664 _c
318 742 _m
399 742 461 709 505 645 _c
548 580 570 486 570 364 _c
570 241 548 147 505 83 _c
461 19 399 -13 318 -13 _c
236 -13 173 19 130 83 _c
87 147 66 241 66 364 _c
66 486 87 580 130 645 _c
173 709 236 742 318 742 _c
_cl}_d
/two{{636 0 73 0 536 742 _sc
192 83 _m
536 83 _l
536 0 _l
73 0 _l
73 83 _l
110 121 161 173 226 239 _c
290 304 331 346 348 365 _c
380 400 402 430 414 455 _c
426 479 433 504 433 528 _c
433 566 419 598 392 622 _c
365 646 330 659 286 659 _c
255 659 222 653 188 643 _c
154 632 117 616 78 594 _c
78 694 _l
118 710 155 722 189 730 _c
223 738 255 742 284 742 _c
}_e{359 742 419 723 464 685 _c
509 647 532 597 532 534 _c
532 504 526 475 515 449 _c
504 422 484 390 454 354 _c
446 344 420 317 376 272 _c
332 227 271 164 192 83 _c
_cl}_e}_d
/four{636 0 49 0 580 729 _sc
378 643 _m
129 254 _l
378 254 _l
378 643 _l
352 729 _m
476 729 _l
476 254 _l
580 254 _l
580 172 _l
476 172 _l
476 0 _l
378 0 _l
378 172 _l
49 172 _l
49 267 _l
352 729 _l
_cl}_d
/six{{636 0 70 -13 573 742 _sc
330 404 _m
286 404 251 388 225 358 _c
199 328 186 286 186 234 _c
186 181 199 139 225 109 _c
251 79 286 64 330 64 _c
374 64 409 79 435 109 _c
461 139 474 181 474 234 _c
474 286 461 328 435 358 _c
409 388 374 404 330 404 _c
526 713 _m
526 623 _l
501 635 476 644 451 650 _c
425 656 400 659 376 659 _c
310 659 260 637 226 593 _c
}_e{192 549 172 482 168 394 _c
187 422 211 444 240 459 _c
269 474 301 482 336 482 _c
409 482 467 459 509 415 _c
551 371 573 310 573 234 _c
573 159 550 99 506 54 _c
462 9 403 -13 330 -13 _c
246 -13 181 19 137 83 _c
92 147 70 241 70 364 _c
70 479 97 571 152 639 _c
206 707 280 742 372 742 _c
396 742 421 739 447 735 _c
472 730 498 723 526 713 _c
_cl}_e}_d
/eight{{636 0 68 -13 568 742 _sc
318 346 _m
271 346 234 333 207 308 _c
180 283 167 249 167 205 _c
167 161 180 126 207 101 _c
234 76 271 64 318 64 _c
364 64 401 76 428 102 _c
455 127 469 161 469 205 _c
469 249 455 283 429 308 _c
402 333 365 346 318 346 _c
219 388 _m
177 398 144 418 120 447 _c
96 476 85 511 85 553 _c
85 611 105 657 147 691 _c
188 725 245 742 318 742 _c
}_e{390 742 447 725 489 691 _c
530 657 551 611 551 553 _c
551 511 539 476 515 447 _c
491 418 459 398 417 388 _c
464 377 501 355 528 323 _c
554 291 568 251 568 205 _c
568 134 546 80 503 43 _c
459 5 398 -13 318 -13 _c
237 -13 175 5 132 43 _c
89 80 68 134 68 205 _c
68 251 81 291 108 323 _c
134 355 171 377 219 388 _c
183 544 _m
183 506 194 476 218 455 _c
}_e{242 434 275 424 318 424 _c
360 424 393 434 417 455 _c
441 476 453 506 453 544 _c
453 582 441 611 417 632 _c
393 653 360 664 318 664 _c
275 664 242 653 218 632 _c
194 611 183 582 183 544 _c
_cl}_e}_d
/minus{838 0 106 272 732 355 _sc
106 355 _m
732 355 _l
732 272 _l
106 272 _l
106 355 _l
_cl}_d
end readonly def

/BuildGlyph
 {exch begin
 CharStrings exch
 2 copy known not{pop /.notdef}if
 true 3 1 roll get exec
 end}_d

/BuildChar {
 1 index /Encoding get exch get
 1 index /BuildGlyph get exec
}_d

FontName currentdict end definefont pop
%!PS-Adobe-3.0 Resource-Font
%%Title: cmr10
%%Copyright: Copyright (C) 1994, Basil K. Malyshev. All Rights Reserved.012BaKoMa Fonts Collection, Level-B.
%%Creator: Converted from TrueType to type 3 by PPR
25 dict begin
/_d{bind def}bind def
/_m{moveto}_d
/_l{lineto}_d
/_cl{closepath eofill}_d
/_c{curveto}_d
/_sc{7 -1 roll{setcachedevice}{pop pop pop pop pop pop}ifelse}_d
/_e{exec}_d
/FontName /Cmr10 def
/PaintType 0 def
/FontMatrix[.001 0 0 .001 0 0]def
/FontBBox[-44 -250 1009 750]def
/FontType 3 def
/Encoding [ /k /parenright /Y /parenleft /c /p /X ] def
/FontInfo 10 dict dup begin
/FamilyName (cmr10) def
/FullName (cmr10) def
/Notice (Copyright (C) 1994, Basil K. Malyshev. All Rights Reserved.012BaKoMa Fonts Collection, Level-B. ) def
/Weight (Regular) def
/Version (1.1/12-Nov-94) def
/ItalicAngle 0.0 def
/isFixedPitch false def
/UnderlinePosition -133 def
/UnderlineThickness 20 def
end readonly def
/CharStrings 7 dict dup begin
/k{{527 0 26 0 511 694 _sc
26 0 _m
26 35 _l
48 35 67 36 82 40 _c
96 44 104 53 104 67 _c
104 592 _l
104 610 101 623 96 631 _c
90 639 83 643 73 645 _c
63 647 47 648 26 648 _c
26 683 _l
174 694 _l
174 219 _l
308 337 _l
321 349 328 361 328 372 _c
328 380 325 386 320 390 _c
314 394 308 396 300 396 _c
300 431 _l
488 431 _l
488 396 _l
}_e{442 396 397 376 352 337 _c
281 275 _l
408 94 _l
426 69 440 53 452 46 _c
464 38 483 35 511 35 _c
511 0 _l
312 0 _l
312 35 _l
334 35 346 42 346 56 _c
346 66 340 78 328 94 _c
232 231 _l
171 178 _l
171 67 _l
171 53 178 44 193 40 _c
207 36 226 35 249 35 _c
249 0 _l
26 0 _l
_cl}_e}_d
/parenright{{388 0 56 -249 291 750 _sc
65 -249 _m
59 -249 56 -246 56 -240 _c
56 -237 56 -235 58 -234 _c
172 -122 229 38 229 250 _c
229 462 172 623 60 733 _c
57 734 56 737 56 741 _c
56 743 57 745 59 747 _c
61 749 63 750 65 750 _c
74 750 _l
76 750 77 749 79 748 _c
127 710 167 664 199 610 _c
231 556 254 498 269 437 _c
283 376 291 314 291 250 _c
291 202 287 156 279 110 _c
}_e{271 64 258 20 241 -24 _c
223 -68 201 -108 175 -146 _c
148 -184 116 -217 79 -247 _c
77 -248 76 -249 74 -249 _c
65 -249 _l
_cl}_e}_d
/Y{{750 0 11 0 738 683 _sc
226 0 _m
226 35 _l
294 35 329 45 329 67 _c
329 273 _l
119 618 _l
109 631 95 639 78 643 _c
60 646 38 648 11 648 _c
11 683 _l
293 683 _l
293 648 _l
246 648 223 640 223 625 _c
223 623 223 621 225 617 _c
406 319 _l
571 590 _l
575 596 577 602 577 610 _c
577 623 571 633 559 639 _c
547 645 535 648 521 648 _c
521 683 _l
738 683 _l
738 648 _l
}_e{712 648 687 643 665 634 _c
643 624 625 610 613 591 _c
419 273 _l
419 67 _l
419 45 453 35 522 35 _c
522 0 _l
226 0 _l
_cl}_e}_d
/parenleft{{388 0 97 -249 332 750 _sc
310 -247 _m
272 -217 240 -184 214 -146 _c
187 -108 165 -67 148 -25 _c
131 17 118 62 110 109 _c
101 155 97 202 97 250 _c
97 298 101 345 110 392 _c
118 438 131 483 149 527 _c
166 570 188 611 215 649 _c
242 687 274 720 310 748 _c
310 749 311 750 315 750 _c
324 750 _l
326 750 327 749 329 747 _c
331 745 332 743 332 741 _c
332 738 331 736 330 735 _c
}_e{297 703 270 668 248 632 _c
226 596 209 557 196 516 _c
183 474 174 432 168 388 _c
162 344 159 298 159 250 _c
159 38 215 -122 329 -232 _c
331 -234 332 -236 332 -240 _c
332 -242 331 -244 329 -246 _c
327 -248 326 -249 324 -249 _c
315 -249 _l
311 -249 310 -248 310 -247 _c
_cl}_e}_d
/c{{444 0 33 -10 415 448 _sc
249 -10 _m
208 -10 171 0 139 21 _c
106 41 80 69 61 104 _c
42 139 33 176 33 216 _c
33 255 42 293 61 329 _c
79 365 105 393 138 415 _c
171 437 208 448 249 448 _c
288 448 324 440 356 425 _c
388 409 404 384 404 350 _c
404 337 399 326 390 316 _c
380 306 369 302 356 302 _c
342 302 331 306 322 316 _c
312 326 308 337 308 350 _c
}_e{308 362 311 372 319 381 _c
327 389 336 395 347 397 _c
324 411 292 419 250 419 _c
218 419 192 408 173 387 _c
153 365 140 339 132 308 _c
124 277 120 246 120 216 _c
120 183 124 152 134 122 _c
144 92 159 67 181 47 _c
202 27 229 18 261 18 _c
293 18 320 27 342 47 _c
364 66 379 91 387 123 _c
387 127 389 129 395 129 _c
407 129 _l
409 129 410 128 412 126 _c
}_e{414 124 415 122 415 120 _c
415 117 _l
405 77 385 46 355 24 _c
325 1 289 -10 249 -10 _c
_cl}_e}_d
/p{{555 0 26 -193 522 442 _sc
26 -193 _m
26 -158 _l
48 -158 67 -156 82 -152 _c
96 -148 104 -139 104 -126 _c
104 355 _l
104 373 97 384 84 389 _c
71 393 52 396 26 396 _c
26 431 _l
174 442 _l
174 380 _l
192 400 213 415 237 426 _c
261 436 287 442 315 442 _c
354 442 389 431 421 410 _c
453 388 477 360 495 326 _c
513 291 522 254 522 216 _c
522 175 512 137 492 103 _c
}_e{472 68 446 40 412 20 _c
378 0 340 -10 300 -10 _c
251 -10 210 9 177 48 _c
177 -126 _l
177 -139 184 -148 199 -152 _c
213 -156 232 -158 255 -158 _c
255 -193 _l
26 -193 _l
177 97 _m
188 73 204 54 225 38 _c
246 22 269 15 294 15 _c
317 15 337 21 355 33 _c
373 45 388 62 400 83 _c
412 104 420 126 426 149 _c
432 172 435 194 435 216 _c
435 242 430 271 420 302 _c
}_e{410 333 396 359 376 381 _c
356 402 333 413 305 413 _c
278 413 253 406 231 392 _c
208 378 190 360 177 336 _c
177 97 _l
_cl}_e}_d
/X{{750 0 23 0 726 683 _sc
23 0 _m
23 35 _l
91 35 138 54 165 92 _c
331 339 _l
147 619 _l
136 631 122 639 104 643 _c
86 646 64 648 37 648 _c
37 683 _l
317 683 _l
317 648 _l
305 648 291 645 275 641 _c
259 636 252 629 252 621 _c
252 619 252 618 253 617 _c
384 418 _l
499 590 _l
501 596 503 600 503 604 _c
503 618 496 628 482 636 _c
468 644 454 648 440 648 _c
}_e{440 683 _l
684 683 _l
684 648 _l
616 648 569 629 542 591 _c
405 386 _l
616 64 _l
627 51 641 43 659 40 _c
677 36 699 35 726 35 _c
726 0 _l
446 0 _l
446 35 _l
456 35 470 37 486 42 _c
502 46 511 53 511 62 _c
511 64 510 65 510 66 _c
352 307 _l
208 93 _l
206 89 205 84 205 79 _c
205 65 211 55 225 47 _c
238 39 252 35 267 35 _c
267 0 _l
}_e{23 0 _l
_cl}_e}_d
end readonly def

/BuildGlyph
 {exch begin
 CharStrings exch
 2 copy known not{pop /.notdef}if
 true 3 1 roll get exec
 end}_d

/BuildChar {
 1 index /Encoding get exch get
 1 index /BuildGlyph get exec
}_d

FontName currentdict end definefont pop
end
%%EndProlog
mpldict begin
216 306 translate
180 180 0 0 clipbox
gsave
0 0 m
180 0 l
180 180 l
0 180 l
cl
1.000 setgray
fill
grestore
gsave
34.2 37.8 m
174.6 37.8 l
174.6 162 l
34.2 162 l
cl
1.000 setgray
fill
grestore
0.500 setlinewidth
1 setlinejoin
0 setlinecap
[] 0 setdash
0.000 setgray
gsave
140.4 124.2 34.2 37.8 clipbox
/o {
gsave
newpath
translate
0.5 setlinewidth
1 setlinejoin
0 setlinecap
0 -0.25 m
0.0663008 -0.25 0.129895 -0.223658 0.176777 -0.176777 c
0.223658 -0.129895 0.25 -0.0663008 0.25 0 c
0.25 0.0663008 0.223658 0.129895 0.176777 0.176777 c
0.129895 0.223658 0.0663008 0.25 0 0.25 c
-0.0663008 0.25 -0.129895 0.223658 -0.176777 0.176777 c
-0.223658 0.129895 -0.25 0.0663008 -0.25 0 c
-0.25 -0.0663008 -0.223658 -0.129895 -0.176777 -0.176777 c
-0.129895 -0.223658 -0.0663008 -0.25 0 -0.25 c
cl
gsave
0.000 setgray
fill
grestore
stroke
grestore
} bind def
94.5638 89.1072 o
81.1053 80.2603 o
92.6127 107.122 o
109.691 98.7171 o
93.6004 93.064 o
114.539 82.5681 o
98.3936 76.5438 o
102.776 101.836 o
72.0658 93.8559 o
111.653 80.2762 o
77.5239 102.104 o
88.2878 103.048 o
94.8762 88.6501 o
116.146 82.6791 o
102.689 82.418 o
101.174 97.7242 o
83.2323 95.9574 o
93.5467 100.161 o
100.449 93.1622 o
110.083 93.7132 o
109.299 99.1378 o
118.015 92.1627 o
80.9848 96.6279 o
109.563 82.4487 o
85.0191 80.5693 o
78.4337 91.3461 o
80.0251 103.292 o
96.3814 80.6214 o
108.544 78.7827 o
86.9695 91.1144 o
103.152 103.321 o
104.966 98.3908 o
92.6745 96.0677 o
90.2077 89.4621 o
80.9916 86.756 o
103.179 95.6995 o
85.1399 105.433 o
109.396 92.5757 o
95.1042 89.5411 o
109.736 91.3105 o
99.577 98.0284 o
78.0996 97.188 o
86.1004 90.3566 o
108.774 99.5434 o
96.4144 96.8756 o
101.156 76.5493 o
90.9426 102.212 o
85.7798 102.072 o
91.3444 78.5497 o
102.153 89.8735 o
110.087 81.624 o
100.746 106.131 o
87.2435 93.3683 o
110.423 95.6497 o
109.925 93.8263 o
95.9696 83.7067 o
85.7491 82.1429 o
88.7173 96.5595 o
116.049 88.1349 o
114.029 99.2419 o
87.9534 92.5395 o
91.4882 103.163 o
103.757 80.6746 o
97.2217 89.2446 o
102.413 77.5371 o
108.245 87.9612 o
126.162 76.2764 o
103.611 74.7233 o
100.224 82.9456 o
87.3408 81.6013 o
86.9815 75.3441 o
90.2918 81.4838 o
79.1057 108.165 o
80.4073 79.3373 o
94.8372 78.8083 o
108.381 95.0448 o
98.1671 88.3015 o
92.3631 87.7757 o
72.6849 104.755 o
105.453 85.1599 o
82.5829 90.916 o
106.843 98.1984 o
97.6263 80.1915 o
110.309 95.8406 o
103.827 100.628 o
96.9919 102.198 o
93.8834 75.3457 o
108.037 80.9197 o
109.066 86.6449 o
94.7828 106.858 o
80.2862 97.1897 o
73.8404 89.0094 o
101.681 108.791 o
86.4041 101.528 o
71.0018 106.043 o
98.1284 84.4571 o
103.809 111.151 o
91.16 96.7553 o
75.9587 84.9883 o
110.388 73.4946 o
113.92 92.1429 o
89.9067 80.9067 o
96.2526 86.4839 o
74.0389 97.5944 o
92.2294 103.966 o
82.0427 87.2118 o
112.047 99.6967 o
65.1412 83.1931 o
108.582 86.4044 o
91.5629 102.001 o
104.595 83.2058 o
110.997 91.0747 o
103.101 90.269 o
110.567 84.2173 o
98.7085 73.0549 o
124.581 88.5291 o
95.214 91.3322 o
103.588 102.934 o
126.79 105.192 o
80.7629 73.4011 o
95.4054 91.1128 o
105.357 88.6106 o
93.4744 88.3672 o
105.617 96.2412 o
92.5371 99.0555 o
82.5611 83.5987 o
94.1551 93.1665 o
86.4257 79.7397 o
109.413 79.8877 o
98.6995 108.022 o
128.094 107.279 o
83.2746 96.9532 o
82.5481 95.1806 o
97.7185 94.1197 o
92.015 108.605 o
75.4079 76.0347 o
110.595 98.0681 o
107.401 109.146 o
79.2207 94.9038 o
100.525 91.7842 o
101.858 94.4746 o
85.3914 88.6698 o
93.1545 76.5993 o
71.9751 83.0431 o
85.6866 79.784 o
72.2166 97.0664 o
97.2012 78.2035 o
83.6583 68.0191 o
100.919 107.968 o
100.741 109.953 o
129.379 73.4836 o
95.162 101.312 o
116.861 79.1643 o
96.9359 72.2371 o
95.9358 95.3867 o
96.3336 92.7671 o
111.582 91.3121 o
90.0605 80.8709 o
80.6195 91.1173 o
94.3689 84.8521 o
103.095 106.451 o
112.605 98.1915 o
113.922 94.9911 o
115.643 91.4419 o
94.893 96.8533 o
127.247 71.8106 o
107.626 126.818 o
94.9291 84.8132 o
92.6866 92.6439 o
78.3013 89.5216 o
84.6204 95.1213 o
111.412 82.2111 o
100.379 102.769 o
96.8326 90.4973 o
79.4064 88.3079 o
99.9396 85.7359 o
93.8033 94.8668 o
93.0618 106.426 o
119.802 84.2034 o
104.337 102.484 o
73.2826 83.8968 o
99.4595 101.089 o
113.058 80.072 o
93.2097 104.366 o
72.4765 64.5336 o
72.187 93.3488 o
112.541 88.6358 o
95.2862 79.6091 o
100.865 83.4363 o
102.788 81.0502 o
85.9596 108.443 o
100.597 78.1386 o
114.886 110.667 o
71.7243 85.9437 o
105.249 103.628 o
84.0071 103.849 o
76.5093 88.5938 o
90.3129 84.214 o
103.352 98.8549 o
108.182 90.3759 o
91.2827 81.1341 o
98.3224 89.2343 o
87.9302 91.4882 o
87.1527 98.6045 o
100.486 87.6181 o
80.5415 87.221 o
61.5139 112.312 o
108.05 89.4949 o
79.9349 94.0357 o
82.692 88.4814 o
62.3934 106.274 o
88.5597 89.8573 o
92.5163 86.7198 o
97.1726 78.9439 o
80.9716 73.2195 o
106.257 66.6735 o
82.7373 105.862 o
114.239 104.629 o
109.607 88.5479 o
110.133 82.8717 o
101.558 122.643 o
80.4092 89.9656 o
79.2877 91.4314 o
88.5968 97.8071 o
89.2934 89.8021 o
80.4135 80.1231 o
101.693 118.876 o
80.3187 106.916 o
64.0829 104.226 o
126.715 57.8008 o
107.955 93.1567 o
85.8655 89.5551 o
116.72 109.959 o
83.1745 81.3391 o
89.2142 66.5314 o
88.5037 96.5537 o
101.472 104.621 o
85.3637 81.9898 o
85.1801 84.72 o
92.7172 95.8878 o
90.4224 98.5838 o
95.2954 98.7541 o
98.5449 109.32 o
93.531 120.352 o
108.168 107.952 o
94.4473 96.9475 o
76.1217 90.3787 o
105.894 93.2879 o
102.513 101.177 o
88.3911 101.108 o
77.7974 101.871 o
105.463 84.2455 o
94.1939 86.3901 o
87.0219 83.8847 o
77.1758 67.8435 o
79.398 85.2496 o
95.3286 108.998 o
75.5988 90.7126 o
94.0734 94.3173 o
114.862 109.914 o
81.7194 86.2937 o
71.2531 99.3074 o
82.2639 100.168 o
79.6189 77.6978 o
98.9084 86.321 o
109.806 68.741 o
113.617 87.5632 o
70.3145 88.2794 o
98.4317 88.394 o
90.4485 73.608 o
97.751 88.6499 o
95.7278 107.823 o
80.0419 79.492 o
95.9876 85.63 o
71.3575 106.364 o
102.762 80.1756 o
90.0734 78.3212 o
103.847 90.4516 o
116.57 122.892 o
105.674 64.5394 o
89.0449 96.8966 o
102.371 107.993 o
95.294 96.4138 o
101.108 92.7757 o
110.419 64.8925 o
82.1506 94.2806 o
108.523 100.144 o
85.0306 111.753 o
107.766 101.252 o
81.9774 86.0441 o
116.946 80.3111 o
87.3906 90.419 o
104.015 98.2939 o
100.889 94.0967 o
81.4973 90.8547 o
101.049 112.911 o
99.8212 85.8886 o
93.0689 88.5024 o
82.2771 87.0823 o
110.384 105.147 o
73.0902 90.1813 o
78.6725 94.7557 o
125.047 99.2046 o
77.4614 109.916 o
88.9746 94.6738 o
80.9476 102.466 o
94.709 98.8964 o
82.6189 86.3364 o
82.3433 91.922 o
118.313 83.3804 o
94.0719 78.6681 o
90.588 87.8877 o
87.9309 92.5681 o
86.6116 95.775 o
88.7671 109.617 o
112.595 91.2353 o
83.7022 93.8511 o
88.9141 100.588 o
119.366 100.565 o
63.8856 68.5099 o
91.4302 105.546 o
92.2973 98.1026 o
67.0493 102.307 o
71.6792 105.982 o
82.9768 109.639 o
81.7286 117.961 o
83.3949 84.3623 o
83.0671 99.7007 o
98.3006 94.7393 o
107.687 94.9345 o
80.4184 75.1253 o
105.573 87.0856 o
120.622 99.3216 o
96.1023 91.995 o
92.7218 97.9155 o
105.335 61.3185 o
108.937 90.3203 o
93.2972 103.667 o
87.2596 111.068 o
73.407 101.297 o
81.9666 94.561 o
92.0241 99.454 o
83.6999 85.7896 o
92.9421 93.2679 o
109.015 84.3275 o
105.892 97.1262 o
75.9714 97.3993 o
111.095 102.615 o
70.7333 99.3569 o
91.6458 108.309 o
124.265 66.9021 o
97.9568 93.4031 o
99.1629 88.6786 o
103.413 84.5764 o
104.318 82.8933 o
126.295 91.7489 o
85.5862 100.661 o
71.4604 92.085 o
92.1458 106.622 o
127.529 96.4341 o
92.2239 96.865 o
82.6148 91.6171 o
100.06 91.6199 o
101.88 58.3257 o
95.0148 97.5021 o
92.4731 103.709 o
92.3427 89.8435 o
71.8456 85.5695 o
98.26 88.9384 o
96.5773 76.7393 o
101.472 78.2873 o
69.2323 76.0768 o
100.402 101.869 o
86.1838 112.3 o
92.9568 108.353 o
111.472 95.6132 o
87.3199 107.759 o
112.411 67.9827 o
98.5898 81.6504 o
75.905 96.6226 o
107.671 87.0761 o
116.485 71.579 o
81.6262 94.9662 o
105.78 94.34 o
97.947 96.6539 o
81.6423 86.6152 o
113.304 100.39 o
115.401 105.954 o
62.1305 81.684 o
95.0679 91.6599 o
102.683 80.8172 o
128.789 61.7317 o
97.953 96.925 o
90.8727 112.761 o
89.6279 86.6437 o
86.73 103.94 o
91.8389 107.575 o
86.8372 106.116 o
94.0801 65.0243 o
106.692 101.403 o
84.2828 111.229 o
96.808 110.992 o
99.123 92.8882 o
82.2128 103.442 o
89.3336 82.855 o
99.2174 100.656 o
84.3839 62.164 o
102.509 93.172 o
101.012 79.7047 o
97.8528 73.8833 o
97.9815 86.9853 o
102.832 100.267 o
84.2905 92.2225 o
96.9493 93.5373 o
142.257 105.354 o
116.383 87.8252 o
112.351 92.6305 o
101.536 85.0262 o
100.881 91.2845 o
107.259 95.0543 o
95.009 90.75 o
63.8466 106.207 o
107.319 88.592 o
89.1727 91.5 o
117.197 71.5001 o
100.265 78.8649 o
94.7989 53.6292 o
70.5 73.2775 o
75.6042 95.9438 o
91.5966 92.7739 o
93.8034 89.8709 o
110.423 90.8954 o
94.9332 80.2872 o
114.501 93.4139 o
83.5908 79.9177 o
92.5559 93.1498 o
85.0317 104.272 o
89.8018 97.1063 o
77.2581 86.3084 o
96.7907 89.4943 o
102.123 99.0491 o
98.84 91.2821 o
84.6408 98.3975 o
104.371 64.0298 o
86.681 100.858 o
87.6839 102.221 o
79.1977 95.9975 o
82.4621 109.468 o
67.6567 88.9749 o
96.7643 93.1863 o
102.231 88.6269 o
99.5907 72.8069 o
68.2247 89.8375 o
88.3658 93.8962 o
122.187 101.177 o
87.9565 98.8559 o
70.9549 90.3022 o
83.7546 120.444 o
103.318 90.6829 o
121.61 94.4074 o
99.9136 101.289 o
110.318 106.775 o
93.6604 61.9886 o
87.573 100.828 o
86.3121 96.5493 o
104.454 85.3908 o
82.1729 92.2194 o
124.687 98.14 o
95.5452 117.886 o
111.285 100.465 o
95.0435 90.2475 o
108.065 96.506 o
89.6707 88.4493 o
123.977 89.2723 o
71.4727 84.801 o
101.239 78.137 o
57.9658 91.8937 o
95.7442 84.4845 o
81.62 113.05 o
99.8677 69.2324 o
87.9492 77.5913 o
111.068 107.266 o
105.327 104.908 o
109.532 106.342 o
89.6271 98.8969 o
93.2298 102.995 o
90.67 90.8426 o
101.451 86.3524 o
90.0002 72.281 o
109.064 75.3672 o
83.0738 108.031 o
97.8351 79.9847 o
90.7677 64.4465 o
97.3855 109.648 o
77.1895 89.0894 o
60.3914 99.7166 o
84.1894 83.7775 o
94.7426 90.074 o
106.734 94.4776 o
79.7893 99.8668 o
53.8858 108.5 o
85.1274 119.785 o
108.137 83.2864 o
119.355 92.5158 o
94.7709 83.4441 o
78.2972 86.2226 o
76.3645 81.258 o
105.492 91.4329 o
91.6461 86.3301 o
88.9702 103.125 o
107.231 79.6044 o
95.3106 84.8733 o
89.299 108.49 o
106.948 99.486 o
89.5221 94.1726 o
89.4898 88.8037 o
101.145 90.2012 o
102.6 106.206 o
79.4506 91.8421 o
76.4374 89.353 o
108.375 78.8979 o
109.501 88.4329 o
80.3478 83.9038 o
75.6057 94.9666 o
126.955 100.231 o
94.6259 73.148 o
95.3979 79.9619 o
95.2796 92.5575 o
103.945 99.2097 o
93.2831 89.3849 o
76.9413 88.4405 o
92.7687 92.8511 o
99.4147 99.2314 o
91.395 75.5446 o
105.724 97.3885 o
55.2748 85.4629 o
61.2163 86.8116 o
91.8169 104.446 o
91.4098 104.258 o
97.9999 80.0044 o
112.68 84.5077 o
108.75 102.787 o
89.7919 63.2457 o
76.5406 89.0309 o
90.1052 95.3374 o
112.933 95.8868 o
82.3371 93.6573 o
82.5857 96.781 o
113.868 99.4442 o
79.4101 89.6546 o
54.1959 79.9568 o
69.4391 64.7313 o
80.9354 73.3945 o
98.0172 81.269 o
79.066 87.2328 o
107.965 80.7601 o
97.1652 89.2908 o
92.5943 103.876 o
88.6879 88.1284 o
92.2993 100.413 o
110.448 62.6913 o
101.04 103.801 o
82.6233 98.1839 o
88.4158 108.861 o
100.766 82.9231 o
110.812 86.9715 o
93.1336 92.454 o
120.164 81.7424 o
92.6004 92.8244 o
93.7847 94.9082 o
73.2433 105.945 o
81.3466 84.241 o
94.2432 84.8006 o
114.361 56.065 o
84.9403 101.612 o
93.0727 85.0542 o
89.8718 102.15 o
69.9725 95.5336 o
107.311 67.7898 o
135.851 101.784 o
116.34 92.9912 o
75.8408 95.8501 o
96.5211 75.3171 o
93.4927 105.989 o
98.3646 84.8986 o
81.4901 102.13 o
68.6625 100.556 o
98.9077 108.985 o
85.1093 77.2134 o
97.242 89.3135 o
127.136 61.9307 o
96.815 79.0922 o
87.8899 82.3472 o
80.1164 124.866 o
91.916 83.0135 o
86.894 90.582 o
91.5401 88.998 o
92.443 90.3416 o
121.649 64.5771 o
105.965 97.2555 o
97.6779 88.5539 o
70.1528 90.6784 o
96.9861 114.745 o
72.2934 82.1552 o
100.049 82.6458 o
83.371 80.4901 o
100.452 98.6983 o
109.977 59.5623 o
110.847 82.6473 o
96.9876 104.466 o
81.8555 65.2756 o
96.4699 87.6518 o
104.264 101.597 o
114.665 89.5894 o
79.3834 74.3109 o
75.0956 124.848 o
92.2909 118.128 o
88.0585 79.2487 o
93.8606 88.7114 o
71.853 94.4728 o
106.772 79.3145 o
94.3314 95.7024 o
108.973 94.3314 o
105.018 88.9738 o
90.1682 113.555 o
113.236 109.193 o
85.7241 95.5177 o
110.076 84.2221 o
83.5946 90.5677 o
96.4054 85.3708 o
77.3635 86.2968 o
100.565 107.776 o
93.1598 100.615 o
138.968 111.888 o
102.603 89.9532 o
93.0351 88.0814 o
84.6876 104.55 o
91.7925 102.005 o
69.8052 111.54 o
91.6346 114.666 o
104.777 90.5571 o
100.144 96.3488 o
83.606 110.982 o
63.3894 82.1589 o
88.1001 80.7954 o
95.4043 94.252 o
92.6339 100.204 o
115.337 93.3355 o
109.176 80.9062 o
102.8 75.8037 o
86.8712 95.6986 o
81.2127 100.521 o
53.1702 84.9529 o
98.1811 92.2514 o
99.4257 99.0222 o
88.3717 82.632 o
109.081 73.7892 o
83.3798 90.8346 o
64.1725 90.1082 o
76.5673 92.2851 o
92.5113 79.3561 o
117.833 87.2718 o
102.685 96.9694 o
122.11 72.7836 o
104.924 82.6456 o
101.769 124.936 o
103.642 102.332 o
89.9437 88.1716 o
108.906 102.111 o
115.834 97.0178 o
106.746 83.782 o
126.681 65.2438 o
73.4346 113.319 o
98.0061 96.897 o
88.3657 83.5741 o
116.992 97.4571 o
90.7888 80.8456 o
96.3827 91.6681 o
79.1374 82.5837 o
94.7817 93.4192 o
72.7353 82.3786 o
85.3458 84.5068 o
100.693 96.2609 o
66.3689 92.0943 o
85.7254 89.9146 o
75.8179 93.9107 o
91.7375 97.8689 o
85.8142 64.2874 o
101.177 98.2034 o
95.9117 88.6729 o
107.837 92.9145 o
106.184 88.177 o
101.03 129.38 o
104.6 100.438 o
79.9997 119.578 o
107.002 104.576 o
98.105 92.1846 o
97.6046 96.9556 o
92.6515 59.3044 o
85.4329 86.0282 o
99.1397 79.649 o
87.9321 97.3962 o
93.0863 75.9692 o
99.6356 86.8723 o
95.8842 104.214 o
108.116 88.3269 o
123.908 89.7591 o
82.9934 99.6639 o
76.2243 86.2194 o
104.681 99.6663 o
92.0913 100.314 o
102.518 56.6376 o
125.283 68.0578 o
91.3864 87.286 o
97.261 72.7141 o
91.0256 93.6884 o
108.302 113.49 o
96.4643 105.728 o
94.1548 97.2701 o
98.4108 84.8882 o
90.2242 104.239 o
103.414 86.2883 o
108.528 86.3531 o
85.4891 95.8576 o
95.7136 90.4664 o
106.657 83.8371 o
92.8845 121.747 o
97.2949 79.3992 o
96.3758 84.7078 o
108.971 91.0531 o
103.076 63.4299 o
90.0891 93.0514 o
96.9957 91.8928 o
86.4932 79.0488 o
94.6171 61.9026 o
79.0865 90.0404 o
91.2975 95.9518 o
106.332 111.142 o
106.464 78.7803 o
79.9907 91.1179 o
89.0555 96.4185 o
117.709 109.085 o
71.0178 101.31 o
108.97 75.3496 o
87.3765 78.437 o
81.6818 79.5269 o
105.366 104.498 o
83.8843 86.6875 o
111.614 94.0066 o
68.1032 94.2547 o
87.6086 88.1265 o
80.0675 120.2 o
93.1596 90.6903 o
103.96 83.0046 o
93.7417 100.033 o
104.694 97.7532 o
107.884 94.4311 o
109.592 81.0852 o
89.8591 73.7982 o
86.4452 87.1424 o
72.2406 71.3047 o
68.1837 91.1922 o
119.414 83.774 o
106.814 89.629 o
90.4936 92.9937 o
81.9698 113.295 o
86.2548 87.2932 o
89.7504 74.4117 o
142.331 110.639 o
78.2389 97.509 o
94.8368 86.7148 o
123.785 91.6208 o
96.4283 91.6081 o
84.4008 77.3784 o
99.1031 81.5081 o
80.5768 93.5148 o
90.9712 91.0784 o
92.0423 94.0764 o
93.4927 79.7699 o
91.7461 92.3352 o
81.5972 111.641 o
107.772 81.1632 o
96.0443 91.1862 o
105.364 88.5065 o
69.1402 78.3807 o
127.904 83.4637 o
119.514 82.5652 o
99.5917 100.842 o
98.795 89.4072 o
86.5433 85.5937 o
115.522 76.9723 o
91.5403 81.3751 o
101.507 87.3771 o
98.2912 100.602 o
91.0866 80.1937 o
100.311 75.0453 o
92.3091 95.6766 o
65.5365 89.3685 o
75.549 77.4413 o
93.2087 62.5162 o
104.496 103.136 o
88.6198 78.5878 o
121.767 103.822 o
93.3931 85.7008 o
67.9391 89.6341 o
100.285 82.2991 o
114.632 75.1672 o
53.3189 90.6677 o
95.3592 97.3192 o
112.179 104.336 o
105.279 80.0779 o
83.5192 84.4333 o
96.3614 78.0063 o
74.7965 109.393 o
92.4897 91.2422 o
87.7034 111.007 o
82.9833 100.922 o
107.253 83.8039 o
89.6315 75.254 o
77.3702 94.6434 o
101.634 77.3205 o
58.8152 89.78 o
100.075 111.493 o
95.7021 91.9979 o
91.7566 72.2705 o
74.8285 92.0489 o
58.8608 108.567 o
104.7 99.4848 o
96.6393 62.2169 o
98.6208 98.7923 o
114.594 100.52 o
66.4433 87.6594 o
98.224 96.6205 o
112.958 69.6975 o
122.63 115.948 o
100.008 104.648 o
121.393 71.3765 o
100.277 95.4828 o
107.818 95.7507 o
97.4545 76.0692 o
135.089 92.3726 o
68.3306 96.8192 o
93.4995 81.5144 o
100.022 76.5676 o
94.5454 87.5123 o
89.8331 82.0217 o
90.3209 89.571 o
91.2125 97.3972 o
81.8738 84.6173 o
105.839 114.522 o
100.239 91.7559 o
98.0926 87.8444 o
94.353 91.5417 o
101.936 100.597 o
116.083 97.8373 o
94.0332 88.0915 o
107.397 85.6594 o
106.088 86.2071 o
69.1254 74.1829 o
81.158 90.7537 o
102.074 78.7703 o
88.459 73.7131 o
83.0583 77.9912 o
98.5669 84.3024 o
77.1374 89.546 o
77.9905 72.5708 o
71.3648 111.989 o
56.8829 93.0457 o
89.1384 80.9767 o
123.485 86.0771 o
60.0403 110.064 o
77.7494 78.9313 o
90.5834 91.5558 o
106.288 79.0252 o
98.4525 90.0341 o
120.627 94.6761 o
101.238 105.842 o
92.8411 102.65 o
101.322 70.1247 o
98.0116 91.5831 o
88.2614 91.288 o
99.7914 92.568 o
63.7222 85.352 o
93.8275 76.8485 o
61.8909 90.473 o
94.2565 100.259 o
92.2789 79.5684 o
87.2108 87.1027 o
92.6096 93.6664 o
99.6174 118.989 o
105.73 97.3389 o
102.95 85.7605 o
101.339 103.451 o
67.1828 110.721 o
82.0406 112.365 o
132.814 92.5022 o
108.905 91.3708 o
128.311 83.1265 o
101.391 90.7366 o
103.835 79.409 o
80.5207 102.907 o
102.462 83.2135 o
101.428 101.279 o
95.7635 93.744 o
71.8027 80.6208 o
79.3443 91.8185 o
109.954 99.645 o
100.562 95.2846 o
85.5571 100.454 o
110.134 82.7757 o
88.6492 90.2964 o
91.1177 91.1126 o
96.4462 78.9371 o
85.2786 84.759 o
81.9287 100.305 o
111.136 81.8248 o
109.02 90.5657 o
60.1599 102.035 o
96.2631 95.0239 o
94.109 93.4832 o
74.2971 94.2368 o
88.2731 106.208 o
91.8718 94.9895 o
87.9867 75.7426 o
113.2 96.7829 o
89.6398 83.8568 o
84.3924 97.5842 o
101.46 104.77 o
94.3273 107.57 o
115.109 89.8373 o
111.54 75.819 o
96.1954 92.9245 o
71.689 81.8245 o
60.4688 88.0622 o
93.937 98.1301 o
86.2386 100.171 o
106.818 84.789 o
80.4289 92.7172 o
92.0334 98.2914 o
104.871 86.7474 o
58.0292 98.7967 o
108.088 94.5609 o
126.967 82.1667 o
100.106 87.3783 o
82.1339 105.983 o
91.1147 93.0192 o
71.0767 89.9685 o
101.601 100.222 o
105.405 85.923 o
112.029 64.1164 o
86.8361 84.533 o
96.8221 92.8083 o
86.3801 86.4391 o
94.738 90.8303 o
137.719 85.3682 o
86.1751 95.9405 o
88.3085 103.27 o
103.975 84.9081 o
95.7607 89.6574 o
91.7143 93.3398 o
117.37 80.2387 o
79.8172 92.4606 o
95.4234 104.052 o
91.613 79.8451 o
104.684 88.1797 o
96.59 98.5669 o
96.9339 91.173 o
81.496 88.7105 o
105.299 107.895 o
90.463 93.2379 o
110.413 92.8952 o
80.2036 89.6023 o
89.4059 91.1397 o
100.632 71.9397 o
90.3078 93.6981 o
107.532 102.937 o
85.7456 72.6903 o
96.8978 90.7376 o
81.139 92.3162 o
87.0477 90.8585 o
142.638 95.0223 o
59.4229 92.9239 o
96.4327 92.2597 o
102.925 78.6144 o
113.521 80.302 o
115.54 97.8457 o
50.8523 103.175 o
116.438 147.937 o
115.978 57.2455 o
87.2253 90.9707 o
83.1666 88.1693 o
91.8068 98.0704 o
106.974 84.0736 o
92.7904 101.157 o
87.799 102.678 o
100.198 95.843 o
75.0286 96.1769 o
107.931 92.9361 o
113.974 77.3206 o
115.59 93.0433 o
95.9081 94.2845 o
106.061 85.5513 o
104.265 80.9712 o
62.2362 87.7653 o
102.136 88.5306 o
86.07 82.8469 o
80.4412 107.12 o
101.175 85.6359 o
76.4446 103.018 o
106.464 96.6679 o
85.0424 82.1959 o
85.1345 102.729 o
117.651 93.6733 o
95.5536 72.5777 o
78.0334 95.6106 o
102.655 84.3439 o
72.1774 87.3388 o
119.869 77.5828 o
83.507 83.2949 o
86.2069 80.9088 o
79.4011 82.9124 o
71.4822 99.6356 o
120.404 79.6541 o
97.3945 98.2899 o
94.6121 90.3676 o
85.9343 80.5658 o
111.697 72.7817 o
96.6953 87.6154 o
113.605 90.657 o
63.7816 96.7293 o
94.1376 76.1785 o
94.6417 88.5072 o
89.0334 122.304 o
65.2975 75.709 o
93.8532 92.358 o
79.0924 87.2681 o
71.9824 68.6294 o
102.271 90.8551 o
85.3381 80.4879 o
108.969 98.5744 o
85.0539 96.6958 o
108.856 95.3851 o
96.1617 89.8428 o
84.6141 87.1609 o
95.3284 81.7646 o
75.0629 90.8056 o
85.8318 102.404 o
69.1665 119.25 o
83.3067 90.2485 o
87.2827 95.1962 o
94.997 73.5245 o
107.716 113.237 o
98.0342 91.3996 o
99.5154 107.864 o
107.708 100.463 o
103.355 84.1077 o
103.283 88.2507 o
67.0483 79.1595 o
96.6347 104.379 o
91.8753 108.845 o
130.582 91.6399 o
117.58 85.3027 o
92.2184 87.3828 o
75.2467 96.6556 o
87.4687 92.1313 o
95.731 113.514 o
88.8248 98.9554 o
85.3104 97.1265 o
120.825 91.3386 o
109.11 86.5808 o
68.7146 77.7972 o
98.4903 82.2592 o
111.165 103.554 o
92.8787 95.8385 o
98.1247 96.6532 o
93.3086 70.1178 o
102.827 94.4669 o
93.3324 95.4668 o
106.016 105.898 o
97.3608 95.1629 o
97.9707 98.3157 o
99.1712 84.8745 o
93.8023 101.521 o
70.0242 100.149 o
59.72 102.852 o
100.011 88.487 o
87.7313 101.85 o
105.677 95.2085 o
97.6173 96.4273 o
84.6075 102.27 o
95.4375 87.9218 o
116.435 97.5742 o
104.749 94.0566 o
91.8941 77.3263 o
89.5953 95.0285 o
82.4537 74.1259 o
89.4387 87.4159 o
80.1589 91.4802 o
108.642 80.4619 o
89.3442 92.5547 o
98.6458 93.7967 o
76.7465 69.2059 o
91.1201 76.7125 o
114.597 88.943 o
94.326 94.1389 o
66.7896 79.624 o
81.8127 97.2328 o
89.6085 109.683 o
109.759 90.1207 o
103.839 118.147 o
102.274 91.3095 o
93.3643 93.2769 o
106.203 97.7197 o
85.423 90.4279 o
113.792 99.1409 o
110.371 101.829 o
102.761 91.34 o
100.044 103.609 o
99.2084 83.1347 o
82.6924 103.809 o
92.6462 94.3292 o
103.661 85.2709 o
133.72 84.795 o
95.8027 75.3226 o
80.9905 100.679 o
93.4846 90.1842 o
94.6857 103.826 o
71.9548 112.318 o
64.1683 121.803 o
75.7216 94.7023 o
89.2812 81.779 o
99.1555 91.4479 o
89.4389 73.0006 o
151.895 114.663 o
102.132 99.3566 o
73.4645 96.9554 o
102.473 56.1736 o
63.4084 75.9176 o
118.275 98.1706 o
89.623 73.4025 o
81.0061 89.8456 o
68.4609 120.566 o
88.7948 85.8668 o
74.9055 63.5505 o
89.359 95.8965 o
99.5472 89.6642 o
104.553 90.593 o
98.1745 79.4109 o
79.9993 79.3814 o
80.0079 81.216 o
79.8735 90.5356 o
144.056 78.9142 o
111.185 91.293 o
103.441 104.821 o
68.4473 94.75 o
113.967 102.409 o
93.3649 91.3407 o
114.056 91.2058 o
91.2468 90.5533 o
111.539 104.284 o
101.616 64.7662 o
82.5265 60.1719 o
93.0845 90.5029 o
72.5822 70.4094 o
71.09 98.5448 o
115.803 78.5859 o
77.6324 83.1012 o
106.759 89.0228 o
89.1595 93.3537 o
101.013 104.378 o
99.9015 73.7496 o
93.5147 106.819 o
88.9832 109.411 o
118.756 91.9313 o
88.0531 94.9363 o
97.5504 92.7991 o
93.2937 87.3696 o
81.7094 110.497 o
102.611 67.1073 o
101.051 83.1359 o
92.4804 98.7704 o
84.1713 110.557 o
129.667 72.4817 o
102.936 82.5583 o
88.2691 86.3811 o
97.5004 65.6228 o
93.3191 89.5349 o
79.5497 95.9986 o
80.563 112.32 o
96.0579 100.898 o
67.691 93.7323 o
82.9739 109.73 o
77.3935 78.0837 o
95.4261 113.748 o
68.4898 118.291 o
108.101 100.522 o
62.0255 96.8484 o
92.402 92.3726 o
93.5689 93.9631 o
60.6323 89.9569 o
96.1284 99.7696 o
104.473 98.8563 o
138.268 56.3704 o
74.0008 87.127 o
77.0732 92.1003 o
128.032 86.378 o
92.4572 109.001 o
115.464 108.598 o
95.7621 88.463 o
97.5944 90.6023 o
88.7082 90.1589 o
122.078 91.1918 o
89.4491 101.814 o
84.2334 98.851 o
83.89 92.7846 o
109.927 66.5527 o
89.984 100.234 o
92.2483 93.8363 o
92.7197 92.1124 o
108.605 118.335 o
94.273 78.5321 o
97.8329 89.391 o
127.081 94.3034 o
104.015 90.8351 o
89.8832 113.183 o
80.0399 98.1858 o
103.626 94.387 o
88.9199 88.5694 o
85.0502 99.3233 o
92.5845 92.6701 o
65.9306 116.232 o
80.0358 85.6532 o
72.2333 96.1698 o
101.848 101.858 o
66.5249 98.5108 o
105.101 100.696 o
90.1224 104.038 o
94.9172 90.0731 o
103.016 83.1259 o
95.8715 107.548 o
87.7926 86.7582 o
108.601 87.7082 o
101.037 88.8814 o
104.133 77.4615 o
95.8624 78.9683 o
115.23 106.516 o
108.266 73.2687 o
64.0556 73.1104 o
95.6052 106.953 o
102.611 122.76 o
70.9316 90.7742 o
89.6661 78.0676 o
68.1356 95.7029 o
85.6693 83.5867 o
60.8921 96.0058 o
99.5964 77.7367 o
92.7299 106.467 o
76.6696 79.5351 o
92.9452 93.8837 o
97.4867 89.2824 o
79.9811 84.6802 o
130.556 79.7015 o
67.0623 101.601 o
80.2474 85.3914 o
123.879 109.897 o
104.505 111.299 o
101.324 102.412 o
100.352 68.9992 o
90.7672 88.8757 o
94.2501 102.628 o
72.4923 93.2497 o
92.7124 108.355 o
94.3822 89.0029 o
94.5102 119.023 o
87.5267 97.5324 o
87.5808 98.9155 o
85.9826 99.1309 o
96.8615 90.5315 o
97.8069 95.6243 o
98.2983 86.6755 o
91.3789 87.326 o
93.7813 70.0606 o
88.7209 89.2905 o
107.532 94.9175 o
95.3541 96.3049 o
98.0534 80.208 o
82.9331 84.0755 o
105.323 81.841 o
107.607 106.601 o
94.1372 99.8808 o
106.745 103.882 o
90.1778 87.2286 o
88.9973 94.9532 o
93.6712 97.8122 o
109.734 82.8591 o
38.1575 91.7795 o
92.7027 94.5441 o
94.9398 95.8079 o
69.3106 109.28 o
99.129 85.5634 o
72.0492 81.7564 o
103.512 96.9619 o
86.499 80.3315 o
87.7969 83.4733 o
102.13 94.1555 o
86.0844 81.253 o
89.3553 76.6596 o
86.3635 97.905 o
114.48 111.477 o
84.5574 107.771 o
92.9193 90.752 o
85.8382 96.2438 o
104.919 81.8397 o
75.823 108.492 o
96.1468 83.6666 o
88.3318 104.037 o
97.8217 75.588 o
68.8569 86.2542 o
91.5403 100.174 o
99.3962 92.1812 o
74.0015 99.9014 o
102.711 86.4754 o
106.868 96.8513 o
79.5642 96.0503 o
89.9783 107.379 o
118.311 104.271 o
78.1574 100.63 o
98.488 97.7106 o
91.6626 85.3889 o
109.029 99.0763 o
105.498 77.2119 o
101.117 75.4582 o
86.8798 94.1137 o
95.4264 89.9343 o
90.4016 120.88 o
98.0232 92.42 o
55.8144 83.8161 o
86.8024 116.661 o
87.2579 91.5889 o
100.304 108.231 o
112.17 103.227 o
87.2986 119.974 o
105.475 88.0985 o
104.828 88.5538 o
88.7389 61.6528 o
105.147 99.9727 o
108.871 106.347 o
82.7741 84.6601 o
84.5773 93.9393 o
113.333 87.1572 o
137.398 115.742 o
109.967 104.407 o
101.062 101.325 o
86.2544 84.9852 o
92.1796 99.238 o
79.6651 89.5113 o
78.0051 99.9787 o
92.7767 110.416 o
100.826 85.4864 o
85.6561 99.9595 o
83.8208 96.9942 o
98.8226 89.3364 o
132.656 98.9413 o
98.032 86.7365 o
79.8323 93.8213 o
82.6273 85.7396 o
101.28 83.9487 o
94.5298 81.6418 o
89.4984 102.83 o
101.061 92.219 o
86.3955 80.4737 o
106.467 85.9057 o
86.6503 93.0737 o
84.9832 89.7841 o
92.3067 108.168 o
97.77 97.3451 o
100.849 91.2601 o
94.7295 93.7339 o
96.1896 85.4939 o
97.5461 95.1728 o
95.8489 89.2951 o
91.387 89.7261 o
88.7297 99.9385 o
94.9916 98.3176 o
90.5946 103.721 o
114.171 100.096 o
94.1321 95.97 o
99.9376 82.7411 o
97.5016 94.3139 o
93.0424 125.187 o
103.09 83.0688 o
105.953 69.7538 o
88.3202 77.1231 o
108.085 102.384 o
90.7525 88.8957 o
114.252 99.5114 o
81.9627 86.3156 o
106.4 82.4967 o
99.8625 101.727 o
93.8065 106.479 o
95.0764 111.025 o
94.1624 78.3207 o
94.973 99.6354 o
94.3731 100.107 o
88.7875 90.6096 o
104.836 94.1139 o
96.0474 99.4422 o
86.4893 55.5593 o
95.3063 77.7572 o
82.2534 126.044 o
107.766 94.7275 o
121.334 53.1531 o
89.2595 83.0646 o
114.534 88.1269 o
101.731 99.6448 o
95.1451 94.7307 o
91.5923 91.8276 o
94.8167 92.727 o
103.701 106.609 o
83.8133 98.3776 o
81.3378 77.4142 o
93.9192 86.2018 o
114.093 96.5059 o
70.0608 81.3577 o
57.0826 100.433 o
82.5513 88.2822 o
108.033 82.8875 o
90.6205 89.4832 o
120.385 94.3497 o
86.7488 102.014 o
86.6134 101.768 o
87.1802 108.518 o
79.1452 66.2499 o
96.7026 95.9452 o
86.9344 92.7547 o
81.8217 76.2733 o
98.278 84.9138 o
84.9287 102.251 o
67.339 69.0345 o
103.306 100.162 o
79.7858 103.244 o
77.9134 93.355 o
79.2684 73.7586 o
68.0998 97.4149 o
96.1493 97.108 o
94.1312 91.2442 o
85.1001 81.9292 o
80.5521 96.5604 o
83.5739 71.9234 o
100.567 116.242 o
57.1595 82.9708 o
90.3398 110.132 o
120.988 71.8782 o
86.8381 126.013 o
89.7476 85.5033 o
107.466 86.468 o
103.011 62.2937 o
82.0729 71.0029 o
85.4552 78.7485 o
88.3605 82.0573 o
103.22 90 o
107.641 122.539 o
82.993 83.3619 o
100.468 97.7421 o
92.6437 93.6331 o
83.4664 91.3954 o
85.9349 84.8227 o
93.1986 90.8406 o
102.69 85.2718 o
82.8161 122.352 o
107.302 72.1624 o
91.2829 103.354 o
113.41 82.4784 o
60.3949 86.6264 o
96.8563 106.306 o
65.5108 83.4187 o
94.6573 106.959 o
90.4189 91.3572 o
86.372 100.323 o
100.14 95.5608 o
87.4178 79.7493 o
119.796 104.837 o
88.6107 93.7382 o
90.0321 100.278 o
91.2738 84.016 o
105.235 97.339 o
94.4435 92.7893 o
90.0216 94.7846 o
65.4255 116.053 o
104.625 93.1564 o
95.388 96.931 o
88.0398 88.0754 o
103.799 104.108 o
85.0155 103.731 o
93.7056 89.3937 o
104.709 93.763 o
118.473 94.1349 o
86.6182 82.4889 o
89.1171 67.3087 o
97.314 115.038 o
116.855 115.235 o
65.153 82.031 o
104.344 82.5215 o
84.4863 84.2322 o
94.7853 86.3448 o
88.0794 103.715 o
103.687 81.0607 o
118.747 77.1806 o
83.8669 73.0287 o
66.894 99.5136 o
94.4027 71.9582 o
97.1851 81.3646 o
89.1815 82.175 o
96.7254 96.0747 o
75.1457 105.109 o
103.064 99.9875 o
100.167 87.782 o
80.2506 86.536 o
95.4959 90.4239 o
71.9619 108.168 o
99.1464 90.3876 o
130.649 78.0307 o
123.387 73.0037 o
83.7596 104.445 o
110.788 99.1987 o
72.3171 95.506 o
115.733 99.7359 o
76.618 88.4074 o
95.7003 94.6177 o
78.8892 94.7167 o
98.5531 68.9498 o
110.463 86.4439 o
84.2454 99.5255 o
77.7805 88.8789 o
90.7351 81.7405 o
81.0251 112.873 o
80.6971 75.7194 o
100.329 91.4803 o
98.6006 83.6735 o
97.6689 100.167 o
83.9304 94.5612 o
83.5015 104.961 o
84.7416 119.848 o
98.0573 89.2165 o
90.4119 82.4703 o
71.03 92.4429 o
118.079 52.4616 o
106.344 91.881 o
72.2284 85.1632 o
89.8401 91.6094 o
89.1055 108.159 o
109.009 83.3441 o
96.1881 95.4414 o
85.2507 96.5058 o
106.82 74.9067 o
113.472 114.045 o
109.71 97.7464 o
57.8625 104.265 o
101.278 92.4773 o
78.2437 108.222 o
99.1905 116.688 o
105.84 104.924 o
105.208 102.222 o
92.8324 92.4054 o
104.943 109.893 o
65.0323 117.6 o
89.4407 87.474 o
106.917 80.5941 o
125.441 110.318 o
78.8159 87.331 o
106.181 107.041 o
104.113 70.6488 o
125.602 94.5631 o
95.2153 76.1248 o
102.042 89.3801 o
94.7073 72.1479 o
100.665 70.7063 o
81.2664 93.035 o
96.2571 106.364 o
91.4546 96.4014 o
86.0977 75.657 o
91.8012 92.5623 o
76.6731 88.7409 o
90.7262 77.1274 o
86.3004 63.384 o
100.866 84.9522 o
92.644 105.068 o
88.6816 83.7549 o
105.05 94.8315 o
86.819 90.5156 o
86.2224 96.3059 o
103.929 91.5687 o
97.2976 81.6017 o
75.8055 73.3199 o
61.7295 83.5114 o
94.9328 92.1143 o
77.9306 89.5332 o
94.238 92.5381 o
101.925 101.351 o
70.1373 115.603 o
67.5231 93.9016 o
98.36 95.9367 o
91.1104 50.2866 o
112.532 73.5648 o
62.4171 84.2234 o
87.6685 96.9984 o
94.6967 110.362 o
96.1922 98.424 o
136.88 82.8957 o
100.622 84.7695 o
95.0747 82.0193 o
99.5437 83.5559 o
87.9829 94.8958 o
106.539 93.3109 o
80.604 78.3175 o
92.5845 86.9515 o
98.1684 82.1375 o
109.714 83.3838 o
117.874 90.629 o
95.5368 97.0695 o
90.8762 95.5106 o
91.5065 92.4486 o
100.054 103.623 o
86.578 88.5329 o
74.549 84.6335 o
103.98 97.8382 o
90.1371 104.29 o
96.6517 95.2792 o
104.934 103.911 o
94.9232 71.8864 o
84.0524 89.8882 o
89.8172 94.5738 o
96.2159 89.8236 o
96.5814 89.0259 o
77.7595 91.0186 o
97.003 109.394 o
111.769 83.0868 o
95.4155 88.4331 o
119.205 73.4821 o
85.3783 104.2 o
94.7262 88.6483 o
74.7673 83.3222 o
88.0216 62.4907 o
111.535 84.5272 o
104.338 82.1014 o
99.1654 109.328 o
129.698 76.2471 o
86.2828 101.779 o
93.9021 91.8995 o
88.1171 110.145 o
103.779 109.851 o
121.66 114.461 o
95.4184 94.0314 o
61.7642 94.3165 o
90.9951 117.874 o
101.77 81.2953 o
106.669 95.4664 o
101.802 82.1315 o
95.9319 92.8157 o
117.653 89.2901 o
103.268 71.2083 o
83.0406 87.9468 o
102.138 95.8247 o
93.1274 98.5254 o
92.7455 89.7216 o
102.942 73.4778 o
94.6089 96.0744 o
128.258 99.8427 o
118.881 72.0512 o
89.8764 92.9237 o
97.999 84.5187 o
119.462 110.705 o
86.0276 93.2842 o
96.0038 68.5976 o
74.2907 83.5124 o
91.9982 82.9306 o
127.276 72.721 o
88.4049 95.2023 o
78.1283 119.116 o
101.856 96.0919 o
66.4548 90.2518 o
58.5108 70.1086 o
84.8732 87.8459 o
105.952 64.8079 o
86.2407 112.405 o
87.6282 81.7307 o
71.1972 110.427 o
91.5663 82.0544 o
86.0283 108.597 o
103.217 83.8364 o
88.3271 81.2172 o
86.0038 101.045 o
83.8114 95.1261 o
76.477 89.0975 o
112.814 120.029 o
97.249 95.99 o
105.952 87.9527 o
85.5316 122.99 o
85.4525 96.2743 o
95.9581 99.7552 o
77.1272 87.4049 o
77.6265 99.6642 o
95.8271 90.5125 o
107.42 95.9483 o
96.3911 93.0501 o
99.4265 91.6721 o
91.1763 72.9125 o
95.5497 91.5416 o
94.0174 98.939 o
94.83 89.7236 o
70.8221 92.0224 o
132.207 95.1321 o
119.414 91.2063 o
113.396 97.0889 o
95.4232 87.3243 o
90.1898 77.7503 o
100.598 98.825 o
82.6284 96.2291 o
111.179 100.797 o
77.6913 105.502 o
78.4041 104.619 o
49.0435 91.2867 o
104.673 85.0099 o
81.3312 91.1044 o
95.6816 83.8409 o
70.2837 107.381 o
78.74 113.421 o
101.226 97.3583 o
109.336 113.855 o
105.281 114.009 o
113.67 96.6742 o
141.074 95.2915 o
95.9174 92.6921 o
95.2344 90.5235 o
82.833 99.2183 o
74.9138 109.428 o
71.85 84.7155 o
112.285 83.8519 o
86.1454 79.0048 o
100.827 104.758 o
96.1612 85.0313 o
118.953 94.1713 o
102.804 103.981 o
105.423 103.937 o
95.5117 100.41 o
109.866 72.0385 o
102.313 86.2627 o
104.513 82.3203 o
159.803 87.8607 o
103.608 81.129 o
102.691 84.5764 o
98.9259 98.3805 o
93.2586 74.7054 o
74.3822 78.1944 o
93.0127 92.0449 o
92.2611 88.2041 o
113.126 80.9897 o
95.7547 90.5149 o
123.627 63.2132 o
104.818 79.8853 o
86.8708 78.1844 o
93.8352 100.207 o
99.3417 99.9841 o
82.1693 87.0631 o
102.323 96.3614 o
79.3744 90.3947 o
75.2108 73.8208 o
96.9721 85.5664 o
98.188 100.634 o
104.408 83.8385 o
119.42 72.9102 o
113.262 94.6268 o
115.514 143.529 o
115.512 84.7852 o
107.195 88.0186 o
77.2222 88.1787 o
108.963 79.4299 o
73.0189 84.7421 o
71.269 89.373 o
109.912 97.4027 o
88.1972 82.2668 o
85.1742 61.3248 o
87.7378 83.4322 o
122.557 82.0707 o
119.36 94.6846 o
104.154 97.0753 o
69.3842 76.7936 o
68.9964 77.8522 o
89.2858 82.4541 o
113.042 86.0477 o
95.549 110.929 o
56.2635 85.101 o
66.3724 77.5422 o
107.864 112.273 o
114.289 92.0402 o
69.0917 78.996 o
75.062 96.3242 o
92.9496 83.4297 o
136.678 115.751 o
60.9113 73.1375 o
87.6277 84.3493 o
68.6198 85.8537 o
59.6032 99.2522 o
94.8513 50.987 o
113.871 103.98 o
99.1737 91.7974 o
91.5607 92.3383 o
91.4922 85.0303 o
88.2601 94.013 o
87.8399 87.8206 o
94.2081 77.9195 o
110.09 84.6757 o
83.0169 87.9062 o
92.5971 94.0898 o
133.953 56.0241 o
102.289 99.9181 o
69.0147 103.574 o
87.0045 77.2973 o
97.7941 80.2789 o
93.9884 78.789 o
112.948 107.741 o
115.547 105.702 o
82.8059 58.998 o
64.0897 100.466 o
107.2 60.1778 o
84.8497 71.8971 o
101.862 94.3888 o
103.103 116.282 o
93.2798 101.988 o
87.0231 114.673 o
112.487 88.6598 o
102.408 93.4264 o
83.9737 85.8087 o
78.6322 99.7825 o
94.6585 103.852 o
96.3133 80.4521 o
100.079 64.5382 o
103.051 91.6249 o
103.322 59.7865 o
80.8205 91.7762 o
99.7078 65.1031 o
94.8921 90.7183 o
86.2442 102.706 o
87.7659 90.0798 o
89.0607 109.936 o
65.7936 56.9832 o
110.989 89.9014 o
91.4073 70.9133 o
99.6062 91.0602 o
91.8257 107.612 o
117.543 113.841 o
76.2514 107.869 o
101.637 103.846 o
109.167 81.0682 o
101.95 93.5629 o
99.1647 86.9392 o
117.063 84.9098 o
60.04 99.8878 o
100.4 78.2905 o
99.6813 86.7806 o
102.427 91.4928 o
89.8562 99.6935 o
101.937 96.2367 o
89.0387 78.4651 o
92.298 108.621 o
81.9693 99.8759 o
97.8372 85.7893 o
104.531 101.299 o
105.851 83.0309 o
140.05 79.2703 o
75.2119 117.343 o
103.355 96.9287 o
93.8622 94.6473 o
95.5819 84.1169 o
104.246 87.3159 o
130.161 67.0261 o
102.502 98.4836 o
93.3559 90.3793 o
99.1611 87.928 o
83.7101 91.8177 o
95.0324 92.1897 o
135.433 103.764 o
80.3585 74.1155 o
90.5219 122.335 o
105.705 115.631 o
67.0736 115.3 o
82.3699 95.2612 o
88.7961 95.5083 o
94.1831 82.8813 o
81.0328 94.8376 o
63.9266 80.0591 o
93.5869 90.1545 o
102.415 112.639 o
80.355 84.7542 o
103.118 112.764 o
93.056 90.8748 o
77.6223 102.831 o
89.8397 90.0255 o
101.934 97.765 o
122.653 87.136 o
89.9117 102.919 o
92.668 92.9061 o
106.611 95.5857 o
99.4635 104.451 o
97.3825 76.529 o
77.9053 64.4039 o
43.7624 107.083 o
95.4666 82.7242 o
91.797 157.145 o
129.113 94.6385 o
98.4045 79.3972 o
90.4904 87.062 o
95.3538 81.7155 o
111.547 90.7772 o
103.119 80.1508 o
86.9997 96.9842 o
76.8876 86.0282 o
104.192 105.344 o
100.16 95.2771 o
126.347 86.6571 o
70.1908 100.026 o
102.353 102.389 o
98.5466 111.583 o
117.93 77.2835 o
86.4327 97.4921 o
99.2032 105.941 o
95.4131 121.554 o
70.3729 61.7298 o
95.618 90.2078 o
96.4723 78.6467 o
95.3273 95.483 o
56.5109 72.1255 o
62.9575 59.9096 o
94.0824 90.8436 o
102.329 102.358 o
103.908 78.5984 o
94.4141 89.4454 o
80.5779 93.7857 o
136.984 99.4107 o
79.7779 121.047 o
86.3279 85.5342 o
97.4924 92.5342 o
80.236 78.0989 o
121.302 54.6771 o
129.507 123.609 o
65.0771 75.9837 o
121.442 90.747 o
103.601 96.4303 o
98.4722 78.8616 o
99.059 88.0972 o
93.7247 97.2928 o
125.667 110.473 o
96.5102 89.163 o
83.653 95.1495 o
67.5035 92.1817 o
81.3346 89.6252 o
81.1296 85.6914 o
50.0761 104.068 o
88.7882 82.1552 o
89.0712 101.926 o
81.6476 84.0295 o
95.108 89.5173 o
100.196 105.92 o
77.4976 95.3389 o
89.1637 91.0751 o
96.915 83.1944 o
101.137 82.3869 o
99.3816 117.568 o
102.693 92.5075 o
74.3902 90.6619 o
91.2155 70.8941 o
104.107 80.6527 o
112.096 82.8227 o
111.693 98.8403 o
103.435 93.1386 o
107.037 86.6962 o
120.882 96.0225 o
87.3558 78.6862 o
79.1134 94.8411 o
62.8409 99.4358 o
62.2878 93.1941 o
104.16 74.783 o
81.9217 80.9805 o
77.6535 126.851 o
66.2026 84.0871 o
96.2164 91.3573 o
101.782 106.533 o
88.4362 105.546 o
93.3412 98.585 o
144.77 81.3728 o
83.1228 97.3738 o
93.9941 98.977 o
107.971 93.0671 o
121.228 83.4328 o
97.2575 95.6728 o
106.007 92.3232 o
84.0193 88.3401 o
83.1977 84.9935 o
84.6162 93.1785 o
82.0422 93.4795 o
81.8873 103.547 o
99.2481 116.133 o
87.6153 94.1611 o
105.652 78.2091 o
122.438 87.0978 o
94.3796 84.8899 o
92.8988 109.166 o
83.7918 88.3672 o
79.2157 100.46 o
92.5885 96.974 o
113.575 100.813 o
81.2732 78.8814 o
114.817 82.331 o
82.8995 87.7723 o
112.81 94.26 o
86.7361 112.681 o
94.6648 88.6706 o
107.836 102.147 o
89.4974 85.0138 o
88.3028 89.2828 o
99.031 51.3103 o
108.766 79.0851 o
92.2732 92.7841 o
89.2307 100.971 o
97.7608 78.0422 o
99.8185 82.2846 o
103.94 91.0301 o
118.894 109.935 o
91.464 80.1443 o
96.7747 84.4489 o
102.381 83.8417 o
69.1721 77.8219 o
98.1582 80.5087 o
96.0147 74.3009 o
106.548 83.9103 o
70.1363 117.44 o
127.301 91.5473 o
87.6715 86.7269 o
79.2261 96.7966 o
95.8559 80.8068 o
89.6241 86.1421 o
60.836 113.001 o
88.5993 88.8489 o
87.8147 102.189 o
105.204 78.6096 o
86.1545 81.1291 o
84.7875 102.054 o
110.606 86.8027 o
102.78 88.4957 o
111.468 108.54 o
99.2011 88.9283 o
108.152 56.9234 o
92.9945 115.435 o
75.1615 136.9 o
141.191 82.7751 o
62.5812 114.994 o
124.02 90.2474 o
71.6354 109.94 o
111.879 95.2243 o
119.838 88.2634 o
89.8904 105.05 o
104.682 78.2755 o
86.88 92.2396 o
93.2836 100.431 o
131.119 60.9321 o
117.398 82.0557 o
93.0618 90.0492 o
89.2152 78.2959 o
83.8576 99.2699 o
110.564 92.2646 o
100.113 90.4229 o
80.2549 93.8673 o
129.459 71.4487 o
97.5076 102.408 o
72.2006 100.575 o
97.2281 91.6354 o
101.973 82.2086 o
96.9556 85.2625 o
116.101 84.7788 o
101.381 84.1266 o
60.4969 112.584 o
106.87 91.9458 o
93.4535 85.9551 o
123.292 92.0072 o
88.3008 102.695 o
114.442 83.4784 o
99.3739 87.6171 o
98.4193 85.2545 o
97.8803 87.0241 o
90.8935 114.631 o
89.783 102.628 o
116.091 92.2472 o
110.433 100.896 o
95.6719 78.6264 o
70.9029 88.1564 o
105.743 82.1721 o
78.727 110.634 o
98.0013 80.4058 o
85.6108 104.584 o
86.7022 92.9751 o
96.9017 93.5032 o
87.6279 63.1201 o
38.2789 104.875 o
92.5283 96.8204 o
97.8109 89.5525 o
49.53 115.487 o
121.284 86.473 o
89.6713 102.747 o
74.0606 43.0228 o
60.7426 64.1363 o
82.4858 89.378 o
82.115 100.489 o
92.3655 90.3787 o
94.7481 72.5629 o
86.3027 99.7819 o
95.5507 102.153 o
97.8059 104.018 o
110.992 92.0007 o
118.027 84.0824 o
92.3351 94.0134 o
94.0229 100.38 o
85.9681 105.175 o
96.6111 84.277 o
86.1676 80.917 o
102.997 90.874 o
54.8652 96.987 o
83.2758 93.0851 o
97.8095 91.7945 o
93.8226 101.279 o
93.0471 90.2685 o
98.6617 94.4864 o
79.8799 87.4671 o
85.2295 101.94 o
105.128 86.1951 o
98.2572 106.072 o
107.727 92.528 o
116.949 87.2174 o
96.7463 72.2378 o
79.4004 88.8703 o
108.317 52.0235 o
88.2442 109.932 o
109.314 83.9293 o
124.596 44.3278 o
88.0599 87.1719 o
74.2064 101.361 o
109.73 90.1122 o
79.9459 92.2803 o
83.3586 89.7852 o
93.7486 90.3089 o
85.4672 99.3971 o
100.271 90.4906 o
68.0776 101.317 o
98.2552 94.5906 o
96.8151 83.3975 o
112.678 92.669 o
101.772 110.176 o
74.6029 83.7297 o
107.848 96.1968 o
86.7667 83.4909 o
74.485 91.9158 o
100.615 98.0903 o
94.8113 90.9521 o
98.7676 87.7116 o
80.2956 102.247 o
86.4061 108.488 o
80.6848 74.5184 o
99.4843 82.6778 o
104.743 112.2 o
76.9645 134.241 o
92.0156 104.563 o
161.073 117.244 o
69.4449 82.0586 o
95.1498 92.9574 o
73.6051 101.139 o
103.315 98.9137 o
124.853 81.7774 o
91.3367 90.917 o
110.572 94.5679 o
85.9057 76.1309 o
95.957 89.2223 o
87.7744 60.9579 o
96.3719 102.147 o
83.6729 94.6017 o
106.142 97.246 o
157.431 67.1772 o
112.44 94.3606 o
115.665 88.7358 o
92.5017 76.3221 o
110.639 90.8439 o
53.5545 92.7383 o
91.1903 112.768 o
133.064 73.7168 o
107.917 96.3712 o
87.159 86.4272 o
106.298 86.4873 o
82.7642 79.374 o
83.8185 90.5324 o
92.8351 93.9969 o
122.108 89.3643 o
117.161 96.8717 o
83.7573 79.6653 o
73.5054 110.68 o
110.381 80.9039 o
116.934 70.767 o
85.9677 94.2867 o
74.2937 92.4578 o
75.7557 71.6663 o
100.302 93.4302 o
98.327 86.008 o
92.6105 99.952 o
101.432 100.454 o
70.9063 56.7769 o
90.1279 87.6125 o
73.3398 93.1594 o
64.0611 96.6469 o
96.3167 109.547 o
108.918 68.8866 o
96.696 89.2052 o
79.2752 99.4914 o
61.5545 91.2634 o
82.9975 76.6502 o
100.529 99.9382 o
80.4061 94.6872 o
109.357 96.8922 o
89.4566 73.5915 o
71.4659 67.0411 o
77.3136 72.5198 o
91.3393 90.4556 o
104.171 84.7123 o
100.846 96.9898 o
70.211 77.8611 o
87.9548 87.0691 o
97.3526 98.2344 o
99.2966 89.3783 o
104.681 93.6941 o
95.7959 75.1541 o
94.6676 98.2548 o
104.424 83.524 o
103.892 86.887 o
96.0015 93.7507 o
81.7629 115.344 o
80.575 98.3874 o
87.3882 97.782 o
118.723 95.3939 o
96.107 83.3956 o
96.9077 101.904 o
89.3841 71.5059 o
100.677 100.15 o
112.929 99.3749 o
108.335 85.5875 o
146.612 80.4513 o
112.761 85.7484 o
96.7629 100.354 o
86.0539 88.4182 o
96.1729 89.5433 o
101.432 102.302 o
102.764 101.186 o
56.1475 96.9812 o
92.8748 78.7623 o
105.556 99.3786 o
96.1406 95.2018 o
97.4743 85.2268 o
123.963 79.5899 o
101.15 62.7905 o
87.0891 97.0674 o
103.477 76.7042 o
89.2586 74.2618 o
94.0895 113.55 o
105.471 100.703 o
103.953 67.9279 o
123.673 92.6896 o
106.522 96.8719 o
99.5279 88.6601 o
78.6763 95.2778 o
131.263 113.138 o
88.328 86.8622 o
66.8983 79.3724 o
88.4672 88.8324 o
121.215 83.1911 o
100 96.9648 o
102.136 105.094 o
128.847 115.115 o
106.373 73.7896 o
85.43 68.0781 o
82.0263 95.321 o
86.7221 102.504 o
98.7793 85.3217 o
79.8442 88.7165 o
120.598 98.5454 o
78.0085 67.3778 o
80.8341 99.0016 o
94.1577 102.58 o
99.0349 86.836 o
66.4809 62.6387 o
119.802 89.31 o
71.2785 106.112 o
107.446 89.223 o
93.7702 101.411 o
90.5541 107.625 o
89.1616 70.0577 o
79.5573 78.6598 o
83.3792 97.3612 o
85.9324 89.0466 o
87.6158 67.6344 o
76.9131 89.1037 o
84.1086 104.538 o
101.545 95.6122 o
108.103 86.6998 o
113.083 92.2468 o
84.626 86.5 o
82.5462 81.4477 o
91.5622 86.5923 o
52.9027 67.8669 o
120.204 80.2194 o
84.3324 100.891 o
112.43 109.192 o
75.815 68.2419 o
103.87 87.6415 o
106.073 85.0189 o
145.521 74.5021 o
119.009 88.0965 o
109.984 72.5349 o
125.814 95.1072 o
101.395 68.5031 o
112.963 111.05 o
87.4983 89.2516 o
88.1102 94.5939 o
96.9653 88.0897 o
87.8084 96.3459 o
77.7981 83.1279 o
106.442 100.805 o
72.6632 63.4687 o
93.6575 93.4889 o
103.621 108.015 o
87.8992 83.0387 o
91.8721 88.6848 o
133.824 66.1297 o
89.3769 100.639 o
82.3739 92.7646 o
121.86 97.0242 o
94.1311 74.7984 o
101.701 95.0207 o
85.2999 89.3844 o
63.9577 117.833 o
82.3646 88.865 o
83.9249 90.9018 o
102.553 100.196 o
75.658 100.308 o
104.418 91.7558 o
78.387 105.066 o
94.1318 82.6444 o
71.3567 93.6893 o
88.9243 101.707 o
89.2546 83.3747 o
81.283 127.136 o
109.751 95.0047 o
134.829 70.7648 o
93.8336 96.252 o
82.3659 107.786 o
81.1693 103.757 o
100.887 93.1417 o
90.2408 96.9314 o
111.336 101.919 o
66.6025 98.2775 o
88.8077 103.956 o
93.9308 91.0354 o
94.7244 96.0978 o
81.5872 74.5876 o
73.2897 104.979 o
87.8226 88.7571 o
110.371 83.0832 o
104.2 86.9366 o
89.4311 98.2706 o
98.0122 87.416 o
87.1334 86.1427 o
107.309 98.417 o
83.5127 106.378 o
85.5275 93.9169 o
96.1425 107.436 o
86.846 87.095 o
65.6212 92.7439 o
111.314 38.9738 o
100.624 83.1057 o
87.2808 88.9517 o
80.2049 101.052 o
96.8207 94.1303 o
123.66 93.544 o
118.956 72.8639 o
84.5874 97.1449 o
94.1929 87.7323 o
90.3796 103.213 o
100.183 68.8929 o
111.071 96.4091 o
98.6075 99.316 o
105.469 114.016 o
108.552 97.6462 o
86.5378 85.1221 o
102.665 73.0533 o
90.5903 88.8529 o
93.4309 98.8092 o
101.315 93.977 o
93.9422 88.0339 o
94.9374 74.0335 o
96.5904 102.804 o
101.348 89.0043 o
89.9176 81.5584 o
77.2893 84.5083 o
100.315 72.1051 o
127.962 72.6846 o
97.1848 88.888 o
113.251 91.3539 o
92.2672 85.0023 o
104.465 65.8539 o
93.679 85.7205 o
81.7245 101.102 o
107.862 87.8674 o
105.428 88.995 o
98.4173 96.4879 o
103.079 91.9981 o
80.0913 96.1455 o
75.5716 95.0693 o
133.944 82.6396 o
92.2925 86.5915 o
91.2622 112.359 o
86.3789 89.8005 o
65.5183 66.253 o
103.047 89.9218 o
119.356 76.2843 o
107.376 94.9501 o
61.9927 96.078 o
72.847 89.5846 o
112.025 89.5172 o
93.831 103.83 o
78.686 100.529 o
90.9192 85.6392 o
99.3919 106.937 o
97.2411 78.6166 o
107.483 88.8372 o
105.659 98.113 o
96.1402 93.9338 o
55.89 84.0869 o
95.7962 94.0193 o
94.2766 90.1817 o
96.3747 120.232 o
83.92 110.652 o
113.673 103.169 o
111.773 94.6755 o
99.8015 85.1972 o
94.8101 101.448 o
91.2915 96.1092 o
102.128 97.1289 o
101.316 109.88 o
83.9907 92.7918 o
123.773 105.905 o
114.418 81.2806 o
99.7588 99.0061 o
82.0344 82.7966 o
103.37 95.9776 o
102.395 91.6529 o
83.3821 85.815 o
82.0893 89.8139 o
117.474 74.009 o
103.612 99.3045 o
92.9158 98.3154 o
73.0849 62.8734 o
47.1366 99.511 o
87.6575 95.4814 o
102.373 101.57 o
50.0391 80.6825 o
87.5852 97.3242 o
112.489 90.5349 o
100.992 77.2805 o
94.0558 77.2209 o
108.289 80.7159 o
100.726 80.764 o
100.067 108.105 o
92.2394 97.2726 o
103.646 88.8156 o
100.803 95.4507 o
100.032 96.8789 o
56.9558 85.9527 o
135.24 95.3085 o
92.1584 104.285 o
98.0297 86.7512 o
57.8864 86.3119 o
85.0138 84.8168 o
94.8502 86.523 o
75.9789 80.4291 o
84.5762 86.0298 o
95.4237 88.6641 o
98.9454 90.0095 o
91.5648 80.9483 o
83.6987 91.2559 o
98.7719 98.084 o
98.012 84.1129 o
62.1649 102.011 o
94.5409 100.92 o
101.858 93.3246 o
85.221 102.962 o
116.113 92.3158 o
122.541 84.6069 o
77.7136 90.3324 o
110.178 77.6563 o
96.0887 90.6864 o
109.306 94.2057 o
129.029 83.2416 o
94.5319 98.621 o
113.62 57.9471 o
105.073 84.5826 o
98.4825 94.6223 o
93.6826 112.217 o
130.686 79.6282 o
103.147 82.5136 o
109.373 94.1704 o
102.41 99.9791 o
136.786 80.2788 o
98.5403 82.6495 o
119.774 94.5158 o
105.634 73.9038 o
89.6278 77.0109 o
93.5627 101.347 o
98.1651 95.0109 o
91.8066 91.6112 o
88.5139 88.0091 o
96.7752 92.0968 o
106.026 93.517 o
92.4108 60.2799 o
104.123 83.1337 o
118.767 105.757 o
108.308 98.0657 o
117.954 78.6422 o
89.1959 93.0888 o
148.645 85.019 o
78.2898 87.6828 o
112.765 90.7435 o
111.085 93.4206 o
110.89 97.9502 o
93.2096 84.3438 o
92.2638 95.3522 o
95.0585 97.6587 o
76.1464 85.6515 o
91.7557 83.539 o
80.7631 89.8152 o
81.508 87.6477 o
87.9591 86.3542 o
109.775 51.0214 o
104.882 92.9521 o
81.389 111.796 o
91.0006 100.662 o
85.0056 97.5235 o
88.5861 101.278 o
86.254 94.7233 o
98.7165 74.1502 o
91.3657 100.196 o
58.4515 117.991 o
78.5065 86.7995 o
61.7246 119.575 o
98.5086 83.7304 o
98.0744 83.7671 o
97.1057 90.6676 o
97.5872 87.8139 o
94.9041 102.929 o
101.562 103.475 o
81.2657 85.6707 o
68.7623 92.3043 o
110.857 104.772 o
119.041 106.308 o
96.302 98.653 o
100.804 98.6265 o
100.027 84.9349 o
83.0796 63.8143 o
96.0348 99.2344 o
111.887 87.2384 o
95.1448 88.0649 o
97.5431 91.108 o
100.9 94.8109 o
88.5745 97.3584 o
91.8662 113.173 o
85.9078 91.3214 o
95.5985 77.3281 o
127.527 96.4705 o
96.6644 85.5501 o
57.1691 100.566 o
99.7758 90.2192 o
78.8203 74.557 o
77.908 92.0617 o
89.0337 85.7908 o
89.5309 105.12 o
102.336 136.435 o
132.185 80.1343 o
116.137 87.4735 o
101.575 95.0876 o
103.192 92.273 o
110.683 86.3687 o
68.8166 69.3196 o
79.142 98.1816 o
93.6839 93.3965 o
98.1548 87.8786 o
119.066 87.887 o
92.639 114.827 o
103.861 72.7481 o
106.262 99.8836 o
73.3957 100.743 o
100.316 107.073 o
69.267 98.6537 o
88.0478 92.0487 o
135.605 59.2835 o
83.0035 112.854 o
82.2209 107.618 o
74.5623 109.709 o
91.0557 108.094 o
123.679 113.003 o
101.573 84.9855 o
86.8459 75.4749 o
114.797 94.4221 o
106.474 66.129 o
101.33 123.837 o
77.5645 96.7366 o
86.886 90.0785 o
106.282 85.3702 o
86.4584 103.382 o
106.408 105.765 o
87.6649 94.9588 o
93.7489 98.0429 o
84.5311 113.242 o
99.2686 95.1638 o
107.381 68.1752 o
130.943 86.6462 o
117.118 82.4936 o
94.0664 88.8503 o
98.671 87.1542 o
84.5087 94.7137 o
91.902 127.312 o
91.0757 109.616 o
100.175 85.2666 o
90.021 86.1103 o
95.9577 90.5066 o
70.6111 47.5317 o
99.8403 101.824 o
98.5269 100.103 o
106.674 89.7549 o
70.7789 106.239 o
90.4624 92.9105 o
94.8844 92.487 o
103.54 85.2699 o
96.3477 98.2042 o
96.5855 89.8425 o
92.8817 95.4057 o
89.4382 112.663 o
89.8228 115.42 o
76.5987 98.1842 o
154.18 106.766 o
81.2647 98.5149 o
101.125 95.9434 o
99.9337 106.537 o
135.938 78.6621 o
109.613 89.7253 o
94.5617 92.3671 o
97.5966 96.6219 o
93.1481 128.995 o
122.849 95.5166 o
126.79 70.7122 o
88.5393 97.3534 o
119.36 108.09 o
104.853 73.0431 o
69.4465 73.5655 o
107.538 85.4252 o
100.969 88.2056 o
100.946 90.692 o
80.9186 69.4919 o
103.857 97.2798 o
79.7382 86.5329 o
105.983 104.573 o
87.2052 72.2288 o
93.2782 94.2653 o
109.444 96.6052 o
88.5868 86.078 o
130.994 77.3732 o
81.3852 109.598 o
92.6386 99.3651 o
79.3311 111.608 o
69.7533 73.5345 o
99.435 95.7185 o
99.63 100.355 o
121.866 101.532 o
90.5307 87.7087 o
104.503 95.71 o
83.378 97.3362 o
90.1576 95.2285 o
78.2164 87.2452 o
95.9272 106.633 o
98.2112 87.5113 o
94.0117 83.8925 o
124.582 123.512 o
93.7146 73.7401 o
109.824 98.0518 o
85.4123 92.2732 o
112.403 63.2807 o
90.0429 88.0809 o
92.381 80.1873 o
89.5213 102.131 o
103.668 93.1343 o
107.592 89.3678 o
96.228 86.2552 o
91.0317 75.9088 o
89.6253 98.3978 o
60.1345 93.2088 o
94.4586 92.9998 o
126.342 58.1319 o
122.736 69.7851 o
79.0292 88.0532 o
93.5252 90.6802 o
83.835 89.7716 o
89.2205 104.988 o
102.195 89.0365 o
72.7388 107.808 o
68.8954 101.619 o
58.7128 64.7946 o
90.5552 95.1259 o
98.3844 83.977 o
81.0883 89.9 o
111.614 100.109 o
100.161 94.3412 o
111.504 85.0434 o
81.4601 94.1934 o
82.9042 107.511 o
85.9301 84.2419 o
84.6851 73.6774 o
106.498 88.3021 o
103.049 84.1178 o
115.023 88.8576 o
96.1872 83.3604 o
96.8843 84.9931 o
90.5271 83.8646 o
78.8251 85.9407 o
113.523 97.1449 o
100.343 75.838 o
102.612 94.8789 o
48.8119 84.7289 o
103.156 85.9478 o
109.316 117.986 o
89.6652 124.876 o
97.6315 91.7833 o
106.715 107.477 o
97.8192 111.528 o
145.814 102.208 o
110.629 103.773 o
99.7842 90.3704 o
102.483 105.267 o
120.124 79.4866 o
80.0552 93.1088 o
96.0013 92.1534 o
96.0079 84.0956 o
120.5 108.176 o
83.0399 66.2047 o
78.4963 70.3867 o
119.092 108.657 o
48.9932 102.023 o
83.5741 88.2665 o
104.842 99.6819 o
84.1732 58.1302 o
114.037 91.3882 o
75.6906 115.845 o
57.3143 90.023 o
124.145 52.2584 o
84.9519 95.5335 o
107.855 88.9301 o
75.5934 101.651 o
109.695 81.3419 o
86.3806 100.076 o
101.23 112.744 o
88.333 88.9215 o
91.3486 90.5042 o
83.0272 87.7916 o
76.6703 48.5543 o
103.655 98.8823 o
95.1791 66.8236 o
80.8813 79.2065 o
109.273 87.5192 o
115.503 50.6747 o
109.263 99.2934 o
93.8076 94.5733 o
110.673 83.3373 o
88.3962 92.5534 o
93.8236 96.8912 o
81.1906 110.133 o
105.006 127.535 o
86.0691 70.5956 o
112.36 89.9909 o
108.37 90.7376 o
92.7854 90.2232 o
105.123 64.7526 o
78.6018 85.339 o
79.9907 86.4069 o
68.0448 73.8574 o
75.8124 85.6995 o
98.0271 92.9463 o
99.3744 87.6537 o
65.5259 43.6666 o
96.3936 82.1158 o
93.9109 88.7383 o
125.996 84.9663 o
96.8077 65.3099 o
58.1821 110.584 o
87.2736 97.7583 o
141.598 78.9178 o
94.6104 91.8795 o
105.782 97.1707 o
107.76 87.7879 o
90.4137 99.2056 o
67.1605 77.2547 o
96.5996 94.1837 o
112.804 84.4595 o
66.431 93.8165 o
89.7412 91.4882 o
102.568 81.2307 o
111.752 85.719 o
88.5468 104.508 o
116.069 89.7681 o
98.9136 61.1482 o
101.235 96.3856 o
100.362 105.979 o
106.923 96.6855 o
79.6221 87.4139 o
87.1214 85.7262 o
92.1098 76.4155 o
120.938 99.7357 o
87.3793 57.3432 o
94.0207 92.6443 o
101.699 80.9485 o
82.3882 70.3046 o
92.2679 83.7854 o
103.012 67.8502 o
119.661 75.7014 o
92.5579 70.7575 o
70.5928 100.817 o
76.1313 88.6219 o
80.8033 76.7316 o
72.641 115.845 o
100.611 91.6247 o
71.7473 98.6259 o
90.4887 84.2164 o
108.084 98.6881 o
89.3782 87.7421 o
130.558 87.3517 o
62.9661 89.9771 o
76.2255 105.301 o
106.48 105.065 o
136.679 64.8311 o
91.88 77.0771 o
111.258 97.1209 o
91.149 79.095 o
119.636 111.144 o
96.9486 114.042 o
73.3769 64.1549 o
93.749 94.6507 o
99.4669 89.8182 o
113.849 94.2068 o
90.2179 97.8354 o
92.3897 88.8835 o
91.0131 89.967 o
102.862 93.9441 o
112.971 91.5399 o
101.528 104.625 o
85.6733 101.602 o
88.7794 83.0425 o
75.1248 89.1088 o
95.8454 94.8665 o
108.067 115.156 o
71.1878 87.008 o
114.567 114.457 o
87.375 83.9076 o
110.975 104.885 o
108.93 84.8372 o
85.7907 65.5599 o
96.4353 101.117 o
89.8848 83.9892 o
97.8896 89.9113 o
150.99 76.5571 o
93.9857 92.4712 o
74.1159 88.3383 o
91.901 93.4753 o
77.7075 76.2669 o
99.1288 88.3753 o
93.8262 99.2139 o
96.1174 89.8533 o
101.241 60.8699 o
68.7852 87.324 o
84.7714 94.3261 o
109.482 85.0812 o
85.3286 93.129 o
88.7601 77.5523 o
119.076 93.0462 o
88.3013 94.1563 o
89.7773 86.1693 o
88.8917 103.535 o
107.76 90.4398 o
91.9123 83.302 o
86.1867 82.9241 o
90.082 76.6683 o
86.5877 91.4103 o
74.8653 74.2938 o
77.7169 90.7675 o
138.825 88.4695 o
87.0149 102.381 o
77.9967 91.7061 o
96.0274 93.853 o
111.796 72.9557 o
120.693 71.4668 o
79.105 91.7824 o
91.4119 90.7763 o
101.524 102.859 o
113.565 100.749 o
84.4492 97.3419 o
99.1994 84.6243 o
85.9527 78.8334 o
99.053 94.5213 o
95.9091 88.1548 o
89.2062 105.263 o
88.864 105.334 o
92.7916 95.1832 o
103.474 87.2162 o
99.153 121.933 o
100.668 77.8966 o
88.2333 84.6967 o
84.6664 108.393 o
86.2075 85.1052 o
86.5232 80.437 o
102.532 84.7563 o
130.08 87.3393 o
93.5551 128.457 o
107.845 98.5484 o
106.79 91.1626 o
93.0651 95.6014 o
87.4778 78.7227 o
94.8771 91.2977 o
72.5135 105.822 o
77.2786 61.8083 o
105.786 83.3494 o
68.1443 99.8115 o
110.901 94.6392 o
89.4579 88.2613 o
98.0234 108.057 o
86.9671 88.7935 o
96.0354 104.21 o
80.9675 116.131 o
91.8974 127.908 o
81.0166 72.944 o
89.5366 92.4 o
93.0455 88.8336 o
83.1039 83.967 o
111.385 104.807 o
122.028 82.543 o
95.2337 93.4539 o
91.995 99.368 o
82.6989 86.9496 o
109.38 73.3024 o
94.6228 90.9411 o
93.7774 105.071 o
75.2024 82.5176 o
106.822 96.2102 o
104.763 94.3179 o
42.6892 87.2604 o
104.246 96.1181 o
85.23 133.875 o
80.5223 89.7021 o
106.586 83.9443 o
128.184 121.77 o
67.1976 92.7655 o
70.9127 140.138 o
101.237 110.613 o
74.0746 93.6833 o
99.3638 79.8591 o
106.977 89.5319 o
131.163 96.0446 o
105.721 97.2904 o
114.742 74.7088 o
110.516 98.1164 o
79.2996 100.413 o
100.759 84.8611 o
87.4951 72.3688 o
110.464 119.52 o
106.354 99.538 o
98.0352 87.6368 o
123.593 99.5207 o
138.044 100.715 o
81.8976 98.4137 o
95.4278 92.5876 o
84.9248 95.3494 o
141.871 50.0767 o
123.944 100.312 o
109.278 92.7754 o
100.76 76.8917 o
83.9455 74.2593 o
104.436 107.141 o
149.524 74.3005 o
79.5341 62.5487 o
99.2702 79.4929 o
70.696 55.4938 o
92.059 100.565 o
94.917 93.2704 o
79.7346 118.419 o
107.878 87.9641 o
77.5277 101.638 o
106.048 94.2583 o
87.8076 85.0207 o
121.247 64.639 o
131.413 92.0775 o
90.7156 90.1446 o
92.2517 88.4343 o
89.7236 62.5986 o
97.3479 85.4357 o
105.598 76.6175 o
78.0294 114.183 o
67.7776 91.5734 o
102.793 87.0615 o
63.3751 115.179 o
92.6709 70.3335 o
103.689 90.978 o
105.347 65.0456 o
114.307 82.0694 o
109.067 91.6207 o
80.8211 82.5701 o
99.9976 69.1282 o
78.7531 98.8922 o
89.5322 121.36 o
100.547 77.5326 o
102.774 97.9068 o
101.06 81.4725 o
97.4073 98.6225 o
46.7731 110.602 o
83.4092 80.2138 o
103.836 80.1072 o
99.944 100.456 o
87.4525 111.351 o
108.547 96.2821 o
96.7512 78.1579 o
92.7391 104.103 o
118.4 83.8251 o
86.8894 106.984 o
112.555 93.8731 o
94.7281 88.4423 o
103.692 79.2715 o
90.1096 80.4635 o
104.239 78.8035 o
105.965 94.2021 o
117.421 120.324 o
129.284 81.4681 o
86.7984 86.8422 o
84.2444 99.9148 o
105.059 93.0636 o
86.1391 88.9427 o
88.4094 86.2875 o
93.542 91.7325 o
88.9256 84.9087 o
89.1744 96.4069 o
90.0755 86.0506 o
84.7725 71.559 o
56.4861 88.1018 o
119.304 101.714 o
89.1363 95.1016 o
88.511 98.9802 o
79.2681 118.151 o
76.9788 54.9092 o
74.9229 108.031 o
160.719 92.5569 o
78.8952 79.2431 o
92.1857 90.4575 o
86.73 87.332 o
132.59 97.4774 o
153.583 100.379 o
107.207 77.0598 o
93.65 101.122 o
85.9198 88.1707 o
84.7529 97.1383 o
77.8973 89.4627 o
89.3277 102.295 o
85.7946 95.2443 o
81.5409 104.198 o
127.677 106.174 o
101.131 92.0857 o
128.579 99.5279 o
85.1654 89.7368 o
93.7209 79.6685 o
102.231 85.2935 o
85.4181 101.557 o
95.008 90.4474 o
85.78 95.2301 o
106.146 95.697 o
93.3958 100.573 o
104.397 95.7723 o
73.6067 107.726 o
78.8819 86.0823 o
78.3852 94.6959 o
88.2252 103.775 o
94.7522 101.538 o
100.93 88.199 o
76.5879 78.9128 o
83.5055 98.3549 o
85.4395 99.494 o
80.6137 69.6616 o
103.78 86.5602 o
107.279 99.344 o
91.4467 83.148 o
124.133 83.1999 o
95.4194 67.8925 o
100.666 82.719 o
90.661 91.7953 o
94.5006 100.267 o
107.463 82.9809 o
92.4696 88.7673 o
80.5965 85.4035 o
124.66 92.2469 o
104.428 95.9814 o
71.7362 92.4884 o
93.4673 92.4211 o
103.566 99.7805 o
101.824 84.5283 o
102.312 90.9453 o
97.6125 129.639 o
84.9244 93.4538 o
91.1118 108.947 o
124.79 84.0004 o
91.2675 101.128 o
104.807 85.9431 o
95.4911 89.2373 o
108.277 89.0194 o
95.8714 91.8218 o
85.1777 105.69 o
95.8199 84.6867 o
93.0736 75.964 o
73.4655 111.719 o
93.7474 91.0778 o
107.54 85.6942 o
92.9565 125.727 o
94.5683 90.7732 o
93.4385 91.9047 o
81.3122 84.5706 o
94.8657 129.436 o
73.0259 80.1329 o
98.404 95.6869 o
104.866 71.8432 o
101.017 95.7181 o
89.6716 99.2507 o
71.3496 89.3785 o
104.11 124.816 o
94.3636 106.037 o
99.6405 78.9215 o
82.9557 84.6965 o
109.386 90.6156 o
89.9731 75.8961 o
106.324 123.391 o
109.648 61.2463 o
100.772 105.525 o
94.2536 88.9474 o
90.5411 65.9146 o
103.408 85.6322 o
75.1928 77.2968 o
99.3232 91.4279 o
97.939 97.6115 o
120.168 99.2644 o
87.7853 93.0192 o
91.1731 99.8919 o
129.538 96.9671 o
95.2481 92.3675 o
86.5389 104.611 o
67.3276 85.3033 o
59.2311 105.373 o
94.7509 94.1765 o
62.953 108.267 o
117.739 100.702 o
96.5141 92.7634 o
85.1996 89.9472 o
84.1411 116.174 o
108.101 94.467 o
93.3117 88.4228 o
98.2541 78.9515 o
87.4988 78.5899 o
42.7259 107.741 o
110.545 68.5317 o
98.7801 94.746 o
90.8464 90.2598 o
96.233 63.272 o
90.5069 92.374 o
109.245 107.168 o
96.9166 110.901 o
97.8038 90.0052 o
108.172 96.7175 o
91.3548 109.118 o
109.49 89.0677 o
99.4004 66.5728 o
61.7915 81.3823 o
104.585 96.6538 o
95.7445 99.009 o
91.8155 86.0133 o
126.159 91.4141 o
113.026 83.9698 o
92.5758 76.6593 o
95.3171 89.4883 o
77.5553 84.7232 o
102.792 105.432 o
50.5802 99.2295 o
106.624 79.5579 o
87.3095 96.9198 o
98.5737 84.0135 o
92.9765 90.0371 o
74.7106 93.0246 o
92.2902 76.8005 o
95.8963 79.4644 o
97.696 89.7098 o
113.866 62.2495 o
94.4995 88.337 o
115.881 85.6697 o
116.819 82.347 o
72.2444 93.3185 o
97.7161 86.1286 o
92.9861 103.472 o
99.4973 99.8936 o
69.5149 91.4704 o
103.085 125.344 o
103.219 104.489 o
98.5115 85.725 o
86.3787 87.8919 o
93.8382 67.2873 o
86.0004 125.004 o
89.8795 90.512 o
88.2803 81.8319 o
82.0479 92.9284 o
99.043 100.984 o
95.6946 79.2238 o
105.377 95.19 o
110.664 96.7915 o
85.2825 105.96 o
66.2199 93.4511 o
67.0031 66.1182 o
87.8341 82.2628 o
73.4664 103.099 o
109.728 93.9699 o
89.3886 88.8136 o
110.126 110.815 o
108.084 61.3207 o
99.7262 92.0429 o
96.2605 90.0226 o
84.7438 90.7445 o
107.451 81.6131 o
88.4787 86.6833 o
106.956 87.9816 o
147.171 82.0416 o
125.23 53.6078 o
109.064 116.687 o
94.5 110.109 o
91.1108 86.5302 o
137.384 78.5644 o
88.5189 97.4424 o
88.225 91.4389 o
93.9943 83.3733 o
70.5117 73.7926 o
104.88 84.1542 o
94.3242 104.975 o
155.288 78.1725 o
94.3399 105.572 o
140.749 95.2708 o
91.4448 88.9848 o
78.3796 79.9964 o
102.907 76.7011 o
101.54 91.7193 o
79.5243 87.652 o
90.9736 90.3054 o
124.774 122.295 o
104.707 97.0808 o
110.499 106.322 o
102.639 77.1592 o
84.4243 75.5585 o
81.6462 56.9911 o
70.0949 73.5174 o
96.3225 91.1054 o
73.5577 100.094 o
91.1886 110.414 o
91.358 98.4129 o
133.229 85.9801 o
101.034 92.4276 o
63.563 78.1684 o
96.109 92.5553 o
107.488 75.4849 o
82.2961 112.233 o
122.986 39.7866 o
106.598 88.4476 o
94.5874 87.2621 o
87.3538 108.988 o
129.358 84.8228 o
83.6698 91.6799 o
93.9511 87.8008 o
99.9749 80.3778 o
106.065 80.6056 o
105.005 100.145 o
97.913 107.485 o
69.639 110.045 o
87.0291 113.563 o
67.5626 109.27 o
112.682 94.277 o
103.033 108.203 o
100.728 90.1187 o
134.303 83.2339 o
grestore
0.502 setgray
gsave
140.4 124.2 34.2 37.8 clipbox
/o {
gsave
newpath
translate
0.5 setlinewidth
1 setlinejoin
0 setlinecap
0 -0.25 m
0.0663008 -0.25 0.129895 -0.223658 0.176777 -0.176777 c
0.223658 -0.129895 0.25 -0.0663008 0.25 0 c
0.25 0.0663008 0.223658 0.129895 0.176777 0.176777 c
0.129895 0.223658 0.0663008 0.25 0 0.25 c
-0.0663008 0.25 -0.129895 0.223658 -0.176777 0.176777 c
-0.223658 0.129895 -0.25 0.0663008 -0.25 0 c
-0.25 -0.0663008 -0.223658 -0.129895 -0.176777 -0.176777 c
-0.129895 -0.223658 -0.0663008 -0.25 0 -0.25 c
cl
gsave
0.502 setgray
fill
grestore
stroke
grestore
} bind def
95.162 101.312 o
93.8033 94.8668 o
98.0061 96.897 o
97.9707 98.3157 o
94.1372 99.8808 o
94.973 99.6354 o
101.731 99.6448 o
98.188 100.634 o
93.2836 100.431 o
100.615 98.0903 o
101.432 100.454 o
94.6676 98.2548 o
100.677 100.15 o
99.7588 99.0061 o
96.0348 99.2344 o
93.7489 98.0429 o
grestore
0.000 1.000 1.000 setrgbcolor
gsave
140.4 124.2 34.2 37.8 clipbox
/o {
gsave
newpath
translate
0.5 setlinewidth
1 setlinejoin
0 setlinecap
0 -1 m
0.265203 -1 0.51958 -0.894634 0.707107 -0.707107 c
0.894634 -0.51958 1 -0.265203 1 0 c
1 0.265203 0.894634 0.51958 0.707107 0.707107 c
0.51958 0.894634 0.265203 1 0 1 c
-0.265203 1 -0.51958 0.894634 -0.707107 0.707107 c
-0.894634 0.51958 -1 0.265203 -1 0 c
-1 -0.265203 -0.894634 -0.51958 -0.707107 -0.707107 c
-0.51958 -0.894634 -0.265203 -1 0 -1 c
cl
gsave
0.000 1.000 1.000 setrgbcolor
fill
grestore
stroke
grestore
} bind def
96.3763 98.8749 o
93.2797 98.8261 o
97.0309 97.8977 o
94.1997 100.888 o
97.0677 99.0256 o
98.1348 97.1281 o
94.592 98.8638 o
96.8738 97.7605 o
97.1394 98.1793 o
95.4117 101.061 o
97.7918 98.2207 o
93.8634 99.7356 o
97.1309 98.9136 o
94.0982 97.7893 o
94.9634 99.8916 o
95.3949 99.2191 o
96.3527 97.4429 o
95.1835 98.6035 o
95.5567 102.107 o
95.8891 100.943 o
96.7943 100.846 o
96.8081 99.8145 o
95.4774 98.6423 o
95.2611 100.144 o
94.8 100.425 o
94.3106 100.472 o
96.8171 98.7847 o
98.7957 99.5616 o
95.8645 98.2317 o
96.2946 97.2301 o
96.6643 97.1063 o
95.4547 100.377 o
95.0663 100.935 o
97.6524 101.678 o
95.9709 102.905 o
95.0431 101.743 o
96.6496 99.6555 o
95.6235 99.9353 o
97.1099 99.5611 o
96.9434 100.678 o
98.1234 99.4966 o
96.0646 100.015 o
95.0663 100.935 o
95.7362 101.646 o
95.0613 101.112 o
94.4764 99.0032 o
grestore
1.000 0.000 0.000 setrgbcolor
gsave
140.4 124.2 34.2 37.8 clipbox
/o {
gsave
newpath
translate
0.5 setlinewidth
1 setlinejoin
0 setlinecap
0 -1 m
0.265203 -1 0.51958 -0.894634 0.707107 -0.707107 c
0.894634 -0.51958 1 -0.265203 1 0 c
1 0.265203 0.894634 0.51958 0.707107 0.707107 c
0.51958 0.894634 0.265203 1 0 1 c
-0.265203 1 -0.51958 0.894634 -0.707107 0.707107 c
-0.894634 0.51958 -1 0.265203 -1 0 c
-1 -0.265203 -0.894634 -0.51958 -0.707107 -0.707107 c
-0.51958 -0.894634 -0.265203 -1 0 -1 c
cl
gsave
1.000 0.000 0.000 setrgbcolor
fill
grestore
stroke
grestore
} bind def
87.0784 83.3761 o
88.2547 81.0836 o
87.8333 82.6098 o
88.6933 83.0034 o
87.8771 84.7788 o
89.5684 82.8106 o
89.2483 83.3329 o
90.0559 82.2063 o
89.7686 82.9363 o
89.0003 84.77 o
90.1946 82.8813 o
89.985 83.77 o
89.8395 83.5037 o
91.8295 81.3706 o
89.1634 85.5325 o
90.2836 84.1156 o
90.5228 85.1022 o
90.922 85.3398 o
grestore
1.000 setlinewidth
0 setlinejoin
2 setlinecap
0.000 setgray
gsave
34.2 162 m
174.6 162 l
stroke
grestore
gsave
174.6 37.8 m
174.6 162 l
stroke
grestore
gsave
34.2 37.8 m
174.6 37.8 l
stroke
grestore
gsave
34.2 37.8 m
34.2 162 l
stroke
grestore
0.500 setlinewidth
1 setlinejoin
0 setlinecap
gsave
/o {
gsave
newpath
translate
0.5 setlinewidth
1 setlinejoin
0 setlinecap
0 0 m
0 4 l
gsave
0.000 setgray
fill
grestore
stroke
grestore
} bind def
34.2 37.8 o
grestore
gsave
/o {
gsave
newpath
translate
0.5 setlinewidth
1 setlinejoin
0 setlinecap
0 0 m
0 -4 l
gsave
0.000 setgray
fill
grestore
stroke
grestore
} bind def
34.2 162 o
grestore
/BitstreamVeraSans-Roman findfont
6.000 scalefont
setfont
gsave
28.387500 29.237500 translate
0.000000 rotate
0.000000 0.000000 m /minus glyphshow
5.027344 0.000000 m /six glyphshow
8.844727 0.000000 m /zero glyphshow
grestore
gsave
/o {
gsave
newpath
translate
0.5 setlinewidth
1 setlinejoin
0 setlinecap
0 0 m
0 4 l
gsave
0.000 setgray
fill
grestore
stroke
grestore
} bind def
54.2571 37.8 o
grestore
gsave
/o {
gsave
newpath
translate
0.5 setlinewidth
1 setlinejoin
0 setlinecap
0 0 m
0 -4 l
gsave
0.000 setgray
fill
grestore
stroke
grestore
} bind def
54.2571 162 o
grestore
gsave
48.444643 29.237500 translate
0.000000 rotate
0.000000 0.000000 m /minus glyphshow
5.027344 0.000000 m /four glyphshow
8.844727 0.000000 m /zero glyphshow
grestore
gsave
/o {
gsave
newpath
translate
0.5 setlinewidth
1 setlinejoin
0 setlinecap
0 0 m
0 4 l
gsave
0.000 setgray
fill
grestore
stroke
grestore
} bind def
74.3143 37.8 o
grestore
gsave
/o {
gsave
newpath
translate
0.5 setlinewidth
1 setlinejoin
0 setlinecap
0 0 m
0 -4 l
gsave
0.000 setgray
fill
grestore
stroke
grestore
} bind def
74.3143 162 o
grestore
gsave
68.501786 29.237500 translate
0.000000 rotate
0.000000 0.000000 m /minus glyphshow
5.027344 0.000000 m /two glyphshow
8.844727 0.000000 m /zero glyphshow
grestore
gsave
/o {
gsave
newpath
translate
0.5 setlinewidth
1 setlinejoin
0 setlinecap
0 0 m
0 4 l
gsave
0.000 setgray
fill
grestore
stroke
grestore
} bind def
94.3714 37.8 o
grestore
gsave
/o {
gsave
newpath
translate
0.5 setlinewidth
1 setlinejoin
0 setlinecap
0 0 m
0 -4 l
gsave
0.000 setgray
fill
grestore
stroke
grestore
} bind def
94.3714 162 o
grestore
gsave
92.855804 29.237500 translate
0.000000 rotate
0.000000 0.000000 m /zero glyphshow
grestore
gsave
/o {
gsave
newpath
translate
0.5 setlinewidth
1 setlinejoin
0 setlinecap
0 0 m
0 4 l
gsave
0.000 setgray
fill
grestore
stroke
grestore
} bind def
114.429 37.8 o
grestore
gsave
/o {
gsave
newpath
translate
0.5 setlinewidth
1 setlinejoin
0 setlinecap
0 0 m
0 -4 l
gsave
0.000 setgray
fill
grestore
stroke
grestore
} bind def
114.429 162 o
grestore
gsave
111.030134 29.237500 translate
0.000000 rotate
0.000000 0.000000 m /two glyphshow
3.817383 0.000000 m /zero glyphshow
grestore
gsave
/o {
gsave
newpath
translate
0.5 setlinewidth
1 setlinejoin
0 setlinecap
0 0 m
0 4 l
gsave
0.000 setgray
fill
grestore
stroke
grestore
} bind def
134.486 37.8 o
grestore
gsave
/o {
gsave
newpath
translate
0.5 setlinewidth
1 setlinejoin
0 setlinecap
0 0 m
0 -4 l
gsave
0.000 setgray
fill
grestore
stroke
grestore
} bind def
134.486 162 o
grestore
gsave
131.016964 29.237500 translate
0.000000 rotate
0.000000 0.000000 m /four glyphshow
3.817383 0.000000 m /zero glyphshow
grestore
gsave
/o {
gsave
newpath
translate
0.5 setlinewidth
1 setlinejoin
0 setlinecap
0 0 m
0 4 l
gsave
0.000 setgray
fill
grestore
stroke
grestore
} bind def
154.543 37.8 o
grestore
gsave
/o {
gsave
newpath
translate
0.5 setlinewidth
1 setlinejoin
0 setlinecap
0 0 m
0 -4 l
gsave
0.000 setgray
fill
grestore
stroke
grestore
} bind def
154.543 162 o
grestore
gsave
151.136607 29.237500 translate
0.000000 rotate
0.000000 0.000000 m /six glyphshow
3.817383 0.000000 m /zero glyphshow
grestore
gsave
/o {
gsave
newpath
translate
0.5 setlinewidth
1 setlinejoin
0 setlinecap
0 0 m
0 4 l
gsave
0.000 setgray
fill
grestore
stroke
grestore
} bind def
174.6 37.8 o
grestore
gsave
/o {
gsave
newpath
translate
0.5 setlinewidth
1 setlinejoin
0 setlinecap
0 0 m
0 -4 l
gsave
0.000 setgray
fill
grestore
stroke
grestore
} bind def
174.6 162 o
grestore
gsave
171.185937 29.237500 translate
0.000000 rotate
0.000000 0.000000 m /eight glyphshow
3.817383 0.000000 m /zero glyphshow
grestore
gsave
90.900000 16.987500 translate
0.000000 rotate
/Cmr10 findfont
8.0 scalefont
setfont
0.000000 0.000000 moveto
/X glyphshow

/BitstreamVeraSans-Roman findfont
8.0 scalefont
setfont
6.000000 0.000000 moveto
/space glyphshow

/Cmr10 findfont
8.0 scalefont
setfont
8.542969 0.000000 moveto
/parenleft glyphshow

11.648438 0.000000 moveto
/k glyphshow

15.863281 0.000000 moveto
/p glyphshow

20.304688 0.000000 moveto
/c glyphshow

23.855469 0.000000 moveto
/parenright glyphshow


grestore
gsave
/o {
gsave
newpath
translate
0.5 setlinewidth
1 setlinejoin
0 setlinecap
0 0 m
4 0 l
gsave
0.000 setgray
fill
grestore
stroke
grestore
} bind def
34.2 37.8 o
grestore
gsave
/o {
gsave
newpath
translate
0.5 setlinewidth
1 setlinejoin
0 setlinecap
0 0 m
-4 0 l
gsave
0.000 setgray
fill
grestore
stroke
grestore
} bind def
174.6 37.8 o
grestore
gsave
18.575000 36.143750 translate
0.000000 rotate
0.000000 0.000000 m /minus glyphshow
5.027344 0.000000 m /six glyphshow
8.844727 0.000000 m /zero glyphshow
grestore
gsave
/o {
gsave
newpath
translate
0.5 setlinewidth
1 setlinejoin
0 setlinecap
0 0 m
4 0 l
gsave
0.000 setgray
fill
grestore
stroke
grestore
} bind def
34.2 55.5429 o
grestore
gsave
/o {
gsave
newpath
translate
0.5 setlinewidth
1 setlinejoin
0 setlinecap
0 0 m
-4 0 l
gsave
0.000 setgray
fill
grestore
stroke
grestore
} bind def
174.6 55.5429 o
grestore
gsave
18.575000 53.886607 translate
0.000000 rotate
0.000000 0.000000 m /minus glyphshow
5.027344 0.000000 m /four glyphshow
8.844727 0.000000 m /zero glyphshow
grestore
gsave
/o {
gsave
newpath
translate
0.5 setlinewidth
1 setlinejoin
0 setlinecap
0 0 m
4 0 l
gsave
0.000 setgray
fill
grestore
stroke
grestore
} bind def
34.2 73.2857 o
grestore
gsave
/o {
gsave
newpath
translate
0.5 setlinewidth
1 setlinejoin
0 setlinecap
0 0 m
-4 0 l
gsave
0.000 setgray
fill
grestore
stroke
grestore
} bind def
174.6 73.2857 o
grestore
gsave
18.575000 71.629464 translate
0.000000 rotate
0.000000 0.000000 m /minus glyphshow
5.027344 0.000000 m /two glyphshow
8.844727 0.000000 m /zero glyphshow
grestore
gsave
/o {
gsave
newpath
translate
0.5 setlinewidth
1 setlinejoin
0 setlinecap
0 0 m
4 0 l
gsave
0.000 setgray
fill
grestore
stroke
grestore
} bind def
34.2 91.0286 o
grestore
gsave
/o {
gsave
newpath
translate
0.5 setlinewidth
1 setlinejoin
0 setlinecap
0 0 m
-4 0 l
gsave
0.000 setgray
fill
grestore
stroke
grestore
} bind def
174.6 91.0286 o
grestore
gsave
27.168750 89.372321 translate
0.000000 rotate
0.000000 0.000000 m /zero glyphshow
grestore
gsave
/o {
gsave
newpath
translate
0.5 setlinewidth
1 setlinejoin
0 setlinecap
0 0 m
4 0 l
gsave
0.000 setgray
fill
grestore
stroke
grestore
} bind def
34.2 108.771 o
grestore
gsave
/o {
gsave
newpath
translate
0.5 setlinewidth
1 setlinejoin
0 setlinecap
0 0 m
-4 0 l
gsave
0.000 setgray
fill
grestore
stroke
grestore
} bind def
174.6 108.771 o
grestore
gsave
23.403125 107.115179 translate
0.000000 rotate
0.000000 0.000000 m /two glyphshow
3.817383 0.000000 m /zero glyphshow
grestore
gsave
/o {
gsave
newpath
translate
0.5 setlinewidth
1 setlinejoin
0 setlinecap
0 0 m
4 0 l
gsave
0.000 setgray
fill
grestore
stroke
grestore
} bind def
34.2 126.514 o
grestore
gsave
/o {
gsave
newpath
translate
0.5 setlinewidth
1 setlinejoin
0 setlinecap
0 0 m
-4 0 l
gsave
0.000 setgray
fill
grestore
stroke
grestore
} bind def
174.6 126.514 o
grestore
gsave
23.262500 124.858036 translate
0.000000 rotate
0.000000 0.000000 m /four glyphshow
3.817383 0.000000 m /zero glyphshow
grestore
gsave
/o {
gsave
newpath
translate
0.5 setlinewidth
1 setlinejoin
0 setlinecap
0 0 m
4 0 l
gsave
0.000 setgray
fill
grestore
stroke
grestore
} bind def
34.2 144.257 o
grestore
gsave
/o {
gsave
newpath
translate
0.5 setlinewidth
1 setlinejoin
0 setlinecap
0 0 m
-4 0 l
gsave
0.000 setgray
fill
grestore
stroke
grestore
} bind def
174.6 144.257 o
grestore
gsave
23.387500 142.600893 translate
0.000000 rotate
0.000000 0.000000 m /six glyphshow
3.817383 0.000000 m /zero glyphshow
grestore
gsave
/o {
gsave
newpath
translate
0.5 setlinewidth
1 setlinejoin
0 setlinecap
0 0 m
4 0 l
gsave
0.000 setgray
fill
grestore
stroke
grestore
} bind def
34.2 162 o
grestore
gsave
/o {
gsave
newpath
translate
0.5 setlinewidth
1 setlinejoin
0 setlinecap
0 0 m
-4 0 l
gsave
0.000 setgray
fill
grestore
stroke
grestore
} bind def
174.6 162 o
grestore
gsave
23.371875 160.343750 translate
0.000000 rotate
0.000000 0.000000 m /eight glyphshow
3.817383 0.000000 m /zero glyphshow
grestore
gsave
11.575000 86.400000 translate
90.000000 rotate
/Cmr10 findfont
8.0 scalefont
setfont
0.000000 0.000000 moveto
/Y glyphshow

/BitstreamVeraSans-Roman findfont
8.0 scalefont
setfont
6.000000 0.000000 moveto
/space glyphshow

/Cmr10 findfont
8.0 scalefont
setfont
8.542969 0.000000 moveto
/parenleft glyphshow

11.648438 0.000000 moveto
/k glyphshow

15.863281 0.000000 moveto
/p glyphshow

20.304688 0.000000 moveto
/c glyphshow

23.855469 0.000000 moveto
/parenright glyphshow


grestore

end
showpage
