%!PS-Adobe-3.0 EPSF-3.0
%%Title: /Users/iuliasimion/bullock_johnston/denis_erkal/vasily/Figures/69684_1515571.0_lb.eps
%%Creator: matplotlib version 1.4.3, http://matplotlib.org/
%%CreationDate: Sat Aug 19 14:41:42 2017
%%Orientation: portrait
%%BoundingBox: 180 306 432 486
%%EndComments
%%BeginProlog
/mpldict 10 dict def
mpldict begin
/m { moveto } bind def
/l { lineto } bind def
/r { rlineto } bind def
/c { curveto } bind def
/cl { closepath } bind def
/box {
m
1 index 0 r
0 exch r
neg 0 r
cl
} bind def
/clipbox {
box
clip
newpath
} bind def
%!PS-Adobe-3.0 Resource-Font
%%Title: Bitstream Vera Sans
%%Copyright: Copyright (c) 2003 by Bitstream, Inc. All Rights Reserved.
%%Creator: Converted from TrueType to type 3 by PPR
25 dict begin
/_d{bind def}bind def
/_m{moveto}_d
/_l{lineto}_d
/_cl{closepath eofill}_d
/_c{curveto}_d
/_sc{7 -1 roll{setcachedevice}{pop pop pop pop pop pop}ifelse}_d
/_e{exec}_d
/FontName /BitstreamVeraSans-Roman def
/PaintType 0 def
/FontMatrix[.001 0 0 .001 0 0]def
/FontBBox[-183 -236 1287 928]def
/FontType 3 def
/Encoding [ /space /zero /one /two /three /five /equal /N /minus ] def
/FontInfo 10 dict dup begin
/FamilyName (Bitstream Vera Sans) def
/FullName (Bitstream Vera Sans) def
/Notice (Copyright (c) 2003 by Bitstream, Inc. All Rights Reserved. Bitstream Vera is a trademark of Bitstream, Inc.) def
/Weight (Roman) def
/Version (Release 1.10) def
/ItalicAngle 0.0 def
/isFixedPitch false def
/UnderlinePosition -213 def
/UnderlineThickness 143 def
end readonly def
/CharStrings 9 dict dup begin
/space{318 0 0 0 0 0 _sc
}_d
/zero{636 0 66 -13 570 742 _sc
318 664 _m
267 664 229 639 203 589 _c
177 539 165 464 165 364 _c
165 264 177 189 203 139 _c
229 89 267 64 318 64 _c
369 64 407 89 433 139 _c
458 189 471 264 471 364 _c
471 464 458 539 433 589 _c
407 639 369 664 318 664 _c
318 742 _m
399 742 461 709 505 645 _c
548 580 570 486 570 364 _c
570 241 548 147 505 83 _c
461 19 399 -13 318 -13 _c
236 -13 173 19 130 83 _c
87 147 66 241 66 364 _c
66 486 87 580 130 645 _c
173 709 236 742 318 742 _c
_cl}_d
/one{636 0 110 0 544 729 _sc
124 83 _m
285 83 _l
285 639 _l
110 604 _l
110 694 _l
284 729 _l
383 729 _l
383 83 _l
544 83 _l
544 0 _l
124 0 _l
124 83 _l
_cl}_d
/two{{636 0 73 0 536 742 _sc
192 83 _m
536 83 _l
536 0 _l
73 0 _l
73 83 _l
110 121 161 173 226 239 _c
290 304 331 346 348 365 _c
380 400 402 430 414 455 _c
426 479 433 504 433 528 _c
433 566 419 598 392 622 _c
365 646 330 659 286 659 _c
255 659 222 653 188 643 _c
154 632 117 616 78 594 _c
78 694 _l
118 710 155 722 189 730 _c
223 738 255 742 284 742 _c
}_e{359 742 419 723 464 685 _c
509 647 532 597 532 534 _c
532 504 526 475 515 449 _c
504 422 484 390 454 354 _c
446 344 420 317 376 272 _c
332 227 271 164 192 83 _c
_cl}_e}_d
/three{{636 0 76 -13 556 742 _sc
406 393 _m
453 383 490 362 516 330 _c
542 298 556 258 556 212 _c
556 140 531 84 482 45 _c
432 6 362 -13 271 -13 _c
240 -13 208 -10 176 -4 _c
144 1 110 10 76 22 _c
76 117 _l
103 101 133 89 166 81 _c
198 73 232 69 268 69 _c
330 69 377 81 409 105 _c
441 129 458 165 458 212 _c
458 254 443 288 413 312 _c
383 336 341 349 287 349 _c
}_e{202 349 _l
202 430 _l
291 430 _l
339 430 376 439 402 459 _c
428 478 441 506 441 543 _c
441 580 427 609 401 629 _c
374 649 336 659 287 659 _c
260 659 231 656 200 650 _c
169 644 135 635 98 623 _c
98 711 _l
135 721 170 729 203 734 _c
235 739 266 742 296 742 _c
370 742 429 725 473 691 _c
517 657 539 611 539 553 _c
539 513 527 479 504 451 _c
481 423 448 403 406 393 _c
_cl}_e}_d
/five{{636 0 77 -13 549 729 _sc
108 729 _m
495 729 _l
495 646 _l
198 646 _l
198 467 _l
212 472 227 476 241 478 _c
255 480 270 482 284 482 _c
365 482 429 459 477 415 _c
525 370 549 310 549 234 _c
549 155 524 94 475 51 _c
426 8 357 -13 269 -13 _c
238 -13 207 -10 175 -6 _c
143 -1 111 6 77 17 _c
77 116 _l
106 100 136 88 168 80 _c
199 72 232 69 267 69 _c
}_e{323 69 368 83 401 113 _c
433 143 450 183 450 234 _c
450 284 433 324 401 354 _c
368 384 323 399 267 399 _c
241 399 214 396 188 390 _c
162 384 135 375 108 363 _c
108 729 _l
_cl}_e}_d
/equal{838 0 106 172 732 454 _sc
106 454 _m
732 454 _l
732 372 _l
106 372 _l
106 454 _l
106 255 _m
732 255 _l
732 172 _l
106 172 _l
106 255 _l
_cl}_d
/N{748 0 98 0 650 729 _sc
98 729 _m
231 729 _l
554 119 _l
554 729 _l
650 729 _l
650 0 _l
517 0 _l
194 610 _l
194 0 _l
98 0 _l
98 729 _l
_cl}_d
/minus{838 0 106 272 732 355 _sc
106 355 _m
732 355 _l
732 272 _l
106 272 _l
106 355 _l
_cl}_d
end readonly def

/BuildGlyph
 {exch begin
 CharStrings exch
 2 copy known not{pop /.notdef}if
 true 3 1 roll get exec
 end}_d

/BuildChar {
 1 index /Encoding get exch get
 1 index /BuildGlyph get exec
}_d

FontName currentdict end definefont pop
%!PS-Adobe-3.0 Resource-Font
%%Title: cmsy10
%%Copyright: Copyright (C) 1994, Basil K. Malyshev. All Rights Reserved.012BaKoMa Fonts Collection, Level-B.
%%Creator: Converted from TrueType to type 3 by PPR
25 dict begin
/_d{bind def}bind def
/_m{moveto}_d
/_l{lineto}_d
/_cl{closepath eofill}_d
/_c{curveto}_d
/_sc{7 -1 roll{setcachedevice}{pop pop pop pop pop pop}ifelse}_d
/_e{exec}_d
/FontName /Cmsy10 def
/PaintType 0 def
/FontMatrix[.001 0 0 .001 0 0]def
/FontBBox[-29 -960 1123 779]def
/FontType 3 def
/Encoding [ /openbullet ] def
/FontInfo 10 dict dup begin
/FamilyName (cmsy10) def
/FullName (cmsy10) def
/Notice (Copyright (C) 1994, Basil K. Malyshev. All Rights Reserved.012BaKoMa Fonts Collection, Level-B. ) def
/Weight (Regular) def
/Version (1.1/12-Nov-94) def
/ItalicAngle 0.0 def
/isFixedPitch false def
/UnderlinePosition -133 def
/UnderlineThickness 20 def
end readonly def
/CharStrings 1 dict dup begin
/openbullet{{500 0 56 56 443 444 _sc
250 56 _m
215 56 183 64 153 82 _c
123 99 100 123 82 153 _c
64 183 56 216 56 250 _c
56 284 64 316 82 346 _c
100 376 123 400 153 418 _c
183 435 215 444 250 444 _c
284 444 316 435 346 417 _c
376 399 399 376 417 346 _c
434 316 443 284 443 250 _c
443 216 434 184 417 154 _c
399 124 376 100 346 82 _c
316 64 284 56 250 56 _c
250 96 _m
}_e{292 96 328 111 358 142 _c
388 172 403 208 403 250 _c
403 276 396 302 382 326 _c
368 350 349 369 326 383 _c
302 397 277 404 250 404 _c
229 404 209 400 191 392 _c
173 384 156 372 142 358 _c
127 343 116 326 108 308 _c
100 290 96 270 96 250 _c
96 208 111 172 141 142 _c
171 111 208 96 250 96 _c
_cl}_e}_d
end readonly def

/BuildGlyph
 {exch begin
 CharStrings exch
 2 copy known not{pop /.notdef}if
 true 3 1 roll get exec
 end}_d

/BuildChar {
 1 index /Encoding get exch get
 1 index /BuildGlyph get exec
}_d

FontName currentdict end definefont pop
%!PS-Adobe-3.0 Resource-Font
%%Title: cmr10
%%Copyright: Copyright (C) 1994, Basil K. Malyshev. All Rights Reserved.012BaKoMa Fonts Collection, Level-B.
%%Creator: Converted from TrueType to type 3 by PPR
25 dict begin
/_d{bind def}bind def
/_m{moveto}_d
/_l{lineto}_d
/_cl{closepath eofill}_d
/_c{curveto}_d
/_sc{7 -1 roll{setcachedevice}{pop pop pop pop pop pop}ifelse}_d
/_e{exec}_d
/FontName /Cmr10 def
/PaintType 0 def
/FontMatrix[.001 0 0 .001 0 0]def
/FontBBox[-44 -250 1009 750]def
/FontType 3 def
/Encoding [ /b /parenright /l /parenleft ] def
/FontInfo 10 dict dup begin
/FamilyName (cmr10) def
/FullName (cmr10) def
/Notice (Copyright (C) 1994, Basil K. Malyshev. All Rights Reserved.012BaKoMa Fonts Collection, Level-B. ) def
/Weight (Regular) def
/Version (1.1/12-Nov-94) def
/ItalicAngle 0.0 def
/isFixedPitch false def
/UnderlinePosition -133 def
/UnderlineThickness 20 def
end readonly def
/CharStrings 4 dict dup begin
/b{{555 0 26 -10 522 694 _sc
104 0 _m
104 592 _l
104 610 101 623 96 631 _c
90 639 83 643 73 645 _c
63 647 47 648 26 648 _c
26 683 _l
174 694 _l
174 381 _l
184 393 197 403 212 413 _c
227 422 243 429 260 434 _c
277 439 294 442 312 442 _c
342 442 369 436 395 424 _c
421 412 443 395 462 374 _c
480 352 495 328 506 301 _c
516 273 522 245 522 216 _c
522 175 512 137 492 103 _c
}_e{472 68 446 40 412 20 _c
378 0 340 -10 300 -10 _c
274 -10 250 -3 226 9 _c
202 21 182 38 167 60 _c
133 0 _l
104 0 _l
177 98 _m
187 74 203 54 224 38 _c
245 22 268 15 294 15 _c
328 15 356 25 378 45 _c
399 65 414 90 422 120 _c
430 150 435 182 435 216 _c
435 272 427 314 413 344 _c
406 357 397 369 386 380 _c
375 391 363 400 349 406 _c
}_e{335 412 320 416 305 416 _c
278 416 253 409 231 395 _c
208 381 190 362 177 338 _c
177 98 _l
_cl}_e}_d
/parenright{{388 0 56 -249 291 750 _sc
65 -249 _m
59 -249 56 -246 56 -240 _c
56 -237 56 -235 58 -234 _c
172 -122 229 38 229 250 _c
229 462 172 623 60 733 _c
57 734 56 737 56 741 _c
56 743 57 745 59 747 _c
61 749 63 750 65 750 _c
74 750 _l
76 750 77 749 79 748 _c
127 710 167 664 199 610 _c
231 556 254 498 269 437 _c
283 376 291 314 291 250 _c
291 202 287 156 279 110 _c
}_e{271 64 258 20 241 -24 _c
223 -68 201 -108 175 -146 _c
148 -184 116 -217 79 -247 _c
77 -248 76 -249 74 -249 _c
65 -249 _l
_cl}_e}_d
/l{277 0 31 0 257 694 _sc
31 0 _m
31 35 _l
53 35 72 36 87 40 _c
101 44 109 53 109 67 _c
109 592 _l
109 610 106 623 101 631 _c
95 639 88 643 78 645 _c
68 647 52 648 31 648 _c
31 683 _l
179 694 _l
179 67 _l
179 53 186 44 201 40 _c
215 36 234 35 257 35 _c
257 0 _l
31 0 _l
_cl}_d
/parenleft{{388 0 97 -249 332 750 _sc
310 -247 _m
272 -217 240 -184 214 -146 _c
187 -108 165 -67 148 -25 _c
131 17 118 62 110 109 _c
101 155 97 202 97 250 _c
97 298 101 345 110 392 _c
118 438 131 483 149 527 _c
166 570 188 611 215 649 _c
242 687 274 720 310 748 _c
310 749 311 750 315 750 _c
324 750 _l
326 750 327 749 329 747 _c
331 745 332 743 332 741 _c
332 738 331 736 330 735 _c
}_e{297 703 270 668 248 632 _c
226 596 209 557 196 516 _c
183 474 174 432 168 388 _c
162 344 159 298 159 250 _c
159 38 215 -122 329 -232 _c
331 -234 332 -236 332 -240 _c
332 -242 331 -244 329 -246 _c
327 -248 326 -249 324 -249 _c
315 -249 _l
311 -249 310 -248 310 -247 _c
_cl}_e}_d
end readonly def

/BuildGlyph
 {exch begin
 CharStrings exch
 2 copy known not{pop /.notdef}if
 true 3 1 roll get exec
 end}_d

/BuildChar {
 1 index /Encoding get exch get
 1 index /BuildGlyph get exec
}_d

FontName currentdict end definefont pop
end
%%EndProlog
mpldict begin
180 306 translate
252 180 0 0 clipbox
gsave
0 0 m
252 0 l
252 180 l
0 180 l
cl
1.000 setgray
fill
grestore
gsave
47.88 36 m
244.44 36 l
244.44 162 l
47.88 162 l
cl
1.000 setgray
fill
grestore
0.500 setlinewidth
1 setlinejoin
0 setlinecap
[] 0 setdash
0.000 setgray
gsave
196.6 126 47.88 36 clipbox
/o {
gsave
newpath
translate
0.5 setlinewidth
1 setlinejoin
0 setlinecap
0 -0.25 m
0.0663008 -0.25 0.129895 -0.223658 0.176777 -0.176777 c
0.223658 -0.129895 0.25 -0.0663008 0.25 0 c
0.25 0.0663008 0.223658 0.129895 0.176777 0.176777 c
0.129895 0.223658 0.0663008 0.25 0 0.25 c
-0.0663008 0.25 -0.129895 0.223658 -0.176777 0.176777 c
-0.223658 0.129895 -0.25 0.0663008 -0.25 0 c
-0.25 -0.0663008 -0.223658 -0.129895 -0.176777 -0.176777 c
-0.129895 -0.223658 -0.0663008 -0.25 0 -0.25 c
cl
gsave
0.000 setgray
fill
grestore
stroke
grestore
} bind def
56.7995 42.7199 o
150.574 64.1335 o
74.5547 138.287 o
56.8796 69.4989 o
126.7 140.091 o
134.495 136.101 o
193.155 52.3278 o
137.73 147.422 o
49.2053 46.5195 o
52.784 50.854 o
69.5183 130.551 o
139.551 114.432 o
164.635 70.0175 o
201.267 49.7708 o
84.4282 145.436 o
121.029 117.604 o
127.58 138.459 o
244.064 56.921 o
133.384 134.28 o
194.221 54.2708 o
140.799 120.267 o
239.021 75.4046 o
234.682 50.8976 o
238.25 81.0792 o
142.787 92.6187 o
72.4184 111.437 o
242.193 66.5046 o
228.232 58.0412 o
128.099 62.1304 o
66.4029 59.8192 o
226.121 48.7468 o
113.73 151.348 o
240.607 135.875 o
133.611 146.711 o
148.35 133.178 o
139.748 134.537 o
218.205 119.066 o
157.948 95.9324 o
152.846 148.8 o
173.02 84.9182 o
140.563 129.026 o
242.444 89.1011 o
154.198 137.807 o
50.3651 51.3113 o
157.651 127.513 o
144.823 63.2989 o
235.425 60.2633 o
53.7956 66.6746 o
127.841 89.0691 o
132.264 138.633 o
120.424 141.01 o
56.3426 82.9123 o
149.692 82.3795 o
69.6287 47.8013 o
52.0444 83.5223 o
155.697 91.4808 o
69.9092 121.361 o
62.3645 88.4676 o
238.027 45.7832 o
133.8 134.239 o
205.658 103.82 o
178.75 79.3015 o
143.434 112.137 o
136.595 144.15 o
153.174 90.1431 o
149.398 89.9327 o
231.749 41.9319 o
126.505 121.157 o
167.917 119 o
135.713 139.385 o
232.336 57.2241 o
137.747 80.846 o
149.49 134.815 o
113.408 144.033 o
136.931 69.5406 o
106.345 62.2915 o
218.346 109.684 o
182.123 110.303 o
62.8885 87.8465 o
152.938 81.2161 o
153.043 106.419 o
139.733 69.6615 o
56.6478 40.0631 o
91.5099 39.2951 o
113.79 106.393 o
106.875 69.0067 o
120.624 148.513 o
144.932 53.9385 o
148.043 112.07 o
140.731 150.085 o
144.077 127.349 o
124.976 74.2511 o
148.852 59.6674 o
51.9711 80.8257 o
76.9837 77.9014 o
154.171 130.007 o
55.8707 141.461 o
89.9107 65.8145 o
175.582 49.6003 o
144.38 139.504 o
217.672 135.855 o
137.298 102.301 o
140.645 47.6804 o
74.9786 64.6059 o
174.34 46.821 o
150.239 65.497 o
151.45 61.8561 o
138.987 144.899 o
153.043 105.469 o
82.1792 152.605 o
138.627 75.0239 o
133.282 145.483 o
87.6089 152.985 o
129.468 139.077 o
77.0543 65.3747 o
129.083 144.283 o
205.987 69.6694 o
62.8502 75.7503 o
125.976 40.0718 o
64.6421 96.0295 o
149.373 63.7806 o
230.735 41.2675 o
145.856 95.0557 o
165.628 62.1469 o
151.603 118.758 o
150.539 68.0081 o
115.908 74.1101 o
69.0762 44.1029 o
126.805 68.4987 o
56.6208 58.2612 o
81.1952 127.562 o
170.197 125.248 o
113.577 118.497 o
159.67 69.3358 o
69.9711 78.5212 o
154.175 83.6878 o
157.189 117.605 o
67.1583 76.7202 o
137.351 77.2229 o
150.44 90.3303 o
69.488 68.0572 o
163.691 93.7118 o
128.427 143.943 o
152.817 74.3134 o
149.27 79.3725 o
76.5366 90.8835 o
124.446 140.671 o
149.893 56.5302 o
150.601 64.9228 o
140.877 122.776 o
75.3142 98.0238 o
147.837 122.985 o
74.6269 49.5332 o
145.002 129.554 o
148.552 108.854 o
191.282 142.899 o
138.103 78.0194 o
238.89 61.7928 o
177.785 46.444 o
154.592 88.0468 o
232.434 53.6074 o
132.589 133.313 o
146.41 76.4233 o
146.348 117.217 o
229.341 58.4138 o
132.034 88.5695 o
141.926 132.728 o
211.185 112.835 o
130.187 134.863 o
141.082 71.3819 o
134.449 78.8553 o
155.687 60.487 o
80.0305 143.728 o
126.177 70.9395 o
138.681 129.599 o
61.9169 130.223 o
121.219 116.487 o
130.716 113.139 o
181.195 46.4209 o
132.142 54.3987 o
177.736 83.4052 o
229.45 153.134 o
121.863 64.3606 o
211.115 44.885 o
148.789 81.1253 o
146.883 116.328 o
79.5776 128.584 o
138.857 144.456 o
49.541 56.8343 o
156.406 92.5371 o
118.799 75.4072 o
143.342 142.041 o
61.0535 67.6313 o
233.353 53.1651 o
137.866 90.1386 o
166.612 124.335 o
152.415 114.838 o
228.969 51.6253 o
52.4892 42.2729 o
73.6652 131.927 o
243.763 99.3257 o
147.867 147.238 o
130.864 141.285 o
148.902 124.088 o
148.94 70.3876 o
159.194 81.5064 o
214.025 131.281 o
144.246 88.3665 o
63.9608 72.8892 o
142.734 84.0515 o
109.896 142.153 o
105.887 147.208 o
57.1578 60.4695 o
153.413 108.424 o
147.535 57.7199 o
208.935 119.613 o
113.816 73.9765 o
199.806 90.8529 o
68.4513 125.737 o
167.841 77.2178 o
137.221 75.6686 o
145.281 115.724 o
76.8127 59.1022 o
234.037 62.1158 o
161.649 80.7467 o
240.807 59.6472 o
138.863 126.097 o
63.1821 82.5823 o
103.878 108.129 o
127.59 113.935 o
233.202 80.1558 o
149.504 121.936 o
153.313 127.11 o
137.519 131.05 o
115.103 137.014 o
149.089 89.6108 o
153.674 63.6772 o
156.382 72.4594 o
209.668 63.6881 o
124.812 103.278 o
76.2119 157.119 o
133.279 136.989 o
67.1049 123.362 o
134.688 147.319 o
167.543 58.3085 o
66.182 68.3782 o
72.1208 61.2833 o
164.047 152.336 o
71.5726 125.233 o
107.452 127.043 o
148.166 102.013 o
93.6097 151.055 o
56.179 112.436 o
159.165 48.3693 o
144.912 142.013 o
133.328 135.238 o
238.548 141.092 o
71.4344 86.0292 o
137.014 91.9649 o
136.885 133.876 o
145.855 140.974 o
86.686 135.889 o
184.505 145.454 o
217.654 41.585 o
154.268 75.8835 o
152.426 63.042 o
140.72 77.3316 o
210.096 42.33 o
244.143 65.0422 o
231.061 53.3041 o
118.004 124.403 o
146.888 133.447 o
124.904 149.05 o
143.042 95.5675 o
97.4804 158.081 o
108.096 57.1938 o
164.9 130.769 o
161.121 59.3907 o
141.709 133.301 o
143.859 74.1425 o
144.603 113.833 o
129.201 150.068 o
167.619 134.167 o
58.7864 70.1141 o
131.446 73.1219 o
148.17 125.704 o
149.258 71.2514 o
175.171 135.058 o
88.3469 65.5637 o
140.376 150.84 o
162.47 60.9407 o
173.977 50.9369 o
143.543 105.816 o
163.272 83.4285 o
148.867 43.422 o
144.312 104.842 o
152.904 121.337 o
167.152 81.9176 o
147.355 99.3093 o
153.268 129.099 o
231.479 105.114 o
134.371 91.9611 o
155.862 139.08 o
219.177 158.358 o
143.991 75.3725 o
156.045 68.0995 o
145.051 117.845 o
155.802 97.0814 o
51.9317 147.493 o
158.943 136.158 o
133.472 68.1749 o
126.529 94.1129 o
147.113 125.587 o
159.05 67.5168 o
114.559 125.749 o
52.907 151.308 o
161.077 54.3195 o
170.988 81.773 o
133.658 90.6758 o
64.8588 72.5665 o
69.2943 148.646 o
230.536 58.4229 o
146.441 122.839 o
141.622 128.369 o
166.564 90.9982 o
75.6425 79.085 o
158.088 48.5441 o
138.947 85.8963 o
133.193 42.7335 o
146.908 119.941 o
134.923 53.2024 o
138.002 134.389 o
151.039 77.573 o
76.3587 76.455 o
89.0248 78.9168 o
148.907 108.514 o
98.0559 146.768 o
139.786 133.049 o
148.641 86.9371 o
234.324 89.1603 o
69.0951 156.196 o
74.4295 63.7263 o
143.46 111.938 o
155.82 127.208 o
81.1678 94.0469 o
141.176 138.884 o
163.861 124.378 o
108.651 114.056 o
158.954 121.436 o
132.571 138.034 o
224.75 40.9539 o
212.313 149.717 o
161.212 115.677 o
149.161 121.045 o
113.157 115.28 o
176.71 138.521 o
137.605 112.35 o
121.835 112.497 o
95.138 148.26 o
172.407 55.8938 o
150.975 103.807 o
161.107 132.571 o
143.251 147.382 o
145.597 136.349 o
150.527 111.783 o
177.907 65.6561 o
153.016 92.6519 o
227.177 46.4299 o
158.639 55.5855 o
143.498 95.6131 o
109.787 142.365 o
119.553 79.9147 o
148.821 127.579 o
68.2517 55.283 o
170.015 114.758 o
73.8079 99.3724 o
146.99 76.211 o
132.242 133.277 o
137.135 82.762 o
76.8245 62.2942 o
71.5666 94.3406 o
154.943 93.6121 o
164.2 64.6269 o
149.885 145.172 o
178.255 139.058 o
157.847 55.3472 o
162.655 153.425 o
146.474 70.0307 o
78.8476 82.1592 o
136.211 64.0423 o
77.6708 158.172 o
75.9623 53.7236 o
145.088 84.0223 o
119.091 62.8504 o
110.453 57.6631 o
156.123 126.501 o
163.822 111.932 o
234.77 67.9944 o
141.482 128.167 o
209.284 128.933 o
178.261 120.886 o
149.427 62.988 o
143.986 127.378 o
120.521 104.18 o
140.563 73.9201 o
161.954 94.9082 o
123.382 113.704 o
158.28 81.7865 o
79.7317 89.5962 o
175.834 133.061 o
150.4 79.7529 o
160.705 135.385 o
111.004 140.362 o
60.7156 148.604 o
144.193 112.796 o
129.24 125.412 o
101.474 135.521 o
137.339 108.963 o
156.554 137.352 o
139.628 79.4263 o
124.647 138.454 o
135.039 113.062 o
143.006 128.688 o
224.261 126.415 o
155.777 136.373 o
94.1864 114.274 o
134.374 116.503 o
239.758 119.163 o
139.85 84.1861 o
51.8918 122.898 o
99.5366 72.089 o
155.898 122.71 o
161.029 115.293 o
153.687 104.654 o
109.914 136.636 o
141.803 97.8034 o
153.363 126.066 o
154.567 101.006 o
185.919 125.236 o
148.974 69.5064 o
158.408 92.0952 o
134.942 136.279 o
133.581 72.9764 o
146.587 83.6641 o
78.3339 134.557 o
146.693 108.95 o
160.622 69.1854 o
149.412 127.138 o
48.877 47.6263 o
180.089 133.652 o
237.496 65.3656 o
88.2222 119.198 o
139.066 86.7031 o
229.657 49.6696 o
51.7666 140.683 o
161.333 57.7516 o
183.567 86.8644 o
147.109 122.097 o
90.5089 88.9957 o
143.016 132.471 o
140.91 129.125 o
240.975 46.5133 o
153.831 50.7265 o
112.423 133.305 o
92.4374 52.3009 o
123.344 141.273 o
154.561 101.407 o
160.115 54.9464 o
132.652 113.156 o
158.299 84.6044 o
150.364 116.886 o
150.733 120.052 o
166.02 89.3752 o
125.399 80.0694 o
122.32 70.7064 o
146.858 62.2133 o
177.122 96.9699 o
115.007 140.87 o
150.083 108.608 o
126.389 139.158 o
105.884 129.979 o
153.065 69.7729 o
150.754 111.795 o
150.667 74.3619 o
144.167 136.716 o
163.658 63.1465 o
146.833 89.5506 o
68.3328 151.278 o
147.37 119.786 o
64.2339 143.345 o
243.342 107.17 o
154.563 59.9106 o
146.318 46.5797 o
135.451 67.914 o
145.617 71.0004 o
146.483 86.8348 o
149.498 73.9357 o
147.452 69.8705 o
124.417 154.079 o
150.053 131.641 o
94.8198 146.169 o
151.069 144.089 o
158.339 116.213 o
189.106 142.887 o
112.465 127.13 o
231.937 48.3526 o
148.886 134.627 o
160.236 126.403 o
142.158 95.6178 o
144.626 102.579 o
146.423 131.528 o
52.8882 87.4152 o
138.346 134.162 o
49.1418 75.2233 o
158.77 74.7521 o
164.41 120.826 o
159.891 71.7375 o
123.495 84.897 o
161.947 76.4664 o
156.195 129.706 o
159.79 81.217 o
140.541 106.941 o
150.774 105.628 o
161.17 111.884 o
96.0898 128.808 o
145.598 135.314 o
123.703 106.986 o
80.0632 148.403 o
138.9 118.583 o
152.316 89.3585 o
152.491 145.065 o
56.8806 134.424 o
150.966 142.986 o
130.229 85.223 o
133.305 148.651 o
144.944 114.891 o
211.583 87.5228 o
137.683 70.4592 o
50.8203 122.092 o
162.452 135.88 o
186.485 153.295 o
67.4795 75.7498 o
152.29 48.2136 o
137.443 99.1631 o
158.473 124.962 o
154.788 131.465 o
149.007 112.143 o
79.8505 73.1169 o
127.697 145.623 o
146.736 43.3855 o
134.954 66.2974 o
170.711 144.389 o
140.782 81.9102 o
79.6207 47.225 o
158.239 59.6531 o
146.567 106.739 o
156.3 89.9502 o
147.27 59.8646 o
141.916 42.2632 o
201.047 65.2052 o
142.933 50.4836 o
167.748 87.6633 o
158.183 79.7954 o
140.706 79.561 o
71.2491 101.206 o
151.281 99.6474 o
123.772 122.421 o
141.982 113.385 o
81.3875 143.124 o
53.9753 139.607 o
237.956 58.769 o
187.76 138.943 o
73.9449 101.903 o
149.072 117.506 o
163.743 101.297 o
100.612 40.1483 o
141.68 136.97 o
219.916 155.496 o
155.604 74.6256 o
173.215 60.2242 o
158.693 108.956 o
140.781 68.444 o
171.068 147.909 o
74.1279 92.021 o
120.147 43.8989 o
101.016 114.73 o
155.04 129.934 o
111.298 62.5378 o
55.2502 134.899 o
163.679 42.5884 o
51.1136 93.0223 o
151.127 89.1952 o
81.821 146.054 o
135.744 140.999 o
160.289 103.582 o
231.637 67.13 o
152.426 76.1692 o
196.374 117.208 o
141.689 44.702 o
161.338 79.6497 o
106.723 56.1508 o
139.811 135.728 o
138.966 132.449 o
109.394 59.1775 o
147.87 144.953 o
150.611 63.4519 o
85.5546 72.6237 o
170.05 69.8453 o
162.887 75.0559 o
79.8096 135.072 o
149.662 78.9074 o
128.541 69.5111 o
116.201 97.8322 o
131.43 92.0266 o
244.182 73.8745 o
149.845 117.689 o
169.014 80.5781 o
111.947 133.147 o
73.267 117.747 o
241.313 138.48 o
156.798 73.8054 o
126.786 133.967 o
152.742 52.806 o
92.9187 158.261 o
146.093 83.5424 o
160.998 147.649 o
148.699 66.4189 o
92.8407 126.506 o
139.923 138.986 o
152.59 116.099 o
97.1433 120.225 o
144.092 151.108 o
148.031 119.774 o
160.565 73.9485 o
166.774 68.4648 o
202.353 159.323 o
173.848 110.513 o
165.904 89.1021 o
128.55 104.504 o
88.3314 67.6417 o
202.512 149.432 o
168.885 66.4147 o
162.678 101.565 o
95.3514 146.901 o
87.6716 75.8605 o
144.294 138.218 o
147.786 83.1127 o
139.318 132.68 o
142.246 146.399 o
182.399 67.0639 o
164.333 89.8023 o
159.152 115.945 o
126.141 113.015 o
240.026 116.033 o
131.416 94.5757 o
158.973 57.1384 o
162.115 150.639 o
127.605 153.134 o
123.883 142.204 o
148.567 135.248 o
121.398 95.2051 o
135.693 67.2177 o
167.126 81.5022 o
163.204 89.5415 o
94.3622 110.561 o
156.509 109.271 o
106.084 129.385 o
150.864 64.8982 o
157.661 66.3519 o
146.682 80.0311 o
157.53 108.363 o
187.702 95.5069 o
140.372 111.812 o
151.159 60.6771 o
146.146 48.3494 o
171.074 69.3114 o
100.049 71.6818 o
133.148 108.564 o
156.484 117.522 o
150.426 157.038 o
154.652 75.6625 o
69.1811 93.6467 o
159.625 137.115 o
142.835 103.798 o
144.353 133.035 o
128.74 147.986 o
91.5915 80.7268 o
157.708 104.024 o
152.982 112.348 o
150.832 124.933 o
158.837 77.01 o
157.699 57.7818 o
87.7445 91.2377 o
160.732 64.2524 o
148.358 120.886 o
177.909 94.9805 o
154.312 132.188 o
100.899 46.0127 o
150.588 89.8577 o
140.761 130.478 o
94.3041 45.2667 o
154.481 61.8006 o
138.835 137.74 o
172.336 132.509 o
143.28 83.4236 o
163.014 47.89 o
164.702 83.7014 o
148.329 112.573 o
159.464 45.7892 o
147.325 127.704 o
121.092 135.154 o
149.378 137.045 o
139.047 106.081 o
199.192 145.244 o
221.544 64.8825 o
148.427 146.647 o
138.456 114.544 o
210.346 74.2422 o
176.199 66.302 o
123.722 81.3025 o
50.1832 115.189 o
150.776 79.5394 o
154.881 78.9839 o
147.398 130.168 o
163.831 107.576 o
147.044 130.46 o
55.7283 131.278 o
156.125 81.1721 o
223.077 136.263 o
116.778 63.5644 o
99.66 131.214 o
167.384 120.697 o
148.472 112.668 o
130.586 146.945 o
76.8353 75.7759 o
157.661 70.3706 o
92.1467 158.305 o
190.901 154.797 o
167.417 71.5111 o
108.615 152.842 o
147.997 78.5486 o
56.0804 105.333 o
137.992 105.763 o
157.726 64.2174 o
162.356 85.6299 o
111.486 144 o
73.364 94.4692 o
158.772 66.9228 o
105.587 79.2679 o
53.8223 106.495 o
89.4921 142.127 o
129.535 126.506 o
151.98 85.5315 o
120.461 79.5047 o
126.665 68.6509 o
135.262 126.259 o
146.163 74.6216 o
151.79 86.3226 o
147.048 75.5228 o
70.8004 52.4892 o
173.036 141.474 o
150.41 65.6313 o
155.432 140.226 o
231.027 130.905 o
116.377 151.798 o
63.6597 122.272 o
79.0668 90.1153 o
148.745 130.389 o
161.477 82.7276 o
77.2155 151.017 o
186.689 124.799 o
79.706 79.176 o
155.021 66.2758 o
165.948 45.3371 o
142.711 145.506 o
78.1748 62.9462 o
165.065 81.8071 o
148.939 57.8931 o
154.179 85.9245 o
151.46 120.587 o
154.93 87.1662 o
142.539 135.703 o
130.892 120.748 o
147.132 124.783 o
215.679 113.91 o
133.248 84.2649 o
126.322 65.5474 o
71.2221 52.0515 o
153.288 84.736 o
197.228 133.502 o
68.048 37.5663 o
115.946 61.3765 o
142.288 139.465 o
161.886 58.6826 o
153.49 78.7741 o
92.8206 41.592 o
86.5406 74.005 o
153.677 69.019 o
220.228 42.9256 o
154.802 89.2328 o
157.225 94.0515 o
128.456 73.9954 o
109.582 133.916 o
188.213 139.63 o
97.6585 115.036 o
143.27 132.848 o
159.48 80.445 o
155.147 87.8138 o
53.9229 75.6429 o
214.652 155.711 o
161.181 70.9392 o
97.8115 92.9375 o
133.647 77.159 o
144.077 85.96 o
172.838 115.797 o
156.788 120.516 o
109.339 44.7159 o
71.7765 56.2663 o
59.5407 118.077 o
141.719 70.5863 o
145.042 84.912 o
159.104 40.9442 o
133.282 85.8253 o
59.1065 43.2402 o
148.583 80.7302 o
126.779 126.554 o
127.766 131.324 o
175.73 40.4313 o
149.965 87.036 o
101.431 78.9021 o
164.028 66.3795 o
158.483 94.9122 o
156.588 102.804 o
230.733 48.2074 o
145.444 132.929 o
55.8223 58.9152 o
144.212 100.735 o
130.288 134.494 o
120.969 125.368 o
81.463 86.4095 o
155.376 60.4544 o
173.751 133.801 o
151.615 129.279 o
125.052 151.539 o
134.91 102.82 o
63.1125 74.8318 o
126.152 143.485 o
176.231 148.645 o
232.319 107.757 o
102.874 153.197 o
97.1687 88.9737 o
162.075 129.162 o
216.237 125.263 o
158.026 112.399 o
111.669 44.1327 o
140.018 130.106 o
86.8063 141.696 o
162.973 98.3451 o
94.9924 91.0597 o
145.221 136.997 o
156.853 63.6694 o
141.745 77.8303 o
128.322 149.704 o
171.891 155.247 o
150.727 112.016 o
155.379 54.8771 o
168.645 106.11 o
76.856 118.913 o
155.552 135.32 o
162.917 64.0296 o
155.565 80.2363 o
113.662 119.322 o
126.823 98.5802 o
161.157 119.801 o
167.039 99.8188 o
138.227 71.5527 o
161.915 132.106 o
240.259 135.013 o
60.5551 98.7633 o
139.805 107.838 o
239.077 124.226 o
139.972 142.17 o
193.755 130.749 o
168.341 40.8163 o
156.959 145.575 o
81.4091 58.8916 o
108.842 137.166 o
133.568 102.189 o
143.564 85.9028 o
187.133 64.6518 o
106.136 104.031 o
149.192 145.339 o
80.6993 143.465 o
244.303 137.603 o
153.456 145.529 o
147.801 84.7699 o
139.266 72.3713 o
158.36 88.016 o
97.5034 134.275 o
139.12 136.236 o
105.173 124.064 o
181.965 51.8974 o
91.327 92.8799 o
145.982 131.809 o
152.211 118.144 o
133.148 131.578 o
74.7634 62.1464 o
148.533 59.1444 o
160.277 59.1981 o
103.158 115.654 o
142.007 78.5314 o
63.1192 90.9734 o
98.4923 110.066 o
150.589 123.485 o
182.347 56.312 o
141.274 77.9122 o
233.256 110.959 o
83.0851 79.37 o
86.534 90.1683 o
159.887 59.8264 o
145.878 116.099 o
99.9178 56.1334 o
214.402 113.698 o
143.724 137.435 o
64.8552 55.1814 o
142.95 139.242 o
129.971 53.5947 o
163.848 102.55 o
148.116 91.4542 o
158.273 74.2214 o
82.2804 55.1642 o
229.201 83.2414 o
150.771 130.711 o
188.149 47.0916 o
198.407 41.6838 o
61.0247 98.142 o
140.584 66.7912 o
183.427 144.78 o
141.666 73.0628 o
95.3916 78.0118 o
207.025 80.1186 o
140.997 129.673 o
126.255 141.111 o
121.377 91.6448 o
70.1157 75.7556 o
169.651 102.493 o
118.932 147.709 o
227.574 54.3588 o
49.1466 37.3648 o
131.78 141.115 o
132.424 68.336 o
153.866 127.207 o
163.314 72.3524 o
150.251 69.3124 o
145.281 112.321 o
157.314 70.5038 o
136.063 129.455 o
157.515 116.712 o
237.384 105.584 o
153.658 76.693 o
156.792 138.553 o
173.264 86.6915 o
137.412 72.8445 o
135.717 109.363 o
118.818 86.7721 o
105.281 109.478 o
194.103 129.613 o
65.8009 93.1981 o
149.439 131.129 o
55.8922 142.348 o
107.657 92.0929 o
90.5188 135.851 o
156.053 72.938 o
149.374 114.528 o
183.039 139.325 o
151.4 118.572 o
149.612 69.7947 o
145.712 130.937 o
146.671 126.636 o
161.449 105.356 o
228.214 160.598 o
196.289 102.11 o
156.274 122.533 o
135.087 147.337 o
166.647 53.737 o
130.045 137.533 o
153.499 69.827 o
63.9993 47.3134 o
152.038 92.8554 o
120.942 62.5364 o
241.773 110.558 o
117.802 70.3993 o
161.096 38.2156 o
64.8725 52.3475 o
100.096 146.98 o
225.183 54.0936 o
137.552 118.719 o
178.362 118.665 o
123.285 143.262 o
72.3663 158.809 o
154.05 128.032 o
144.849 44.6302 o
233.686 74.7445 o
155.348 101.489 o
138.814 52.3041 o
144.09 122.209 o
126.628 86.795 o
166.547 63.4196 o
163.384 64.0439 o
145.525 97.3804 o
163.063 44.8117 o
147.247 116.41 o
145.795 132.656 o
109.673 88.9565 o
172.38 128.408 o
64.7882 68.184 o
162.585 71.8768 o
136.358 131.635 o
180.226 112.48 o
110.412 91.5977 o
107.919 150 o
95.7802 102.681 o
154.222 119.525 o
166.554 86.6791 o
126.388 140.795 o
141.684 113.176 o
151.309 42.2071 o
121.208 146.208 o
221.495 160.634 o
159.166 75.9625 o
58.6673 78.794 o
150.879 129.475 o
151.364 75.3197 o
98.5717 132.457 o
182.237 78.8914 o
156.723 116.981 o
143.782 125.145 o
123.297 114.024 o
230.017 44.4274 o
144.407 134.016 o
142.255 119.389 o
128.95 104.463 o
147.138 123.94 o
134.621 147.12 o
117.324 146.991 o
149.313 129.117 o
163.46 46.5185 o
153.358 48.5747 o
167.149 157.816 o
120.285 147.474 o
164.031 81.331 o
160.882 137.741 o
116.757 135.819 o
157.157 59.1516 o
120.722 133.08 o
176.465 147.819 o
144.003 136.262 o
78.8368 56.997 o
154.5 134.136 o
100.794 65.3548 o
162.613 69.4768 o
129.968 106.758 o
160.321 98.1902 o
171.792 80.2013 o
156.475 54.4062 o
158.192 121.503 o
97.3007 134.959 o
125.985 153.466 o
160.903 86.0446 o
139.078 130.985 o
158.066 120.537 o
74.5489 46.9338 o
133.291 78.5502 o
155.549 71.5219 o
210.54 146.532 o
148.798 132.219 o
132.353 91.5001 o
237.14 65.0796 o
157.014 118.659 o
119.649 94.7838 o
105.152 41.2555 o
195.265 118.403 o
114.265 57.0141 o
87.8641 73.7987 o
227.641 47.476 o
147.615 55.9446 o
150.227 83.0178 o
144.272 93.6235 o
117.786 139.144 o
149.115 120.461 o
163.982 51.6438 o
144.991 75.3216 o
140.976 132.151 o
57.8113 100.09 o
101.068 109.962 o
149.023 126.884 o
152.707 89.7773 o
135.945 104.914 o
170.481 47.7916 o
160.362 40.6227 o
144.461 96.0159 o
127.916 39.5314 o
153.92 94.3809 o
143.71 144.558 o
137.101 76.3311 o
140.619 87.9334 o
125.973 117.258 o
141.209 60.348 o
166.962 84.9301 o
105.729 71.43 o
62.6369 125.701 o
137.166 80.497 o
152.892 39.11 o
163.693 154.861 o
164.101 49.4446 o
243.496 106.476 o
182.609 119.556 o
130.687 145.674 o
145.691 113.18 o
166.539 74.7949 o
144.29 132.711 o
115.054 131.003 o
155.104 92.6196 o
151.756 91.3239 o
207.938 107.241 o
155.956 79.9992 o
122.917 88.9719 o
57.2076 73.7934 o
67.2259 60.5438 o
166.673 77.9758 o
110.398 42.3766 o
140.357 130.7 o
142.119 87.9829 o
142.984 68.1582 o
108.854 44.43 o
160.616 82.6732 o
142.85 133.586 o
151.51 56.3819 o
139.091 100.562 o
152.271 142.85 o
136.895 133.866 o
140.411 65.6675 o
127.57 126.027 o
77.7833 77.3473 o
143.905 94.9346 o
70.2887 47.221 o
101.298 42.2501 o
149.419 71.7068 o
161.361 109.816 o
147.556 136.97 o
158.462 84.4722 o
149.28 89.7909 o
145.623 108.045 o
145.828 102.495 o
158.5 82.9016 o
238.819 149.94 o
167.364 138.063 o
169.624 144.912 o
238.786 72.4122 o
161.065 126.381 o
71.1811 99.2747 o
192.87 53.5752 o
207.401 46.6278 o
150.527 77.5389 o
156.677 41.5237 o
72.8702 85.7359 o
148.968 109.927 o
161.29 99.4624 o
147.309 129.635 o
142.216 126.275 o
229.433 56.3296 o
160.755 88.3752 o
74.7811 47.2709 o
129.887 54.7837 o
95.9863 49.7887 o
129.073 129.522 o
145.445 112.338 o
160.574 90.5103 o
166.304 139.627 o
152.611 80.5992 o
98.7636 59.8576 o
142.851 86.7571 o
116.225 50.7115 o
135.171 128.617 o
121.58 68.8967 o
93.5272 145.631 o
167.401 87.9909 o
168.559 80.7718 o
139.177 143.178 o
153.749 108.858 o
159.637 68.1603 o
142.433 124.528 o
137.989 121.194 o
89.3456 109.861 o
167.752 53.9245 o
162.073 136.405 o
111.334 157.166 o
160.25 94.2384 o
163.982 98.6449 o
163.707 101.484 o
85.6429 130.119 o
145.6 81.848 o
104.329 124.76 o
145.994 55.2096 o
221.619 52.3039 o
160.877 77.3907 o
163.335 54.4381 o
82.8189 53.4998 o
137.13 54.2415 o
103.696 67.0669 o
109.928 149.098 o
152.342 128.719 o
150.735 86.6762 o
155.724 110.86 o
122.612 107.567 o
170.573 151.609 o
144.475 60.877 o
55.2279 88.4415 o
108.273 145.995 o
66.597 115.12 o
55.0068 92.6967 o
85.5159 57.0192 o
140.054 126.419 o
147.404 95.446 o
242.273 53.4172 o
151.761 87.5649 o
108.48 79.5623 o
152.866 99.4247 o
236.994 58.231 o
131.207 121.087 o
147.193 75.7482 o
164.606 81.0098 o
160.248 60.8834 o
142.163 97.9033 o
111.349 126.693 o
142.773 129.057 o
65.8848 124.565 o
97.6287 116.517 o
160.349 106.265 o
155.54 108.752 o
150.028 140.343 o
148.941 97.1029 o
159.883 71.8049 o
48.1239 50.1538 o
130.205 147.243 o
234.858 42.1039 o
184.571 96.1705 o
222.278 45.8325 o
202.468 134.504 o
166.229 98.8612 o
188.172 132.104 o
140.083 86.9949 o
154.347 82.8428 o
119.395 40.6714 o
101.711 149.954 o
236.986 54.7865 o
76.0871 57.0256 o
143.733 120.588 o
69.6693 60.6241 o
151.357 81.1104 o
157.189 122.261 o
57.1039 79.4277 o
72.351 104.161 o
144.679 121.361 o
167.109 92.0968 o
168.005 107.232 o
127.658 86.4827 o
141.782 113.968 o
124.83 136.913 o
235.241 130.227 o
123.524 97.6715 o
153.21 124.448 o
177.447 61.7465 o
156.206 94.2301 o
138.521 109.506 o
153.97 140.386 o
119.651 120.63 o
161.524 101.452 o
94.2478 120.978 o
147.676 126.515 o
166.936 80.4215 o
157.586 79.7781 o
75.5153 144.243 o
146.07 116.723 o
147.562 65.9083 o
135.017 89.8871 o
147.281 96.9602 o
120.443 74.2131 o
163.879 87.3421 o
151.123 116.773 o
151.824 115.164 o
144.531 68.6892 o
174.019 61.4391 o
168.099 84.1348 o
156.618 88.4334 o
147.3 129.025 o
138.285 147.602 o
163.99 102.658 o
155.432 59.5068 o
111.179 63.8991 o
124.387 83.5877 o
154.165 55.299 o
203.764 81.009 o
74.9345 98.2361 o
160.189 116.724 o
147.314 77.7731 o
152.353 77.4448 o
167.243 66.0044 o
157.974 103.245 o
50.0412 40.7538 o
199.511 82.4524 o
106.784 46.596 o
152.089 130.01 o
155.208 95.1358 o
234.709 99.908 o
142.24 39.1658 o
163.274 139.296 o
85.474 114.415 o
157.713 113.133 o
208.541 137.121 o
123.768 54.2582 o
72.6645 49.3961 o
173.18 41.7043 o
106.576 86.3313 o
163.052 120.34 o
234.586 47.4012 o
141.932 74.1668 o
152.102 120.236 o
176.555 114.536 o
157.862 55.5971 o
166.705 130.161 o
95.8665 145.741 o
146.782 73.1491 o
168.643 92.0641 o
159.222 52.9887 o
242.939 135.416 o
158.04 83.1674 o
92.7937 140.995 o
138.849 82.6637 o
74.7807 70.1508 o
141.245 107.698 o
160.064 65.0198 o
155.739 118.638 o
167.41 118.296 o
165.995 84.4496 o
158.205 71.131 o
155.325 117.755 o
148.769 128.889 o
105.631 106.687 o
159.371 102.462 o
82.1733 84.1442 o
130.733 36.8571 o
231.972 43.4078 o
156.147 117.793 o
161.737 86.8737 o
161.45 114.578 o
73.0554 86.8464 o
125.377 87.0675 o
168.186 53.7389 o
79.2282 99.4871 o
66.1222 57.1922 o
90.0468 92.6474 o
158.461 69.0724 o
157.245 119.424 o
134.112 116.959 o
163.378 80.1023 o
161.873 128.01 o
197.375 132.776 o
101.975 55.5435 o
164.035 39.0441 o
163.305 99.0412 o
159.507 94.4731 o
157.427 80.0224 o
128.156 85.9362 o
146.342 78.6906 o
162.713 82.4589 o
118.901 131.059 o
132.113 38.3528 o
147.724 122.457 o
155.711 119.573 o
154.328 112.54 o
151.714 76.6378 o
160.262 151.361 o
158.741 133.022 o
87.8163 126.948 o
135.569 118.374 o
162.125 97.1562 o
75.2804 81.7335 o
176.88 130.551 o
163.438 89.4302 o
113.728 62.0389 o
139.918 123.053 o
117.904 97.1596 o
127.434 131.396 o
161.786 96.1306 o
91.1112 45.986 o
155.188 52.9862 o
159.08 136.398 o
177.613 87.2132 o
164.049 61.4603 o
139.6 109.526 o
160.796 144.172 o
125.337 132.113 o
135.873 78.062 o
50.3212 80.0876 o
151.3 65.0824 o
178.778 135.224 o
148.454 126.943 o
139.093 138.278 o
146.003 43.2117 o
145.146 128.04 o
142.64 106.595 o
118.407 71.075 o
143.86 72.3929 o
160.178 103.438 o
163.41 113.259 o
151.545 75.5321 o
145.225 80.4172 o
148.339 96.8867 o
89.637 46.3157 o
79.6673 131.676 o
166.224 86.7369 o
77.581 135.644 o
70.7791 83.3703 o
138.413 124.238 o
140.854 42.3387 o
151.773 72.1084 o
149.857 92.6516 o
141.067 110.484 o
189.988 38.5312 o
122.91 111.394 o
120.846 67.1453 o
156.994 139.954 o
133.374 139.164 o
178.397 97.2801 o
149.249 135.133 o
119.154 136.751 o
195.296 45.0675 o
138.631 112.926 o
81.8835 81.4223 o
158.94 97.5805 o
156.431 67.6991 o
141.196 84.2232 o
105.743 124.232 o
155.327 60.9113 o
147.501 102.184 o
147.002 90.7835 o
146.181 69.2826 o
76.1487 68.0095 o
66.2999 53.5988 o
99.2991 57.298 o
108.793 144.842 o
49.9475 57.3258 o
229.134 38.1308 o
138.431 134.873 o
182.996 105.905 o
155.576 81.8299 o
116.345 111.286 o
139.003 126.474 o
109.995 145.552 o
178.017 111.142 o
146.34 127.273 o
107.593 91.4079 o
161.55 110.806 o
150.181 141.992 o
137.994 145.353 o
139.424 134.61 o
160.079 150.89 o
153.875 116.532 o
97.4557 142.583 o
172.773 142.353 o
109.908 139.11 o
146.928 128.34 o
153.761 131.669 o
135.466 79.797 o
55.3652 92.8048 o
159.53 53.495 o
142.587 135.872 o
129.761 66.3737 o
147.292 112.928 o
70.8774 128.889 o
149.974 133.988 o
162.768 123.043 o
138.837 90.2553 o
151.949 86.3997 o
164.037 89.2171 o
153.218 96.9554 o
158.986 66.425 o
169.863 130.59 o
97.258 126.911 o
96.187 107.067 o
140.6 134.562 o
174.42 104.568 o
139.236 58.1911 o
64.8839 49.1602 o
174.719 97.2615 o
48.3222 79.7028 o
111.515 143.857 o
94.1043 73.0015 o
126.521 141.346 o
144.533 59.8295 o
154.057 63.9137 o
236.941 43.5128 o
125.332 81.9376 o
139.08 126.145 o
222.695 40.4245 o
157.19 113.787 o
141.472 109.886 o
142.239 62.5605 o
158.516 119.519 o
147.897 80.2496 o
167.507 79.508 o
190.959 131.807 o
158.207 132.49 o
145.464 127.611 o
125.227 88.8087 o
88.3944 136.731 o
159.045 77.2249 o
194.149 42.2505 o
183.616 92.0236 o
146.288 130.529 o
128.845 112.044 o
132.914 78.4103 o
153.14 69.9967 o
146.337 130.418 o
76.2165 121.4 o
105.945 62.44 o
83.5279 52.2112 o
79.9742 105.463 o
161.834 56.8255 o
95.7154 49.3202 o
100.923 75.9131 o
160.795 77.6476 o
142.204 122.054 o
107.851 65.5194 o
157.956 53.6135 o
137.853 41.3357 o
144.118 139.09 o
154.679 81.1886 o
149.439 91.9087 o
146.826 119.74 o
191.74 56.9262 o
168.563 102.644 o
133.219 75.8985 o
152.829 128.242 o
85.8668 44.0352 o
156.433 81.0638 o
158.398 47.7537 o
159.035 84.729 o
149.478 117.523 o
131.939 111.16 o
99.9521 124.085 o
178.278 67.9969 o
115.185 146.08 o
188.282 56.5065 o
178.809 143.638 o
142.578 77.8675 o
68.2373 43.2618 o
180.361 89.4218 o
101.919 102.457 o
160.328 44.6196 o
146.479 77.6443 o
170.662 121.243 o
162.524 103.573 o
202.192 45.8337 o
163.334 63.1238 o
116.112 104.172 o
131.723 141.237 o
84.9492 147.202 o
88.6589 144.521 o
160.105 119.285 o
141.795 148.243 o
136.32 108.811 o
94.9632 41.9625 o
63.2549 96.9178 o
165.374 132.777 o
147.645 134.596 o
110.951 155.947 o
181.527 142.291 o
151.89 68.768 o
145.385 69.2473 o
136.45 117.083 o
159.834 107.262 o
183.835 74.9222 o
155.086 128.072 o
143.07 81.8031 o
102.136 57.1183 o
157.501 121.456 o
160.82 61.387 o
164.7 133.267 o
82.3931 97.2007 o
144.799 134.554 o
135.251 68.6889 o
156.626 120.484 o
226.528 71.2531 o
90.0298 98.0264 o
71.5732 48.3816 o
63.0579 51.4117 o
91.6517 45.0569 o
97.5914 107.989 o
161.374 97.5065 o
131.37 148.849 o
153.332 88.7533 o
172.122 131.311 o
152.881 133.904 o
127.693 94.8447 o
133.323 71.3537 o
162.146 64.0424 o
156.079 102.516 o
163.347 93.2061 o
146.625 100.708 o
102.692 83.0068 o
241.592 130.86 o
157.729 49.3671 o
68.8561 52.2529 o
150.44 85.3685 o
179.207 108.625 o
192.805 87.2144 o
86.8339 42.8603 o
153.527 75.6286 o
82.2739 45.3654 o
103.713 112.12 o
140.948 94.4656 o
98.6203 99.4038 o
145.495 152.321 o
161.652 79.9623 o
160.261 81.5617 o
142.497 107.627 o
97.4675 52.8299 o
122.629 139.259 o
160.626 95.675 o
198.303 65.8265 o
241.907 56.9956 o
140.662 123.575 o
148.917 102.715 o
81.1757 133.618 o
128.693 92.0331 o
159.717 110.31 o
146.21 127.976 o
156.219 81.1324 o
146.068 131.484 o
134.342 135.495 o
139.884 129.45 o
162.207 115.524 o
180.861 89.7584 o
109.96 64.2222 o
157.564 73.4803 o
130.736 130.209 o
76.5413 82.2562 o
93.412 121.113 o
231.732 48.745 o
156.968 99.4326 o
145.683 117.233 o
104.258 140.649 o
165.558 68.4656 o
175.397 79.7288 o
161.884 70.1185 o
208.52 142.365 o
117.174 138.101 o
136.246 81.671 o
204.366 151.386 o
148.425 86.6008 o
152.54 118.269 o
75.2898 57.1358 o
139.655 59.3655 o
149.672 71.2186 o
111.428 126.494 o
145.207 117.94 o
237.765 52.5859 o
157.863 78.2214 o
143.056 89.1916 o
152.587 45.0039 o
155.928 72.5637 o
86.5475 62.6602 o
157.992 57.3551 o
178.489 105.613 o
155.188 38.4407 o
143.634 80.8293 o
128.275 149.19 o
97.2931 56.8334 o
216.266 60.1239 o
137.785 113.547 o
131.495 147.897 o
169.271 84.2686 o
130.514 102.32 o
164.129 71.0589 o
83.5851 111.56 o
196.002 49.7348 o
124.201 73.6186 o
168.885 72.9665 o
165.759 96.2716 o
119.204 128.433 o
143.373 114.815 o
59.0218 78.9485 o
155.054 47.8134 o
146.828 129.786 o
114.623 90.8093 o
162.021 108.374 o
184.992 98.6066 o
107.083 116.864 o
156.864 119.486 o
149.646 147.574 o
164.423 60.773 o
143.477 53.3496 o
114.877 139.8 o
115.731 87.7224 o
160.879 119.601 o
99.9104 134.048 o
127.165 36.5579 o
84.51 54.7436 o
161.893 69.4822 o
164.899 86.2059 o
150.644 60.744 o
128.424 127.814 o
101.688 81.5161 o
165.252 99.2384 o
173.698 96.7931 o
85.2677 146.861 o
140.098 132.674 o
146.517 99.7732 o
125.323 136.146 o
105.177 85.7283 o
125.499 144.382 o
152.179 91.215 o
78.739 47.9671 o
143.369 130.573 o
85.9724 99.7225 o
139.737 71.0649 o
152.984 133.165 o
149.865 92.5494 o
139.381 70.4681 o
139.432 56.9936 o
190.947 152.786 o
187.688 81.8488 o
191.745 61.9384 o
202.763 135.017 o
142.373 130.973 o
164.528 90.2884 o
55.9671 147.138 o
67.3155 55.2231 o
208.104 41.9898 o
167.447 55.4093 o
86.3744 86.224 o
68.7314 61.939 o
167.169 105.402 o
92.1465 82.9887 o
159.949 86.7426 o
83.9611 82.1621 o
157.771 68.5489 o
148.58 105.935 o
157.648 63.4434 o
91.8307 130.858 o
156.892 152.875 o
163.863 99.0507 o
206.785 96.6507 o
157.979 68.6358 o
155.654 92.3612 o
173.338 158.992 o
142.001 113.005 o
153.98 56.7101 o
56.1968 86.0012 o
134.983 101.897 o
173.222 114.837 o
53.3485 94.833 o
233.845 45.6342 o
164.702 143.507 o
183.621 121.708 o
165.163 102.028 o
168.235 73.7379 o
162.626 83.5276 o
216.115 49.318 o
152.62 129.561 o
141.307 134.644 o
161.175 94.7273 o
159.154 127.226 o
150.037 132.337 o
160.992 97.7986 o
131.766 143.615 o
112.112 61.1089 o
168.481 82.8042 o
239.094 53.2948 o
143.012 74.861 o
142.79 146.599 o
176.062 105.172 o
143.632 118.969 o
151.454 41.5815 o
153.826 119.541 o
136.276 73.8471 o
114.038 153.042 o
132.548 98.8727 o
169.804 74.8593 o
62.5331 47.0695 o
88.9383 76.4674 o
63.5827 53.9925 o
140.609 87.9557 o
154.457 40.3398 o
84.0813 78.8413 o
150.336 118.977 o
143.926 85.6347 o
60.3685 139.077 o
212.757 51.8984 o
53.509 125.442 o
50.1493 38.6703 o
120.911 57.5332 o
137.006 77.4588 o
143.267 41.3097 o
165.457 40.3084 o
167.42 82.8475 o
229.903 87.2275 o
158.682 96.7037 o
154.873 124.021 o
155.479 73.1154 o
158.488 122.278 o
126.929 41.3967 o
155.85 102.257 o
161.81 74.9833 o
136.828 134.816 o
149.536 68.3447 o
145.708 120.612 o
164.471 103.478 o
166.418 113.361 o
151.016 78.8533 o
91.9573 71.0644 o
168.912 105.139 o
201.224 139.61 o
186.02 55.4787 o
110.031 101.999 o
131.108 109.035 o
180.996 123.617 o
237.926 37.8149 o
68.343 50.372 o
72.2246 93.7661 o
168.506 85.5448 o
166.379 92.8851 o
142.261 119.379 o
166.232 61.0798 o
165.444 70.2602 o
115.507 145.033 o
141.908 90.8281 o
125.611 141.014 o
169.617 72.7802 o
141.774 97.5879 o
129.609 80.9719 o
67.0082 71.2564 o
161.721 141.003 o
60.9598 119.971 o
140.772 147.156 o
167.843 70.7277 o
50.8759 135.148 o
155.379 120.311 o
96.1534 115.442 o
85.4858 102.117 o
147.938 98.2781 o
161.417 98.6546 o
155.348 131.867 o
156.874 43.6036 o
72.8941 146.239 o
135.717 42.8608 o
166.907 86.1499 o
142.791 41.4832 o
149.219 132.138 o
148.766 131.641 o
159.067 117.135 o
81.9182 103.649 o
162.669 98.8066 o
161.15 141.214 o
218.002 111.612 o
93.9455 53.1612 o
157.18 66.0882 o
133.884 134.471 o
151.176 123.823 o
142.029 140.074 o
107.662 84.4204 o
141.715 100.029 o
129.236 92.8901 o
123.567 85.7532 o
82.7784 61.1851 o
158.685 75.9828 o
87.8185 81.3963 o
95.3811 61.3044 o
95.4535 114.673 o
133.317 145.563 o
134.92 138.567 o
56.629 140.597 o
167.301 56.9292 o
138.127 91.7918 o
76.7557 46.4682 o
79.8007 85.72 o
140.644 79.9862 o
99.7876 75.3007 o
103.216 139.343 o
114.334 46.4417 o
76.7438 70.903 o
96.3485 100.261 o
73.8366 71.3627 o
159.721 121.838 o
159.627 80.8254 o
82.9675 107.555 o
183.191 120.323 o
189.608 139.635 o
76.9751 74.4996 o
124.354 111.008 o
119.178 135.995 o
133.539 78.0069 o
83.9416 76.3865 o
78.5771 46.3006 o
155.142 147.603 o
63.251 50.7895 o
122.596 97.2545 o
146.409 111.715 o
203.2 115.811 o
139.602 130.849 o
158.354 87.021 o
91.5158 98.0872 o
228.255 116.118 o
59.9216 156.475 o
144.376 107.364 o
155.521 138.841 o
134.382 138.553 o
121.293 107.289 o
99.1467 44.1572 o
67.5151 49.378 o
195.946 45.2192 o
176.575 89.5576 o
156.566 116.5 o
168.838 96.3443 o
140.813 76.0732 o
156.351 82.5008 o
49.9115 76.3998 o
162.858 127.004 o
143.855 78.9837 o
162.247 103.852 o
133.493 54.1909 o
154.795 76.469 o
149.343 111.388 o
166.216 75.6812 o
63.021 89.1029 o
157.99 126.438 o
192.414 53.9513 o
144.909 122.661 o
156.027 105.469 o
220.676 56.62 o
120.148 78.6564 o
115.174 71.537 o
159.564 61.5023 o
179.671 57.1369 o
153.85 78.7128 o
155.244 89.2117 o
142.833 122.051 o
135.334 143.619 o
98.0459 124.624 o
168.814 110.282 o
211.207 133.735 o
67.1458 93.0622 o
120.367 58.6164 o
154.018 99.005 o
135.814 122.673 o
155.669 58.0913 o
163.866 54.0582 o
81.9374 59.3431 o
227.014 42.8657 o
133.016 44.385 o
75.4612 50.9701 o
153.389 140.458 o
167.508 133.262 o
151.757 120.122 o
153.397 132.344 o
116.221 71.7489 o
170.701 107.911 o
173.525 68.9737 o
110.821 84.1766 o
146.98 100.347 o
72.1774 60.8871 o
140.313 89.5899 o
68.9435 53.944 o
146.63 101.471 o
130.177 100.591 o
164.364 46.736 o
120.07 152.188 o
102.419 148.197 o
160.397 91.0626 o
148.517 51.724 o
118.655 40.1503 o
96.4833 140.644 o
156.514 126 o
167.479 90.5527 o
157.742 76.2705 o
144.892 49.4189 o
169.855 100.938 o
159.711 94.6091 o
85.722 137.755 o
81.1431 83.309 o
77.6857 55.7746 o
201.871 90.246 o
147.039 77.9511 o
149.734 76.0882 o
111.822 55.2376 o
119.073 86.165 o
71.9717 106.912 o
155.271 66.8126 o
140.46 135.906 o
75.8247 81.0062 o
153.66 104.985 o
161.146 102.031 o
93.1096 120.136 o
108.578 133.025 o
113.217 73.2168 o
127.782 117.485 o
147.856 130.696 o
116.885 98.9372 o
162.579 75.4156 o
118.424 83.3079 o
149.966 64.7903 o
243.482 48.3884 o
200.314 76.791 o
145.229 123.064 o
111.453 88.5539 o
78.2696 156.772 o
167.824 68.25 o
98.8073 149.267 o
116.431 43.7265 o
153.416 127.052 o
204.486 110.968 o
166.941 84.1206 o
65.0598 43.2679 o
145.511 138.41 o
165.149 47.8849 o
201.498 94.6372 o
120.869 78.9356 o
61.2613 51.1538 o
170.252 83.455 o
192.198 84.0112 o
214.74 134.219 o
164.079 55.5938 o
158.491 69.5113 o
147.312 82.6276 o
160.856 94.9045 o
163.333 91.1583 o
69.3693 45.116 o
163.273 74.7222 o
146.321 74.3762 o
159.349 102.879 o
156.392 102.153 o
103.533 143.737 o
168.657 134.767 o
83.9959 108.754 o
142.039 132.946 o
151.354 131.783 o
164.178 103.527 o
70.0201 121.974 o
141.119 119.925 o
153.697 63.4395 o
196.016 60.2274 o
148.002 57.0414 o
98.9039 53.169 o
163.883 70.429 o
162.19 46.4277 o
104.716 51.9207 o
149.945 94.3353 o
121.905 122.876 o
146.76 75.1991 o
194.963 39.1308 o
134.644 131.755 o
205.352 76.8144 o
154.784 122.886 o
74.6734 88.3293 o
156.824 109.485 o
57.6561 123.486 o
79.1998 149.001 o
83.7699 112.15 o
140.225 59.1549 o
140.937 90.4623 o
108.734 86.0702 o
157.392 75.9916 o
151.477 148 o
126.268 91.1808 o
172.266 84.4566 o
107.41 120.114 o
182.395 56.2939 o
163.57 60.7414 o
94.9277 104.764 o
87.6746 57.0239 o
136.443 75.1736 o
141.133 114.268 o
168.962 115.038 o
171.527 43.4994 o
126.114 77.0688 o
154.737 93.2961 o
142.004 43.8341 o
147.229 111.559 o
190.014 75.3365 o
165.106 45.7954 o
148.563 124.72 o
145.521 112.695 o
129.52 94.8346 o
77.5427 119.833 o
160.978 88.8553 o
88.3201 65.4282 o
69.4962 132.532 o
158.281 97.5157 o
65.0731 59.9788 o
163.284 130.394 o
213.661 99.2319 o
148.853 137.168 o
122.066 109.076 o
208.804 144.787 o
242.13 50.8204 o
76.1952 77.3593 o
158.926 102.688 o
92.4652 57.8955 o
152.519 124.978 o
162.419 76.6489 o
199.27 144.414 o
163.403 75.8408 o
237.319 69.2147 o
72.627 94.2457 o
154.854 76.8512 o
153.126 150.369 o
167.48 63.003 o
154.61 59.6648 o
159.714 47.2422 o
144.258 112.096 o
79.8343 46.3954 o
161.097 79.161 o
159.925 75.8821 o
148.171 99.3552 o
157.491 92.3768 o
76.4953 97.3824 o
153.959 126.929 o
159.484 70.9327 o
98.8171 152.399 o
166.214 127.364 o
166.649 98.9326 o
146.845 66.5417 o
153.774 128.149 o
173.536 127.439 o
149.231 113.392 o
147.973 123.705 o
67.4644 74.2829 o
143.614 136.508 o
161.44 103.779 o
153.86 128.304 o
176.908 96.1356 o
148.756 74.8503 o
169.239 122.108 o
135.652 76.6388 o
228.287 81.3428 o
137.881 128.597 o
104.502 77.7993 o
160.1 110.607 o
55.0726 50.6072 o
180.998 54.6743 o
157.653 138.493 o
120.285 98.1453 o
147.112 127.694 o
75.6418 77.7575 o
132.314 45.4813 o
94.0251 69.5671 o
173.695 82.0715 o
145.885 101.855 o
165.413 117.586 o
100.353 139.893 o
147.924 97.5687 o
162.447 113.93 o
76.6331 65.8175 o
130.808 99.8728 o
140.399 64.2386 o
155.485 61.2503 o
153.359 48.9739 o
158.465 69.158 o
150.059 85.3986 o
224.139 42.5534 o
132.289 42.0599 o
127.212 70.8923 o
111.78 79.8358 o
134.716 87.5602 o
136.202 155.35 o
142.13 146.896 o
114.909 44.078 o
90.3461 86.953 o
216.606 52.8715 o
168.643 127.225 o
92.5907 89.145 o
206.972 69.1462 o
145.251 130.437 o
169.292 63.775 o
166.674 50.4098 o
157.06 126.439 o
122.789 53.8615 o
175.353 65.5862 o
81.6644 112.022 o
175.157 89.479 o
144.167 115.603 o
114.612 120.622 o
158.104 121.269 o
196.982 158.613 o
153.83 104.414 o
73.4296 67.5404 o
110.586 142.649 o
158.475 104.437 o
168.349 117.08 o
68.2537 82.1385 o
140.072 153.744 o
146.059 116.697 o
165.01 81.3133 o
149.25 72.2224 o
77.1244 43.5358 o
206.979 147.363 o
160.36 42.6793 o
87.7797 44.5373 o
64.5819 103.554 o
131.412 61.2267 o
77.7052 53.9118 o
159.463 65.126 o
161.218 79.6967 o
159.628 91.4726 o
119.58 139.2 o
58.8014 45.3474 o
153.119 83.6555 o
154.927 142.561 o
133.479 76.8844 o
87.8711 96.5174 o
120.61 116.526 o
93.3917 130.558 o
157.849 70.2042 o
170.696 66.5547 o
104.081 146.533 o
156.456 134.476 o
147.527 66.5051 o
87.0056 102.585 o
207.339 119.691 o
144.472 75.2907 o
77.7972 106.913 o
148.32 119.473 o
158.6 118.254 o
214.731 134.832 o
137.43 120.528 o
164.101 66.6512 o
80.4328 68.8472 o
97.831 106.694 o
168.156 68.9088 o
86.7901 139.83 o
156.65 73.9892 o
168.725 79.6718 o
241.011 49.0662 o
221.326 65.5891 o
107.931 64.1243 o
122.735 89.4494 o
160.406 82.583 o
187.406 125.231 o
50.1988 100.915 o
154.373 110.066 o
132.921 152.653 o
104.419 138.398 o
134.279 129.904 o
163.073 87.311 o
153.357 118.159 o
157.683 93.401 o
133.107 121.754 o
168.938 87.3464 o
85.6665 117.046 o
157.586 67.2645 o
107.43 134.48 o
104.723 69.6099 o
167.328 96.738 o
124.188 147.353 o
117.357 56.7404 o
121.819 72.4362 o
104.087 120.964 o
154.66 87.5821 o
171.487 100.727 o
141.001 85.048 o
151.01 115.546 o
133.488 65.9048 o
175.516 82.757 o
165.025 48.9471 o
68.0202 119.724 o
149.378 121.38 o
152.177 107.067 o
105.643 148.302 o
134.262 44.1045 o
162.035 139.302 o
151.917 82.062 o
230.505 121.185 o
137.162 124.999 o
139.123 60.0466 o
160.522 98.1834 o
160.083 92.4835 o
154.124 69.9904 o
150.044 128.548 o
173.397 71.7833 o
171.417 80.6443 o
66.3612 52.8264 o
161.265 129.915 o
82.3183 90.5112 o
101.539 114.362 o
165.992 127.035 o
154.4 119.329 o
124.964 79.5588 o
151.365 84.8062 o
133.409 127.917 o
148.865 73.1548 o
128.456 123.097 o
92.1067 107.109 o
183.482 45.6564 o
148.954 92.069 o
164.751 133.297 o
165.738 59.9667 o
53.0493 59.9113 o
87.4636 120.955 o
118.519 56.9408 o
124.166 121.806 o
169.255 111.694 o
153.857 39.3387 o
67.2819 53.9684 o
72.3785 54.2229 o
158.532 103.606 o
149.956 106.243 o
133.618 124.805 o
186.983 61.1028 o
152.323 130.64 o
121.459 154.321 o
130.461 91.2734 o
100.568 142.832 o
160.351 103.555 o
114.19 141.389 o
137.144 87.4883 o
156.351 71.219 o
119.096 140.269 o
73.322 42.7277 o
139.351 82.2848 o
175.256 88.88 o
203.552 133.183 o
133.884 81.5804 o
102.695 138.45 o
145.368 89.1994 o
143.534 126.141 o
155.4 91.673 o
97.9689 120.753 o
135.784 112.67 o
225.362 61.0243 o
129.361 122.482 o
139.195 80.7611 o
162.226 71.8433 o
144.211 124.039 o
148.428 114.456 o
176.861 85.8904 o
177.99 91.2257 o
147.355 131.137 o
128.993 125.176 o
149.162 61.168 o
157.573 56.9566 o
137.004 86.7687 o
126.053 147.107 o
93.7616 84.8281 o
117.781 65.6287 o
132.75 49.2873 o
193.528 79.4498 o
159.198 116.689 o
98.5491 72.7049 o
174.054 113.748 o
145.703 78.9104 o
107.029 107.008 o
158.106 71.3475 o
149.33 78.2643 o
157.513 124.883 o
129.733 141.726 o
164.375 90.1221 o
238.742 106.032 o
145.303 98.5026 o
104.611 125.301 o
158.436 71.7448 o
168.973 106.71 o
156.448 129.044 o
77.6222 54.6624 o
72.8096 98.4363 o
222.374 39.6768 o
151.935 65.5463 o
146.258 122.329 o
144.858 78.1917 o
68.2965 133.01 o
123.107 89.1704 o
159.301 110.999 o
137.072 59.1525 o
121.877 80.354 o
235.332 111.279 o
154.432 60.6388 o
117.247 111.76 o
158.959 135.228 o
84.254 77.6332 o
86.941 71.0951 o
156.593 107.144 o
122.43 72.8366 o
154.32 73.7443 o
123.096 40.3276 o
107.014 70.2018 o
137.395 48.6582 o
134.947 137.601 o
152.052 46.295 o
97.4804 120.22 o
151.496 48.9783 o
113.556 126.866 o
66.8608 147.205 o
132.416 80.2749 o
154.156 65.2163 o
104.36 74.5889 o
171.159 122.004 o
161.232 82.4187 o
82.489 114.341 o
155.856 118.405 o
159.347 63.7566 o
161.168 122.868 o
135.351 95.827 o
169.331 62.3772 o
151.053 125.666 o
79.0084 123.874 o
88.0957 89.1463 o
177.684 103.855 o
213.46 53.1928 o
71.7701 85.0025 o
136.351 39.5291 o
147.171 148.165 o
145.645 133.243 o
168.12 54.6251 o
101.196 111.784 o
108.392 114.95 o
113.938 76.9392 o
167.18 47.4612 o
69.9902 124.338 o
150.75 100.506 o
158.483 86.5041 o
180.679 151.433 o
139.295 63.7153 o
157.139 110.461 o
102.451 97.6769 o
170.219 102.748 o
149.62 94.3089 o
146.806 63.3928 o
108.867 123.527 o
121.246 131.897 o
167.739 58.2052 o
114.401 49.5645 o
148.21 121.87 o
173.09 131.268 o
75.4073 109.938 o
120.759 100.566 o
147.425 131.25 o
56.8477 50.8365 o
112.943 124.173 o
149.462 79.8314 o
210.765 143.303 o
126.298 57.3839 o
152.095 131.812 o
155.499 68.2135 o
150.878 71.8434 o
162.85 133.094 o
113.732 143.414 o
163.684 107.168 o
155.271 119.055 o
159.088 60.2969 o
73.4976 54.4201 o
114.864 142.769 o
146.686 90.2262 o
154.2 66.6322 o
122.16 136.832 o
105.7 129.023 o
163.279 129.066 o
153.084 115.213 o
97.2154 84.2393 o
142.991 88.0863 o
108.921 62.5443 o
68.1924 62.5308 o
203.35 64.8202 o
123.251 42.0331 o
162.23 105.432 o
96.1303 132.494 o
164.478 95.164 o
159.188 137.847 o
149.519 123.921 o
124.499 43.0424 o
142.03 45.9812 o
129.288 87.3062 o
111.203 121.533 o
117.005 141.817 o
158.123 124.426 o
186.076 52.6766 o
125.097 48.8294 o
123.337 129.323 o
165.377 62.9936 o
167.534 68.7701 o
106.356 92.818 o
130.589 110.014 o
136.907 123.355 o
104.77 104.582 o
109.204 52.1803 o
128.333 71.8773 o
129.49 76.7919 o
118.004 121.426 o
158.089 45.9393 o
169.249 108.32 o
92.9273 81.287 o
137.023 113.091 o
84.3505 119.064 o
148.582 111.727 o
132.909 130.12 o
150.46 123.599 o
69.8688 62.193 o
229.373 51.6803 o
149.267 94.4257 o
126.809 135.543 o
114.736 55.2 o
229.308 40.7205 o
122.992 122.77 o
175.792 111.494 o
161.511 83.7764 o
140.914 145.454 o
117.927 97.3101 o
149.383 93.0839 o
124.354 92.5044 o
142.033 81.1292 o
148.095 74.5787 o
158.643 50.7711 o
84.3029 76.8698 o
167.798 103.49 o
123.213 125.942 o
223.505 37.7503 o
152.785 99.4121 o
120.724 45.1388 o
168.954 73.9078 o
195.965 103.35 o
159.294 82.5865 o
69.7206 75.0487 o
98.4697 88.0096 o
171.03 86.5951 o
154.102 59.7411 o
160.597 116.334 o
165.138 139.724 o
144.495 135.37 o
131.401 75.7612 o
164.238 98.3209 o
134.495 138.337 o
163.836 101.884 o
212.02 79.3 o
178.485 85.1653 o
140.028 85.2415 o
156.627 68.9301 o
145.715 63.9782 o
147.825 84.1764 o
163.499 81.3356 o
150.586 80.9186 o
84.982 137.675 o
83.1551 86.2001 o
230.585 151.8 o
139.862 133.775 o
113.919 70.9332 o
174.122 97.9893 o
178.139 145.502 o
157.946 123.544 o
121.927 93.3167 o
168.162 52.0668 o
150.78 76.6127 o
159.596 58.6862 o
136.128 102.894 o
129.829 67.0361 o
125.052 85.678 o
173.332 111.437 o
70.1166 115.517 o
147.484 113.039 o
62.178 47.5681 o
163.429 76.25 o
157.809 61.3949 o
154.361 82.5469 o
169.228 78.8334 o
52.4018 54.1295 o
163.409 141.515 o
168.777 58.7582 o
153.084 112.407 o
114.692 44.8574 o
105.839 72.4255 o
165.549 66.8035 o
92.7775 73.6848 o
158.311 85.7076 o
134.694 127.709 o
183.359 109.305 o
143.031 126.12 o
143.657 124.973 o
176.677 94.2697 o
168.709 124.065 o
158.325 92.7921 o
76.0906 106.808 o
130.737 69.508 o
111.844 108.234 o
123.599 87.8265 o
135.768 130.848 o
151.211 125.717 o
146.499 148.124 o
81.8928 131.38 o
138.823 76.7262 o
166.348 118.72 o
166.987 87.1756 o
117.1 58.8555 o
93.827 62.3763 o
158.686 98.3393 o
130.229 88.3148 o
163.662 39.3912 o
211.382 38.6019 o
152.031 124.926 o
218.228 156.541 o
155.548 78.4766 o
191.215 111.435 o
70.8743 45.1703 o
161.912 144.227 o
112.411 130.22 o
114.204 148.369 o
87.4292 139.669 o
137.868 105.633 o
159.389 58.9518 o
67.6546 44.7495 o
138.693 93.0079 o
102.37 127.984 o
119.346 126.579 o
162.845 89.0922 o
158.318 91.1445 o
94.6448 151.27 o
162.069 99.3899 o
218.617 108.871 o
108.778 84.5109 o
153.091 134.75 o
112.155 58.8495 o
147.158 114.1 o
149.231 107.412 o
169.139 83.8747 o
195.736 74.4362 o
132.076 79.4281 o
163.213 69.8054 o
95.83 121.795 o
156.834 110.918 o
141.888 89.1078 o
89.7965 39.2818 o
154.312 75.3953 o
141.322 53.3271 o
160.888 120.752 o
106.059 100.858 o
129.401 121.296 o
124.672 130.666 o
168.941 69.224 o
141.694 122.679 o
134.107 146.124 o
181.803 113.187 o
180.23 99.8666 o
113.668 133.951 o
177.053 74.8833 o
198.171 44.8995 o
125.219 65.0778 o
161.535 85.1224 o
136.151 86.3376 o
192.327 57.0494 o
154.769 108.586 o
198.861 72.7006 o
151.789 123.682 o
186.758 104.215 o
75.9437 98.6963 o
160.281 131.593 o
118.272 93.9021 o
74.4929 64.5327 o
150.12 124.731 o
141.014 93.3516 o
71.0098 113.548 o
190.349 44.7265 o
152.793 78.1276 o
148.973 55.3414 o
185.547 129.782 o
49.7144 49.7347 o
149.467 94.734 o
211.109 151.611 o
240.532 107.62 o
226.736 41.3227 o
108.991 67.858 o
108.237 151.97 o
149.477 87.7807 o
144.531 72.0101 o
142.655 138.329 o
171.952 61.6912 o
150.34 49.7613 o
88.5638 38.9337 o
148.215 124.589 o
134.052 39.2246 o
148.703 128.521 o
121.334 49.0873 o
126.984 132.74 o
128.528 69.0517 o
168.381 71.3223 o
150.106 130.884 o
108.098 113.277 o
148.41 125.678 o
70.7967 48.6652 o
94.9443 138.239 o
105.349 85.0142 o
163.794 70.3883 o
86.6223 105.239 o
125.128 120.697 o
151.348 115.526 o
139.459 139.702 o
62.2535 157.043 o
152.151 147.593 o
103.996 81.6058 o
108.251 84.8027 o
119.146 103.53 o
138.133 81.6548 o
160.436 78.8498 o
155.951 63.5902 o
204.767 94.13 o
159.394 45.5828 o
114.016 151.082 o
138.989 83.9904 o
161.473 74.0515 o
126.482 137.201 o
152.715 84.0184 o
155.707 93.0356 o
172.768 99.8006 o
198.434 159.751 o
132.435 82.2421 o
152.037 108.113 o
119.157 125.573 o
71.5921 56.2866 o
164.897 54.9204 o
183.135 145.691 o
192.119 89.2875 o
162.804 115.677 o
106.125 72.2555 o
135.448 110.33 o
150.328 97.8661 o
128.907 119.611 o
150.474 141.772 o
119.274 78.2327 o
155.221 103.874 o
121.797 65.4025 o
87.946 122.608 o
152.662 126.947 o
168.126 140.256 o
143.585 101.877 o
93.9535 82.4531 o
131.738 109.763 o
139.591 119.515 o
106.98 52.5323 o
136.304 59.838 o
162.135 62.8468 o
134.493 123.64 o
175.462 132.75 o
166.915 111.992 o
111.168 80.0878 o
165.696 42.4535 o
106.676 88.8001 o
70.1545 134.887 o
138.661 116.999 o
158.216 118.138 o
229.451 49.3076 o
166.246 74.1141 o
106.615 122.219 o
143.755 119.855 o
152.617 86.2274 o
158.904 75.9468 o
150.646 81.3285 o
148.41 113.671 o
128.353 125.61 o
80.8994 62.35 o
103.03 130.515 o
156.621 121.892 o
159.672 95.4576 o
85.6905 52.6045 o
148.802 80.3334 o
122.246 125.01 o
163.625 117.605 o
160.342 158.869 o
184.085 47.2341 o
154.885 143.935 o
181.534 86.9421 o
147.499 110.782 o
136.541 80.7525 o
136.694 72.8964 o
153.407 84.9713 o
183.976 138.179 o
153.863 114.718 o
56.1585 125.638 o
101.561 93.8224 o
150.573 81.311 o
108.64 131.733 o
160.415 95.9933 o
133.283 75.1012 o
114.815 137.161 o
93.3501 48.9585 o
153.676 112.944 o
97.2334 118.511 o
121.097 109.869 o
157.639 115.699 o
108.076 134.7 o
162.141 83.5445 o
157.667 118.271 o
167.042 118.148 o
176.603 141.294 o
233.132 38.3423 o
80.2197 53.9252 o
184.558 125.516 o
54.3309 40.2139 o
73.002 137.073 o
104.21 129.893 o
148.171 127.906 o
148.42 82.3409 o
57.1049 142.596 o
95.7971 65.8176 o
164.942 103.428 o
153.641 134.549 o
171.081 98.6153 o
152.583 105.104 o
171.485 81.3916 o
109.627 79.4803 o
80.3962 58.6852 o
169.854 116.419 o
143.033 107.473 o
218.411 62.8752 o
154.353 127.019 o
157.039 122.943 o
153.86 121.623 o
145.567 126.718 o
111.973 79.1352 o
132.043 152.766 o
146.066 140.817 o
151.667 74.8243 o
101.835 109.835 o
156.284 97.0993 o
153.214 113.139 o
166.876 105.618 o
158.136 119.478 o
155.538 150.422 o
154.012 135.11 o
138.068 129.304 o
194.529 43.6812 o
140.026 131.656 o
149.19 130.225 o
153.552 97.956 o
100.934 70.4421 o
154.725 81.1232 o
164.143 73.3712 o
160.937 104.488 o
156.23 128.795 o
161.986 154.846 o
156.1 44.2658 o
169.258 71.3798 o
167.592 106.117 o
215.494 44.5751 o
166.972 74.646 o
153.614 122.146 o
219.202 146.819 o
151.272 57.9962 o
161.594 77.1808 o
95.5949 130.908 o
147.446 43.4253 o
94.6991 77.1801 o
169.466 109.212 o
174.293 141.197 o
151.218 107.563 o
117.742 138.215 o
163.616 92.6228 o
156.982 90.8752 o
76.4953 100.473 o
133.676 145.813 o
177.074 47.0729 o
145.447 69.9448 o
187.73 52.6591 o
128.998 138.098 o
130.49 139.257 o
155.627 72.3818 o
126.233 151.275 o
97.1747 83.4134 o
165.408 109.86 o
160.303 118.98 o
80.0411 105.935 o
173.671 146.36 o
142.933 135.538 o
139.712 80.5132 o
151.323 114.974 o
131.57 129.722 o
153.41 137.19 o
110.187 113.809 o
163.803 71.8139 o
207.653 124.327 o
156.52 126.337 o
132.887 93.4365 o
151.89 86.0447 o
137.359 73.6625 o
165.675 106.354 o
147.448 129.177 o
131.762 141.312 o
126.926 79.4104 o
152.636 129.722 o
165.195 122.523 o
165.43 80.771 o
235.956 75.1251 o
132.99 75.8708 o
143.47 97.6277 o
158.69 86.0182 o
160.01 125.757 o
153.592 115.439 o
157.116 102.648 o
147.739 71.4179 o
137.442 137.352 o
160.631 121.861 o
140.704 113.083 o
146.144 46.442 o
183.939 90.8752 o
132.451 145.719 o
142.898 143.373 o
113.589 95.8676 o
206.261 100.591 o
160.855 112.511 o
137.305 73.051 o
78.5219 104.982 o
168.491 90.187 o
114.5 115.173 o
121.247 120.766 o
161.44 43.9983 o
123.765 148.875 o
163.656 51.7793 o
129.668 79.2088 o
173.761 111.584 o
158.087 100.241 o
160.037 115.342 o
152.066 78.1424 o
149.982 118.327 o
160.178 63.0551 o
166.323 88.5434 o
138.286 121.394 o
171.223 47.5905 o
141.622 120.085 o
128.107 77.2454 o
131.107 127.564 o
166.88 147.101 o
175.54 98.3609 o
172.74 73.7118 o
163.71 88.5509 o
235.235 105.857 o
86.6381 81.8394 o
136.06 69.3637 o
154.085 91.9439 o
123.094 44.0511 o
127.443 140.77 o
193.956 99.8671 o
153.209 84.5871 o
166.148 117.634 o
149.553 143.148 o
161.019 113.725 o
150.186 137.651 o
78.1948 47.0075 o
134.989 104.826 o
152.829 131.757 o
223.837 58.219 o
165.239 97.2023 o
146.919 43.6545 o
165.133 41.4728 o
158.035 73.7658 o
157.316 82.4335 o
181.046 117.439 o
72.8721 122.892 o
139.64 46.323 o
123.612 112.336 o
134.048 67.3636 o
162.077 127.067 o
78.2896 128.145 o
101.558 54.0843 o
174.96 117.62 o
75.5148 67.353 o
145.155 136.644 o
132.358 62.146 o
168.11 113.331 o
133.061 90.9614 o
138.287 43.0468 o
159.421 139.402 o
165.884 74.2075 o
134.975 71.025 o
157.739 96.134 o
147.404 60.5232 o
203.14 63.4441 o
145.025 77.0742 o
112.844 107.622 o
137.68 96.1164 o
165.778 53.3757 o
227.052 152.007 o
132.886 51.0126 o
173.667 148.129 o
145.954 109.096 o
145.158 121.552 o
135.942 143.319 o
150.75 113.906 o
151.085 152.221 o
224.667 45.6703 o
152.608 129.524 o
141.393 130.321 o
161.087 64.8305 o
155.643 94.8576 o
127.857 54.1379 o
115.074 135.184 o
156.155 74.8511 o
138.776 122.532 o
91.5935 130.17 o
148.102 77.7317 o
145.952 61.3619 o
162.325 69.5165 o
159.058 87.8833 o
90.949 68.104 o
81.2277 47.8021 o
164.659 73.3776 o
118.681 78.3038 o
143.225 110.38 o
91.651 52.5512 o
150.501 120.515 o
132.788 71.5293 o
50.4959 87.3967 o
97.3539 46.9904 o
154.455 129.865 o
95.9494 60.1818 o
80.8009 71.5734 o
126.451 129.862 o
150.208 133.672 o
grestore
0.502 setgray
gsave
196.6 126 47.88 36 clipbox
/o {
gsave
newpath
translate
0.5 setlinewidth
1 setlinejoin
0 setlinecap
0 -0.25 m
0.0663008 -0.25 0.129895 -0.223658 0.176777 -0.176777 c
0.223658 -0.129895 0.25 -0.0663008 0.25 0 c
0.25 0.0663008 0.223658 0.129895 0.176777 0.176777 c
0.129895 0.223658 0.0663008 0.25 0 0.25 c
-0.0663008 0.25 -0.129895 0.223658 -0.176777 0.176777 c
-0.223658 0.129895 -0.25 0.0663008 -0.25 0 c
-0.25 -0.0663008 -0.223658 -0.129895 -0.176777 -0.176777 c
-0.129895 -0.223658 -0.0663008 -0.25 0 -0.25 c
cl
gsave
0.502 setgray
fill
grestore
stroke
grestore
} bind def
178.75 79.3015 o
170.988 81.773 o
177.907 65.6561 o
170.05 69.8453 o
169.014 80.5781 o
168.885 66.4147 o
171.074 69.3114 o
165.065 81.8071 o
162.917 64.0296 o
163.384 64.0439 o
171.792 80.2013 o
166.539 74.7949 o
164.606 81.0098 o
166.936 80.4215 o
165.995 84.4496 o
163.378 80.1023 o
162.146 64.0424 o
165.558 68.4656 o
175.397 79.7288 o
169.271 84.2686 o
168.481 82.8042 o
169.804 74.8593 o
167.843 70.7277 o
166.216 75.6812 o
163.403 75.8408 o
173.695 82.0715 o
175.353 65.5862 o
175.516 82.757 o
171.417 80.6443 o
161.511 83.7764 o
169.228 78.8334 o
165.549 66.8035 o
169.139 83.8747 o
168.381 71.3223 o
161.473 74.0515 o
161.594 77.1808 o
172.74 73.7118 o
grestore
0.000 1.000 1.000 setrgbcolor
gsave
196.6 126 47.88 36 clipbox
/o {
gsave
newpath
translate
0.5 setlinewidth
1 setlinejoin
0 setlinecap
0 -1 m
0.265203 -1 0.51958 -0.894634 0.707107 -0.707107 c
0.894634 -0.51958 1 -0.265203 1 0 c
1 0.265203 0.894634 0.51958 0.707107 0.707107 c
0.51958 0.894634 0.265203 1 0 1 c
-0.265203 1 -0.51958 0.894634 -0.707107 0.707107 c
-0.894634 0.51958 -1 0.265203 -1 0 c
-1 -0.265203 -0.894634 -0.51958 -0.707107 -0.707107 c
-0.51958 -0.894634 -0.265203 -1 0 -1 c
cl
gsave
0.000 1.000 1.000 setrgbcolor
fill
grestore
stroke
grestore
} bind def
168.815 77.1884 o
174.455 69.3244 o
165.823 77.5326 o
176.102 75.5223 o
168.078 80.1133 o
162.719 76.8656 o
171.852 69.4511 o
165.744 74.3932 o
166.273 78.7075 o
174.208 76.4502 o
165.485 80.351 o
174.901 72.7658 o
167.77 81.793 o
170.512 67.5226 o
173.083 77.9281 o
171.093 76.2275 o
165.78 73.5086 o
170.241 72.4631 o
175.466 82.6705 o
173.238 81.6271 o
171.677 79.9003 o
169.921 79.6303 o
169.81 71.3602 o
172.992 77.8986 o
174.275 70.0319 o
175.252 70.1823 o
167.971 80.0584 o
166.785 78.0445 o
168.302 70.2093 o
165.367 69.5935 o
164.541 71.8031 o
173.051 76.2637 o
174.607 73.3402 o
171.714 81.2607 o
175.847 83.1852 o
175.822 78.606 o
169.874 78.5329 o
172.013 72.5567 o
169.021 74.4727 o
171.186 78.4385 o
167.514 77.8917 o
171.426 74.9117 o
174.607 73.3402 o
174.535 80.2517 o
174.884 75.432 o
172.347 69.8667 o
grestore
1.000 0.000 0.000 setrgbcolor
gsave
196.6 126 47.88 36 clipbox
/o {
gsave
newpath
translate
0.5 setlinewidth
1 setlinejoin
0 setlinecap
0 -1 m
0.265203 -1 0.51958 -0.894634 0.707107 -0.707107 c
0.894634 -0.51958 1 -0.265203 1 0 c
1 0.265203 0.894634 0.51958 0.707107 0.707107 c
0.51958 0.894634 0.265203 1 0 1 c
-0.265203 1 -0.51958 0.894634 -0.707107 0.707107 c
-0.894634 0.51958 -1 0.265203 -1 0 c
-1 -0.265203 -0.894634 -0.51958 -0.707107 -0.707107 c
-0.51958 -0.894634 -0.265203 -1 0 -1 c
cl
gsave
1.000 0.000 0.000 setrgbcolor
fill
grestore
stroke
grestore
} bind def
99.6532 140.432 o
102.274 138.929 o
101.862 141.227 o
104.932 139.837 o
103.686 144.657 o
107.457 141.224 o
107.085 142.315 o
108.154 140.869 o
108.212 141.933 o
108.238 141.926 o
109.395 140.639 o
110.07 140.739 o
109.203 144.153 o
111.575 137.044 o
110.328 147.153 o
111.613 142.866 o
114.452 143.74 o
116.359 142.822 o
grestore
1.000 setlinewidth
0 setlinejoin
2 setlinecap
0.000 setgray
gsave
47.88 162 m
244.44 162 l
stroke
grestore
gsave
244.44 36 m
244.44 162 l
stroke
grestore
gsave
47.88 36 m
244.44 36 l
stroke
grestore
gsave
47.88 36 m
47.88 162 l
stroke
grestore
0.500 setlinewidth
1 setlinejoin
0 setlinecap
gsave
/o {
gsave
newpath
translate
0.5 setlinewidth
1 setlinejoin
0 setlinecap
0 0 m
0 4 l
gsave
0.000 setgray
fill
grestore
stroke
grestore
} bind def
64.26 36 o
grestore
gsave
/o {
gsave
newpath
translate
0.5 setlinewidth
1 setlinejoin
0 setlinecap
0 0 m
0 -4 l
gsave
0.000 setgray
fill
grestore
stroke
grestore
} bind def
64.26 162 o
grestore
/BitstreamVeraSans-Roman findfont
6.000 scalefont
setfont
gsave
56.541250 27.437500 translate
0.000000 rotate
0.000000 0.000000 m /minus glyphshow
5.027344 0.000000 m /one glyphshow
8.844727 0.000000 m /five glyphshow
12.662109 0.000000 m /zero glyphshow
grestore
gsave
/o {
gsave
newpath
translate
0.5 setlinewidth
1 setlinejoin
0 setlinecap
0 0 m
0 4 l
gsave
0.000 setgray
fill
grestore
stroke
grestore
} bind def
91.56 36 o
grestore
gsave
/o {
gsave
newpath
translate
0.5 setlinewidth
1 setlinejoin
0 setlinecap
0 0 m
0 -4 l
gsave
0.000 setgray
fill
grestore
stroke
grestore
} bind def
91.56 162 o
grestore
gsave
83.841250 27.437500 translate
0.000000 rotate
0.000000 0.000000 m /minus glyphshow
5.027344 0.000000 m /one glyphshow
8.844727 0.000000 m /zero glyphshow
12.662109 0.000000 m /zero glyphshow
grestore
gsave
/o {
gsave
newpath
translate
0.5 setlinewidth
1 setlinejoin
0 setlinecap
0 0 m
0 4 l
gsave
0.000 setgray
fill
grestore
stroke
grestore
} bind def
118.86 36 o
grestore
gsave
/o {
gsave
newpath
translate
0.5 setlinewidth
1 setlinejoin
0 setlinecap
0 0 m
0 -4 l
gsave
0.000 setgray
fill
grestore
stroke
grestore
} bind def
118.86 162 o
grestore
gsave
113.047500 27.437500 translate
0.000000 rotate
0.000000 0.000000 m /minus glyphshow
5.027344 0.000000 m /five glyphshow
8.844727 0.000000 m /zero glyphshow
grestore
gsave
/o {
gsave
newpath
translate
0.5 setlinewidth
1 setlinejoin
0 setlinecap
0 0 m
0 4 l
gsave
0.000 setgray
fill
grestore
stroke
grestore
} bind def
146.16 36 o
grestore
gsave
/o {
gsave
newpath
translate
0.5 setlinewidth
1 setlinejoin
0 setlinecap
0 0 m
0 -4 l
gsave
0.000 setgray
fill
grestore
stroke
grestore
} bind def
146.16 162 o
grestore
gsave
144.644375 27.437500 translate
0.000000 rotate
0.000000 0.000000 m /zero glyphshow
grestore
gsave
/o {
gsave
newpath
translate
0.5 setlinewidth
1 setlinejoin
0 setlinecap
0 0 m
0 4 l
gsave
0.000 setgray
fill
grestore
stroke
grestore
} bind def
173.46 36 o
grestore
gsave
/o {
gsave
newpath
translate
0.5 setlinewidth
1 setlinejoin
0 setlinecap
0 0 m
0 -4 l
gsave
0.000 setgray
fill
grestore
stroke
grestore
} bind def
173.46 162 o
grestore
gsave
170.077188 27.437500 translate
0.000000 rotate
0.000000 0.000000 m /five glyphshow
3.817383 0.000000 m /zero glyphshow
grestore
gsave
/o {
gsave
newpath
translate
0.5 setlinewidth
1 setlinejoin
0 setlinecap
0 0 m
0 4 l
gsave
0.000 setgray
fill
grestore
stroke
grestore
} bind def
200.76 36 o
grestore
gsave
/o {
gsave
newpath
translate
0.5 setlinewidth
1 setlinejoin
0 setlinecap
0 0 m
0 -4 l
gsave
0.000 setgray
fill
grestore
stroke
grestore
} bind def
200.76 162 o
grestore
gsave
195.564687 27.437500 translate
0.000000 rotate
0.000000 0.000000 m /one glyphshow
3.817383 0.000000 m /zero glyphshow
7.634766 0.000000 m /zero glyphshow
grestore
gsave
/o {
gsave
newpath
translate
0.5 setlinewidth
1 setlinejoin
0 setlinecap
0 0 m
0 4 l
gsave
0.000 setgray
fill
grestore
stroke
grestore
} bind def
228.06 36 o
grestore
gsave
/o {
gsave
newpath
translate
0.5 setlinewidth
1 setlinejoin
0 setlinecap
0 0 m
0 -4 l
gsave
0.000 setgray
fill
grestore
stroke
grestore
} bind def
228.06 162 o
grestore
gsave
222.864688 27.437500 translate
0.000000 rotate
0.000000 0.000000 m /one glyphshow
3.817383 0.000000 m /five glyphshow
7.634766 0.000000 m /zero glyphshow
grestore
gsave
136.160000 14.187500 translate
0.000000 rotate
/Cmr10 findfont
8.0 scalefont
setfont
0.000000 0.557937 moveto
/l glyphshow

/BitstreamVeraSans-Roman findfont
8.0 scalefont
setfont
2.214844 0.557937 moveto
/space glyphshow

4.757812 0.557937 moveto
/space glyphshow

/Cmr10 findfont
8.0 scalefont
setfont
7.300781 0.557937 moveto
/parenleft glyphshow

/Cmsy10 findfont
5.6 scalefont
setfont
11.389531 4.517188 moveto
/openbullet glyphshow

/Cmr10 findfont
8.0 scalefont
setfont
15.898937 0.557937 moveto
/parenright glyphshow


grestore
gsave
/o {
gsave
newpath
translate
0.5 setlinewidth
1 setlinejoin
0 setlinecap
0 0 m
4 0 l
gsave
0.000 setgray
fill
grestore
stroke
grestore
} bind def
47.88 64 o
grestore
gsave
/o {
gsave
newpath
translate
0.5 setlinewidth
1 setlinejoin
0 setlinecap
0 0 m
-4 0 l
gsave
0.000 setgray
fill
grestore
stroke
grestore
} bind def
244.44 64 o
grestore
gsave
32.255000 62.343750 translate
0.000000 rotate
0.000000 0.000000 m /minus glyphshow
5.027344 0.000000 m /five glyphshow
8.844727 0.000000 m /zero glyphshow
grestore
gsave
/o {
gsave
newpath
translate
0.5 setlinewidth
1 setlinejoin
0 setlinecap
0 0 m
4 0 l
gsave
0.000 setgray
fill
grestore
stroke
grestore
} bind def
47.88 99 o
grestore
gsave
/o {
gsave
newpath
translate
0.5 setlinewidth
1 setlinejoin
0 setlinecap
0 0 m
-4 0 l
gsave
0.000 setgray
fill
grestore
stroke
grestore
} bind def
244.44 99 o
grestore
gsave
40.848750 97.343750 translate
0.000000 rotate
0.000000 0.000000 m /zero glyphshow
grestore
gsave
/o {
gsave
newpath
translate
0.5 setlinewidth
1 setlinejoin
0 setlinecap
0 0 m
4 0 l
gsave
0.000 setgray
fill
grestore
stroke
grestore
} bind def
47.88 134 o
grestore
gsave
/o {
gsave
newpath
translate
0.5 setlinewidth
1 setlinejoin
0 setlinecap
0 0 m
-4 0 l
gsave
0.000 setgray
fill
grestore
stroke
grestore
} bind def
244.44 134 o
grestore
gsave
37.114375 132.343750 translate
0.000000 rotate
0.000000 0.000000 m /five glyphshow
3.817383 0.000000 m /zero glyphshow
grestore
gsave
25.255000 88.000000 translate
90.000000 rotate
/Cmr10 findfont
8.0 scalefont
setfont
0.000000 0.557937 moveto
/b glyphshow

/BitstreamVeraSans-Roman findfont
8.0 scalefont
setfont
4.441406 0.557937 moveto
/space glyphshow

6.984375 0.557937 moveto
/space glyphshow

/Cmr10 findfont
8.0 scalefont
setfont
9.527344 0.557937 moveto
/parenleft glyphshow

/Cmsy10 findfont
5.6 scalefont
setfont
13.616094 4.517188 moveto
/openbullet glyphshow

/Cmr10 findfont
8.0 scalefont
setfont
18.125500 0.557937 moveto
/parenright glyphshow


grestore
/BitstreamVeraSans-Roman findfont
14.400 scalefont
setfont
gsave
112.472500 167.000000 translate
0.000000 rotate
0.000000 0.000000 m /N glyphshow
10.753174 0.000000 m /space glyphshow
15.322571 0.000000 m /equal glyphshow
27.367249 0.000000 m /space glyphshow
31.936646 0.000000 m /three glyphshow
41.082458 0.000000 m /zero glyphshow
50.228271 0.000000 m /two glyphshow
59.374084 0.000000 m /three glyphshow
grestore

end
showpage
