%!PS-Adobe-3.0 EPSF-3.0
%%Title: /Users/iuliasimion/bullock_johnston/denis_erkal/vasily/Figures/69684_1515571.0_xy.eps
%%Creator: matplotlib version 1.4.3, http://matplotlib.org/
%%CreationDate: Sat Aug 19 14:41:42 2017
%%Orientation: portrait
%%BoundingBox: 216 306 396 486
%%EndComments
%%BeginProlog
/mpldict 9 dict def
mpldict begin
/m { moveto } bind def
/l { lineto } bind def
/r { rlineto } bind def
/c { curveto } bind def
/cl { closepath } bind def
/box {
m
1 index 0 r
0 exch r
neg 0 r
cl
} bind def
/clipbox {
box
clip
newpath
} bind def
%!PS-Adobe-3.0 Resource-Font
%%Title: Bitstream Vera Sans
%%Copyright: Copyright (c) 2003 by Bitstream, Inc. All Rights Reserved.
%%Creator: Converted from TrueType to type 3 by PPR
25 dict begin
/_d{bind def}bind def
/_m{moveto}_d
/_l{lineto}_d
/_cl{closepath eofill}_d
/_c{curveto}_d
/_sc{7 -1 roll{setcachedevice}{pop pop pop pop pop pop}ifelse}_d
/_e{exec}_d
/FontName /BitstreamVeraSans-Roman def
/PaintType 0 def
/FontMatrix[.001 0 0 .001 0 0]def
/FontBBox[-183 -236 1287 928]def
/FontType 3 def
/Encoding [ /space /zero /two /four /six /eight /minus ] def
/FontInfo 10 dict dup begin
/FamilyName (Bitstream Vera Sans) def
/FullName (Bitstream Vera Sans) def
/Notice (Copyright (c) 2003 by Bitstream, Inc. All Rights Reserved. Bitstream Vera is a trademark of Bitstream, Inc.) def
/Weight (Roman) def
/Version (Release 1.10) def
/ItalicAngle 0.0 def
/isFixedPitch false def
/UnderlinePosition -213 def
/UnderlineThickness 143 def
end readonly def
/CharStrings 7 dict dup begin
/space{318 0 0 0 0 0 _sc
}_d
/zero{636 0 66 -13 570 742 _sc
318 664 _m
267 664 229 639 203 589 _c
177 539 165 464 165 364 _c
165 264 177 189 203 139 _c
229 89 267 64 318 64 _c
369 64 407 89 433 139 _c
458 189 471 264 471 364 _c
471 464 458 539 433 589 _c
407 639 369 664 318 664 _c
318 742 _m
399 742 461 709 505 645 _c
548 580 570 486 570 364 _c
570 241 548 147 505 83 _c
461 19 399 -13 318 -13 _c
236 -13 173 19 130 83 _c
87 147 66 241 66 364 _c
66 486 87 580 130 645 _c
173 709 236 742 318 742 _c
_cl}_d
/two{{636 0 73 0 536 742 _sc
192 83 _m
536 83 _l
536 0 _l
73 0 _l
73 83 _l
110 121 161 173 226 239 _c
290 304 331 346 348 365 _c
380 400 402 430 414 455 _c
426 479 433 504 433 528 _c
433 566 419 598 392 622 _c
365 646 330 659 286 659 _c
255 659 222 653 188 643 _c
154 632 117 616 78 594 _c
78 694 _l
118 710 155 722 189 730 _c
223 738 255 742 284 742 _c
}_e{359 742 419 723 464 685 _c
509 647 532 597 532 534 _c
532 504 526 475 515 449 _c
504 422 484 390 454 354 _c
446 344 420 317 376 272 _c
332 227 271 164 192 83 _c
_cl}_e}_d
/four{636 0 49 0 580 729 _sc
378 643 _m
129 254 _l
378 254 _l
378 643 _l
352 729 _m
476 729 _l
476 254 _l
580 254 _l
580 172 _l
476 172 _l
476 0 _l
378 0 _l
378 172 _l
49 172 _l
49 267 _l
352 729 _l
_cl}_d
/six{{636 0 70 -13 573 742 _sc
330 404 _m
286 404 251 388 225 358 _c
199 328 186 286 186 234 _c
186 181 199 139 225 109 _c
251 79 286 64 330 64 _c
374 64 409 79 435 109 _c
461 139 474 181 474 234 _c
474 286 461 328 435 358 _c
409 388 374 404 330 404 _c
526 713 _m
526 623 _l
501 635 476 644 451 650 _c
425 656 400 659 376 659 _c
310 659 260 637 226 593 _c
}_e{192 549 172 482 168 394 _c
187 422 211 444 240 459 _c
269 474 301 482 336 482 _c
409 482 467 459 509 415 _c
551 371 573 310 573 234 _c
573 159 550 99 506 54 _c
462 9 403 -13 330 -13 _c
246 -13 181 19 137 83 _c
92 147 70 241 70 364 _c
70 479 97 571 152 639 _c
206 707 280 742 372 742 _c
396 742 421 739 447 735 _c
472 730 498 723 526 713 _c
_cl}_e}_d
/eight{{636 0 68 -13 568 742 _sc
318 346 _m
271 346 234 333 207 308 _c
180 283 167 249 167 205 _c
167 161 180 126 207 101 _c
234 76 271 64 318 64 _c
364 64 401 76 428 102 _c
455 127 469 161 469 205 _c
469 249 455 283 429 308 _c
402 333 365 346 318 346 _c
219 388 _m
177 398 144 418 120 447 _c
96 476 85 511 85 553 _c
85 611 105 657 147 691 _c
188 725 245 742 318 742 _c
}_e{390 742 447 725 489 691 _c
530 657 551 611 551 553 _c
551 511 539 476 515 447 _c
491 418 459 398 417 388 _c
464 377 501 355 528 323 _c
554 291 568 251 568 205 _c
568 134 546 80 503 43 _c
459 5 398 -13 318 -13 _c
237 -13 175 5 132 43 _c
89 80 68 134 68 205 _c
68 251 81 291 108 323 _c
134 355 171 377 219 388 _c
183 544 _m
183 506 194 476 218 455 _c
}_e{242 434 275 424 318 424 _c
360 424 393 434 417 455 _c
441 476 453 506 453 544 _c
453 582 441 611 417 632 _c
393 653 360 664 318 664 _c
275 664 242 653 218 632 _c
194 611 183 582 183 544 _c
_cl}_e}_d
/minus{838 0 106 272 732 355 _sc
106 355 _m
732 355 _l
732 272 _l
106 272 _l
106 355 _l
_cl}_d
end readonly def

/BuildGlyph
 {exch begin
 CharStrings exch
 2 copy known not{pop /.notdef}if
 true 3 1 roll get exec
 end}_d

/BuildChar {
 1 index /Encoding get exch get
 1 index /BuildGlyph get exec
}_d

FontName currentdict end definefont pop
%!PS-Adobe-3.0 Resource-Font
%%Title: cmr10
%%Copyright: Copyright (C) 1994, Basil K. Malyshev. All Rights Reserved.012BaKoMa Fonts Collection, Level-B.
%%Creator: Converted from TrueType to type 3 by PPR
25 dict begin
/_d{bind def}bind def
/_m{moveto}_d
/_l{lineto}_d
/_cl{closepath eofill}_d
/_c{curveto}_d
/_sc{7 -1 roll{setcachedevice}{pop pop pop pop pop pop}ifelse}_d
/_e{exec}_d
/FontName /Cmr10 def
/PaintType 0 def
/FontMatrix[.001 0 0 .001 0 0]def
/FontBBox[-44 -250 1009 750]def
/FontType 3 def
/Encoding [ /k /parenright /Y /parenleft /c /p /X ] def
/FontInfo 10 dict dup begin
/FamilyName (cmr10) def
/FullName (cmr10) def
/Notice (Copyright (C) 1994, Basil K. Malyshev. All Rights Reserved.012BaKoMa Fonts Collection, Level-B. ) def
/Weight (Regular) def
/Version (1.1/12-Nov-94) def
/ItalicAngle 0.0 def
/isFixedPitch false def
/UnderlinePosition -133 def
/UnderlineThickness 20 def
end readonly def
/CharStrings 7 dict dup begin
/k{{527 0 26 0 511 694 _sc
26 0 _m
26 35 _l
48 35 67 36 82 40 _c
96 44 104 53 104 67 _c
104 592 _l
104 610 101 623 96 631 _c
90 639 83 643 73 645 _c
63 647 47 648 26 648 _c
26 683 _l
174 694 _l
174 219 _l
308 337 _l
321 349 328 361 328 372 _c
328 380 325 386 320 390 _c
314 394 308 396 300 396 _c
300 431 _l
488 431 _l
488 396 _l
}_e{442 396 397 376 352 337 _c
281 275 _l
408 94 _l
426 69 440 53 452 46 _c
464 38 483 35 511 35 _c
511 0 _l
312 0 _l
312 35 _l
334 35 346 42 346 56 _c
346 66 340 78 328 94 _c
232 231 _l
171 178 _l
171 67 _l
171 53 178 44 193 40 _c
207 36 226 35 249 35 _c
249 0 _l
26 0 _l
_cl}_e}_d
/parenright{{388 0 56 -249 291 750 _sc
65 -249 _m
59 -249 56 -246 56 -240 _c
56 -237 56 -235 58 -234 _c
172 -122 229 38 229 250 _c
229 462 172 623 60 733 _c
57 734 56 737 56 741 _c
56 743 57 745 59 747 _c
61 749 63 750 65 750 _c
74 750 _l
76 750 77 749 79 748 _c
127 710 167 664 199 610 _c
231 556 254 498 269 437 _c
283 376 291 314 291 250 _c
291 202 287 156 279 110 _c
}_e{271 64 258 20 241 -24 _c
223 -68 201 -108 175 -146 _c
148 -184 116 -217 79 -247 _c
77 -248 76 -249 74 -249 _c
65 -249 _l
_cl}_e}_d
/Y{{750 0 11 0 738 683 _sc
226 0 _m
226 35 _l
294 35 329 45 329 67 _c
329 273 _l
119 618 _l
109 631 95 639 78 643 _c
60 646 38 648 11 648 _c
11 683 _l
293 683 _l
293 648 _l
246 648 223 640 223 625 _c
223 623 223 621 225 617 _c
406 319 _l
571 590 _l
575 596 577 602 577 610 _c
577 623 571 633 559 639 _c
547 645 535 648 521 648 _c
521 683 _l
738 683 _l
738 648 _l
}_e{712 648 687 643 665 634 _c
643 624 625 610 613 591 _c
419 273 _l
419 67 _l
419 45 453 35 522 35 _c
522 0 _l
226 0 _l
_cl}_e}_d
/parenleft{{388 0 97 -249 332 750 _sc
310 -247 _m
272 -217 240 -184 214 -146 _c
187 -108 165 -67 148 -25 _c
131 17 118 62 110 109 _c
101 155 97 202 97 250 _c
97 298 101 345 110 392 _c
118 438 131 483 149 527 _c
166 570 188 611 215 649 _c
242 687 274 720 310 748 _c
310 749 311 750 315 750 _c
324 750 _l
326 750 327 749 329 747 _c
331 745 332 743 332 741 _c
332 738 331 736 330 735 _c
}_e{297 703 270 668 248 632 _c
226 596 209 557 196 516 _c
183 474 174 432 168 388 _c
162 344 159 298 159 250 _c
159 38 215 -122 329 -232 _c
331 -234 332 -236 332 -240 _c
332 -242 331 -244 329 -246 _c
327 -248 326 -249 324 -249 _c
315 -249 _l
311 -249 310 -248 310 -247 _c
_cl}_e}_d
/c{{444 0 33 -10 415 448 _sc
249 -10 _m
208 -10 171 0 139 21 _c
106 41 80 69 61 104 _c
42 139 33 176 33 216 _c
33 255 42 293 61 329 _c
79 365 105 393 138 415 _c
171 437 208 448 249 448 _c
288 448 324 440 356 425 _c
388 409 404 384 404 350 _c
404 337 399 326 390 316 _c
380 306 369 302 356 302 _c
342 302 331 306 322 316 _c
312 326 308 337 308 350 _c
}_e{308 362 311 372 319 381 _c
327 389 336 395 347 397 _c
324 411 292 419 250 419 _c
218 419 192 408 173 387 _c
153 365 140 339 132 308 _c
124 277 120 246 120 216 _c
120 183 124 152 134 122 _c
144 92 159 67 181 47 _c
202 27 229 18 261 18 _c
293 18 320 27 342 47 _c
364 66 379 91 387 123 _c
387 127 389 129 395 129 _c
407 129 _l
409 129 410 128 412 126 _c
}_e{414 124 415 122 415 120 _c
415 117 _l
405 77 385 46 355 24 _c
325 1 289 -10 249 -10 _c
_cl}_e}_d
/p{{555 0 26 -193 522 442 _sc
26 -193 _m
26 -158 _l
48 -158 67 -156 82 -152 _c
96 -148 104 -139 104 -126 _c
104 355 _l
104 373 97 384 84 389 _c
71 393 52 396 26 396 _c
26 431 _l
174 442 _l
174 380 _l
192 400 213 415 237 426 _c
261 436 287 442 315 442 _c
354 442 389 431 421 410 _c
453 388 477 360 495 326 _c
513 291 522 254 522 216 _c
522 175 512 137 492 103 _c
}_e{472 68 446 40 412 20 _c
378 0 340 -10 300 -10 _c
251 -10 210 9 177 48 _c
177 -126 _l
177 -139 184 -148 199 -152 _c
213 -156 232 -158 255 -158 _c
255 -193 _l
26 -193 _l
177 97 _m
188 73 204 54 225 38 _c
246 22 269 15 294 15 _c
317 15 337 21 355 33 _c
373 45 388 62 400 83 _c
412 104 420 126 426 149 _c
432 172 435 194 435 216 _c
435 242 430 271 420 302 _c
}_e{410 333 396 359 376 381 _c
356 402 333 413 305 413 _c
278 413 253 406 231 392 _c
208 378 190 360 177 336 _c
177 97 _l
_cl}_e}_d
/X{{750 0 23 0 726 683 _sc
23 0 _m
23 35 _l
91 35 138 54 165 92 _c
331 339 _l
147 619 _l
136 631 122 639 104 643 _c
86 646 64 648 37 648 _c
37 683 _l
317 683 _l
317 648 _l
305 648 291 645 275 641 _c
259 636 252 629 252 621 _c
252 619 252 618 253 617 _c
384 418 _l
499 590 _l
501 596 503 600 503 604 _c
503 618 496 628 482 636 _c
468 644 454 648 440 648 _c
}_e{440 683 _l
684 683 _l
684 648 _l
616 648 569 629 542 591 _c
405 386 _l
616 64 _l
627 51 641 43 659 40 _c
677 36 699 35 726 35 _c
726 0 _l
446 0 _l
446 35 _l
456 35 470 37 486 42 _c
502 46 511 53 511 62 _c
511 64 510 65 510 66 _c
352 307 _l
208 93 _l
206 89 205 84 205 79 _c
205 65 211 55 225 47 _c
238 39 252 35 267 35 _c
267 0 _l
}_e{23 0 _l
_cl}_e}_d
end readonly def

/BuildGlyph
 {exch begin
 CharStrings exch
 2 copy known not{pop /.notdef}if
 true 3 1 roll get exec
 end}_d

/BuildChar {
 1 index /Encoding get exch get
 1 index /BuildGlyph get exec
}_d

FontName currentdict end definefont pop
end
%%EndProlog
mpldict begin
216 306 translate
180 180 0 0 clipbox
gsave
0 0 m
180 0 l
180 180 l
0 180 l
cl
1.000 setgray
fill
grestore
gsave
34.2 37.8 m
174.6 37.8 l
174.6 162 l
34.2 162 l
cl
1.000 setgray
fill
grestore
0.500 setlinewidth
1 setlinejoin
0 setlinecap
[] 0 setdash
0.000 setgray
gsave
140.4 124.2 34.2 37.8 clipbox
/o {
gsave
newpath
translate
0.5 setlinewidth
1 setlinejoin
0 setlinecap
0 -0.25 m
0.0663008 -0.25 0.129895 -0.223658 0.176777 -0.176777 c
0.223658 -0.129895 0.25 -0.0663008 0.25 0 c
0.25 0.0663008 0.223658 0.129895 0.176777 0.176777 c
0.129895 0.223658 0.0663008 0.25 0 0.25 c
-0.0663008 0.25 -0.129895 0.223658 -0.176777 0.176777 c
-0.223658 0.129895 -0.25 0.0663008 -0.25 0 c
-0.25 -0.0663008 -0.223658 -0.129895 -0.176777 -0.176777 c
-0.129895 -0.223658 -0.0663008 -0.25 0 -0.25 c
cl
gsave
0.000 setgray
fill
grestore
stroke
grestore
} bind def
104.449 99.3082 o
121.648 102.134 o
100.061 92.4059 o
96.8485 96.9815 o
115.498 93.1717 o
115.46 96.2445 o
106.654 103.628 o
110.521 98.7269 o
101.589 99.6893 o
99.6455 98.7972 o
101.979 96.116 o
131.877 94.2624 o
110.126 102.474 o
105.292 105.853 o
103.676 93.2836 o
114.536 91.2025 o
111.782 96.1531 o
99.0743 99.9909 o
119.994 93.8317 o
106.606 105.897 o
128.916 95.8795 o
93.8316 102.171 o
99.7508 102.115 o
94.9218 102.276 o
111.976 99.2778 o
100.209 93.5177 o
97.7994 100.539 o
98.9085 104.311 o
116.162 93.3416 o
98.2569 94.2435 o
101.708 103.116 o
108.918 95.5163 o
97.273 101.061 o
113.378 96.848 o
121.172 100.968 o
121.605 96.6393 o
102.737 104.112 o
134.911 111.542 o
108.463 100.361 o
109.645 103.773 o
121.412 97.099 o
93.3484 100.761 o
116.001 102.502 o
99.8842 99.3642 o
121.272 105.803 o
122.01 99.2111 o
99.6152 101.977 o
96.7885 98.0004 o
115.32 93.7992 o
118.173 94.1204 o
111.209 94.5589 o
94.1731 96.3991 o
128.389 102.472 o
102.423 96.4712 o
102.99 99.428 o
135.122 109.226 o
98.4766 92.9487 o
91.1058 92.0175 o
102.133 100.817 o
121.416 93.4399 o
105.293 103.24 o
111.976 109.734 o
116.263 99.0112 o
114.811 97.1618 o
115.625 102.07 o
121.037 101.469 o
104.617 100.693 o
117.735 91.4051 o
115.033 107.331 o
109.369 98.839 o
97.6368 103.587 o
120.567 95.872 o
122.002 101.62 o
111.321 91.1188 o
119.101 95.9185 o
110.524 86.0657 o
102.457 104.393 o
111.769 112.255 o
91.5992 91.9492 o
118.276 102.597 o
121.389 103.358 o
110.971 98.9182 o
105.319 99.5771 o
106.173 98.5497 o
117.384 80.8285 o
109.961 88.641 o
109.152 96.8852 o
110.238 99.7446 o
128.946 101.302 o
108.291 99.5589 o
126.501 98.5171 o
108.092 98.501 o
118.72 100.996 o
90.5412 97.7465 o
98.8309 89.4105 o
113.733 101.88 o
102.262 98.7834 o
104.915 93.2468 o
109.437 104.187 o
110.743 99.645 o
102.954 104.001 o
136.234 90.9385 o
110.474 99.1521 o
101.753 94.2515 o
109.039 103.331 o
122.411 102.066 o
122.138 102.672 o
112.45 98.444 o
121.845 103.463 o
104.292 95.6512 o
113.498 98.1026 o
112.526 97.1424 o
105.205 95.9056 o
115.826 94.1568 o
100.601 91.8241 o
112.658 95.9801 o
104.162 106.412 o
94.8816 93.7303 o
107.834 98.7904 o
92.4948 91.3756 o
115.385 100.855 o
105.841 100.173 o
121.58 99.7476 o
112.629 104.508 o
117.979 101.999 o
125.124 102.622 o
111.496 92.2831 o
103.826 97.7581 o
117.593 91.6797 o
98.0338 97.421 o
102.067 91.8165 o
113.751 107.227 o
109.207 94.9571 o
110.136 101.674 o
94.7371 89.6292 o
114.525 102.095 o
116.367 103.683 o
93.6138 90.5497 o
121.217 95.4781 o
123.193 102.285 o
97.6492 92.4304 o
122.925 110.598 o
114.421 94.6345 o
112.678 101.299 o
116.995 100.99 o
95.9584 85.8563 o
107.691 98.7961 o
114.143 100.857 o
116.036 101.32 o
115.807 98.2457 o
96.6163 87.754 o
117.718 100.526 o
102.112 94.805 o
126.159 99.1453 o
126.32 101.474 o
107.047 105.022 o
108.977 99.2011 o
96.5844 101.717 o
108.191 102.839 o
119.061 103.508 o
98.8138 103.064 o
111.559 97.436 o
129.298 100.089 o
129.224 100.041 o
98.5453 104.151 o
128.169 89.0072 o
120.879 97.8662 o
99.5495 112.616 o
116.013 94.3462 o
120.35 97.5435 o
124.818 92.4342 o
113.567 102.223 o
101.189 90.9799 o
118.794 90.4052 o
121.12 96.1988 o
94.8989 94.1825 o
118.052 87.5924 o
123 90.6843 o
107.805 102.883 o
111.663 97.292 o
111.227 107.812 o
104.18 101.093 o
111.604 94.6274 o
105.372 101.828 o
124.487 101.472 o
132.945 100.533 o
103.494 95.0801 o
116.86 97.3345 o
99.0652 99.4974 o
120.229 104.747 o
108.985 96.7153 o
117.62 98.8544 o
95.7893 94.9926 o
99.6379 102.484 o
117.347 96.8339 o
120.613 111.134 o
120.174 102.78 o
100.704 103.073 o
103.856 99.5094 o
98.46 91.0365 o
91.7843 100.227 o
114.156 100.337 o
116.953 94.1089 o
120.148 101.146 o
110.967 100.319 o
123.342 107.636 o
101.49 107.339 o
112.151 99.5368 o
101.207 96.8703 o
125.359 97.749 o
107.817 96.5635 o
109.04 90.5676 o
102.428 98.6454 o
122.36 103.787 o
115.893 100.331 o
101.525 110.716 o
113.041 88.3959 o
105.709 104.858 o
101.16 95.7196 o
122.633 113.809 o
110.562 98.6398 o
122.034 99.4464 o
104.122 96.7734 o
96.5973 103.396 o
111.471 102.723 o
97.0364 101.028 o
120.89 96.3488 o
93.9402 93.0521 o
107.339 95.5787 o
123.14 88.2458 o
93.3151 104.973 o
124.101 101.859 o
121.794 103.596 o
123.194 94.9886 o
111.973 91.0929 o
117.456 100.971 o
112.462 101.431 o
124.374 106.185 o
101.975 109.146 o
112.959 94.4039 o
104.77 97.7482 o
117.419 94.9364 o
99.8029 95.0911 o
113.57 97.0599 o
115.549 107.586 o
97.5196 93.8253 o
99.4754 92.8965 o
110.305 102.489 o
99.6671 93.3249 o
109.778 89.8522 o
134.568 101.766 o
105.897 95.1041 o
99.3278 97.9154 o
111.263 102.113 o
114.333 99.5733 o
114.903 96.0866 o
99.9632 101.167 o
94.2271 88.1218 o
115.767 96.9922 o
122.178 94.9277 o
116.925 99.7941 o
103.576 91.3817 o
107.119 101.949 o
104.557 102.1 o
125.697 105.179 o
113.585 101.404 o
120.602 97.3262 o
105.651 101.422 o
98.5154 99.9774 o
100.595 102.633 o
115.088 88.6071 o
118.095 100.181 o
112.097 95.1551 o
109.882 99.5413 o
106.421 98.8079 o
109.06 92.4895 o
119.098 108.843 o
113.186 103.527 o
123.338 97.3967 o
126.338 98.384 o
119.586 99.2223 o
112.144 96.3331 o
112.661 105.184 o
94.0297 95.2574 o
122.977 91.2049 o
122.449 100.965 o
114.724 100.753 o
111.2 106.498 o
104.107 91.5622 o
110.159 99.1756 o
112.919 103.761 o
110.848 105.55 o
120.4 98.689 o
132.336 116.197 o
111.007 100.312 o
118.384 99.169 o
122.859 103.619 o
116.373 108.067 o
119.801 100.428 o
119.041 102.915 o
93.1677 105.908 o
120.687 94.0667 o
118.301 103.835 o
104.966 101.453 o
113.368 99.4009 o
120.391 104.619 o
133.954 98.8913 o
119.909 104.337 o
99.703 98.999 o
116.386 104.36 o
110.518 98.0774 o
123.826 86.8599 o
121.382 100.371 o
118.223 105.23 o
108.851 95.8797 o
100.746 98.9533 o
112.176 102.976 o
117.302 111.333 o
111.864 97.5206 o
96.1042 93.4874 o
101.137 95.4619 o
97.4957 104.279 o
122.534 100.05 o
126.7 96.8406 o
133.173 120.998 o
99.0101 90.5258 o
113.461 102.819 o
123.449 95.7713 o
108.489 98.9538 o
121.465 100.271 o
112.077 97.7024 o
121.942 95.6211 o
116.134 101.479 o
96.6232 86.9035 o
104.179 91.1054 o
126.732 101.747 o
106.659 92.0031 o
122.904 96.3818 o
131.543 101.962 o
93.4904 104.367 o
103.846 97.772 o
99.3561 91.64 o
127.81 97.9888 o
120.145 104.423 o
99.2227 86.5444 o
118.539 97.8881 o
115.159 105.637 o
113.379 81.4429 o
112.641 102.689 o
114.409 96.068 o
104.978 100.973 o
104.537 103.089 o
116.86 105.533 o
112.75 100.53 o
113.709 86.6077 o
110.468 106.104 o
115.017 97.4071 o
118.416 87.6969 o
106.108 94.8071 o
109.54 103.502 o
122.771 102.52 o
112.353 103.078 o
115.764 98.9992 o
120.958 99.6299 o
119.715 101.83 o
111.472 108.315 o
132.13 105.814 o
102.672 102.272 o
117.916 104.907 o
130.646 97.7664 o
110.202 90.8389 o
111.39 94.0383 o
126.284 101.65 o
100.12 94.9558 o
125.03 118.262 o
94.3592 86.3384 o
117.245 100.197 o
120.685 92.8735 o
126.924 93.6155 o
101.977 93.8323 o
93.9047 87.7071 o
115.493 102.605 o
121.786 110.224 o
120.079 101.588 o
110.168 106.307 o
116.299 103.902 o
109.038 101.482 o
112.717 99.9655 o
98.6208 87.6607 o
120.911 94.9721 o
105.674 98.8383 o
103.737 96.4461 o
123.511 99.2951 o
109.796 95.7918 o
108.48 95.2248 o
116.482 103.328 o
132.338 116.85 o
94.6374 103.779 o
119.788 97.819 o
102.85 107.556 o
110.869 107.504 o
116.901 101.035 o
124.844 98.5752 o
115.174 90.2095 o
115.331 98.2342 o
134.216 115.761 o
110.533 96.1021 o
113.265 102.789 o
99.874 88.9698 o
111.985 107.928 o
126.058 102.666 o
116.961 105.365 o
109.527 93.18 o
101.366 97.6377 o
128.588 98.4584 o
109.378 98.0577 o
107.382 92.8676 o
124.335 94.5392 o
126.314 106.989 o
115.849 97.835 o
110.608 96.3375 o
113.974 96.9999 o
123.474 98.1182 o
97.5532 106.774 o
116.54 103.221 o
105.487 89.4602 o
121.886 93.5791 o
98.0825 101.195 o
120.78 96.8666 o
93.1937 98.1417 o
106.947 92.9653 o
132.368 108.521 o
133.716 114.406 o
135.097 107.165 o
108.898 94.0167 o
130.09 96.4734 o
109.168 100.568 o
121.433 104.171 o
109.973 111.807 o
112.229 100.442 o
138.241 113.463 o
115.697 96.306 o
115.97 95.7023 o
117.336 100.054 o
102.374 93.7822 o
125.536 100.237 o
114.227 103.922 o
122.858 101.672 o
105.19 99.86 o
108.673 104.327 o
96.086 102.304 o
102.119 84.5864 o
130.595 94.14 o
100.305 103.119 o
96.8368 98.6667 o
115.05 104.602 o
111.648 113.642 o
121.79 100.382 o
103.544 85.9139 o
125.051 97.9597 o
113.769 98.6127 o
101.066 100.513 o
112.59 101.497 o
111.505 90.0891 o
105.863 96.1054 o
116.725 90.3825 o
115.661 102.529 o
116.969 105.114 o
129.651 88.845 o
116.975 104.359 o
114.295 101.001 o
120.191 101.995 o
132.866 120.014 o
122.668 86.7759 o
109.967 96.3926 o
120.614 100.227 o
114.146 112.064 o
109.374 95.1717 o
123.642 102.143 o
113.116 94.8292 o
110.297 86.1056 o
124.642 104.123 o
119.926 101.964 o
117.918 101.624 o
121.893 98.8803 o
118.052 107.425 o
122.142 100.25 o
103.571 97.6587 o
120.23 100.452 o
99.247 95.6427 o
90.1063 100.491 o
113.935 102.039 o
110.889 99.9234 o
116.731 96.1027 o
120.141 99.6539 o
122.278 100.069 o
122.727 101.704 o
113.39 100.198 o
108.715 97.9125 o
112.145 100.641 o
105.897 92.447 o
116.167 101.494 o
136.967 112.84 o
107.03 103.11 o
110.159 92.7011 o
100.86 102.318 o
118.27 100.97 o
115.887 104.626 o
117.302 98.4534 o
118.462 99.2895 o
120.074 100.018 o
90.414 97.235 o
121.982 95.7989 o
91.8038 99.2919 o
115.056 103.707 o
110.783 102.882 o
115.656 104.382 o
118.015 89.2951 o
129.153 112.867 o
119.122 104.26 o
128.841 110.679 o
115.701 98.1582 o
121.004 102.138 o
118.735 106.521 o
106.208 93.0291 o
120.326 99.6419 o
113.222 93.7567 o
103.743 95.3369 o
117.55 97.182 o
121.098 102.923 o
115.023 101.725 o
100.554 98.1128 o
117.272 101.636 o
117.298 93.6231 o
111.407 97.6512 o
113.144 99.6296 o
98.1252 114.809 o
113.615 97.833 o
93.0829 98.6039 o
117.117 106.241 o
107.163 102.6 o
101.766 96.4342 o
115.768 101.818 o
119.018 96.1764 o
126.308 108.43 o
121.578 104.332 o
120.289 101.207 o
102.708 93.6597 o
114.038 94.6236 o
109.377 99.9565 o
113.653 97.0999 o
109.651 103.245 o
114.643 98.4239 o
103.348 94.8238 o
114.095 103.126 o
133.165 100.259 o
124.562 106.196 o
112.036 100.106 o
108.838 99.5573 o
104.8 108.818 o
110.76 99.4347 o
130.69 120.588 o
128.496 109.12 o
120.702 97.3013 o
94.4513 88.4751 o
121.039 102.394 o
109.04 97.5365 o
120.911 97.8889 o
102.208 91.9635 o
103.379 99.2836 o
96.4495 102.061 o
107.982 106.52 o
96.4985 88.6481 o
115.606 100.786 o
129.248 114.748 o
106.678 97.4608 o
113.626 98.8255 o
104.184 102.186 o
128.402 106.969 o
115.945 111.448 o
116.329 104.238 o
115.221 98.3202 o
109.074 102.714 o
97.4713 89.633 o
107.855 98.2598 o
108.715 81.3484 o
124.808 105.441 o
108.985 94.4793 o
95.2016 97.1242 o
109.53 101.922 o
95.5692 98.7398 o
117.31 101.702 o
102.926 93.0983 o
115.008 96.8298 o
125.042 109.23 o
88.6948 107.828 o
122.334 103.238 o
106.01 111.78 o
109.307 99.4691 o
126.667 110.925 o
107.935 94.9762 o
121.991 96.5902 o
111.963 98.5574 o
108.576 94.5366 o
112.524 100.246 o
123.003 102.354 o
103.544 92.2066 o
116.395 109.771 o
126.171 111.981 o
102.231 92.8747 o
120.061 101.484 o
121.322 90.1802 o
117.534 83.577 o
120.656 92.4135 o
97.5395 99.9755 o
119.416 101.489 o
115.698 108.491 o
109.205 94.3124 o
94.8607 87.3458 o
104.59 100.088 o
120.761 105.142 o
113.627 94.5869 o
115.014 101.797 o
106.195 98.249 o
119.764 99.8706 o
112.792 103.284 o
120.172 101.056 o
105.285 91.293 o
116.149 97.8682 o
117.538 102.295 o
106.423 95.4538 o
114.908 99.319 o
118.675 100.658 o
121.346 107.548 o
122.334 112.63 o
106.217 100.751 o
108.96 103.122 o
133.188 120.102 o
121.666 89.9616 o
102.906 87.2303 o
105.934 101.975 o
112.878 105.835 o
121.712 109.113 o
105.93 90.6993 o
103.029 88.5888 o
115.764 99.3232 o
128.257 101.073 o
123.295 96.0257 o
113.306 99.0043 o
110.461 109.467 o
139.038 122.009 o
112.084 102.484 o
113.616 94.3607 o
96.9584 101.285 o
124.484 90.3923 o
118.407 105.277 o
110.311 102.155 o
109.375 97.8346 o
115.283 91.9918 o
118.439 100.858 o
121.622 84.0015 o
114.988 96.8205 o
134.157 122.599 o
132.261 116.071 o
106.132 96.5824 o
114.513 102.774 o
108.845 91.4544 o
122.285 102.383 o
119.754 105.205 o
116.808 100.079 o
122.071 106.049 o
110.473 116.843 o
123.728 96.5543 o
116.679 101.609 o
110.54 99.898 o
113.141 107.005 o
106.656 97.2436 o
115.943 95.5522 o
137.817 111.005 o
109.264 100.305 o
116.168 102.704 o
102.167 96.3559 o
117.744 105.272 o
112.345 99.2461 o
111.385 99.6028 o
112.347 96.0827 o
105.347 93.6693 o
121.703 106.008 o
123.214 103.744 o
120.159 102.036 o
118.974 105.464 o
114.366 103.076 o
101.826 84.4291 o
113.17 103.41 o
108.296 100.037 o
115.255 114.6 o
113.828 101.943 o
106.965 95.2688 o
124.348 102.538 o
123.404 96.8417 o
105.963 94.6548 o
120.587 103.888 o
120.673 96.3876 o
112.357 106.708 o
118.883 98.7109 o
112.84 103.869 o
132.814 118.255 o
112.909 100.366 o
109.192 101.202 o
124.148 100.582 o
110.198 95.8595 o
117.354 101.066 o
124.36 95.6125 o
105.381 108.36 o
102.048 103.94 o
111.924 100.314 o
120.118 96.3426 o
100.856 110.876 o
114.288 111.525 o
117.286 90.1062 o
97.8432 99.2482 o
116.023 101.375 o
128.139 106.32 o
117.686 100.361 o
120.813 109.323 o
119.505 100.282 o
96.5693 97.2984 o
131.844 108.558 o
100.258 105.061 o
109.731 95.2088 o
107.128 91.0853 o
117.452 109.089 o
118.797 100.847 o
109.541 98.1411 o
96.9761 86.9705 o
119.52 105.113 o
106.109 97.9509 o
106.787 102.677 o
118.934 110.345 o
107.559 96.8382 o
124.581 101.003 o
92.1657 95.9569 o
123.465 95.196 o
119.363 105.082 o
115.951 105.511 o
109.071 94.3811 o
102.923 96.0894 o
117.383 104.732 o
107.774 94.872 o
101.533 98.9331 o
104.723 92.8237 o
115.12 94.6131 o
134.736 105.403 o
113.78 91.719 o
114.382 93.9839 o
115.767 96.3913 o
124.952 99.9016 o
130.83 104.486 o
129.024 100.563 o
99.9916 93.944 o
108.114 101.944 o
113.858 100.951 o
114.865 102.566 o
100.529 102.672 o
107.33 98.5604 o
92.5338 91.9967 o
91.8552 76.6708 o
123.212 101.337 o
113.572 103.841 o
102.955 95.0468 o
107.46 103.752 o
98.0347 85.9175 o
110.519 101.136 o
109.78 102.453 o
108.895 99.6156 o
98.1028 87.4391 o
120.639 110.043 o
113.985 100.597 o
124.901 104.903 o
122.765 102.788 o
125.868 105.683 o
120.989 98.15 o
121.465 91.6485 o
112.11 100.083 o
102.215 105.572 o
124.918 91.5339 o
116.389 92.3225 o
99.8692 93.6638 o
119.637 103.066 o
105.507 114.926 o
106.055 99.6281 o
111.96 91.6101 o
119.998 98.1547 o
114.141 104.289 o
120.603 103.397 o
106.143 97.8918 o
104.156 93.2286 o
114.354 101.91 o
104.694 101.627 o
112.482 101.678 o
121.414 105.619 o
118.105 92.2302 o
110.306 90.4205 o
106.7 101.218 o
106.608 89.6803 o
113.319 99.2389 o
122.316 107.347 o
123.54 105.125 o
93.0338 97.2006 o
105.138 101.739 o
119.983 107.198 o
106.861 81.3388 o
111.783 97.5536 o
116.684 99.1925 o
116.467 111.787 o
115.494 103.215 o
108.412 94.9159 o
97.3731 90.9709 o
95.2444 95.3958 o
116.717 98.3792 o
126.613 99.1543 o
108.082 100.66 o
119.901 93.8192 o
102.722 98.4741 o
131.35 101.898 o
112.019 95.7681 o
116.045 93.2684 o
107.959 102.119 o
113.752 100.827 o
107.475 92.1268 o
122.251 110.409 o
116.027 104.027 o
138.575 111.396 o
101.034 102.498 o
120.924 99.5569 o
96.0257 97.1203 o
119.037 99.0871 o
115.252 94.8245 o
112.627 93.219 o
97.8757 83.6811 o
121.027 104.479 o
110.009 104.416 o
122.242 102.779 o
111.696 95.5319 o
127.791 91.6021 o
93.3448 92.7635 o
115.554 92.8765 o
108.849 103.512 o
95.51 104.489 o
107.343 94.7903 o
106.461 87.9751 o
118.953 107.122 o
97.8332 111.084 o
135.124 111.715 o
107.813 97.0293 o
124.022 96.2839 o
104.51 94.1204 o
120.771 108.736 o
105.894 91.7638 o
121.44 99.4341 o
117.918 104.127 o
128.16 96.7106 o
110.346 97.2923 o
108.796 102.557 o
117.643 101.605 o
115.903 102.875 o
122.181 114.144 o
100.468 91.747 o
121.601 104.755 o
116.904 106.331 o
119.53 104.099 o
111.829 90.3912 o
124.337 86.7413 o
122.331 108.444 o
124.036 114.239 o
112.008 98.4016 o
117.134 106.001 o
95.5453 101.407 o
91.5169 93.3095 o
116.375 97.7808 o
99.3984 101.152 o
116.787 97.7526 o
106.914 110.513 o
108.603 101.846 o
108.911 100.83 o
101.848 91.2699 o
109.527 91.7856 o
116.493 95.4675 o
120.319 98.7057 o
108.295 107.199 o
110.905 84.4177 o
116.03 100.866 o
102.69 93.2287 o
101.289 99.9231 o
111.291 101.098 o
115.701 100.404 o
127.263 95.0783 o
135.992 112.451 o
106.533 91.3718 o
110.676 98.8911 o
110.288 84.8751 o
107.623 102.666 o
104.414 88.7274 o
114.59 99.852 o
118.787 102.403 o
114.774 96.085 o
100.417 92.7297 o
118.287 100.832 o
117.24 105.319 o
108.678 88.1015 o
116.36 98.528 o
78.0569 84.402 o
106.625 95.1007 o
124.957 102.629 o
108.82 105.571 o
113.401 98.7632 o
93.7274 104.788 o
102.438 91.3234 o
102.968 89.7161 o
112.417 102.812 o
122.19 99.7531 o
106.963 93.7034 o
100.649 108.389 o
124.515 98.4418 o
98.1045 94.7339 o
113.417 99.1549 o
111.639 96.8256 o
134.273 118.15 o
122.724 100.954 o
124.593 107.554 o
102.82 92.6357 o
100.438 103.162 o
118.443 101.744 o
107.002 102.546 o
106.298 101.02 o
98.4713 96.2414 o
120.63 97.2555 o
108.544 105.432 o
123.819 97.3002 o
105.796 87.8313 o
103.19 108.336 o
125.21 96.6675 o
118.041 91.0285 o
114.529 91.4011 o
94.5314 89.3499 o
120.149 113.137 o
111.325 93.8777 o
102.273 102.452 o
106.067 99.8858 o
114.301 95.8665 o
119.902 93.3583 o
113.091 101.635 o
115.328 105.524 o
127.39 102.748 o
120.389 99.4946 o
118.943 104.719 o
119.184 95.4892 o
125.078 107.219 o
55.0857 112.052 o
124.632 104.497 o
116.334 103.523 o
117.715 113.634 o
117.177 96.7075 o
118.225 95.6695 o
109.648 95.9011 o
109.031 89.8796 o
106.757 109.367 o
97.2552 93.8087 o
122.187 101.614 o
99.6476 98.0736 o
108.056 95.0859 o
103.635 86.3399 o
128.293 107.291 o
119.974 101.344 o
107.982 103.835 o
114.764 101.358 o
126.416 102.188 o
117.994 99.7288 o
126.244 100.235 o
128.168 111.843 o
105.685 100.325 o
106.148 108.299 o
126.838 106.966 o
114.937 96.6464 o
110.419 103.081 o
114.675 95.0684 o
120.889 103.473 o
100.581 96.4959 o
119.036 102.379 o
114.24 91.4728 o
94.9504 100.91 o
112.71 91.591 o
107.634 100.556 o
102.109 97.2225 o
107.264 90.9175 o
101.292 103.632 o
116.378 96.9944 o
112.216 109.87 o
114.703 92.2179 o
105.166 98.6278 o
120.012 103.519 o
111.445 99.6819 o
92.2589 105.127 o
127.121 106.366 o
111.929 98.5362 o
132.737 98.0996 o
109.675 97.4686 o
110.439 103.076 o
114.789 105.212 o
113.766 99.7457 o
107.789 100.756 o
122.632 100.482 o
120.968 99.7245 o
109.736 91.8696 o
118.527 113.804 o
86.7984 87.7568 o
129.43 113.665 o
112.934 97.717 o
114.032 114.951 o
113.002 84.9822 o
108.652 93.5172 o
106.112 92.2572 o
119.828 103.551 o
117.799 108.874 o
112.016 95.6601 o
123.007 97.4316 o
110.54 100.609 o
109.414 96.7188 o
106.133 100.154 o
108.75 100.968 o
93.7585 95.2119 o
120.721 102.146 o
126.277 103.343 o
106.729 93.169 o
111.544 111.853 o
123.221 105.993 o
126.493 98.3208 o
120.124 87.2086 o
103.16 101.564 o
122.075 98.9928 o
125.497 97.4273 o
119.081 91.8775 o
116.754 100.234 o
112.467 97.4822 o
108.134 97.549 o
118.68 101.181 o
110.924 102.778 o
109.615 100.676 o
107.182 100.536 o
110.623 95.1685 o
128.245 114.387 o
109.732 101.646 o
108.441 97.0252 o
119.729 104.943 o
115.666 89.7977 o
110.329 105.792 o
118.87 99.0115 o
101.585 92.3272 o
116.396 102.716 o
107.265 92.5833 o
114.211 104.576 o
116.175 94.1597 o
116.174 104.803 o
114.324 108.647 o
115.871 103.243 o
123.762 107.151 o
106.529 85.735 o
109.325 97.6338 o
126.918 110.688 o
110.812 98.8524 o
133.144 110.94 o
102.175 94.9049 o
114.159 96.4091 o
116.711 103.192 o
104.965 102.707 o
122.206 101.278 o
131.209 87.8063 o
102.623 100.828 o
119.177 104.666 o
115.394 89.3949 o
107.198 96.8263 o
106.419 112.088 o
109.859 94.1039 o
103.582 90.2289 o
101.739 102.767 o
111.911 100.164 o
118.298 101.505 o
117.234 99.2247 o
110.84 94.0488 o
121.881 101.413 o
111.128 103.022 o
117.681 99.4648 o
114.22 98.551 o
93.3919 95.4869 o
107.063 94.686 o
117.97 100.995 o
118.489 102.549 o
128.655 92.124 o
108.879 102.412 o
109.096 101.255 o
120.136 99.1296 o
108.186 98.6877 o
118.474 103.054 o
114.179 99.2704 o
115.353 97.1487 o
110.043 99.2281 o
118.556 90.4597 o
116.828 98.1833 o
130.059 119.041 o
109.381 89.1573 o
99.6342 96.335 o
118.86 96.0994 o
107.798 100.214 o
108.47 101.237 o
110.838 102.855 o
89.1436 100.438 o
114.362 119.019 o
116.06 94.5266 o
120.03 99.6891 o
115.684 107.202 o
124.33 98.793 o
111.721 91.4622 o
126.862 106.106 o
121.807 102.774 o
102.573 109.153 o
115.009 102.775 o
115.075 91.6811 o
94.9907 96.2794 o
99.5245 94.847 o
127.739 116.837 o
107.987 96.3194 o
118.994 97.462 o
118.414 98.2901 o
113.446 99.1598 o
106.95 98.4856 o
120.834 107.316 o
116.266 98.8192 o
114.577 101.356 o
123.556 95.8313 o
114.825 101.619 o
122.018 94.9833 o
115.31 98.1918 o
114.437 94.2989 o
101.999 93.4598 o
117.22 99.0939 o
102.087 96.0201 o
106.813 96.8459 o
121.87 101.569 o
131.635 113.652 o
122.559 100.645 o
123.373 107.164 o
127.659 102.095 o
135.386 99.3864 o
119.499 99.7565 o
123.482 107.236 o
102.181 100.692 o
109.863 102.772 o
111.371 104.674 o
93.5545 102.324 o
118.862 106.535 o
101.461 95.1945 o
106.815 105.33 o
105.016 103.422 o
124.026 102.455 o
109.952 101.179 o
103.94 97.2863 o
116.163 100.806 o
141.85 119.115 o
119.201 100.385 o
114.562 98.8331 o
98.6822 104.047 o
120.451 107.201 o
102.659 95.4092 o
114.525 95.1001 o
106.256 95.2369 o
118.799 92.1245 o
118.563 99.613 o
134.285 114.182 o
113.127 105.107 o
123.246 103.536 o
106.696 94.5387 o
134.977 96.769 o
108.815 96.3724 o
117.96 95.5299 o
115.59 90.4146 o
105.717 93.5632 o
119.555 110.851 o
122.449 114.305 o
116.1 97.6288 o
134.719 107.13 o
121.852 107.226 o
114.429 98.9088 o
110.408 98.796 o
104.692 92.8356 o
114.883 107.124 o
114.822 104.744 o
107.071 98.5062 o
140.539 116.934 o
111.047 102.968 o
135.856 118.994 o
104.143 93.7631 o
115.831 99.7257 o
108.581 90.467 o
113.788 99.8596 o
100.747 105.121 o
121.23 107.68 o
114.373 104.93 o
101.791 90.1382 o
111.519 98.333 o
108.079 91.9325 o
109.28 93.1233 o
122.215 103.167 o
117.405 101.572 o
114.853 102.652 o
117.726 88.9564 o
107.632 101.153 o
113.282 99.5174 o
91.116 96.1239 o
108.724 93.5389 o
93.2 90.6098 o
90.9242 96.1958 o
104.621 95.1193 o
112.995 98.5556 o
130.188 100.876 o
100.626 100.314 o
138.381 105.872 o
111.035 87.4476 o
120.116 102.981 o
103.065 100.737 o
113.297 96.2154 o
123.321 100.477 o
119.159 108.706 o
119.966 106.666 o
123.087 97.6885 o
112.267 87.6296 o
114.7 98.9696 o
93.7287 91.4114 o
106.734 82.4806 o
120.233 106.856 o
112.326 101.789 o
112.289 100.655 o
129.388 102.014 o
125.442 109.117 o
99.7644 99.8466 o
112.963 96.1141 o
104.063 100.665 o
109.156 107.849 o
103.632 102.353 o
103.513 112.701 o
134.264 121.375 o
109.343 112.972 o
122.518 96.6287 o
113.983 101.995 o
107.208 98.9466 o
107.084 95.2674 o
99.3333 101.673 o
101.995 94.1435 o
125.012 98.4071 o
95.1382 90.1745 o
124.523 103.035 o
129.159 108.539 o
97.9934 97.2633 o
91.6248 84.7417 o
121.478 99.1632 o
122.14 112.756 o
122.62 113.947 o
110.519 97.0488 o
115.59 98.5649 o
112.773 94.5665 o
94.5351 103.61 o
116.631 90.5768 o
120.626 103.264 o
117.895 118.372 o
131.811 108.622 o
118.955 96.6733 o
115.233 102.223 o
111.108 94.4051 o
130.087 112.972 o
105.651 91.1366 o
118.408 100.501 o
120.299 111.124 o
124.641 107.097 o
101.695 93.9782 o
131.373 99.826 o
122.942 100.665 o
118.744 95.1626 o
117.174 100.298 o
112.792 92.8068 o
118.228 107.659 o
110.533 100.581 o
120.687 102.598 o
114.508 99.4641 o
116.065 112.221 o
131.055 121.384 o
129.538 108.192 o
117.52 100.318 o
111.53 98.5399 o
133.047 117.521 o
121.27 104.585 o
108.801 94.8167 o
125.284 83.6222 o
118.282 103.107 o
104.647 106.443 o
92.3022 82.8273 o
128.515 110.879 o
115.343 100.241 o
124.156 103.574 o
120.04 111.138 o
123.993 107.1 o
104.066 99.7329 o
105.011 110.525 o
107.288 97.0764 o
120.734 102.737 o
138.192 109.662 o
95.2121 103.614 o
108.287 99.6554 o
114.61 105.057 o
101.1 85.7426 o
118.142 104.588 o
104.443 104.397 o
109.936 96.7319 o
101.565 94.8353 o
108.72 102.695 o
108.798 92.0718 o
121.544 109.265 o
100.87 101.762 o
117.128 98.3952 o
130.646 104.71 o
115.076 113.003 o
117.225 104.283 o
117.74 108.918 o
106.168 93.2589 o
117.724 100.132 o
114.853 107.526 o
112.482 102.682 o
98.1577 100.309 o
131.941 110.418 o
105.272 91.2901 o
115.333 97.7069 o
103.45 96.3576 o
120.352 97.6199 o
115.3 104.272 o
132.143 108.297 o
113.247 105.601 o
119.192 109.603 o
116.612 104.169 o
121.926 104.732 o
115.781 100.709 o
108.263 93.1122 o
136.644 113.922 o
100.159 87.3517 o
106.862 99.6467 o
103.494 101.165 o
131.422 108.434 o
131.317 113.877 o
128.438 111.992 o
88.7134 80.9199 o
109.712 97.2277 o
114.423 106.927 o
102.609 93.7694 o
94.6859 91.9213 o
104.521 91.3193 o
124.741 107.75 o
122.542 106.061 o
117.263 95.3579 o
121.928 109.731 o
119.252 107.182 o
105.455 114.665 o
107.346 93.8225 o
107.363 100.535 o
134.749 117.756 o
134.857 113.248 o
116.8 103.94 o
122.565 89.0802 o
120.274 99.9831 o
133.668 116.352 o
111.716 93.3864 o
107.085 99.5623 o
118.88 100.544 o
129.608 107.447 o
136.307 108.146 o
118.48 102.136 o
109.66 101.525 o
129.538 110.055 o
102.799 87.6164 o
112.246 97.7777 o
141.439 120.14 o
89.9185 79.4889 o
110.282 105.889 o
132.76 116.662 o
110.651 92.4914 o
115.77 97.9456 o
116.421 86.7877 o
117.14 92.3437 o
115.838 105.211 o
105.308 93.9711 o
111.659 101.51 o
117.043 104.711 o
113.49 111.424 o
119.412 108.539 o
118.374 97.2712 o
111.945 102.788 o
116.843 91.4431 o
114.33 97.1095 o
92.9629 98.8152 o
118.584 101.984 o
111.315 108.584 o
116.199 100.642 o
118.261 97.0881 o
108.543 99.8889 o
114.189 99.6394 o
134.394 96.6362 o
112.616 92.0328 o
119.826 98.8797 o
135.955 114.56 o
131.135 115.598 o
127.444 103.675 o
128.19 99.2279 o
138.036 102.177 o
105.081 94.2138 o
101.64 91.9611 o
131.746 119.427 o
103.792 96.1332 o
86.9516 81.8602 o
122.345 95.7407 o
110.541 99.169 o
114.873 101.485 o
120.331 101.606 o
117.324 98.0493 o
106.653 101.389 o
119.376 87.5985 o
116.927 88.5123 o
111.598 101.834 o
114.103 96.4592 o
117.666 119.273 o
121.263 101.419 o
114.238 90.4485 o
106.406 105.502 o
125.882 94.9669 o
99.9052 87.1337 o
121.402 106.599 o
117.949 103.958 o
119.598 97.721 o
109.961 87.0831 o
120.43 104.267 o
127.261 100.823 o
119.222 100.256 o
118.749 99.9086 o
97.834 88.6686 o
98.1995 94.244 o
106.616 96.9206 o
108.709 93.8848 o
99.3547 99.4184 o
105.266 100.527 o
111.991 98.446 o
110.439 109.932 o
117.02 103.3 o
116.004 85.9583 o
114.769 97.8903 o
110.438 90.4494 o
119.651 122.073 o
116.265 99.9585 o
113.407 79.3392 o
134.152 115.246 o
109.175 100.269 o
117.451 96.8551 o
118.481 97.1744 o
111.84 102.574 o
118.978 103.166 o
106.53 90.7144 o
111.589 105.999 o
108.872 94.0755 o
117.446 100.18 o
130.601 106.089 o
111.113 98.1714 o
95.6185 97.1842 o
115.861 104.345 o
111.742 99.2683 o
110.398 97.5176 o
118.003 100.333 o
102.38 96.1433 o
120.708 101.709 o
129.722 114.028 o
117.098 97.2686 o
116.432 101.837 o
131.46 116.527 o
116.829 102.369 o
126.527 108.926 o
116.459 109.716 o
106.5 87.1061 o
106.132 89.2944 o
117.911 97.7671 o
119.09 116.51 o
113.923 98.1543 o
98.7492 95.1253 o
118.48 116.026 o
90.4342 99.667 o
110.663 91.1059 o
105.746 92.6131 o
117.679 91.4567 o
116.135 99.3772 o
124.538 104.727 o
103.02 100.754 o
121.595 87.5871 o
118.462 97.035 o
105.164 100.968 o
115.168 103.227 o
119.524 97.8557 o
111.809 99.1975 o
127.144 108.823 o
123.971 100.907 o
126.54 116.785 o
107.766 109.953 o
118.144 104.81 o
112.059 99.7702 o
111.378 95.8416 o
104.748 93.8538 o
121.975 106.92 o
106.604 105.466 o
108.262 104.789 o
123.18 99.9708 o
107.638 99.114 o
118.445 94.3002 o
119.348 102.931 o
126.231 100.016 o
101.046 92.8454 o
107.723 95.2654 o
103.952 94.3965 o
96.1184 82.3827 o
112.733 103.476 o
106.278 96.7461 o
107.169 93.6185 o
116.537 105.183 o
120.996 97.9856 o
108.466 94.0065 o
110.518 101.581 o
109.785 98.9514 o
115.774 99.2681 o
129.52 106.562 o
124.543 101.869 o
136.215 100.556 o
107.031 105.548 o
122.641 114.481 o
110.505 98.0426 o
123.216 103.656 o
105.587 97.6326 o
114.685 102.812 o
114.411 103.308 o
113.892 103.272 o
116.499 101.009 o
123.974 91.0389 o
107.278 90.3194 o
108.413 103.324 o
110.101 94.0877 o
107.536 105.01 o
110.01 106.291 o
124.896 97.7052 o
103.74 97.8057 o
110.703 108.469 o
108.182 88.2929 o
109.832 101.621 o
121.616 100.06 o
112.237 105.892 o
136.221 117.644 o
105.618 103.531 o
121.45 109.398 o
110.06 94.508 o
111.652 97.2075 o
104.384 94.7624 o
104.836 93.9853 o
114.239 103.763 o
114.48 98.7298 o
121.321 94.8919 o
106.176 96.2993 o
95.6039 93.9327 o
110.038 102.543 o
120.26 100.579 o
107.323 97.9169 o
109.186 105.99 o
118.324 102.179 o
109.623 99.8177 o
112.687 97.8206 o
128.203 110.411 o
113.284 118.396 o
118.596 103.59 o
117.119 98.8044 o
107.72 91.68 o
118.358 104.578 o
114.899 104.337 o
122.186 110.867 o
101.522 89.9169 o
116.026 99.4678 o
117.698 95.6626 o
127.652 107.522 o
101.703 103.029 o
103.513 86.7603 o
102.233 95.8286 o
100.709 96.8002 o
105.641 95.3463 o
106.601 88.8673 o
136.886 116.531 o
110.306 97.8411 o
122.791 103.846 o
113.339 107.722 o
120.932 103.171 o
122.363 88.8657 o
120.368 93.6313 o
116.872 105.957 o
116.353 103.268 o
117.186 106.712 o
113.025 100.002 o
110.089 79.1627 o
100.935 100.416 o
111.231 101.83 o
103.446 97.4776 o
121.178 101.999 o
113.216 112.336 o
107.28 111.189 o
105.518 97.1864 o
114.973 102.022 o
104.11 95.2517 o
107.772 93.4123 o
129.083 95.9641 o
106.86 90.7391 o
109.15 99.8398 o
129.604 112.831 o
125.398 109.386 o
119.276 98.3374 o
106.524 91.3986 o
113.688 92.8678 o
138.212 116.263 o
105.086 114.049 o
99.6456 100.466 o
128.423 95.8648 o
121.748 101.299 o
97.8645 84.0097 o
113.248 95.4893 o
129.316 110.84 o
135.813 99.9485 o
117.863 103.839 o
126.548 99.8389 o
123.51 92.8949 o
113.76 98.3566 o
124.788 110.586 o
113.496 114.612 o
109.366 92.9394 o
130.575 109.419 o
111.391 97.1357 o
87.8803 74.9894 o
105.218 89.3197 o
101.689 101.994 o
138.05 111.654 o
130.232 99.5253 o
107.614 94.6073 o
116.829 107.581 o
113.881 110.344 o
128.664 112.528 o
104.24 104.87 o
110.49 94.2889 o
122.188 94.5585 o
105.76 102.133 o
123.342 101.168 o
121.483 103.118 o
97.7685 89.2006 o
111.058 98.8871 o
120.069 101.49 o
111.066 90.2061 o
118.721 99.5129 o
103.407 100.571 o
125.626 107.687 o
114.955 99.0216 o
109.718 100.612 o
114.744 102.678 o
103.719 91.9276 o
119.123 105.115 o
110.661 107.269 o
107.907 100.36 o
118.851 98.8608 o
110.246 97.3504 o
106.438 96.1062 o
99.8465 108.441 o
111.224 98.536 o
114.68 95.5756 o
115.871 108.798 o
120.46 91.9732 o
125.636 112.744 o
95.1855 74.6147 o
106.305 104.526 o
121.525 86.7056 o
119.502 111.909 o
122.198 111.696 o
112.702 92.327 o
117.922 98.8385 o
91.8445 94.3093 o
113.106 101.921 o
117.307 100.14 o
116.924 82.6894 o
122.586 109.175 o
112.136 117.194 o
109.475 90.3948 o
122.01 105.636 o
117.883 101.225 o
114.831 105.644 o
109.491 99.6262 o
109.722 94.5691 o
116.688 84.3248 o
122.68 108.443 o
107.195 91.1112 o
106.517 99.8201 o
102.936 91.4273 o
108.93 101.333 o
123.016 111.603 o
113.873 101.012 o
113.472 95.2571 o
108.335 86.6557 o
125.794 113.894 o
122.622 120.156 o
103.608 92.578 o
118.452 97.4604 o
138.538 100.279 o
114.06 93.6918 o
109.346 88.5257 o
115.051 92.9686 o
121.975 103.03 o
103.96 96.0844 o
117.53 98.8729 o
102.268 88.3141 o
122.458 96.4501 o
124.36 104.007 o
148.271 105.042 o
119.029 97.032 o
114.644 98.0428 o
107.003 104.301 o
109.165 111.37 o
107.222 107.277 o
104.153 109.459 o
123.047 97.811 o
134.539 119.222 o
104.094 99.269 o
101.4 96.2021 o
104.55 104.316 o
117.018 108.765 o
101.954 86.9227 o
98.8381 93.7563 o
111.829 104.349 o
104.426 86.8918 o
135.727 114.175 o
99.6288 84.1299 o
120.606 105.604 o
119.538 100.95 o
121.553 105.914 o
105.279 92.9557 o
108.707 100.748 o
135.048 118.676 o
100.272 116.363 o
120.023 105.477 o
121.518 104.784 o
107 100.625 o
123.39 97.5559 o
115.022 102.17 o
91.1718 95.6189 o
122.541 93.6838 o
115.846 111.333 o
90.3326 96.9704 o
104.399 100.63 o
114.377 105.441 o
108.827 106.279 o
139.572 123.694 o
125.534 116.719 o
130.981 114.636 o
102.71 104.76 o
123.339 103.561 o
118.957 97.8743 o
119.486 106.927 o
118.92 105.596 o
118.691 101.48 o
115.07 104.489 o
111.59 97.2484 o
111.4 90.0584 o
118.937 111.095 o
99.3452 101.158 o
124.363 98.0287 o
114.748 98.9689 o
120.236 120.108 o
125.321 98.3189 o
109.911 100.518 o
114.413 101.966 o
113.136 97.6292 o
107.27 98.4251 o
128.274 89.4095 o
116.224 109.45 o
99.6619 96.3786 o
104.001 90.5086 o
97.373 94.7836 o
124.075 96.63 o
109.549 100.781 o
101.147 87.5349 o
124.648 102.428 o
112.734 99.4328 o
98.0315 96.2541 o
102.456 106.43 o
99.4625 98.5965 o
104.975 99.7927 o
109.741 96.3044 o
111.725 98.2462 o
109.794 99.5757 o
108.117 101.152 o
122.929 113.678 o
98.9518 103.757 o
128.998 109.765 o
131.208 107.22 o
124.837 105.74 o
119.96 105.717 o
108.971 98.0307 o
120.759 104.641 o
127.943 112.051 o
116.328 96.7511 o
111.48 100.467 o
120.973 99.6826 o
116.737 106.967 o
121.8 111.916 o
117.613 101.71 o
104.718 89.2311 o
130.942 122.439 o
105.446 105.067 o
110.585 114.01 o
110.145 91.1614 o
113.234 96.2209 o
112.317 112.299 o
105.033 100.199 o
100.752 95.4265 o
100.7 94.096 o
129.115 120.221 o
125.342 114.643 o
123.408 97.7019 o
121.976 111.905 o
125.288 113.708 o
109.769 94.7272 o
119.557 98.0437 o
113.206 94.4886 o
127.124 119.813 o
117.397 98.2991 o
112.64 96.138 o
103.011 97.4437 o
113.964 104.135 o
96.6377 95.4209 o
111.67 98.955 o
116.838 108.843 o
101.696 99.433 o
131.394 107.728 o
106.157 90.6408 o
101.148 85.8568 o
124.903 100.986 o
135.51 115.833 o
121.773 104.697 o
110.154 101.279 o
103.306 96.6085 o
108.265 99.2346 o
110.457 103.167 o
109.552 99.549 o
118.089 101.083 o
112.621 100.436 o
129.748 110.444 o
97.072 81.52 o
119.197 107.594 o
113.311 103.603 o
102.6 104.327 o
105.506 90.4814 o
118.33 104.424 o
115.658 95.9478 o
118.87 101.98 o
115.012 98.7201 o
108.174 94.7447 o
120.387 97.8359 o
113.211 95.6804 o
118.024 89.3371 o
100.753 87.9837 o
115.881 104.039 o
103.506 90.0216 o
106.133 94.5237 o
105.55 82.283 o
112.937 96.9661 o
110.518 98.3058 o
97.042 97.1246 o
117.592 109.155 o
128.802 93.8305 o
104.043 96.6776 o
98.0387 85.8291 o
126.135 96.2725 o
107.035 92.5799 o
108.415 89.5681 o
109.165 95.2911 o
95.5055 85.0447 o
106.291 94.4097 o
91.7643 83.3867 o
127.307 109.884 o
114.508 103.74 o
97.6545 81.1646 o
111.953 113.946 o
107.906 108.318 o
97.8694 88.0859 o
117.718 90.1253 o
108.582 97.2778 o
123.828 92.2249 o
104.195 94.7635 o
102.662 94.1242 o
111.083 101.325 o
98.5902 95.5837 o
119.247 87.4732 o
119.956 100.011 o
104.894 105.947 o
124.698 95.8835 o
134.943 111.999 o
105.053 92.0489 o
93.7868 107.311 o
104.57 99.1326 o
118.661 99.1779 o
114.492 102.474 o
119.015 94.7551 o
112.121 93.8885 o
106.733 94.939 o
100.211 95.2617 o
106.249 107.743 o
116.056 114.504 o
126.933 107.219 o
119.863 112.203 o
125.603 96.4804 o
115.638 103.119 o
92.2334 98.9489 o
114.416 104.785 o
128.939 98.1834 o
135.752 117.01 o
109.686 98.449 o
127.952 106.198 o
116.055 100.917 o
117.607 108.527 o
102.555 97.8109 o
125.919 107.901 o
107.006 106.599 o
121.171 99.29 o
119.455 104.295 o
98.1399 108.002 o
113.35 92.0394 o
110.26 93.8324 o
124.869 108.604 o
108.968 104.745 o
125.117 104.745 o
141.609 110.757 o
120.167 98.3836 o
116.909 95.9914 o
106.783 88.0415 o
125.612 117.431 o
103.716 104.881 o
91.0705 88.7001 o
116.7 88.4108 o
124.771 104.764 o
112.21 97.8432 o
120.311 104.402 o
114.411 105.149 o
102.444 92.0875 o
104.927 100.85 o
109.162 98.6293 o
102.654 95.2005 o
115.411 102.087 o
112.078 104.657 o
113.352 101.197 o
117.595 102.62 o
113.062 90.149 o
123.363 117.368 o
119.251 115.766 o
111.388 89.0102 o
121.038 100.296 o
95.7749 89.118 o
121.936 96.8689 o
101.039 95.4823 o
109.998 99.9557 o
119.754 92.1779 o
109.826 102.223 o
107.806 98.3066 o
107.956 90.7233 o
137.587 115.647 o
117.139 100.736 o
108.163 97.7093 o
106.188 86.8108 o
125.752 106.76 o
126.094 116.381 o
122.413 106.312 o
110.41 99.7324 o
117.831 111.05 o
132.226 112.224 o
103.081 90.8155 o
99.5991 87.2678 o
99.7559 90.2468 o
104.051 111.301 o
111.57 100.05 o
119.636 101.467 o
108.532 95.6144 o
114.109 90.5554 o
93.6915 87.1735 o
116.525 103.03 o
119.12 97.4822 o
95.6334 86.0821 o
122.028 103.841 o
131.947 113.592 o
105.121 89.3451 o
109.661 91.2236 o
111.281 91.0667 o
119.457 90.9307 o
124.85 100.933 o
113.159 90.4403 o
130.591 114.353 o
108.213 97.6137 o
113.271 100.766 o
104.066 99.9739 o
104.923 109.369 o
124.444 99.3457 o
110.762 90.8569 o
105.707 98.8442 o
124.911 115.743 o
106.8 92.7849 o
108.812 96.4253 o
125.347 104.517 o
103.908 108.425 o
129.723 118.743 o
103.143 97.8395 o
112.795 99.7631 o
112.465 104.243 o
102.887 117.988 o
112.862 92.9225 o
99.2911 96.5525 o
113.728 107.229 o
107.48 111.047 o
104.132 103.178 o
117.634 107.373 o
114.229 103.258 o
114.328 100.201 o
119.549 106.786 o
131.703 115.869 o
102.651 96.7219 o
125.549 111.932 o
115.261 99.9471 o
115.551 104.133 o
129.965 108.149 o
107.743 93.3692 o
114.306 107.039 o
101.464 88.3649 o
119.697 98.0825 o
123.674 102.887 o
135.896 119.666 o
93.0091 88.0708 o
114.141 98.6023 o
122.254 103.919 o
106.342 102.785 o
115.71 100.466 o
106.856 92.1849 o
128.241 114.234 o
111.549 102.886 o
107.243 96.4568 o
120.867 101.714 o
118.204 87.9666 o
129.666 100.361 o
106.433 102.55 o
107.541 99.4481 o
103.245 109.7 o
128.644 106.393 o
102.742 95.5389 o
115.631 103.278 o
93.3862 95.5587 o
103.501 95.2196 o
101.79 89.333 o
114.149 98.3653 o
123.132 96.9908 o
112.315 84.381 o
118.856 104.722 o
111.522 100.806 o
122.165 87.8946 o
123.32 119.16 o
111.185 85.5981 o
109.343 106.826 o
121.758 109.756 o
105.555 86.79 o
103.502 90.1677 o
122.1 94.7006 o
124.85 96.8144 o
129.14 120.851 o
109.748 103.53 o
107.297 99.2143 o
139.891 109.62 o
110.946 99.2738 o
127.437 100.642 o
107.953 109.262 o
110.972 103.163 o
119.858 100.968 o
116.632 99.6845 o
123.582 89.4676 o
96.2815 85.3445 o
141.901 118.678 o
103.875 90.7533 o
102.657 96.7002 o
135.196 112.025 o
101.999 97.114 o
115.213 105.44 o
102.326 106.23 o
114.019 100.578 o
112.667 93.632 o
102.522 108.601 o
97.5485 100.576 o
99.2022 90.4324 o
125.436 108.391 o
104.875 89.1269 o
120.551 102.909 o
129.08 113.29 o
105.415 107.914 o
118.047 107.286 o
94.0336 102.858 o
94.928 87.9197 o
131.628 107.326 o
110.094 100.762 o
119.311 110.704 o
115.398 102.47 o
112.488 102.804 o
117.216 99.221 o
103.78 95.473 o
127.41 111.116 o
122.076 107.514 o
112.292 100.291 o
136.716 111.754 o
94.2031 83.5415 o
122.213 104.053 o
119.408 105.988 o
106.712 94.4048 o
136.258 122.889 o
127.355 116.506 o
116.171 100.121 o
123.173 104.197 o
117.996 114.225 o
117.023 100.979 o
118.304 100.612 o
96.2888 92.3505 o
115.805 99.1088 o
127.984 111.734 o
123.919 104.441 o
124.142 127.362 o
124.292 101.435 o
123.016 115.481 o
115.274 96.7046 o
94.0164 107.159 o
112.376 98.2301 o
110.514 82.5113 o
113.902 103.595 o
102.673 98.9984 o
112.766 113.244 o
114.805 103.236 o
117.927 86.9736 o
111.999 100.076 o
96.578 87.4435 o
111.563 97.3774 o
104.753 82.1354 o
117.567 113.839 o
121.783 99.7607 o
118.508 108.731 o
107.163 92.5936 o
123.336 100.886 o
130.675 114.262 o
98.5911 89.3278 o
115.969 94.6258 o
110.111 99.1877 o
121.075 104.551 o
115.71 102.15 o
113.924 103.12 o
132.467 103.269 o
104.77 101.18 o
109.938 98.1686 o
114.233 94.3061 o
111.522 89.5509 o
122.182 93.6633 o
108.204 99.2885 o
115.655 98.6635 o
109.152 95.4963 o
101.767 77.8028 o
101.274 106.435 o
111.949 104.904 o
104.36 85.0851 o
104.485 104.964 o
118.846 99.5269 o
119.252 111.992 o
113.142 105.249 o
121.947 105.726 o
109.828 96.6289 o
112.324 108.144 o
98.6742 84.9709 o
123.894 123.945 o
117.55 99.1664 o
116.718 83.0124 o
120.986 105.942 o
106.353 100.909 o
113.725 101.79 o
98.8615 91.6104 o
109.711 92.5336 o
124.687 107.736 o
118.936 110.999 o
92.1181 88.661 o
109.39 99.293 o
112.82 99.8786 o
136.506 121.27 o
111.571 100.428 o
104.144 96.7383 o
103.784 106.808 o
110.95 102.188 o
105.709 97.5355 o
90.9803 90.489 o
109.789 98.1202 o
102.197 93.7825 o
119.024 105.798 o
133.343 114.42 o
120.05 106.367 o
111.502 93.9171 o
101.37 98.0083 o
122.075 103.558 o
115.304 102.543 o
109.296 98.6201 o
104.114 92.0436 o
121.354 83.4739 o
105.469 91.6034 o
128.434 108.813 o
120.327 114.236 o
108.383 91.014 o
116.786 103.559 o
119.351 100.484 o
102.952 89.1482 o
104.072 105.845 o
119.132 99.1905 o
88.8693 74.2501 o
125.082 101.233 o
128.646 109.541 o
103.123 104.635 o
126.076 94.0829 o
112.711 104.103 o
102.874 93.6831 o
106.845 82.4012 o
123.527 114.878 o
104.272 93.4067 o
132.95 109.447 o
132.519 123.6 o
98.9957 100.742 o
102.54 103.535 o
109.337 91.5792 o
119.633 87.2134 o
118.317 105.92 o
108.249 107.278 o
101.474 99.522 o
121.663 104.132 o
109.213 98.5951 o
108.343 91.6034 o
117.242 95.436 o
114.014 104.613 o
127.609 105.025 o
120.694 105.591 o
113.334 96.7304 o
110.869 104.007 o
102.599 89.5554 o
110.138 101.373 o
108.972 92.2377 o
108.279 92.2061 o
133.048 121.983 o
110.758 96.0983 o
110.937 93.7495 o
115.703 90.4437 o
109.919 84.1232 o
122.006 104.386 o
119.857 114.47 o
122.757 97.0916 o
117.257 101.65 o
118.372 94.6049 o
114.065 110.687 o
112.841 104.474 o
104.77 98.6334 o
129.587 102.37 o
122.272 103.089 o
108.044 93.9226 o
111.161 97.9382 o
112.72 103.523 o
114.322 101.421 o
100.607 102.757 o
114.259 97.5022 o
116.066 97.6188 o
144.243 119.203 o
115.749 104.5 o
111.317 101.219 o
117.217 101.292 o
110.617 105.059 o
115.095 109.271 o
98.0424 94.1113 o
109.965 101.826 o
102.704 92.379 o
107.017 95.564 o
114.387 105.956 o
116.221 102.632 o
114.989 92.7721 o
131.741 104.291 o
116.899 95.2238 o
120.944 101.2 o
116.249 93.4466 o
103.168 78.7997 o
109.381 107.639 o
117.549 100.93 o
115.327 106.122 o
112.667 104.57 o
102.49 99.2261 o
101.989 85.446 o
108.559 97.1917 o
114.101 93.1692 o
117.138 109.978 o
107.399 100.158 o
97.6111 93.4175 o
98.5967 91.8774 o
146.207 117.048 o
129.006 102.745 o
117.524 95.0359 o
109.075 110.016 o
119.395 102.575 o
108.499 97.7217 o
121.71 91.2335 o
107.318 91.6309 o
126.385 109.953 o
110.519 92.958 o
118.777 96.1148 o
115.208 102.969 o
113.885 90.8402 o
104.003 97.278 o
115.472 97.8306 o
115.032 111.839 o
104.692 106.448 o
117.753 95.053 o
107.323 94.7405 o
124.056 99.4388 o
122.719 98.4836 o
112.069 101.678 o
106.673 90.8124 o
111.738 98.0049 o
104.742 101.1 o
116.85 93.4829 o
124.779 95.6072 o
115.106 104.965 o
123.029 98.83 o
113.772 100.452 o
112.934 109.976 o
136.168 149.628 o
117.682 100.345 o
112.95 95.7709 o
120.083 101.259 o
114.475 103.081 o
115.422 97.0959 o
114.664 93.5178 o
105.575 91.6983 o
113.04 91.1438 o
110.778 97.8379 o
107.138 113.232 o
133.221 112.152 o
107.217 82.7762 o
113.072 108.423 o
114.876 99.7723 o
110.336 87.6555 o
126.968 108.422 o
132.366 102.624 o
131.965 109.916 o
114.024 95.3445 o
131.449 116.917 o
100.269 101.067 o
130.268 99.2254 o
110.446 83.0556 o
126.721 108.577 o
121.865 114.157 o
121.606 105.253 o
101.712 93.1152 o
100.296 93.4479 o
104.687 101.41 o
122.995 103.097 o
117.191 99.9349 o
123.791 99.1529 o
85.3523 83.2918 o
111.483 95.1454 o
123.75 107.895 o
114.014 97.5525 o
111.176 95.0664 o
83.865 106.871 o
116.572 102.741 o
113.806 89.7821 o
109.647 101.351 o
101.487 88.1586 o
100.911 82.9116 o
136.56 110.682 o
119.403 87.1882 o
125.44 105.144 o
108.127 98.2869 o
108.509 93.3374 o
113.248 97.8679 o
116.894 95.845 o
107.045 100.026 o
106.619 84.9465 o
114.116 101.271 o
112.067 89.8951 o
100.802 95.8863 o
116.525 94.9917 o
121.799 104.051 o
107.104 96.8854 o
119.139 113.407 o
132.842 114.167 o
100.084 86.8786 o
128.224 107.111 o
109.888 101.511 o
128.667 111.854 o
122.889 93.777 o
118.582 111.39 o
114.556 101.226 o
102.458 93.6227 o
102.83 87.317 o
116.737 116.789 o
104.208 103.358 o
95.2436 88.8702 o
108.504 99.1977 o
114.021 100.154 o
112.356 99.799 o
111.49 104.337 o
108.462 84.0915 o
108.783 93.4496 o
112.891 88.7545 o
110.338 103.128 o
93.5365 88.5584 o
127.433 103.107 o
135.696 112.464 o
107.53 102.198 o
117.768 97.2845 o
129.649 108.683 o
108.169 89.5238 o
121.119 114.597 o
129.881 102.591 o
120.59 100.202 o
111.492 86.7069 o
109.529 96.6046 o
112.254 104.879 o
109.414 94.8988 o
128.778 101.415 o
115.802 111.183 o
95.0395 85.712 o
112.942 92.786 o
119.002 100.426 o
98.4938 97.493 o
113.706 86.3989 o
125.583 101.997 o
103.476 105.51 o
111.574 95.9709 o
124.347 103.456 o
125.377 105.925 o
116.392 101.466 o
114.419 104.784 o
109.519 94.4687 o
114.793 105.329 o
134.649 108.638 o
119.825 105.973 o
98.5488 91.2291 o
110.151 93.8751 o
119.817 100.133 o
114.346 102.054 o
116.084 90.2693 o
109.209 89.7409 o
117.309 106.756 o
111.678 101.124 o
106.47 89.2024 o
120.433 98.4283 o
110.047 90.5039 o
103.02 97.2479 o
105.131 104.898 o
108.016 98.4057 o
123.771 110.012 o
106.194 92.2159 o
122.673 111.033 o
111.682 102.309 o
117.678 101.154 o
109.347 97.3827 o
113.829 98.8828 o
123.586 89.2876 o
110.127 92.0171 o
112.77 91.0567 o
132.053 110.547 o
110.556 114.004 o
110.476 96.5493 o
115.786 91.2445 o
116.234 107.054 o
119.423 110.836 o
112.21 80.4241 o
126.519 88.6208 o
115.708 96.9745 o
109.738 86.305 o
109.92 91.0639 o
118.95 91.6043 o
119.592 91.8735 o
115.178 88.4911 o
112.443 102.398 o
115.792 108.71 o
103.821 79.6258 o
116.067 96.902 o
103.504 92.9133 o
118.898 100.9 o
109.859 98.293 o
118.256 101.592 o
95.6814 90.5228 o
99.7519 103.489 o
138.646 103.216 o
113.212 94.9002 o
108.808 96.0001 o
105.092 100.612 o
116.388 90.4821 o
124.537 125.913 o
123.316 109.225 o
109.889 99.2914 o
115.426 88.1087 o
152.02 104.767 o
115.009 92.466 o
119.996 98.0388 o
118.773 100.69 o
115.322 103.78 o
97.5548 78.6809 o
119.035 110.694 o
115.638 91.3127 o
106.051 100.19 o
131.99 105.577 o
107.245 98.9849 o
120.397 112.786 o
106.088 115.331 o
127.27 109.512 o
97.8347 92.4772 o
106.931 88.2152 o
115.216 109.168 o
118.805 103.221 o
126.221 110.07 o
117.104 107.562 o
115.252 99.4136 o
125.202 90.0023 o
124.622 112.161 o
118.662 94.952 o
116.458 106.477 o
101.298 108.806 o
115.069 114.9 o
124.25 96.2429 o
113.646 102.498 o
116.259 99.7555 o
119.075 100.597 o
132.094 116.31 o
167.26 108.846 o
101.744 88.021 o
98.3586 82.4045 o
104.469 100.848 o
115.958 97.888 o
109.31 94.902 o
110.491 105.146 o
109.278 104.751 o
123.188 106.753 o
119.426 86.749 o
111.012 103.931 o
115.45 101.289 o
116.126 104.495 o
113.803 97.3644 o
115.304 94.6169 o
110.179 96.7848 o
119.328 115.662 o
99.3 93.5864 o
118.586 100.432 o
100.459 96.8816 o
124.818 111.603 o
111.924 102.124 o
125.747 105.256 o
116.062 108.952 o
99.643 98.8841 o
113.421 104.353 o
112.367 105.328 o
138.276 107.302 o
109.236 95.2921 o
108.482 92.5014 o
115.698 106.743 o
105.591 93.7389 o
124.159 107.397 o
119.205 94.8292 o
112.004 114.295 o
117.066 98.796 o
131.992 97.7825 o
115.06 113.087 o
118.293 110.678 o
113.35 102.837 o
99.8662 91.364 o
121.628 91.4598 o
110.378 91.9063 o
116.937 90.3447 o
119.935 95.0831 o
128.404 103.598 o
114.488 99.9903 o
102.449 92.1233 o
112.603 98.3718 o
119.872 110.364 o
124.438 114.515 o
109.853 95.1401 o
105.067 86.4062 o
112.956 102.762 o
122.15 90.8271 o
108.166 101.038 o
105.512 101.533 o
123.584 103.267 o
104.701 101.854 o
121.709 104.787 o
107.534 108.768 o
102.049 95.8353 o
112.201 103.195 o
112.266 88.6149 o
109.399 94.8528 o
104.216 92.762 o
125.224 94.6282 o
118.054 105.31 o
101.703 96.3455 o
125.481 95.1097 o
108.026 90.2174 o
109.765 95.8962 o
137.072 118.586 o
113.357 102.837 o
106.125 96.0904 o
134.064 115.812 o
96.2666 111.237 o
110.325 89.6479 o
112.713 101.366 o
108.606 95.5783 o
123.846 100.474 o
123.887 101.677 o
119.793 112.378 o
106.233 112.698 o
119.956 93.141 o
127.7 113.226 o
105.773 82.7476 o
118.371 104.285 o
125.134 97.2442 o
106.14 98.7346 o
119.37 103.468 o
113.24 98.8004 o
129.469 112.015 o
111.146 83.4434 o
111.621 96.7047 o
113.243 94.1129 o
121.302 113.608 o
131.809 96.1319 o
113.438 96.9567 o
113.27 115.288 o
119.419 125.591 o
110.156 93.3274 o
114.855 113.115 o
106.219 101.993 o
111.291 95.9103 o
120.989 107.956 o
124.687 93.649 o
107.064 107.026 o
138.999 109.398 o
105.46 108.438 o
123.835 103.172 o
108.504 107.633 o
98.0717 89.1261 o
116.61 105.005 o
117.763 85.3863 o
95.5949 87.1813 o
117.274 101.327 o
123.267 97.0111 o
95.8433 89.9592 o
107.436 106.559 o
114.407 101.678 o
116.167 100.808 o
108.712 107.287 o
94.292 99.1661 o
135.461 103.082 o
104.997 102.528 o
53.74 106.725 o
104.737 100.994 o
116.942 72.8856 o
107.798 96.067 o
121.75 101.585 o
119.259 99.2086 o
118.157 98.5353 o
117.095 111.829 o
113.706 100.913 o
105.772 97.5411 o
121.501 100.925 o
107.957 99.2475 o
119.608 101.01 o
108.442 97.7638 o
117.237 92.0375 o
118.622 91.9316 o
115.14 107.652 o
113.151 100.783 o
107.897 95.7377 o
114.305 100.488 o
100.905 94.793 o
105.518 86.1083 o
110.007 86.2719 o
120.063 108.809 o
102.589 88.487 o
118.146 90.2551 o
117.626 101.838 o
122.448 96.2984 o
105.939 99.6617 o
112.921 101.204 o
109.895 84.0214 o
109.371 91.7452 o
118.15 85.7211 o
131.802 93.0228 o
117.487 105.514 o
116.327 103.214 o
94.6433 138.782 o
108.896 101.057 o
107.901 97.3441 o
110.257 98.9727 o
117.807 106.168 o
112.03 95.6764 o
115.247 101.84 o
125.251 106.027 o
122.85 119.24 o
106.321 100.77 o
113.789 96.3246 o
111.946 100.987 o
113.962 90.7831 o
98.6884 92.3606 o
116.222 106.815 o
107.93 103.741 o
109.055 126.694 o
114.11 104.581 o
110.244 86.6783 o
117.266 95.9047 o
125.731 102.573 o
121.679 90.2028 o
115.612 101.219 o
118.066 85.9382 o
115.842 102.802 o
112.657 93.5328 o
100.45 79.3052 o
128.018 104.604 o
112.042 104.821 o
125.667 98.2598 o
105.341 88.7207 o
115.623 95.1747 o
124.777 95.8593 o
107.269 97.1977 o
115.309 96.9053 o
118.139 106.684 o
121.839 93.6679 o
113.551 109.927 o
128.195 117.477 o
108.965 94.4625 o
109.558 102.245 o
109.87 88.686 o
102.33 96.2701 o
115.618 97.5762 o
130.45 109.966 o
101.498 102.531 o
128.491 116.944 o
108.82 92.0318 o
118.635 98.9276 o
118.279 102.466 o
146.964 117.963 o
137.794 104.577 o
137.245 102.193 o
116.956 92.9333 o
101.867 91.6285 o
108.989 86.1928 o
133.088 109.468 o
118.64 105.72 o
104.498 94.7039 o
127.255 101.722 o
114.644 91.7465 o
133.207 117.175 o
107.283 100.341 o
109.703 108.983 o
114.449 102.277 o
112.67 113.631 o
117.306 100.382 o
129.582 92.3047 o
112.237 98.0212 o
168.115 114.922 o
109.712 108.911 o
115.863 102.353 o
94.2098 96.4892 o
112.601 56.164 o
115.709 101.264 o
111.393 86.6864 o
121.36 107.463 o
120.021 93.766 o
116.22 84.0572 o
105.619 93.0134 o
119.881 103.307 o
106.528 81.3456 o
116.635 89.005 o
126.591 107.907 o
108.849 93.0643 o
133.329 115.474 o
131.947 110.058 o
122.108 112.674 o
110.302 105.807 o
105.347 100.313 o
101.242 90.949 o
109.72 109.466 o
103.551 99.2838 o
104.122 97.4582 o
108.234 91.8351 o
116.886 100.596 o
121.099 100.997 o
102.663 98.7268 o
105.847 85.1485 o
134.274 119.593 o
118.999 103.069 o
117.396 111.5 o
130.998 105.186 o
124.871 119.901 o
109.163 93.2244 o
102.918 93.7761 o
130.17 123.089 o
129.531 97.5063 o
103.499 103.193 o
129.005 106.152 o
122.266 105.833 o
124.059 104.477 o
121.22 99.6103 o
113.65 85.4682 o
110.885 97.6597 o
115.39 99.8723 o
119.583 102.319 o
109.724 77.829 o
121.93 105.274 o
117.068 102.424 o
129.302 118.323 o
134.67 111.647 o
112.666 101.897 o
111.111 101.145 o
119.803 96.2416 o
106.572 106.879 o
121.813 96.7415 o
119.206 101.184 o
116.712 102.461 o
107.471 91.1607 o
119.435 103.677 o
123.542 111.357 o
131.946 113.367 o
116.761 103.464 o
108.508 101.102 o
111.692 101.694 o
127.08 119.317 o
118.548 110.14 o
104.673 102.274 o
127.915 117.317 o
121.327 103.641 o
105.681 100.681 o
112.26 100.896 o
117.641 106.135 o
105.466 78.6165 o
111.347 100.11 o
105.937 93.3937 o
115.562 108.615 o
112.258 107.5 o
124.21 102.897 o
111.934 92.5855 o
133.18 117.147 o
114.113 102.767 o
92.8741 81.7598 o
115.342 96.0111 o
108.561 103.276 o
114.324 99.7138 o
109.03 110.874 o
112.89 95.8096 o
111.406 97.0749 o
125.482 106.047 o
111.679 95.8736 o
106.448 91.1425 o
124.007 112.739 o
120.979 107.205 o
96.416 82.807 o
107.967 101.847 o
115.706 98.9064 o
127.015 95.4525 o
116.164 101.577 o
112.609 96.6773 o
116.507 102.36 o
112.281 86.3544 o
125.206 112.172 o
103.262 107.684 o
134.617 109.911 o
117.756 94.6085 o
115.717 101.68 o
118.202 96.3816 o
116.641 107.502 o
118.58 100.418 o
117.515 94.2161 o
119.735 90.1858 o
118.913 102.611 o
126.608 114.425 o
111.31 103.483 o
92.3753 103.926 o
121.206 93.0603 o
121.468 98.56 o
118.247 105.075 o
119.634 106.373 o
131.166 106.087 o
133.691 110.186 o
122.774 100.754 o
114.203 97.5973 o
123.786 108.844 o
116.411 98.0806 o
113.918 99.8961 o
125.707 152.321 o
112.204 97.0955 o
118.676 98.5747 o
114.781 85.1352 o
92.8557 138.164 o
121.711 107.918 o
119.342 96.0166 o
98.0481 87.0538 o
130.731 121.645 o
114.147 87.1212 o
118.758 86.8693 o
111.734 102.822 o
112.727 94.2257 o
115.32 105.658 o
118.227 92.7979 o
122.492 120.076 o
146.083 116.315 o
126.536 109.772 o
129.896 104.532 o
118.543 101.438 o
124.831 109.041 o
115.706 107.114 o
121.04 96.0162 o
108.342 101.962 o
117.47 98.2318 o
107.534 99.142 o
118.477 93.3957 o
109.592 102.465 o
113.689 110.173 o
114.278 109.142 o
123.196 110.788 o
96.6026 102.966 o
99.8234 80.1869 o
115.286 96.8339 o
112.039 101.405 o
108.731 97.7202 o
114.107 94.4824 o
106.684 106.584 o
121.757 103.531 o
116.912 107.955 o
115.627 100.936 o
124.936 109.734 o
121.033 101.854 o
103.707 95.8443 o
115.925 96.2348 o
120.656 103.084 o
97.6885 106.862 o
126.165 114.149 o
110.54 100.003 o
109.152 101.866 o
115.791 103.764 o
122.203 105.974 o
110.777 109.107 o
95.7947 88.6493 o
112.704 98.5253 o
122.462 85.3434 o
118.198 94.9378 o
115.007 104.851 o
99.4933 89.4438 o
106.906 96.3683 o
113.293 109.247 o
89.2688 78.3584 o
120.251 99.4408 o
113.157 96.6095 o
119.252 111.105 o
127.546 90.19 o
110.692 98.7625 o
111.062 102.069 o
125.683 114.42 o
120.57 94.4387 o
119.585 105.178 o
111.679 100.117 o
104.387 108.039 o
123.567 99.2571 o
113.307 87.0405 o
127.189 93.9389 o
107.695 100.864 o
102.106 102.656 o
109.911 98.2654 o
109.385 103.614 o
122.344 99.7917 o
121.154 99.4123 o
112.247 97.8577 o
118.21 101.7 o
110.071 100.5 o
102.106 103.15 o
119.467 102.719 o
125.681 96.8451 o
124.12 109.352 o
134.186 108.867 o
111.666 96.3036 o
110.414 93.5461 o
123.098 105.599 o
118.511 96.8951 o
105.197 92.7808 o
115.607 100.49 o
121.069 99.7992 o
123.599 109.983 o
132.35 111.61 o
101.249 72.8198 o
103.285 94.0714 o
124.673 112.56 o
114.978 89.2336 o
114.956 99.0696 o
105.027 91.6896 o
127.901 102.998 o
118.28 94.3175 o
99.4706 99.3001 o
106.423 98.2222 o
121.615 104.163 o
105.992 87.4258 o
102.988 93.7167 o
113.259 94.7428 o
122.701 102.088 o
grestore
0.502 setgray
gsave
140.4 124.2 34.2 37.8 clipbox
/o {
gsave
newpath
translate
0.5 setlinewidth
1 setlinejoin
0 setlinecap
0 -0.25 m
0.0663008 -0.25 0.129895 -0.223658 0.176777 -0.176777 c
0.223658 -0.129895 0.25 -0.0663008 0.25 0 c
0.25 0.0663008 0.223658 0.129895 0.176777 0.176777 c
0.129895 0.223658 0.0663008 0.25 0 0.25 c
-0.0663008 0.25 -0.129895 0.223658 -0.176777 0.176777 c
-0.223658 0.129895 -0.25 0.0663008 -0.25 0 c
-0.25 -0.0663008 -0.223658 -0.129895 -0.176777 -0.176777 c
-0.129895 -0.223658 -0.0663008 -0.25 0 -0.25 c
cl
gsave
0.502 setgray
fill
grestore
stroke
grestore
} bind def
111.976 109.734 o
117.302 111.333 o
111.472 108.315 o
116.395 109.771 o
115.698 108.491 o
112.878 105.835 o
113.141 107.005 o
120.639 110.043 o
116.904 106.331 o
114.789 105.212 o
114.324 108.647 o
115.684 107.202 o
119.159 108.706 o
120.299 111.124 o
119.192 109.603 o
121.928 109.731 o
116.872 105.957 o
116.829 107.581 o
113.881 110.344 o
115.871 108.798 o
118.937 111.095 o
116.224 109.45 o
116.838 108.843 o
117.607 108.527 o
118.047 107.286 o
117.567 113.839 o
112.324 108.144 o
114.065 110.687 o
115.095 109.271 o
123.316 109.225 o
116.062 108.952 o
115.698 106.743 o
119.793 112.378 o
115.14 107.652 o
117.807 106.168 o
117.641 106.135 o
114.278 109.142 o
grestore
0.000 1.000 1.000 setrgbcolor
gsave
140.4 124.2 34.2 37.8 clipbox
/o {
gsave
newpath
translate
0.5 setlinewidth
1 setlinejoin
0 setlinecap
0 -1 m
0.265203 -1 0.51958 -0.894634 0.707107 -0.707107 c
0.894634 -0.51958 1 -0.265203 1 0 c
1 0.265203 0.894634 0.51958 0.707107 0.707107 c
0.51958 0.894634 0.265203 1 0 1 c
-0.265203 1 -0.51958 0.894634 -0.707107 0.707107 c
-0.894634 0.51958 -1 0.265203 -1 0 c
-1 -0.265203 -0.894634 -0.51958 -0.707107 -0.707107 c
-0.51958 -0.894634 -0.265203 -1 0 -1 c
cl
gsave
0.000 1.000 1.000 setrgbcolor
fill
grestore
stroke
grestore
} bind def
116.433 109.054 o
113.337 108.997 o
117.088 107.914 o
114.257 111.403 o
117.125 109.23 o
118.192 107.016 o
114.649 109.041 o
116.931 107.754 o
117.197 108.242 o
115.469 111.604 o
117.849 108.291 o
113.921 110.058 o
117.188 109.099 o
114.155 107.787 o
115.021 110.24 o
115.452 109.456 o
116.41 107.383 o
115.241 108.737 o
115.614 112.825 o
115.946 111.467 o
116.851 111.354 o
116.865 110.15 o
115.535 108.783 o
115.318 110.535 o
114.857 110.863 o
114.368 110.917 o
116.874 108.949 o
118.853 109.855 o
115.922 108.304 o
116.352 107.135 o
116.721 106.991 o
115.512 110.807 o
115.123 111.457 o
117.71 112.324 o
116.028 113.756 o
115.1 112.4 o
116.707 109.965 o
115.681 110.291 o
117.167 109.855 o
117.001 111.158 o
118.181 109.779 o
116.122 110.384 o
115.123 111.457 o
115.793 112.287 o
115.118 111.664 o
114.534 109.204 o
grestore
1.000 0.000 0.000 setrgbcolor
gsave
140.4 124.2 34.2 37.8 clipbox
/o {
gsave
newpath
translate
0.5 setlinewidth
1 setlinejoin
0 setlinecap
0 -1 m
0.265203 -1 0.51958 -0.894634 0.707107 -0.707107 c
0.894634 -0.51958 1 -0.265203 1 0 c
1 0.265203 0.894634 0.51958 0.707107 0.707107 c
0.51958 0.894634 0.265203 1 0 1 c
-0.265203 1 -0.51958 0.894634 -0.707107 0.707107 c
-0.894634 0.51958 -1 0.265203 -1 0 c
-1 -0.265203 -0.894634 -0.51958 -0.707107 -0.707107 c
-0.51958 -0.894634 -0.265203 -1 0 -1 c
cl
gsave
1.000 0.000 0.000 setrgbcolor
fill
grestore
stroke
grestore
} bind def
107.136 90.9721 o
108.312 88.2975 o
107.89 90.0781 o
108.75 90.5373 o
107.934 92.6086 o
109.626 90.3124 o
109.305 90.9217 o
110.113 89.6073 o
109.826 90.459 o
109.057 92.5983 o
110.252 90.3949 o
110.042 91.4317 o
109.897 91.121 o
111.887 88.6324 o
109.221 93.4879 o
110.341 91.8349 o
110.58 92.9859 o
110.979 93.2631 o
grestore
1.000 setlinewidth
0 setlinejoin
2 setlinecap
0.000 setgray
gsave
34.2 162 m
174.6 162 l
stroke
grestore
gsave
174.6 37.8 m
174.6 162 l
stroke
grestore
gsave
34.2 37.8 m
174.6 37.8 l
stroke
grestore
gsave
34.2 37.8 m
34.2 162 l
stroke
grestore
0.500 setlinewidth
1 setlinejoin
0 setlinecap
gsave
/o {
gsave
newpath
translate
0.5 setlinewidth
1 setlinejoin
0 setlinecap
0 0 m
0 4 l
gsave
0.000 setgray
fill
grestore
stroke
grestore
} bind def
34.2 37.8 o
grestore
gsave
/o {
gsave
newpath
translate
0.5 setlinewidth
1 setlinejoin
0 setlinecap
0 0 m
0 -4 l
gsave
0.000 setgray
fill
grestore
stroke
grestore
} bind def
34.2 162 o
grestore
/BitstreamVeraSans-Roman findfont
6.000 scalefont
setfont
gsave
28.387500 29.237500 translate
0.000000 rotate
0.000000 0.000000 m /minus glyphshow
5.027344 0.000000 m /eight glyphshow
8.844727 0.000000 m /zero glyphshow
grestore
gsave
/o {
gsave
newpath
translate
0.5 setlinewidth
1 setlinejoin
0 setlinecap
0 0 m
0 4 l
gsave
0.000 setgray
fill
grestore
stroke
grestore
} bind def
54.2571 37.8 o
grestore
gsave
/o {
gsave
newpath
translate
0.5 setlinewidth
1 setlinejoin
0 setlinecap
0 0 m
0 -4 l
gsave
0.000 setgray
fill
grestore
stroke
grestore
} bind def
54.2571 162 o
grestore
gsave
48.444643 29.237500 translate
0.000000 rotate
0.000000 0.000000 m /minus glyphshow
5.027344 0.000000 m /six glyphshow
8.844727 0.000000 m /zero glyphshow
grestore
gsave
/o {
gsave
newpath
translate
0.5 setlinewidth
1 setlinejoin
0 setlinecap
0 0 m
0 4 l
gsave
0.000 setgray
fill
grestore
stroke
grestore
} bind def
74.3143 37.8 o
grestore
gsave
/o {
gsave
newpath
translate
0.5 setlinewidth
1 setlinejoin
0 setlinecap
0 0 m
0 -4 l
gsave
0.000 setgray
fill
grestore
stroke
grestore
} bind def
74.3143 162 o
grestore
gsave
68.501786 29.237500 translate
0.000000 rotate
0.000000 0.000000 m /minus glyphshow
5.027344 0.000000 m /four glyphshow
8.844727 0.000000 m /zero glyphshow
grestore
gsave
/o {
gsave
newpath
translate
0.5 setlinewidth
1 setlinejoin
0 setlinecap
0 0 m
0 4 l
gsave
0.000 setgray
fill
grestore
stroke
grestore
} bind def
94.3714 37.8 o
grestore
gsave
/o {
gsave
newpath
translate
0.5 setlinewidth
1 setlinejoin
0 setlinecap
0 0 m
0 -4 l
gsave
0.000 setgray
fill
grestore
stroke
grestore
} bind def
94.3714 162 o
grestore
gsave
88.558929 29.237500 translate
0.000000 rotate
0.000000 0.000000 m /minus glyphshow
5.027344 0.000000 m /two glyphshow
8.844727 0.000000 m /zero glyphshow
grestore
gsave
/o {
gsave
newpath
translate
0.5 setlinewidth
1 setlinejoin
0 setlinecap
0 0 m
0 4 l
gsave
0.000 setgray
fill
grestore
stroke
grestore
} bind def
114.429 37.8 o
grestore
gsave
/o {
gsave
newpath
translate
0.5 setlinewidth
1 setlinejoin
0 setlinecap
0 0 m
0 -4 l
gsave
0.000 setgray
fill
grestore
stroke
grestore
} bind def
114.429 162 o
grestore
gsave
112.912946 29.237500 translate
0.000000 rotate
0.000000 0.000000 m /zero glyphshow
grestore
gsave
/o {
gsave
newpath
translate
0.5 setlinewidth
1 setlinejoin
0 setlinecap
0 0 m
0 4 l
gsave
0.000 setgray
fill
grestore
stroke
grestore
} bind def
134.486 37.8 o
grestore
gsave
/o {
gsave
newpath
translate
0.5 setlinewidth
1 setlinejoin
0 setlinecap
0 0 m
0 -4 l
gsave
0.000 setgray
fill
grestore
stroke
grestore
} bind def
134.486 162 o
grestore
gsave
131.087277 29.237500 translate
0.000000 rotate
0.000000 0.000000 m /two glyphshow
3.817383 0.000000 m /zero glyphshow
grestore
gsave
/o {
gsave
newpath
translate
0.5 setlinewidth
1 setlinejoin
0 setlinecap
0 0 m
0 4 l
gsave
0.000 setgray
fill
grestore
stroke
grestore
} bind def
154.543 37.8 o
grestore
gsave
/o {
gsave
newpath
translate
0.5 setlinewidth
1 setlinejoin
0 setlinecap
0 0 m
0 -4 l
gsave
0.000 setgray
fill
grestore
stroke
grestore
} bind def
154.543 162 o
grestore
gsave
151.074107 29.237500 translate
0.000000 rotate
0.000000 0.000000 m /four glyphshow
3.817383 0.000000 m /zero glyphshow
grestore
gsave
/o {
gsave
newpath
translate
0.5 setlinewidth
1 setlinejoin
0 setlinecap
0 0 m
0 4 l
gsave
0.000 setgray
fill
grestore
stroke
grestore
} bind def
174.6 37.8 o
grestore
gsave
/o {
gsave
newpath
translate
0.5 setlinewidth
1 setlinejoin
0 setlinecap
0 0 m
0 -4 l
gsave
0.000 setgray
fill
grestore
stroke
grestore
} bind def
174.6 162 o
grestore
gsave
171.193750 29.237500 translate
0.000000 rotate
0.000000 0.000000 m /six glyphshow
3.817383 0.000000 m /zero glyphshow
grestore
gsave
90.900000 16.987500 translate
0.000000 rotate
/Cmr10 findfont
8.0 scalefont
setfont
0.000000 0.000000 moveto
/X glyphshow

/BitstreamVeraSans-Roman findfont
8.0 scalefont
setfont
6.000000 0.000000 moveto
/space glyphshow

/Cmr10 findfont
8.0 scalefont
setfont
8.542969 0.000000 moveto
/parenleft glyphshow

11.648438 0.000000 moveto
/k glyphshow

15.863281 0.000000 moveto
/p glyphshow

20.304688 0.000000 moveto
/c glyphshow

23.855469 0.000000 moveto
/parenright glyphshow


grestore
gsave
/o {
gsave
newpath
translate
0.5 setlinewidth
1 setlinejoin
0 setlinecap
0 0 m
4 0 l
gsave
0.000 setgray
fill
grestore
stroke
grestore
} bind def
34.2 37.8 o
grestore
gsave
/o {
gsave
newpath
translate
0.5 setlinewidth
1 setlinejoin
0 setlinecap
0 0 m
-4 0 l
gsave
0.000 setgray
fill
grestore
stroke
grestore
} bind def
174.6 37.8 o
grestore
gsave
18.575000 36.143750 translate
0.000000 rotate
0.000000 0.000000 m /minus glyphshow
5.027344 0.000000 m /six glyphshow
8.844727 0.000000 m /zero glyphshow
grestore
gsave
/o {
gsave
newpath
translate
0.5 setlinewidth
1 setlinejoin
0 setlinecap
0 0 m
4 0 l
gsave
0.000 setgray
fill
grestore
stroke
grestore
} bind def
34.2 58.5 o
grestore
gsave
/o {
gsave
newpath
translate
0.5 setlinewidth
1 setlinejoin
0 setlinecap
0 0 m
-4 0 l
gsave
0.000 setgray
fill
grestore
stroke
grestore
} bind def
174.6 58.5 o
grestore
gsave
18.575000 56.843750 translate
0.000000 rotate
0.000000 0.000000 m /minus glyphshow
5.027344 0.000000 m /four glyphshow
8.844727 0.000000 m /zero glyphshow
grestore
gsave
/o {
gsave
newpath
translate
0.5 setlinewidth
1 setlinejoin
0 setlinecap
0 0 m
4 0 l
gsave
0.000 setgray
fill
grestore
stroke
grestore
} bind def
34.2 79.2 o
grestore
gsave
/o {
gsave
newpath
translate
0.5 setlinewidth
1 setlinejoin
0 setlinecap
0 0 m
-4 0 l
gsave
0.000 setgray
fill
grestore
stroke
grestore
} bind def
174.6 79.2 o
grestore
gsave
18.575000 77.543750 translate
0.000000 rotate
0.000000 0.000000 m /minus glyphshow
5.027344 0.000000 m /two glyphshow
8.844727 0.000000 m /zero glyphshow
grestore
gsave
/o {
gsave
newpath
translate
0.5 setlinewidth
1 setlinejoin
0 setlinecap
0 0 m
4 0 l
gsave
0.000 setgray
fill
grestore
stroke
grestore
} bind def
34.2 99.9 o
grestore
gsave
/o {
gsave
newpath
translate
0.5 setlinewidth
1 setlinejoin
0 setlinecap
0 0 m
-4 0 l
gsave
0.000 setgray
fill
grestore
stroke
grestore
} bind def
174.6 99.9 o
grestore
gsave
27.168750 98.243750 translate
0.000000 rotate
0.000000 0.000000 m /zero glyphshow
grestore
gsave
/o {
gsave
newpath
translate
0.5 setlinewidth
1 setlinejoin
0 setlinecap
0 0 m
4 0 l
gsave
0.000 setgray
fill
grestore
stroke
grestore
} bind def
34.2 120.6 o
grestore
gsave
/o {
gsave
newpath
translate
0.5 setlinewidth
1 setlinejoin
0 setlinecap
0 0 m
-4 0 l
gsave
0.000 setgray
fill
grestore
stroke
grestore
} bind def
174.6 120.6 o
grestore
gsave
23.403125 118.943750 translate
0.000000 rotate
0.000000 0.000000 m /two glyphshow
3.817383 0.000000 m /zero glyphshow
grestore
gsave
/o {
gsave
newpath
translate
0.5 setlinewidth
1 setlinejoin
0 setlinecap
0 0 m
4 0 l
gsave
0.000 setgray
fill
grestore
stroke
grestore
} bind def
34.2 141.3 o
grestore
gsave
/o {
gsave
newpath
translate
0.5 setlinewidth
1 setlinejoin
0 setlinecap
0 0 m
-4 0 l
gsave
0.000 setgray
fill
grestore
stroke
grestore
} bind def
174.6 141.3 o
grestore
gsave
23.262500 139.643750 translate
0.000000 rotate
0.000000 0.000000 m /four glyphshow
3.817383 0.000000 m /zero glyphshow
grestore
gsave
/o {
gsave
newpath
translate
0.5 setlinewidth
1 setlinejoin
0 setlinecap
0 0 m
4 0 l
gsave
0.000 setgray
fill
grestore
stroke
grestore
} bind def
34.2 162 o
grestore
gsave
/o {
gsave
newpath
translate
0.5 setlinewidth
1 setlinejoin
0 setlinecap
0 0 m
-4 0 l
gsave
0.000 setgray
fill
grestore
stroke
grestore
} bind def
174.6 162 o
grestore
gsave
23.387500 160.343750 translate
0.000000 rotate
0.000000 0.000000 m /six glyphshow
3.817383 0.000000 m /zero glyphshow
grestore
gsave
11.575000 86.400000 translate
90.000000 rotate
/Cmr10 findfont
8.0 scalefont
setfont
0.000000 0.000000 moveto
/Y glyphshow

/BitstreamVeraSans-Roman findfont
8.0 scalefont
setfont
6.000000 0.000000 moveto
/space glyphshow

/Cmr10 findfont
8.0 scalefont
setfont
8.542969 0.000000 moveto
/parenleft glyphshow

11.648438 0.000000 moveto
/k glyphshow

15.863281 0.000000 moveto
/p glyphshow

20.304688 0.000000 moveto
/c glyphshow

23.855469 0.000000 moveto
/parenright glyphshow


grestore

end
showpage
