%!PS-Adobe-3.0 EPSF-3.0
%%Title: /Users/iuliasimion/Observing2014/hac_spectra/allyson/reduced_plots/bhbs_K_lb.eps
%%Creator: matplotlib version 1.4.3, http://matplotlib.org/
%%CreationDate: Sun Dec 20 23:49:24 2015
%%Orientation: portrait
%%BoundingBox: -144 144 756 648
%%EndComments
%%BeginProlog
/mpldict 8 dict def
mpldict begin
/m { moveto } bind def
/l { lineto } bind def
/r { rlineto } bind def
/c { curveto } bind def
/cl { closepath } bind def
/box {
m
1 index 0 r
0 exch r
neg 0 r
cl
} bind def
/clipbox {
box
clip
newpath
} bind def
%!PS-Adobe-3.0 Resource-Font
%%Title: Bitstream Vera Sans
%%Copyright: Copyright (c) 2003 by Bitstream, Inc. All Rights Reserved.
%%Creator: Converted from TrueType to type 3 by PPR
25 dict begin
/_d{bind def}bind def
/_m{moveto}_d
/_l{lineto}_d
/_cl{closepath eofill}_d
/_c{curveto}_d
/_sc{7 -1 roll{setcachedevice}{pop pop pop pop pop pop}ifelse}_d
/_e{exec}_d
/FontName /BitstreamVeraSans-Roman def
/PaintType 0 def
/FontMatrix[.001 0 0 .001 0 0]def
/FontBBox[-183 -236 1287 928]def
/FontType 3 def
/Encoding [ /space /parenleft /parenright /hyphen /zero /two /three /four /five /six /B /H /K /S /a /b /d /e /g /i /l /n /s /t /minus ] def
/FontInfo 10 dict dup begin
/FamilyName (Bitstream Vera Sans) def
/FullName (Bitstream Vera Sans) def
/Notice (Copyright (c) 2003 by Bitstream, Inc. All Rights Reserved. Bitstream Vera is a trademark of Bitstream, Inc.) def
/Weight (Roman) def
/Version (Release 1.10) def
/ItalicAngle 0.0 def
/isFixedPitch false def
/UnderlinePosition -213 def
/UnderlineThickness 143 def
end readonly def
/CharStrings 25 dict dup begin
/space{318 0 0 0 0 0 _sc
}_d
/parenleft{390 0 86 -131 310 759 _sc
310 759 _m
266 683 234 609 213 536 _c
191 463 181 389 181 314 _c
181 238 191 164 213 91 _c
234 17 266 -56 310 -131 _c
232 -131 _l
183 -54 146 20 122 94 _c
98 168 86 241 86 314 _c
86 386 98 459 122 533 _c
146 607 182 682 232 759 _c
310 759 _l
_cl}_d
/parenright{390 0 80 -131 304 759 _sc
80 759 _m
158 759 _l
206 682 243 607 267 533 _c
291 459 304 386 304 314 _c
304 241 291 168 267 94 _c
243 20 206 -54 158 -131 _c
80 -131 _l
123 -56 155 17 177 91 _c
198 164 209 238 209 314 _c
209 389 198 463 177 536 _c
155 609 123 683 80 759 _c
_cl}_d
/hyphen{361 0 49 234 312 314 _sc
49 314 _m
312 314 _l
312 234 _l
49 234 _l
49 314 _l
_cl}_d
/zero{636 0 66 -13 570 742 _sc
318 664 _m
267 664 229 639 203 589 _c
177 539 165 464 165 364 _c
165 264 177 189 203 139 _c
229 89 267 64 318 64 _c
369 64 407 89 433 139 _c
458 189 471 264 471 364 _c
471 464 458 539 433 589 _c
407 639 369 664 318 664 _c
318 742 _m
399 742 461 709 505 645 _c
548 580 570 486 570 364 _c
570 241 548 147 505 83 _c
461 19 399 -13 318 -13 _c
236 -13 173 19 130 83 _c
87 147 66 241 66 364 _c
66 486 87 580 130 645 _c
173 709 236 742 318 742 _c
_cl}_d
/two{{636 0 73 0 536 742 _sc
192 83 _m
536 83 _l
536 0 _l
73 0 _l
73 83 _l
110 121 161 173 226 239 _c
290 304 331 346 348 365 _c
380 400 402 430 414 455 _c
426 479 433 504 433 528 _c
433 566 419 598 392 622 _c
365 646 330 659 286 659 _c
255 659 222 653 188 643 _c
154 632 117 616 78 594 _c
78 694 _l
118 710 155 722 189 730 _c
223 738 255 742 284 742 _c
}_e{359 742 419 723 464 685 _c
509 647 532 597 532 534 _c
532 504 526 475 515 449 _c
504 422 484 390 454 354 _c
446 344 420 317 376 272 _c
332 227 271 164 192 83 _c
_cl}_e}_d
/three{{636 0 76 -13 556 742 _sc
406 393 _m
453 383 490 362 516 330 _c
542 298 556 258 556 212 _c
556 140 531 84 482 45 _c
432 6 362 -13 271 -13 _c
240 -13 208 -10 176 -4 _c
144 1 110 10 76 22 _c
76 117 _l
103 101 133 89 166 81 _c
198 73 232 69 268 69 _c
330 69 377 81 409 105 _c
441 129 458 165 458 212 _c
458 254 443 288 413 312 _c
383 336 341 349 287 349 _c
}_e{202 349 _l
202 430 _l
291 430 _l
339 430 376 439 402 459 _c
428 478 441 506 441 543 _c
441 580 427 609 401 629 _c
374 649 336 659 287 659 _c
260 659 231 656 200 650 _c
169 644 135 635 98 623 _c
98 711 _l
135 721 170 729 203 734 _c
235 739 266 742 296 742 _c
370 742 429 725 473 691 _c
517 657 539 611 539 553 _c
539 513 527 479 504 451 _c
481 423 448 403 406 393 _c
_cl}_e}_d
/four{636 0 49 0 580 729 _sc
378 643 _m
129 254 _l
378 254 _l
378 643 _l
352 729 _m
476 729 _l
476 254 _l
580 254 _l
580 172 _l
476 172 _l
476 0 _l
378 0 _l
378 172 _l
49 172 _l
49 267 _l
352 729 _l
_cl}_d
/five{{636 0 77 -13 549 729 _sc
108 729 _m
495 729 _l
495 646 _l
198 646 _l
198 467 _l
212 472 227 476 241 478 _c
255 480 270 482 284 482 _c
365 482 429 459 477 415 _c
525 370 549 310 549 234 _c
549 155 524 94 475 51 _c
426 8 357 -13 269 -13 _c
238 -13 207 -10 175 -6 _c
143 -1 111 6 77 17 _c
77 116 _l
106 100 136 88 168 80 _c
199 72 232 69 267 69 _c
}_e{323 69 368 83 401 113 _c
433 143 450 183 450 234 _c
450 284 433 324 401 354 _c
368 384 323 399 267 399 _c
241 399 214 396 188 390 _c
162 384 135 375 108 363 _c
108 729 _l
_cl}_e}_d
/six{{636 0 70 -13 573 742 _sc
330 404 _m
286 404 251 388 225 358 _c
199 328 186 286 186 234 _c
186 181 199 139 225 109 _c
251 79 286 64 330 64 _c
374 64 409 79 435 109 _c
461 139 474 181 474 234 _c
474 286 461 328 435 358 _c
409 388 374 404 330 404 _c
526 713 _m
526 623 _l
501 635 476 644 451 650 _c
425 656 400 659 376 659 _c
310 659 260 637 226 593 _c
}_e{192 549 172 482 168 394 _c
187 422 211 444 240 459 _c
269 474 301 482 336 482 _c
409 482 467 459 509 415 _c
551 371 573 310 573 234 _c
573 159 550 99 506 54 _c
462 9 403 -13 330 -13 _c
246 -13 181 19 137 83 _c
92 147 70 241 70 364 _c
70 479 97 571 152 639 _c
206 707 280 742 372 742 _c
396 742 421 739 447 735 _c
472 730 498 723 526 713 _c
_cl}_e}_d
/B{{686 0 98 0 615 729 _sc
197 348 _m
197 81 _l
355 81 _l
408 81 447 92 473 114 _c
498 136 511 169 511 215 _c
511 260 498 293 473 315 _c
447 337 408 348 355 348 _c
197 348 _l
197 648 _m
197 428 _l
343 428 _l
391 428 426 437 450 455 _c
474 473 486 500 486 538 _c
486 574 474 602 450 620 _c
426 638 391 648 343 648 _c
197 648 _l
98 729 _m
350 729 _l
}_e{425 729 483 713 524 682 _c
564 650 585 606 585 549 _c
585 504 574 468 553 442 _c
532 416 502 399 462 393 _c
510 382 548 360 575 327 _c
601 294 615 253 615 204 _c
615 138 592 88 548 53 _c
504 17 441 0 360 0 _c
98 0 _l
98 729 _l
_cl}_e}_d
/H{752 0 98 0 654 729 _sc
98 729 _m
197 729 _l
197 430 _l
555 430 _l
555 729 _l
654 729 _l
654 0 _l
555 0 _l
555 347 _l
197 347 _l
197 0 _l
98 0 _l
98 729 _l
_cl}_d
/K{656 0 98 0 677 729 _sc
98 729 _m
197 729 _l
197 421 _l
524 729 _l
651 729 _l
289 389 _l
677 0 _l
547 0 _l
197 351 _l
197 0 _l
98 0 _l
98 729 _l
_cl}_d
/S{{635 0 66 -13 579 742 _sc
535 705 _m
535 609 _l
497 627 462 640 429 649 _c
395 657 363 662 333 662 _c
279 662 237 651 208 631 _c
179 610 165 580 165 542 _c
165 510 174 485 194 469 _c
213 452 250 439 304 429 _c
364 417 _l
437 403 491 378 526 343 _c
561 307 579 260 579 201 _c
579 130 555 77 508 41 _c
460 5 391 -13 300 -13 _c
265 -13 228 -9 189 -2 _c
}_e{150 5 110 16 69 32 _c
69 134 _l
109 111 148 94 186 83 _c
224 71 262 66 300 66 _c
356 66 399 77 430 99 _c
460 121 476 152 476 194 _c
476 230 465 258 443 278 _c
421 298 385 313 335 323 _c
275 335 _l
201 349 148 372 115 404 _c
82 435 66 478 66 534 _c
66 598 88 649 134 686 _c
179 723 242 742 322 742 _c
356 742 390 739 426 733 _c
461 727 497 717 535 705 _c
}_e{_cl}_e}_d
/a{{613 0 60 -13 522 560 _sc
343 275 _m
270 275 220 266 192 250 _c
164 233 150 205 150 165 _c
150 133 160 107 181 89 _c
202 70 231 61 267 61 _c
317 61 357 78 387 114 _c
417 149 432 196 432 255 _c
432 275 _l
343 275 _l
522 312 _m
522 0 _l
432 0 _l
432 83 _l
411 49 385 25 355 10 _c
325 -5 287 -13 243 -13 _c
187 -13 142 2 109 33 _c
76 64 60 106 60 159 _c
}_e{60 220 80 266 122 298 _c
163 329 224 345 306 345 _c
432 345 _l
432 354 _l
432 395 418 427 391 450 _c
364 472 326 484 277 484 _c
245 484 215 480 185 472 _c
155 464 127 453 100 439 _c
100 522 _l
132 534 164 544 195 550 _c
226 556 256 560 286 560 _c
365 560 424 539 463 498 _c
502 457 522 395 522 312 _c
_cl}_e}_d
/b{{635 0 91 -13 580 760 _sc
487 273 _m
487 339 473 390 446 428 _c
418 466 381 485 334 485 _c
286 485 249 466 222 428 _c
194 390 181 339 181 273 _c
181 207 194 155 222 117 _c
249 79 286 61 334 61 _c
381 61 418 79 446 117 _c
473 155 487 207 487 273 _c
181 464 _m
199 496 223 520 252 536 _c
281 552 316 560 356 560 _c
422 560 476 533 518 481 _c
559 428 580 359 580 273 _c
}_e{580 187 559 117 518 65 _c
476 13 422 -13 356 -13 _c
316 -13 281 -5 252 10 _c
223 25 199 49 181 82 _c
181 0 _l
91 0 _l
91 760 _l
181 760 _l
181 464 _l
_cl}_e}_d
/d{{635 0 55 -13 544 760 _sc
454 464 _m
454 760 _l
544 760 _l
544 0 _l
454 0 _l
454 82 _l
435 49 411 25 382 10 _c
353 -5 319 -13 279 -13 _c
213 -13 159 13 117 65 _c
75 117 55 187 55 273 _c
55 359 75 428 117 481 _c
159 533 213 560 279 560 _c
319 560 353 552 382 536 _c
411 520 435 496 454 464 _c
148 273 _m
148 207 161 155 188 117 _c
215 79 253 61 301 61 _c
}_e{348 61 385 79 413 117 _c
440 155 454 207 454 273 _c
454 339 440 390 413 428 _c
385 466 348 485 301 485 _c
253 485 215 466 188 428 _c
161 390 148 339 148 273 _c
_cl}_e}_d
/e{{615 0 55 -13 562 560 _sc
562 296 _m
562 252 _l
149 252 _l
153 190 171 142 205 110 _c
238 78 284 62 344 62 _c
378 62 412 66 444 74 _c
476 82 509 95 541 113 _c
541 28 _l
509 14 476 3 442 -3 _c
408 -9 373 -13 339 -13 _c
251 -13 182 12 131 62 _c
80 112 55 181 55 268 _c
55 357 79 428 127 481 _c
175 533 241 560 323 560 _c
397 560 455 536 498 489 _c
}_e{540 441 562 377 562 296 _c
472 322 _m
471 371 457 410 431 440 _c
404 469 368 484 324 484 _c
274 484 234 469 204 441 _c
174 413 156 373 152 322 _c
472 322 _l
_cl}_e}_d
/g{{635 0 55 -207 544 560 _sc
454 280 _m
454 344 440 395 414 431 _c
387 467 349 485 301 485 _c
253 485 215 467 188 431 _c
161 395 148 344 148 280 _c
148 215 161 165 188 129 _c
215 93 253 75 301 75 _c
349 75 387 93 414 129 _c
440 165 454 215 454 280 _c
544 68 _m
544 -24 523 -93 482 -139 _c
440 -184 377 -207 292 -207 _c
260 -207 231 -204 203 -200 _c
175 -195 147 -188 121 -178 _c
}_e{121 -91 _l
147 -105 173 -115 199 -122 _c
225 -129 251 -133 278 -133 _c
336 -133 380 -117 410 -87 _c
439 -56 454 -10 454 52 _c
454 96 _l
435 64 411 40 382 24 _c
353 8 319 0 279 0 _c
211 0 157 25 116 76 _c
75 127 55 195 55 280 _c
55 364 75 432 116 483 _c
157 534 211 560 279 560 _c
319 560 353 552 382 536 _c
411 520 435 496 454 464 _c
454 547 _l
544 547 _l
}_e{544 68 _l
_cl}_e}_d
/i{278 0 94 0 184 760 _sc
94 547 _m
184 547 _l
184 0 _l
94 0 _l
94 547 _l
94 760 _m
184 760 _l
184 646 _l
94 646 _l
94 760 _l
_cl}_d
/l{278 0 94 0 184 760 _sc
94 760 _m
184 760 _l
184 0 _l
94 0 _l
94 760 _l
_cl}_d
/n{634 0 91 0 549 560 _sc
549 330 _m
549 0 _l
459 0 _l
459 327 _l
459 379 448 417 428 443 _c
408 469 378 482 338 482 _c
289 482 251 466 223 435 _c
195 404 181 362 181 309 _c
181 0 _l
91 0 _l
91 547 _l
181 547 _l
181 462 _l
202 494 227 519 257 535 _c
286 551 320 560 358 560 _c
420 560 468 540 500 501 _c
532 462 549 405 549 330 _c
_cl}_d
/s{{521 0 54 -13 472 560 _sc
443 531 _m
443 446 _l
417 458 391 468 364 475 _c
336 481 308 485 279 485 _c
234 485 200 478 178 464 _c
156 450 145 430 145 403 _c
145 382 153 366 169 354 _c
185 342 217 330 265 320 _c
296 313 _l
360 299 405 279 432 255 _c
458 230 472 195 472 151 _c
472 100 452 60 412 31 _c
372 1 316 -13 246 -13 _c
216 -13 186 -10 154 -5 _c
}_e{122 0 89 8 54 20 _c
54 113 _l
87 95 120 82 152 74 _c
184 65 216 61 248 61 _c
290 61 323 68 346 82 _c
368 96 380 117 380 144 _c
380 168 371 187 355 200 _c
339 213 303 226 247 238 _c
216 245 _l
160 257 119 275 95 299 _c
70 323 58 356 58 399 _c
58 450 76 490 112 518 _c
148 546 200 560 268 560 _c
301 560 332 557 362 552 _c
391 547 418 540 443 531 _c
}_e{_cl}_e}_d
/t{392 0 27 0 368 702 _sc
183 702 _m
183 547 _l
368 547 _l
368 477 _l
183 477 _l
183 180 _l
183 135 189 106 201 94 _c
213 81 238 75 276 75 _c
368 75 _l
368 0 _l
276 0 _l
206 0 158 13 132 39 _c
106 65 93 112 93 180 _c
93 477 _l
27 477 _l
27 547 _l
93 547 _l
93 702 _l
183 702 _l
_cl}_d
/minus{838 0 106 272 732 355 _sc
106 355 _m
732 355 _l
732 272 _l
106 272 _l
106 355 _l
_cl}_d
end readonly def

/BuildGlyph
 {exch begin
 CharStrings exch
 2 copy known not{pop /.notdef}if
 true 3 1 roll get exec
 end}_d

/BuildChar {
 1 index /Encoding get exch get
 1 index /BuildGlyph get exec
}_d

FontName currentdict end definefont pop
end
%%EndProlog
mpldict begin
-144 144 translate
900 504 0 0 clipbox
gsave
0 0 m
900 0 l
900 504 l
0 504 l
cl
1.000 setgray
fill
grestore
gsave
99 65.52 m
855 65.52 l
855 473.76 l
99 473.76 l
cl
1.000 setgray
fill
grestore
0.500 setlinewidth
1 setlinejoin
0 setlinecap
[] 0 setdash
0.000 setgray
gsave
756 408.2 99 65.52 clipbox
/o {
gsave
newpath
translate
0.5 setlinewidth
1 setlinejoin
0 setlinecap
0 -5 m
1.32602 -5 2.5979 -4.47317 3.53553 -3.53553 c
4.47317 -2.5979 5 -1.32602 5 0 c
5 1.32602 4.47317 2.5979 3.53553 3.53553 c
2.5979 4.47317 1.32602 5 0 5 c
-1.32602 5 -2.5979 4.47317 -3.53553 3.53553 c
-4.47317 2.5979 -5 1.32602 -5 0 c
-5 -1.32602 -4.47317 -2.5979 -3.53553 -3.53553 c
-2.5979 -4.47317 -1.32602 -5 0 -5 c
cl
gsave
0.000 setgray
fill
grestore
stroke
grestore
} bind def
229.739 439.083 o
228.064 446.175 o
238.107 442.699 o
241.714 441.955 o
236.099 443.262 o
215.817 440.029 o
250.294 437.774 o
207.785 435.442 o
219.077 427.074 o
234.854 431.568 o
221.306 438.681 o
200.232 414.332 o
226.076 410.557 o
221.112 409.616 o
209.009 409.741 o
243.104 430.905 o
218.495 440.078 o
232.566 439.805 o
242.072 380.455 o
240.713 378.292 o
206.591 401.956 o
211.306 405.253 o
205.505 396.569 o
198.491 393.819 o
200.409 395.479 o
219.348 395.448 o
204.297 394.199 o
221.991 388.633 o
218.522 380.068 o
234.745 381.689 o
241.691 387.848 o
254.389 399.557 o
243.046 389.09 o
252.292 404.992 o
228.987 415.573 o
247.833 408.652 o
242.075 410.76 o
250.535 460.803 o
244.348 449.818 o
209.305 446.368 o
221.167 450.579 o
213.555 448.286 o
230.301 452.378 o
525.625 249.781 o
515.355 241.456 o
497.579 251.737 o
736.947 265.991 o
711.493 262.131 o
713.267 257.66 o
428.523 372.034 o
432.142 355.779 o
450.788 357.806 o
428.48 366.702 o
461.378 344.603 o
634.784 331.177 o
619.711 329.565 o
621.425 329.213 o
635.479 336.497 o
592.238 400.171 o
585.784 398.794 o
557.746 405.005 o
544.009 408.741 o
573.922 425.698 o
582.102 367.501 o
775.408 256.364 o
575.988 422.326 o
805.274 182.574 o
846.066 199.883 o
815.795 190.338 o
799.809 226.925 o
788.462 203.684 o
grestore
gsave
756 408.2 99 65.52 clipbox
/o {
gsave
newpath
translate
0.5 setlinewidth
1 setlinejoin
0 setlinecap
0 -5 m
1.32602 -5 2.5979 -4.47317 3.53553 -3.53553 c
4.47317 -2.5979 5 -1.32602 5 0 c
5 1.32602 4.47317 2.5979 3.53553 3.53553 c
2.5979 4.47317 1.32602 5 0 5 c
-1.32602 5 -2.5979 4.47317 -3.53553 3.53553 c
-4.47317 2.5979 -5 1.32602 -5 0 c
-5 -1.32602 -4.47317 -2.5979 -3.53553 -3.53553 c
-2.5979 -4.47317 -1.32602 -5 0 -5 c
cl
gsave
0.502 setgray
fill
grestore
stroke
grestore
} bind def
424.895 365.532 o
649.726 305.24 o
841.821 215.721 o
559.494 400.132 o
555.859 409.505 o
536.705 405.24 o
543.481 416.9 o
547.33 417.228 o
541.748 414.366 o
566.948 417.582 o
447.816 346.221 o
424.891 375.377 o
444.791 364.685 o
450.324 364.809 o
458.518 366.35 o
470.581 369.928 o
456.584 354.707 o
635.218 337.731 o
644.586 335.648 o
663.07 347.17 o
660.726 336.301 o
217.544 434.464 o
222.602 445.649 o
221.545 445.28 o
226.268 464.868 o
219.714 459.782 o
239.9 457.683 o
243.915 454.579 o
226.89 447.783 o
234.804 440.896 o
509.952 249.964 o
519.738 261.649 o
545.516 255.665 o
549.325 259.331 o
642.067 86.3141 o
710.097 96.0593 o
646.245 392.36 o
625.532 410.359 o
611.092 404.02 o
613.547 418.727 o
639.397 417.697 o
644.495 407.334 o
653.063 396.304 o
216.887 383.853 o
215.857 381.394 o
218.482 386.365 o
218.308 395.376 o
237.736 409.461 o
227.696 407.124 o
241.052 399.828 o
234.964 390.411 o
215.324 423.249 o
210.097 420.837 o
239.132 441.266 o
237.131 419.829 o
230.4 418.261 o
233.545 422.22 o
grestore
gsave
756 408.2 99 65.52 clipbox
/o {
gsave
newpath
translate
0.5 setlinewidth
1 setlinejoin
0 setlinecap
0 -5 m
1.32602 -5 2.5979 -4.47317 3.53553 -3.53553 c
4.47317 -2.5979 5 -1.32602 5 0 c
5 1.32602 4.47317 2.5979 3.53553 3.53553 c
2.5979 4.47317 1.32602 5 0 5 c
-1.32602 5 -2.5979 4.47317 -3.53553 3.53553 c
-4.47317 2.5979 -5 1.32602 -5 0 c
-5 -1.32602 -4.47317 -2.5979 -3.53553 -3.53553 c
-2.5979 -4.47317 -1.32602 -5 0 -5 c
cl
gsave
1.000 0.753 0.796 setrgbcolor
fill
grestore
stroke
grestore
} bind def
504.464 257.651 o
512.927 264.846 o
544.219 251.436 o
546.437 258.691 o
514.65 230.946 o
551.492 240.96 o
615.897 348.935 o
621.824 328.689 o
686.901 289.492 o
651.101 331.408 o
660.63 339.452 o
723.037 280.562 o
837.504 202.824 o
220.856 437.108 o
230.155 424.303 o
226.487 403.015 o
250.599 453.749 o
426.5 366.87 o
444.451 350.704 o
473.299 359.071 o
561.379 415.703 o
599.308 407.794 o
640.876 416.938 o
grestore
1.000 setlinewidth
0 setlinejoin
2 setlinecap
gsave
99 473.76 m
855 473.76 l
stroke
grestore
gsave
855 65.52 m
855 473.76 l
stroke
grestore
gsave
99 65.52 m
855 65.52 l
stroke
grestore
gsave
99 65.52 m
99 473.76 l
stroke
grestore
0.500 setlinewidth
1 setlinejoin
0 setlinecap
gsave
/o {
gsave
newpath
translate
0.5 setlinewidth
1 setlinejoin
0 setlinecap
0 0 m
0 4 l
gsave
0.000 setgray
fill
grestore
stroke
grestore
} bind def
99 65.52 o
grestore
gsave
/o {
gsave
newpath
translate
0.5 setlinewidth
1 setlinejoin
0 setlinecap
0 0 m
0 -4 l
gsave
0.000 setgray
fill
grestore
stroke
grestore
} bind def
99 473.76 o
grestore
/BitstreamVeraSans-Roman findfont
20.000 scalefont
setfont
gsave
87.882812 46.316875 translate
0.000000 rotate
0.000000 0.000000 m /two glyphshow
12.724609 0.000000 m /five glyphshow
grestore
gsave
/o {
gsave
newpath
translate
0.5 setlinewidth
1 setlinejoin
0 setlinecap
0 0 m
0 4 l
gsave
0.000 setgray
fill
grestore
stroke
grestore
} bind def
207 65.52 o
grestore
gsave
/o {
gsave
newpath
translate
0.5 setlinewidth
1 setlinejoin
0 setlinecap
0 0 m
0 -4 l
gsave
0.000 setgray
fill
grestore
stroke
grestore
} bind def
207 473.76 o
grestore
gsave
195.710937 46.316875 translate
0.000000 rotate
0.000000 0.000000 m /three glyphshow
12.724609 0.000000 m /zero glyphshow
grestore
gsave
/o {
gsave
newpath
translate
0.5 setlinewidth
1 setlinejoin
0 setlinecap
0 0 m
0 4 l
gsave
0.000 setgray
fill
grestore
stroke
grestore
} bind def
315 65.52 o
grestore
gsave
/o {
gsave
newpath
translate
0.5 setlinewidth
1 setlinejoin
0 setlinecap
0 0 m
0 -4 l
gsave
0.000 setgray
fill
grestore
stroke
grestore
} bind def
315 473.76 o
grestore
gsave
303.914062 46.316875 translate
0.000000 rotate
0.000000 0.000000 m /three glyphshow
12.724609 0.000000 m /five glyphshow
grestore
gsave
/o {
gsave
newpath
translate
0.5 setlinewidth
1 setlinejoin
0 setlinecap
0 0 m
0 4 l
gsave
0.000 setgray
fill
grestore
stroke
grestore
} bind def
423 65.52 o
grestore
gsave
/o {
gsave
newpath
translate
0.5 setlinewidth
1 setlinejoin
0 setlinecap
0 0 m
0 -4 l
gsave
0.000 setgray
fill
grestore
stroke
grestore
} bind def
423 473.76 o
grestore
gsave
411.437500 46.316875 translate
0.000000 rotate
0.000000 0.000000 m /four glyphshow
12.724609 0.000000 m /zero glyphshow
grestore
gsave
/o {
gsave
newpath
translate
0.5 setlinewidth
1 setlinejoin
0 setlinecap
0 0 m
0 4 l
gsave
0.000 setgray
fill
grestore
stroke
grestore
} bind def
531 65.52 o
grestore
gsave
/o {
gsave
newpath
translate
0.5 setlinewidth
1 setlinejoin
0 setlinecap
0 0 m
0 -4 l
gsave
0.000 setgray
fill
grestore
stroke
grestore
} bind def
531 473.76 o
grestore
gsave
519.640625 46.316875 translate
0.000000 rotate
0.000000 0.000000 m /four glyphshow
12.724609 0.000000 m /five glyphshow
grestore
gsave
/o {
gsave
newpath
translate
0.5 setlinewidth
1 setlinejoin
0 setlinecap
0 0 m
0 4 l
gsave
0.000 setgray
fill
grestore
stroke
grestore
} bind def
639 65.52 o
grestore
gsave
/o {
gsave
newpath
translate
0.5 setlinewidth
1 setlinejoin
0 setlinecap
0 0 m
0 -4 l
gsave
0.000 setgray
fill
grestore
stroke
grestore
} bind def
639 473.76 o
grestore
gsave
627.718750 46.316875 translate
0.000000 rotate
0.000000 0.000000 m /five glyphshow
12.724609 0.000000 m /zero glyphshow
grestore
gsave
/o {
gsave
newpath
translate
0.5 setlinewidth
1 setlinejoin
0 setlinecap
0 0 m
0 4 l
gsave
0.000 setgray
fill
grestore
stroke
grestore
} bind def
747 65.52 o
grestore
gsave
/o {
gsave
newpath
translate
0.5 setlinewidth
1 setlinejoin
0 setlinecap
0 0 m
0 -4 l
gsave
0.000 setgray
fill
grestore
stroke
grestore
} bind def
747 473.76 o
grestore
gsave
735.921875 46.316875 translate
0.000000 rotate
0.000000 0.000000 m /five glyphshow
12.724609 0.000000 m /five glyphshow
grestore
gsave
/o {
gsave
newpath
translate
0.5 setlinewidth
1 setlinejoin
0 setlinecap
0 0 m
0 4 l
gsave
0.000 setgray
fill
grestore
stroke
grestore
} bind def
855 65.52 o
grestore
gsave
/o {
gsave
newpath
translate
0.5 setlinewidth
1 setlinejoin
0 setlinecap
0 0 m
0 -4 l
gsave
0.000 setgray
fill
grestore
stroke
grestore
} bind def
855 473.76 o
grestore
gsave
843.640625 46.316875 translate
0.000000 rotate
0.000000 0.000000 m /six glyphshow
12.724609 0.000000 m /zero glyphshow
grestore
/BitstreamVeraSans-Roman findfont
28.000 scalefont
setfont
gsave
432.539062 15.879375 translate
0.000000 rotate
0.000000 0.000000 m /l glyphshow
7.779297 0.000000 m /space glyphshow
16.679688 0.000000 m /parenleft glyphshow
27.603516 0.000000 m /d glyphshow
45.376953 0.000000 m /e glyphshow
62.603516 0.000000 m /g glyphshow
80.376953 0.000000 m /parenright glyphshow
grestore
gsave
/o {
gsave
newpath
translate
0.5 setlinewidth
1 setlinejoin
0 setlinecap
0 0 m
4 0 l
gsave
0.000 setgray
fill
grestore
stroke
grestore
} bind def
99 65.52 o
grestore
gsave
/o {
gsave
newpath
translate
0.5 setlinewidth
1 setlinejoin
0 setlinecap
0 0 m
-4 0 l
gsave
0.000 setgray
fill
grestore
stroke
grestore
} bind def
855 65.52 o
grestore
/BitstreamVeraSans-Roman findfont
20.000 scalefont
setfont
gsave
56.250000 59.996563 translate
0.000000 rotate
0.000000 0.000000 m /minus glyphshow
16.757812 0.000000 m /five glyphshow
29.482422 0.000000 m /zero glyphshow
grestore
gsave
/o {
gsave
newpath
translate
0.5 setlinewidth
1 setlinejoin
0 setlinecap
0 0 m
4 0 l
gsave
0.000 setgray
fill
grestore
stroke
grestore
} bind def
99 133.56 o
grestore
gsave
/o {
gsave
newpath
translate
0.5 setlinewidth
1 setlinejoin
0 setlinecap
0 0 m
-4 0 l
gsave
0.000 setgray
fill
grestore
stroke
grestore
} bind def
855 133.56 o
grestore
gsave
56.656250 128.036563 translate
0.000000 rotate
0.000000 0.000000 m /minus glyphshow
16.757812 0.000000 m /four glyphshow
29.482422 0.000000 m /five glyphshow
grestore
gsave
/o {
gsave
newpath
translate
0.5 setlinewidth
1 setlinejoin
0 setlinecap
0 0 m
4 0 l
gsave
0.000 setgray
fill
grestore
stroke
grestore
} bind def
99 201.6 o
grestore
gsave
/o {
gsave
newpath
translate
0.5 setlinewidth
1 setlinejoin
0 setlinecap
0 0 m
-4 0 l
gsave
0.000 setgray
fill
grestore
stroke
grestore
} bind def
855 201.6 o
grestore
gsave
56.250000 196.076563 translate
0.000000 rotate
0.000000 0.000000 m /minus glyphshow
16.757812 0.000000 m /four glyphshow
29.482422 0.000000 m /zero glyphshow
grestore
gsave
/o {
gsave
newpath
translate
0.5 setlinewidth
1 setlinejoin
0 setlinecap
0 0 m
4 0 l
gsave
0.000 setgray
fill
grestore
stroke
grestore
} bind def
99 269.64 o
grestore
gsave
/o {
gsave
newpath
translate
0.5 setlinewidth
1 setlinejoin
0 setlinecap
0 0 m
-4 0 l
gsave
0.000 setgray
fill
grestore
stroke
grestore
} bind def
855 269.64 o
grestore
gsave
56.656250 264.116563 translate
0.000000 rotate
0.000000 0.000000 m /minus glyphshow
16.757812 0.000000 m /three glyphshow
29.482422 0.000000 m /five glyphshow
grestore
gsave
/o {
gsave
newpath
translate
0.5 setlinewidth
1 setlinejoin
0 setlinecap
0 0 m
4 0 l
gsave
0.000 setgray
fill
grestore
stroke
grestore
} bind def
99 337.68 o
grestore
gsave
/o {
gsave
newpath
translate
0.5 setlinewidth
1 setlinejoin
0 setlinecap
0 0 m
-4 0 l
gsave
0.000 setgray
fill
grestore
stroke
grestore
} bind def
855 337.68 o
grestore
gsave
56.250000 332.156563 translate
0.000000 rotate
0.000000 0.000000 m /minus glyphshow
16.757812 0.000000 m /three glyphshow
29.482422 0.000000 m /zero glyphshow
grestore
gsave
/o {
gsave
newpath
translate
0.5 setlinewidth
1 setlinejoin
0 setlinecap
0 0 m
4 0 l
gsave
0.000 setgray
fill
grestore
stroke
grestore
} bind def
99 405.72 o
grestore
gsave
/o {
gsave
newpath
translate
0.5 setlinewidth
1 setlinejoin
0 setlinecap
0 0 m
-4 0 l
gsave
0.000 setgray
fill
grestore
stroke
grestore
} bind def
855 405.72 o
grestore
gsave
56.656250 400.196563 translate
0.000000 rotate
0.000000 0.000000 m /minus glyphshow
16.757812 0.000000 m /two glyphshow
29.482422 0.000000 m /five glyphshow
grestore
gsave
/o {
gsave
newpath
translate
0.5 setlinewidth
1 setlinejoin
0 setlinecap
0 0 m
4 0 l
gsave
0.000 setgray
fill
grestore
stroke
grestore
} bind def
99 473.76 o
grestore
gsave
/o {
gsave
newpath
translate
0.5 setlinewidth
1 setlinejoin
0 setlinecap
0 0 m
-4 0 l
gsave
0.000 setgray
fill
grestore
stroke
grestore
} bind def
855 473.76 o
grestore
gsave
56.250000 468.236563 translate
0.000000 rotate
0.000000 0.000000 m /minus glyphshow
16.757812 0.000000 m /two glyphshow
29.482422 0.000000 m /zero glyphshow
grestore
/BitstreamVeraSans-Roman findfont
28.000 scalefont
setfont
gsave
45.421875 220.179062 translate
90.000000 rotate
0.000000 0.000000 m /b glyphshow
17.773438 0.000000 m /space glyphshow
26.673828 0.000000 m /parenleft glyphshow
37.597656 0.000000 m /d glyphshow
55.371094 0.000000 m /e glyphshow
72.597656 0.000000 m /g glyphshow
90.371094 0.000000 m /parenright glyphshow
grestore
1.000 setlinewidth
0 setlinejoin
gsave
109 75.52 m
257.703 75.52 l
257.703 169.598 l
109 169.598 l
cl
gsave
1.000 setgray
fill
grestore
stroke
grestore
0.500 setlinewidth
1 setlinejoin
gsave
/o {
gsave
newpath
translate
0.5 setlinewidth
1 setlinejoin
0 setlinecap
0 -5 m
1.32602 -5 2.5979 -4.47317 3.53553 -3.53553 c
4.47317 -2.5979 5 -1.32602 5 0 c
5 1.32602 4.47317 2.5979 3.53553 3.53553 c
2.5979 4.47317 1.32602 5 0 5 c
-1.32602 5 -2.5979 4.47317 -3.53553 3.53553 c
-4.47317 2.5979 -5 1.32602 -5 0 c
-5 -1.32602 -4.47317 -2.5979 -3.53553 -3.53553 c
-2.5979 -4.47317 -1.32602 -5 0 -5 c
cl
gsave
0.000 setgray
fill
grestore
stroke
grestore
} bind def
137 153.395 o
grestore
/BitstreamVeraSans-Roman findfont
20.000 scalefont
setfont
gsave
173.000000 146.395000 translate
0.000000 rotate
0.000000 0.000000 m /B glyphshow
13.720703 0.000000 m /H glyphshow
28.759766 0.000000 m /B glyphshow
42.480469 0.000000 m /s glyphshow
grestore
gsave
/o {
gsave
newpath
translate
0.5 setlinewidth
1 setlinejoin
0 setlinecap
0 -5 m
1.32602 -5 2.5979 -4.47317 3.53553 -3.53553 c
4.47317 -2.5979 5 -1.32602 5 0 c
5 1.32602 4.47317 2.5979 3.53553 3.53553 c
2.5979 4.47317 1.32602 5 0 5 c
-1.32602 5 -2.5979 4.47317 -3.53553 3.53553 c
-4.47317 2.5979 -5 1.32602 -5 0 c
-5 -1.32602 -4.47317 -2.5979 -3.53553 -3.53553 c
-2.5979 -4.47317 -1.32602 -5 0 -5 c
cl
gsave
0.502 setgray
fill
grestore
stroke
grestore
} bind def
137 124.036 o
grestore
gsave
173.000000 117.035625 translate
0.000000 rotate
0.000000 0.000000 m /K glyphshow
10.990234 0.000000 m /hyphen glyphshow
18.207031 0.000000 m /g glyphshow
30.902344 0.000000 m /i glyphshow
36.458984 0.000000 m /a glyphshow
48.714844 0.000000 m /n glyphshow
61.390625 0.000000 m /t glyphshow
69.232422 0.000000 m /s glyphshow
grestore
gsave
/o {
gsave
newpath
translate
0.5 setlinewidth
1 setlinejoin
0 setlinecap
0 -5 m
1.32602 -5 2.5979 -4.47317 3.53553 -3.53553 c
4.47317 -2.5979 5 -1.32602 5 0 c
5 1.32602 4.47317 2.5979 3.53553 3.53553 c
2.5979 4.47317 1.32602 5 0 5 c
-1.32602 5 -2.5979 4.47317 -3.53553 3.53553 c
-4.47317 2.5979 -5 1.32602 -5 0 c
-5 -1.32602 -4.47317 -2.5979 -3.53553 -3.53553 c
-2.5979 -4.47317 -1.32602 -5 0 -5 c
cl
gsave
1.000 0.753 0.796 setrgbcolor
fill
grestore
stroke
grestore
} bind def
137 94.6762 o
grestore
gsave
173.000000 87.676250 translate
0.000000 rotate
0.000000 0.000000 m /B glyphshow
13.345703 0.000000 m /S glyphshow
grestore

end
showpage
