%!PS-Adobe-3.0 EPSF-3.0
%%Title: /Users/iuliasimion/Observing2014/hac_spectra/allyson/reduced_plots/l_b_vgsr_RRL_False_False_False.eps
%%Creator: matplotlib version 1.4.3, http://matplotlib.org/
%%CreationDate: Sat Aug 19 17:09:55 2017
%%Orientation: portrait
%%BoundingBox: -144 144 756 648
%%EndComments
%%BeginProlog
/mpldict 10 dict def
mpldict begin
/m { moveto } bind def
/l { lineto } bind def
/r { rlineto } bind def
/c { curveto } bind def
/cl { closepath } bind def
/box {
m
1 index 0 r
0 exch r
neg 0 r
cl
} bind def
/clipbox {
box
clip
newpath
} bind def
%!PS-Adobe-3.0 Resource-Font
%%Title: Bitstream Vera Sans
%%Copyright: Copyright (c) 2003 by Bitstream, Inc. All Rights Reserved.
%%Creator: Converted from TrueType to type 3 by PPR
25 dict begin
/_d{bind def}bind def
/_m{moveto}_d
/_l{lineto}_d
/_cl{closepath eofill}_d
/_c{curveto}_d
/_sc{7 -1 roll{setcachedevice}{pop pop pop pop pop pop}ifelse}_d
/_e{exec}_d
/FontName /BitstreamVeraSans-Roman def
/PaintType 0 def
/FontMatrix[.001 0 0 .001 0 0]def
/FontBBox[-183 -236 1287 928]def
/FontType 3 def
/Encoding [ /space /parenleft /parenright /hyphen /slash /zero /one /two /three /four /five /six /eight /L /R /a /e /k /m /r /s /y /minus ] def
/FontInfo 10 dict dup begin
/FamilyName (Bitstream Vera Sans) def
/FullName (Bitstream Vera Sans) def
/Notice (Copyright (c) 2003 by Bitstream, Inc. All Rights Reserved. Bitstream Vera is a trademark of Bitstream, Inc.) def
/Weight (Roman) def
/Version (Release 1.10) def
/ItalicAngle 0.0 def
/isFixedPitch false def
/UnderlinePosition -213 def
/UnderlineThickness 143 def
end readonly def
/CharStrings 23 dict dup begin
/space{318 0 0 0 0 0 _sc
}_d
/parenleft{390 0 86 -131 310 759 _sc
310 759 _m
266 683 234 609 213 536 _c
191 463 181 389 181 314 _c
181 238 191 164 213 91 _c
234 17 266 -56 310 -131 _c
232 -131 _l
183 -54 146 20 122 94 _c
98 168 86 241 86 314 _c
86 386 98 459 122 533 _c
146 607 182 682 232 759 _c
310 759 _l
_cl}_d
/parenright{390 0 80 -131 304 759 _sc
80 759 _m
158 759 _l
206 682 243 607 267 533 _c
291 459 304 386 304 314 _c
304 241 291 168 267 94 _c
243 20 206 -54 158 -131 _c
80 -131 _l
123 -56 155 17 177 91 _c
198 164 209 238 209 314 _c
209 389 198 463 177 536 _c
155 609 123 683 80 759 _c
_cl}_d
/hyphen{361 0 49 234 312 314 _sc
49 314 _m
312 314 _l
312 234 _l
49 234 _l
49 314 _l
_cl}_d
/slash{337 0 0 -92 337 729 _sc
254 729 _m
337 729 _l
83 -92 _l
0 -92 _l
254 729 _l
_cl}_d
/zero{636 0 66 -13 570 742 _sc
318 664 _m
267 664 229 639 203 589 _c
177 539 165 464 165 364 _c
165 264 177 189 203 139 _c
229 89 267 64 318 64 _c
369 64 407 89 433 139 _c
458 189 471 264 471 364 _c
471 464 458 539 433 589 _c
407 639 369 664 318 664 _c
318 742 _m
399 742 461 709 505 645 _c
548 580 570 486 570 364 _c
570 241 548 147 505 83 _c
461 19 399 -13 318 -13 _c
236 -13 173 19 130 83 _c
87 147 66 241 66 364 _c
66 486 87 580 130 645 _c
173 709 236 742 318 742 _c
_cl}_d
/one{636 0 110 0 544 729 _sc
124 83 _m
285 83 _l
285 639 _l
110 604 _l
110 694 _l
284 729 _l
383 729 _l
383 83 _l
544 83 _l
544 0 _l
124 0 _l
124 83 _l
_cl}_d
/two{{636 0 73 0 536 742 _sc
192 83 _m
536 83 _l
536 0 _l
73 0 _l
73 83 _l
110 121 161 173 226 239 _c
290 304 331 346 348 365 _c
380 400 402 430 414 455 _c
426 479 433 504 433 528 _c
433 566 419 598 392 622 _c
365 646 330 659 286 659 _c
255 659 222 653 188 643 _c
154 632 117 616 78 594 _c
78 694 _l
118 710 155 722 189 730 _c
223 738 255 742 284 742 _c
}_e{359 742 419 723 464 685 _c
509 647 532 597 532 534 _c
532 504 526 475 515 449 _c
504 422 484 390 454 354 _c
446 344 420 317 376 272 _c
332 227 271 164 192 83 _c
_cl}_e}_d
/three{{636 0 76 -13 556 742 _sc
406 393 _m
453 383 490 362 516 330 _c
542 298 556 258 556 212 _c
556 140 531 84 482 45 _c
432 6 362 -13 271 -13 _c
240 -13 208 -10 176 -4 _c
144 1 110 10 76 22 _c
76 117 _l
103 101 133 89 166 81 _c
198 73 232 69 268 69 _c
330 69 377 81 409 105 _c
441 129 458 165 458 212 _c
458 254 443 288 413 312 _c
383 336 341 349 287 349 _c
}_e{202 349 _l
202 430 _l
291 430 _l
339 430 376 439 402 459 _c
428 478 441 506 441 543 _c
441 580 427 609 401 629 _c
374 649 336 659 287 659 _c
260 659 231 656 200 650 _c
169 644 135 635 98 623 _c
98 711 _l
135 721 170 729 203 734 _c
235 739 266 742 296 742 _c
370 742 429 725 473 691 _c
517 657 539 611 539 553 _c
539 513 527 479 504 451 _c
481 423 448 403 406 393 _c
_cl}_e}_d
/four{636 0 49 0 580 729 _sc
378 643 _m
129 254 _l
378 254 _l
378 643 _l
352 729 _m
476 729 _l
476 254 _l
580 254 _l
580 172 _l
476 172 _l
476 0 _l
378 0 _l
378 172 _l
49 172 _l
49 267 _l
352 729 _l
_cl}_d
/five{{636 0 77 -13 549 729 _sc
108 729 _m
495 729 _l
495 646 _l
198 646 _l
198 467 _l
212 472 227 476 241 478 _c
255 480 270 482 284 482 _c
365 482 429 459 477 415 _c
525 370 549 310 549 234 _c
549 155 524 94 475 51 _c
426 8 357 -13 269 -13 _c
238 -13 207 -10 175 -6 _c
143 -1 111 6 77 17 _c
77 116 _l
106 100 136 88 168 80 _c
199 72 232 69 267 69 _c
}_e{323 69 368 83 401 113 _c
433 143 450 183 450 234 _c
450 284 433 324 401 354 _c
368 384 323 399 267 399 _c
241 399 214 396 188 390 _c
162 384 135 375 108 363 _c
108 729 _l
_cl}_e}_d
/six{{636 0 70 -13 573 742 _sc
330 404 _m
286 404 251 388 225 358 _c
199 328 186 286 186 234 _c
186 181 199 139 225 109 _c
251 79 286 64 330 64 _c
374 64 409 79 435 109 _c
461 139 474 181 474 234 _c
474 286 461 328 435 358 _c
409 388 374 404 330 404 _c
526 713 _m
526 623 _l
501 635 476 644 451 650 _c
425 656 400 659 376 659 _c
310 659 260 637 226 593 _c
}_e{192 549 172 482 168 394 _c
187 422 211 444 240 459 _c
269 474 301 482 336 482 _c
409 482 467 459 509 415 _c
551 371 573 310 573 234 _c
573 159 550 99 506 54 _c
462 9 403 -13 330 -13 _c
246 -13 181 19 137 83 _c
92 147 70 241 70 364 _c
70 479 97 571 152 639 _c
206 707 280 742 372 742 _c
396 742 421 739 447 735 _c
472 730 498 723 526 713 _c
_cl}_e}_d
/eight{{636 0 68 -13 568 742 _sc
318 346 _m
271 346 234 333 207 308 _c
180 283 167 249 167 205 _c
167 161 180 126 207 101 _c
234 76 271 64 318 64 _c
364 64 401 76 428 102 _c
455 127 469 161 469 205 _c
469 249 455 283 429 308 _c
402 333 365 346 318 346 _c
219 388 _m
177 398 144 418 120 447 _c
96 476 85 511 85 553 _c
85 611 105 657 147 691 _c
188 725 245 742 318 742 _c
}_e{390 742 447 725 489 691 _c
530 657 551 611 551 553 _c
551 511 539 476 515 447 _c
491 418 459 398 417 388 _c
464 377 501 355 528 323 _c
554 291 568 251 568 205 _c
568 134 546 80 503 43 _c
459 5 398 -13 318 -13 _c
237 -13 175 5 132 43 _c
89 80 68 134 68 205 _c
68 251 81 291 108 323 _c
134 355 171 377 219 388 _c
183 544 _m
183 506 194 476 218 455 _c
}_e{242 434 275 424 318 424 _c
360 424 393 434 417 455 _c
441 476 453 506 453 544 _c
453 582 441 611 417 632 _c
393 653 360 664 318 664 _c
275 664 242 653 218 632 _c
194 611 183 582 183 544 _c
_cl}_e}_d
/L{557 0 98 0 552 729 _sc
98 729 _m
197 729 _l
197 83 _l
552 83 _l
552 0 _l
98 0 _l
98 729 _l
_cl}_d
/R{{695 0 98 0 666 729 _sc
444 342 _m
465 334 486 319 506 296 _c
526 272 546 240 566 199 _c
666 0 _l
560 0 _l
467 187 _l
443 235 419 268 397 284 _c
374 300 343 308 304 308 _c
197 308 _l
197 0 _l
98 0 _l
98 729 _l
321 729 _l
404 729 466 711 507 677 _c
548 642 569 589 569 519 _c
569 473 558 434 537 404 _c
515 374 484 353 444 342 _c
197 648 _m
197 389 _l
321 389 _l
}_e{368 389 404 400 428 422 _c
452 444 465 476 465 519 _c
465 561 452 593 428 615 _c
404 637 368 648 321 648 _c
197 648 _l
_cl}_e}_d
/a{{613 0 60 -13 522 560 _sc
343 275 _m
270 275 220 266 192 250 _c
164 233 150 205 150 165 _c
150 133 160 107 181 89 _c
202 70 231 61 267 61 _c
317 61 357 78 387 114 _c
417 149 432 196 432 255 _c
432 275 _l
343 275 _l
522 312 _m
522 0 _l
432 0 _l
432 83 _l
411 49 385 25 355 10 _c
325 -5 287 -13 243 -13 _c
187 -13 142 2 109 33 _c
76 64 60 106 60 159 _c
}_e{60 220 80 266 122 298 _c
163 329 224 345 306 345 _c
432 345 _l
432 354 _l
432 395 418 427 391 450 _c
364 472 326 484 277 484 _c
245 484 215 480 185 472 _c
155 464 127 453 100 439 _c
100 522 _l
132 534 164 544 195 550 _c
226 556 256 560 286 560 _c
365 560 424 539 463 498 _c
502 457 522 395 522 312 _c
_cl}_e}_d
/e{{615 0 55 -13 562 560 _sc
562 296 _m
562 252 _l
149 252 _l
153 190 171 142 205 110 _c
238 78 284 62 344 62 _c
378 62 412 66 444 74 _c
476 82 509 95 541 113 _c
541 28 _l
509 14 476 3 442 -3 _c
408 -9 373 -13 339 -13 _c
251 -13 182 12 131 62 _c
80 112 55 181 55 268 _c
55 357 79 428 127 481 _c
175 533 241 560 323 560 _c
397 560 455 536 498 489 _c
}_e{540 441 562 377 562 296 _c
472 322 _m
471 371 457 410 431 440 _c
404 469 368 484 324 484 _c
274 484 234 469 204 441 _c
174 413 156 373 152 322 _c
472 322 _l
_cl}_e}_d
/k{579 0 91 0 576 760 _sc
91 760 _m
181 760 _l
181 311 _l
449 547 _l
564 547 _l
274 291 _l
576 0 _l
459 0 _l
181 267 _l
181 0 _l
91 0 _l
91 760 _l
_cl}_d
/m{{974 0 91 0 889 560 _sc
520 442 _m
542 482 569 511 600 531 _c
631 550 668 560 711 560 _c
767 560 811 540 842 500 _c
873 460 889 403 889 330 _c
889 0 _l
799 0 _l
799 327 _l
799 379 789 418 771 444 _c
752 469 724 482 686 482 _c
639 482 602 466 575 435 _c
548 404 535 362 535 309 _c
535 0 _l
445 0 _l
445 327 _l
445 379 435 418 417 444 _c
398 469 369 482 331 482 _c
}_e{285 482 248 466 221 435 _c
194 404 181 362 181 309 _c
181 0 _l
91 0 _l
91 547 _l
181 547 _l
181 462 _l
201 495 226 520 255 536 _c
283 552 317 560 357 560 _c
397 560 430 550 458 530 _c
486 510 506 480 520 442 _c
_cl}_e}_d
/r{411 0 91 0 411 560 _sc
411 463 _m
401 469 390 473 378 476 _c
366 478 353 480 339 480 _c
288 480 249 463 222 430 _c
194 397 181 350 181 288 _c
181 0 _l
91 0 _l
91 547 _l
181 547 _l
181 462 _l
199 495 224 520 254 536 _c
284 552 321 560 365 560 _c
371 560 378 559 386 559 _c
393 558 401 557 411 555 _c
411 463 _l
_cl}_d
/s{{521 0 54 -13 472 560 _sc
443 531 _m
443 446 _l
417 458 391 468 364 475 _c
336 481 308 485 279 485 _c
234 485 200 478 178 464 _c
156 450 145 430 145 403 _c
145 382 153 366 169 354 _c
185 342 217 330 265 320 _c
296 313 _l
360 299 405 279 432 255 _c
458 230 472 195 472 151 _c
472 100 452 60 412 31 _c
372 1 316 -13 246 -13 _c
216 -13 186 -10 154 -5 _c
}_e{122 0 89 8 54 20 _c
54 113 _l
87 95 120 82 152 74 _c
184 65 216 61 248 61 _c
290 61 323 68 346 82 _c
368 96 380 117 380 144 _c
380 168 371 187 355 200 _c
339 213 303 226 247 238 _c
216 245 _l
160 257 119 275 95 299 _c
70 323 58 356 58 399 _c
58 450 76 490 112 518 _c
148 546 200 560 268 560 _c
301 560 332 557 362 552 _c
391 547 418 540 443 531 _c
}_e{_cl}_e}_d
/y{592 0 30 -207 562 547 _sc
322 -50 _m
296 -114 271 -157 247 -177 _c
223 -197 191 -207 151 -207 _c
79 -207 _l
79 -132 _l
132 -132 _l
156 -132 175 -126 189 -114 _c
203 -102 218 -75 235 -31 _c
251 9 _l
30 547 _l
125 547 _l
296 119 _l
467 547 _l
562 547 _l
322 -50 _l
_cl}_d
/minus{838 0 106 272 732 355 _sc
106 355 _m
732 355 _l
732 272 _l
106 272 _l
106 355 _l
_cl}_d
end readonly def

/BuildGlyph
 {exch begin
 CharStrings exch
 2 copy known not{pop /.notdef}if
 true 3 1 roll get exec
 end}_d

/BuildChar {
 1 index /Encoding get exch get
 1 index /BuildGlyph get exec
}_d

FontName currentdict end definefont pop
%!PS-Adobe-3.0 Resource-Font
%%Title: cmsy10
%%Copyright: Copyright (C) 1994, Basil K. Malyshev. All Rights Reserved.012BaKoMa Fonts Collection, Level-B.
%%Creator: Converted from TrueType to type 3 by PPR
25 dict begin
/_d{bind def}bind def
/_m{moveto}_d
/_l{lineto}_d
/_cl{closepath eofill}_d
/_c{curveto}_d
/_sc{7 -1 roll{setcachedevice}{pop pop pop pop pop pop}ifelse}_d
/_e{exec}_d
/FontName /Cmsy10 def
/PaintType 0 def
/FontMatrix[.001 0 0 .001 0 0]def
/FontBBox[-29 -960 1123 779]def
/FontType 3 def
/Encoding [ /openbullet ] def
/FontInfo 10 dict dup begin
/FamilyName (cmsy10) def
/FullName (cmsy10) def
/Notice (Copyright (C) 1994, Basil K. Malyshev. All Rights Reserved.012BaKoMa Fonts Collection, Level-B. ) def
/Weight (Regular) def
/Version (1.1/12-Nov-94) def
/ItalicAngle 0.0 def
/isFixedPitch false def
/UnderlinePosition -133 def
/UnderlineThickness 20 def
end readonly def
/CharStrings 1 dict dup begin
/openbullet{{500 0 56 56 443 444 _sc
250 56 _m
215 56 183 64 153 82 _c
123 99 100 123 82 153 _c
64 183 56 216 56 250 _c
56 284 64 316 82 346 _c
100 376 123 400 153 418 _c
183 435 215 444 250 444 _c
284 444 316 435 346 417 _c
376 399 399 376 417 346 _c
434 316 443 284 443 250 _c
443 216 434 184 417 154 _c
399 124 376 100 346 82 _c
316 64 284 56 250 56 _c
250 96 _m
}_e{292 96 328 111 358 142 _c
388 172 403 208 403 250 _c
403 276 396 302 382 326 _c
368 350 349 369 326 383 _c
302 397 277 404 250 404 _c
229 404 209 400 191 392 _c
173 384 156 372 142 358 _c
127 343 116 326 108 308 _c
100 290 96 270 96 250 _c
96 208 111 172 141 142 _c
171 111 208 96 250 96 _c
_cl}_e}_d
end readonly def

/BuildGlyph
 {exch begin
 CharStrings exch
 2 copy known not{pop /.notdef}if
 true 3 1 roll get exec
 end}_d

/BuildChar {
 1 index /Encoding get exch get
 1 index /BuildGlyph get exec
}_d

FontName currentdict end definefont pop
%!PS-Adobe-3.0 Resource-Font
%%Title: cmr10
%%Copyright: Copyright (C) 1994, Basil K. Malyshev. All Rights Reserved.012BaKoMa Fonts Collection, Level-B.
%%Creator: Converted from TrueType to type 3 by PPR
25 dict begin
/_d{bind def}bind def
/_m{moveto}_d
/_l{lineto}_d
/_cl{closepath eofill}_d
/_c{curveto}_d
/_sc{7 -1 roll{setcachedevice}{pop pop pop pop pop pop}ifelse}_d
/_e{exec}_d
/FontName /Cmr10 def
/PaintType 0 def
/FontMatrix[.001 0 0 .001 0 0]def
/FontBBox[-44 -250 1009 750]def
/FontType 3 def
/Encoding [ /v /S /b /parenright /R /l /G /parenleft ] def
/FontInfo 10 dict dup begin
/FamilyName (cmr10) def
/FullName (cmr10) def
/Notice (Copyright (C) 1994, Basil K. Malyshev. All Rights Reserved.012BaKoMa Fonts Collection, Level-B. ) def
/Weight (Regular) def
/Version (1.1/12-Nov-94) def
/ItalicAngle 0.0 def
/isFixedPitch false def
/UnderlinePosition -133 def
/UnderlineThickness 20 def
end readonly def
/CharStrings 8 dict dup begin
/v{{527 0 19 -10 508 431 _sc
244 0 _m
98 367 _l
92 379 82 387 69 391 _c
56 394 39 396 19 396 _c
19 431 _l
229 431 _l
229 396 _l
191 396 173 388 173 372 _c
173 369 173 367 174 366 _c
286 84 _l
387 339 _l
389 344 390 349 390 355 _c
390 367 385 377 375 385 _c
365 392 354 396 342 396 _c
342 431 _l
508 431 _l
508 396 _l
487 396 469 391 454 382 _c
}_e{438 372 426 358 418 340 _c
283 0 _l
280 -6 275 -10 267 -10 _c
260 -10 _l
252 -10 246 -6 244 0 _c
_cl}_e}_d
/S{{555 0 56 -21 499 705 _sc
56 -13 _m
56 219 _l
56 224 59 227 65 227 _c
77 227 _l
79 227 80 226 82 224 _c
84 222 85 221 85 219 _c
85 153 105 103 146 67 _c
186 31 239 13 305 13 _c
328 13 349 19 369 33 _c
388 46 403 63 414 85 _c
425 107 431 129 431 153 _c
431 173 427 192 419 211 _c
411 230 399 247 384 261 _c
368 275 351 284 332 289 _c
202 321 _l
}_e{159 332 124 355 97 391 _c
69 426 56 466 56 510 _c
56 544 64 577 82 607 _c
100 637 123 660 153 678 _c
183 696 215 705 250 705 _c
316 705 369 682 409 637 _c
450 702 _l
452 704 454 705 457 705 _c
464 705 _l
466 705 467 704 469 703 _c
471 701 472 699 472 697 _c
472 465 _l
472 459 469 456 464 456 _c
452 456 _l
446 456 443 459 443 465 _c
443 481 440 500 434 520 _c
}_e{428 540 421 560 411 578 _c
401 596 390 612 378 624 _c
346 656 303 673 250 673 _c
227 673 206 667 187 655 _c
167 643 152 628 141 608 _c
129 588 124 568 124 546 _c
124 517 132 491 150 468 _c
168 444 191 429 220 422 _c
350 390 _l
371 384 391 375 410 362 _c
429 348 445 333 458 315 _c
471 297 481 277 488 255 _c
495 233 499 210 499 187 _c
499 151 490 117 474 85 _c
}_e{457 53 434 27 404 8 _c
374 -11 341 -21 305 -21 _c
283 -21 260 -18 237 -13 _c
214 -8 193 -1 173 8 _c
153 18 136 31 120 47 _c
78 -18 _l
76 -20 73 -21 71 -21 _c
65 -21 _l
59 -21 56 -18 56 -13 _c
_cl}_e}_d
/b{{555 0 26 -10 522 694 _sc
104 0 _m
104 592 _l
104 610 101 623 96 631 _c
90 639 83 643 73 645 _c
63 647 47 648 26 648 _c
26 683 _l
174 694 _l
174 381 _l
184 393 197 403 212 413 _c
227 422 243 429 260 434 _c
277 439 294 442 312 442 _c
342 442 369 436 395 424 _c
421 412 443 395 462 374 _c
480 352 495 328 506 301 _c
516 273 522 245 522 216 _c
522 175 512 137 492 103 _c
}_e{472 68 446 40 412 20 _c
378 0 340 -10 300 -10 _c
274 -10 250 -3 226 9 _c
202 21 182 38 167 60 _c
133 0 _l
104 0 _l
177 98 _m
187 74 203 54 224 38 _c
245 22 268 15 294 15 _c
328 15 356 25 378 45 _c
399 65 414 90 422 120 _c
430 150 435 182 435 216 _c
435 272 427 314 413 344 _c
406 357 397 369 386 380 _c
375 391 363 400 349 406 _c
}_e{335 412 320 416 305 416 _c
278 416 253 409 231 395 _c
208 381 190 362 177 338 _c
177 98 _l
_cl}_e}_d
/parenright{{388 0 56 -249 291 750 _sc
65 -249 _m
59 -249 56 -246 56 -240 _c
56 -237 56 -235 58 -234 _c
172 -122 229 38 229 250 _c
229 462 172 623 60 733 _c
57 734 56 737 56 741 _c
56 743 57 745 59 747 _c
61 749 63 750 65 750 _c
74 750 _l
76 750 77 749 79 748 _c
127 710 167 664 199 610 _c
231 556 254 498 269 437 _c
283 376 291 314 291 250 _c
291 202 287 156 279 110 _c
}_e{271 64 258 20 241 -24 _c
223 -68 201 -108 175 -146 _c
148 -184 116 -217 79 -247 _c
77 -248 76 -249 74 -249 _c
65 -249 _l
_cl}_e}_d
/R{{736 0 33 -21 732 683 _sc
33 0 _m
33 35 _l
101 35 136 45 136 67 _c
136 616 _l
136 637 101 648 33 648 _c
33 683 _l
347 683 _l
384 683 423 676 465 663 _c
506 649 540 629 568 601 _c
596 573 610 540 610 502 _c
610 474 601 449 585 427 _c
568 405 546 386 520 372 _c
494 357 467 346 440 340 _c
470 329 496 312 518 290 _c
540 267 554 241 559 212 _c
573 123 _l
}_e{579 83 586 53 593 33 _c
600 13 616 4 641 4 _c
661 4 677 13 687 33 _c
697 52 703 73 703 96 _c
703 98 704 100 706 102 _c
708 104 710 105 713 105 _c
722 105 _l
728 105 732 100 732 92 _c
732 73 728 55 721 38 _c
713 20 703 6 690 -4 _c
676 -15 660 -21 642 -21 _c
594 -21 552 -9 518 14 _c
483 38 466 73 466 119 _c
466 208 _l
466 241 454 269 431 293 _c
}_e{407 317 379 329 346 329 _c
226 329 _l
226 67 _l
226 45 260 35 329 35 _c
329 0 _l
33 0 _l
226 355 _m
333 355 _l
388 355 430 366 459 388 _c
488 410 503 448 503 502 _c
503 555 488 593 460 615 _c
431 637 389 648 333 648 _c
277 648 _l
265 648 255 647 249 646 _c
242 645 236 642 232 638 _c
228 633 226 626 226 616 _c
226 355 _l
_cl}_e}_d
/l{277 0 31 0 257 694 _sc
31 0 _m
31 35 _l
53 35 72 36 87 40 _c
101 44 109 53 109 67 _c
109 592 _l
109 610 106 623 101 631 _c
95 639 88 643 78 645 _c
68 647 52 648 31 648 _c
31 683 _l
179 694 _l
179 67 _l
179 53 186 44 201 40 _c
215 36 234 35 257 35 _c
257 0 _l
31 0 _l
_cl}_d
/G{{784 0 56 -21 735 705 _sc
230 107 _m
254 77 283 54 318 38 _c
352 21 389 13 427 13 _c
463 13 497 22 527 41 _c
557 60 573 87 573 122 _c
573 206 _l
573 227 531 238 448 238 _c
448 273 _l
735 273 _l
735 238 _l
713 238 696 236 684 232 _c
672 228 666 220 666 206 _c
666 9 _l
666 6 665 4 663 2 _c
661 0 659 0 657 0 _c
651 0 640 7 626 22 _c
}_e{611 36 600 49 592 61 _c
575 33 549 12 515 -1 _c
480 -14 444 -21 406 -21 _c
341 -21 282 -4 229 28 _c
175 61 133 106 102 162 _c
71 218 56 278 56 342 _c
56 389 65 435 83 479 _c
101 523 126 563 158 597 _c
190 631 227 657 270 676 _c
312 695 358 705 406 705 _c
440 705 473 697 504 683 _c
534 668 562 647 586 620 _c
644 702 _l
648 704 650 705 651 705 _c
658 705 _l
}_e{660 705 661 704 663 702 _c
665 700 666 699 666 697 _c
666 427 _l
666 421 663 418 658 418 _c
640 418 _l
634 418 631 421 631 427 _c
631 446 627 467 619 491 _c
611 515 602 537 590 559 _c
578 580 564 599 549 615 _c
511 651 468 670 420 670 _c
382 670 347 661 313 645 _c
279 628 251 605 228 576 _c
203 544 186 509 177 469 _c
167 429 163 387 163 342 _c
163 239 185 161 230 107 _c
}_e{_cl}_e}_d
/parenleft{{388 0 97 -249 332 750 _sc
310 -247 _m
272 -217 240 -184 214 -146 _c
187 -108 165 -67 148 -25 _c
131 17 118 62 110 109 _c
101 155 97 202 97 250 _c
97 298 101 345 110 392 _c
118 438 131 483 149 527 _c
166 570 188 611 215 649 _c
242 687 274 720 310 748 _c
310 749 311 750 315 750 _c
324 750 _l
326 750 327 749 329 747 _c
331 745 332 743 332 741 _c
332 738 331 736 330 735 _c
}_e{297 703 270 668 248 632 _c
226 596 209 557 196 516 _c
183 474 174 432 168 388 _c
162 344 159 298 159 250 _c
159 38 215 -122 329 -232 _c
331 -234 332 -236 332 -240 _c
332 -242 331 -244 329 -246 _c
327 -248 326 -249 324 -249 _c
315 -249 _l
311 -249 310 -248 310 -247 _c
_cl}_e}_d
end readonly def

/BuildGlyph
 {exch begin
 CharStrings exch
 2 copy known not{pop /.notdef}if
 true 3 1 roll get exec
 end}_d

/BuildChar {
 1 index /Encoding get exch get
 1 index /BuildGlyph get exec
}_d

FontName currentdict end definefont pop
end
%%EndProlog
mpldict begin
-144 144 translate
900 504 0 0 clipbox
gsave
0 0 m
900 0 l
900 504 l
0 504 l
cl
1.000 setgray
fill
grestore
gsave
99 65.52 m
703.8 65.52 l
703.8 473.76 l
99 473.76 l
cl
1.000 setgray
fill
grestore
/p0_0 {
newpath
translate
0 -7.4162 m
1.9668 -7.4162 3.85331 -6.63478 5.24404 -5.24404 c
6.63478 -3.85331 7.4162 -1.9668 7.4162 0 c
7.4162 1.9668 6.63478 3.85331 5.24404 5.24404 c
3.85331 6.63478 1.9668 7.4162 0 7.4162 c
-1.9668 7.4162 -3.85331 6.63478 -5.24404 5.24404 c
-6.63478 3.85331 -7.4162 1.9668 -7.4162 0 c
-7.4162 -1.9668 -6.63478 -3.85331 -5.24404 -5.24404 c
-3.85331 -6.63478 -1.9668 -7.4162 0 -7.4162 c
cl
} bind def
1.000 setlinewidth
1 setlinejoin
0 setlinecap
[] 0 setdash
0.000 setgray
gsave
604.8 408.2 99 65.52 clipbox
368.601 320.269 p0_0
gsave
0.000 0.378 1.000 setrgbcolor
fill
grestore
stroke
grestore
gsave
604.8 408.2 99 65.52 clipbox
537.422 189.232 p0_0
gsave
0.300 1.000 0.667 setrgbcolor
fill
grestore
stroke
grestore
gsave
604.8 408.2 99 65.52 clipbox
279.029 326.004 p0_0
gsave
0.000 0.000 0.999 setrgbcolor
fill
grestore
stroke
grestore
gsave
604.8 408.2 99 65.52 clipbox
586.747 292.506 p0_0
gsave
0.300 1.000 0.667 setrgbcolor
fill
grestore
stroke
grestore
gsave
604.8 408.2 99 65.52 clipbox
346.526 369.006 p0_0
gsave
1.000 0.495 0.000 setrgbcolor
fill
grestore
stroke
grestore
gsave
604.8 408.2 99 65.52 clipbox
186.098 314.889 p0_0
gsave
1.000 0.901 0.000 setrgbcolor
fill
grestore
stroke
grestore
gsave
604.8 408.2 99 65.52 clipbox
459.52 191.343 p0_0
gsave
0.655 1.000 0.313 setrgbcolor
fill
grestore
stroke
grestore
gsave
604.8 408.2 99 65.52 clipbox
276.643 273.693 p0_0
gsave
0.000 0.378 1.000 setrgbcolor
fill
grestore
stroke
grestore
gsave
604.8 408.2 99 65.52 clipbox
292.484 345.58 p0_0
gsave
0.000 0.000 0.999 setrgbcolor
fill
grestore
stroke
grestore
gsave
604.8 408.2 99 65.52 clipbox
530.039 307.968 p0_0
gsave
0.300 1.000 0.667 setrgbcolor
fill
grestore
stroke
grestore
gsave
604.8 408.2 99 65.52 clipbox
268.886 372.967 p0_0
gsave
0.000 0.378 1.000 setrgbcolor
fill
grestore
stroke
grestore
gsave
604.8 408.2 99 65.52 clipbox
550.78 246.575 p0_0
gsave
1.000 0.495 0.000 setrgbcolor
fill
grestore
stroke
grestore
gsave
604.8 408.2 99 65.52 clipbox
337.316 396.994 p0_0
gsave
1.000 0.901 0.000 setrgbcolor
fill
grestore
stroke
grestore
gsave
604.8 408.2 99 65.52 clipbox
419.402 159.209 p0_0
gsave
0.000 0.000 0.999 setrgbcolor
fill
grestore
stroke
grestore
gsave
604.8 408.2 99 65.52 clipbox
496.365 332.594 p0_0
gsave
0.655 1.000 0.313 setrgbcolor
fill
grestore
stroke
grestore
gsave
604.8 408.2 99 65.52 clipbox
436.791 304.258 p0_0
gsave
0.000 0.833 1.000 setrgbcolor
fill
grestore
stroke
grestore
gsave
604.8 408.2 99 65.52 clipbox
277.74 258.952 p0_0
gsave
1.000 0.495 0.000 setrgbcolor
fill
grestore
stroke
grestore
gsave
604.8 408.2 99 65.52 clipbox
411.275 241.531 p0_0
gsave
1.000 0.901 0.000 setrgbcolor
fill
grestore
stroke
grestore
gsave
604.8 408.2 99 65.52 clipbox
567.707 411.616 p0_0
gsave
0.000 0.378 1.000 setrgbcolor
fill
grestore
stroke
grestore
gsave
604.8 408.2 99 65.52 clipbox
501.01 394.231 p0_0
gsave
0.300 1.000 0.667 setrgbcolor
fill
grestore
stroke
grestore
gsave
604.8 408.2 99 65.52 clipbox
454.272 365.457 p0_0
gsave
0.000 0.000 0.999 setrgbcolor
fill
grestore
stroke
grestore
gsave
604.8 408.2 99 65.52 clipbox
401.693 360.958 p0_0
gsave
1.000 0.495 0.000 setrgbcolor
fill
grestore
stroke
grestore
gsave
604.8 408.2 99 65.52 clipbox
398.362 223.153 p0_0
gsave
1.000 0.901 0.000 setrgbcolor
fill
grestore
stroke
grestore
gsave
604.8 408.2 99 65.52 clipbox
493.647 332.102 p0_0
gsave
0.000 0.378 1.000 setrgbcolor
fill
grestore
stroke
grestore
gsave
604.8 408.2 99 65.52 clipbox
532.053 201.02 p0_0
gsave
0.300 1.000 0.667 setrgbcolor
fill
grestore
stroke
grestore
gsave
604.8 408.2 99 65.52 clipbox
561.287 203.526 p0_0
gsave
0.000 0.000 0.999 setrgbcolor
fill
grestore
stroke
grestore
gsave
604.8 408.2 99 65.52 clipbox
343.331 368.091 p0_0
gsave
0.655 1.000 0.313 setrgbcolor
fill
grestore
stroke
grestore
gsave
604.8 408.2 99 65.52 clipbox
307.807 334.534 p0_0
gsave
1.000 0.901 0.000 setrgbcolor
fill
grestore
stroke
grestore
gsave
604.8 408.2 99 65.52 clipbox
353.231 203.977 p0_0
gsave
0.655 1.000 0.313 setrgbcolor
fill
grestore
stroke
grestore
gsave
604.8 408.2 99 65.52 clipbox
265.368 193.715 p0_0
gsave
0.000 0.000 0.999 setrgbcolor
fill
grestore
stroke
grestore
gsave
604.8 408.2 99 65.52 clipbox
240.631 230.535 p0_0
gsave
1.000 0.901 0.000 setrgbcolor
fill
grestore
stroke
grestore
gsave
604.8 408.2 99 65.52 clipbox
495.394 304.861 p0_0
gsave
0.300 1.000 0.667 setrgbcolor
fill
grestore
stroke
grestore
gsave
604.8 408.2 99 65.52 clipbox
541.98 256.146 p0_0
gsave
0.300 1.000 0.667 setrgbcolor
fill
grestore
stroke
grestore
gsave
604.8 408.2 99 65.52 clipbox
455.389 388.125 p0_0
gsave
0.000 0.000 0.999 setrgbcolor
fill
grestore
stroke
grestore
gsave
604.8 408.2 99 65.52 clipbox
579.095 420.192 p0_0
gsave
1.000 0.495 0.000 setrgbcolor
fill
grestore
stroke
grestore
gsave
604.8 408.2 99 65.52 clipbox
578.366 343.89 p0_0
gsave
0.300 1.000 0.667 setrgbcolor
fill
grestore
stroke
grestore
gsave
604.8 408.2 99 65.52 clipbox
400.293 342.672 p0_0
gsave
0.000 0.833 1.000 setrgbcolor
fill
grestore
stroke
grestore
gsave
604.8 408.2 99 65.52 clipbox
464.322 243.091 p0_0
gsave
0.000 0.378 1.000 setrgbcolor
fill
grestore
stroke
grestore
gsave
604.8 408.2 99 65.52 clipbox
374.761 275.017 p0_0
gsave
0.300 1.000 0.667 setrgbcolor
fill
grestore
stroke
grestore
gsave
604.8 408.2 99 65.52 clipbox
439.561 341.099 p0_0
gsave
0.000 0.000 0.999 setrgbcolor
fill
grestore
stroke
grestore
gsave
604.8 408.2 99 65.52 clipbox
329.644 331.987 p0_0
gsave
0.300 1.000 0.667 setrgbcolor
fill
grestore
stroke
grestore
gsave
604.8 408.2 99 65.52 clipbox
446.755 282.332 p0_0
gsave
0.000 0.833 1.000 setrgbcolor
fill
grestore
stroke
grestore
gsave
604.8 408.2 99 65.52 clipbox
541.98 256.146 p0_0
gsave
0.655 1.000 0.313 setrgbcolor
fill
grestore
stroke
grestore
gsave
604.8 408.2 99 65.52 clipbox
539.829 371.312 p0_0
gsave
0.655 1.000 0.313 setrgbcolor
fill
grestore
stroke
grestore
gsave
604.8 408.2 99 65.52 clipbox
550.273 291.002 p0_0
gsave
0.655 1.000 0.313 setrgbcolor
fill
grestore
stroke
grestore
gsave
604.8 408.2 99 65.52 clipbox
474.335 198.268 p0_0
gsave
0.655 1.000 0.313 setrgbcolor
fill
grestore
stroke
grestore
0 setlinejoin
2 setlinecap
gsave
99 473.76 m
703.8 473.76 l
stroke
grestore
gsave
703.8 65.52 m
703.8 473.76 l
stroke
grestore
gsave
99 65.52 m
703.8 65.52 l
stroke
grestore
gsave
99 65.52 m
99 473.76 l
stroke
grestore
0.500 setlinewidth
1 setlinejoin
0 setlinecap
gsave
/o {
gsave
newpath
translate
0.5 setlinewidth
1 setlinejoin
0 setlinecap
0 0 m
0 4 l
gsave
0.000 setgray
fill
grestore
stroke
grestore
} bind def
99 65.52 o
grestore
gsave
/o {
gsave
newpath
translate
0.5 setlinewidth
1 setlinejoin
0 setlinecap
0 0 m
0 -4 l
gsave
0.000 setgray
fill
grestore
stroke
grestore
} bind def
99 473.76 o
grestore
/BitstreamVeraSans-Roman findfont
20.000 scalefont
setfont
gsave
87.882813 46.316875 translate
0.000000 rotate
0.000000 0.000000 m /two glyphshow
12.724609 0.000000 m /five glyphshow
grestore
gsave
/o {
gsave
newpath
translate
0.5 setlinewidth
1 setlinejoin
0 setlinecap
0 0 m
0 4 l
gsave
0.000 setgray
fill
grestore
stroke
grestore
} bind def
180.73 65.52 o
grestore
gsave
/o {
gsave
newpath
translate
0.5 setlinewidth
1 setlinejoin
0 setlinecap
0 0 m
0 -4 l
gsave
0.000 setgray
fill
grestore
stroke
grestore
} bind def
180.73 473.76 o
grestore
gsave
169.440667 46.316875 translate
0.000000 rotate
0.000000 0.000000 m /three glyphshow
12.724609 0.000000 m /zero glyphshow
grestore
gsave
/o {
gsave
newpath
translate
0.5 setlinewidth
1 setlinejoin
0 setlinecap
0 0 m
0 4 l
gsave
0.000 setgray
fill
grestore
stroke
grestore
} bind def
262.459 65.52 o
grestore
gsave
/o {
gsave
newpath
translate
0.5 setlinewidth
1 setlinejoin
0 setlinecap
0 0 m
0 -4 l
gsave
0.000 setgray
fill
grestore
stroke
grestore
} bind def
262.459 473.76 o
grestore
gsave
251.373522 46.316875 translate
0.000000 rotate
0.000000 0.000000 m /three glyphshow
12.724609 0.000000 m /five glyphshow
grestore
gsave
/o {
gsave
newpath
translate
0.5 setlinewidth
1 setlinejoin
0 setlinecap
0 0 m
0 4 l
gsave
0.000 setgray
fill
grestore
stroke
grestore
} bind def
344.189 65.52 o
grestore
gsave
/o {
gsave
newpath
translate
0.5 setlinewidth
1 setlinejoin
0 setlinecap
0 0 m
0 -4 l
gsave
0.000 setgray
fill
grestore
stroke
grestore
} bind def
344.189 473.76 o
grestore
gsave
332.626689 46.316875 translate
0.000000 rotate
0.000000 0.000000 m /four glyphshow
12.724609 0.000000 m /zero glyphshow
grestore
gsave
/o {
gsave
newpath
translate
0.5 setlinewidth
1 setlinejoin
0 setlinecap
0 0 m
0 4 l
gsave
0.000 setgray
fill
grestore
stroke
grestore
} bind def
425.919 65.52 o
grestore
gsave
/o {
gsave
newpath
translate
0.5 setlinewidth
1 setlinejoin
0 setlinecap
0 0 m
0 -4 l
gsave
0.000 setgray
fill
grestore
stroke
grestore
} bind def
425.919 473.76 o
grestore
gsave
414.559544 46.316875 translate
0.000000 rotate
0.000000 0.000000 m /four glyphshow
12.724609 0.000000 m /five glyphshow
grestore
gsave
/o {
gsave
newpath
translate
0.5 setlinewidth
1 setlinejoin
0 setlinecap
0 0 m
0 4 l
gsave
0.000 setgray
fill
grestore
stroke
grestore
} bind def
507.649 65.52 o
grestore
gsave
/o {
gsave
newpath
translate
0.5 setlinewidth
1 setlinejoin
0 setlinecap
0 0 m
0 -4 l
gsave
0.000 setgray
fill
grestore
stroke
grestore
} bind def
507.649 473.76 o
grestore
gsave
496.367399 46.316875 translate
0.000000 rotate
0.000000 0.000000 m /five glyphshow
12.724609 0.000000 m /zero glyphshow
grestore
gsave
/o {
gsave
newpath
translate
0.5 setlinewidth
1 setlinejoin
0 setlinecap
0 0 m
0 4 l
gsave
0.000 setgray
fill
grestore
stroke
grestore
} bind def
589.378 65.52 o
grestore
gsave
/o {
gsave
newpath
translate
0.5 setlinewidth
1 setlinejoin
0 setlinecap
0 0 m
0 -4 l
gsave
0.000 setgray
fill
grestore
stroke
grestore
} bind def
589.378 473.76 o
grestore
gsave
578.300253 46.316875 translate
0.000000 rotate
0.000000 0.000000 m /five glyphshow
12.724609 0.000000 m /five glyphshow
grestore
gsave
/o {
gsave
newpath
translate
0.5 setlinewidth
1 setlinejoin
0 setlinecap
0 0 m
0 4 l
gsave
0.000 setgray
fill
grestore
stroke
grestore
} bind def
671.108 65.52 o
grestore
gsave
/o {
gsave
newpath
translate
0.5 setlinewidth
1 setlinejoin
0 setlinecap
0 0 m
0 -4 l
gsave
0.000 setgray
fill
grestore
stroke
grestore
} bind def
671.108 473.76 o
grestore
gsave
659.748733 46.316875 translate
0.000000 rotate
0.000000 0.000000 m /six glyphshow
12.724609 0.000000 m /zero glyphshow
grestore
gsave
367.900000 14.160625 translate
0.000000 rotate
/Cmr10 findfont
28.0 scalefont
setfont
0.000000 0.447312 moveto
/l glyphshow

/BitstreamVeraSans-Roman findfont
28.0 scalefont
setfont
7.751953 0.447312 moveto
/space glyphshow

16.652344 0.447312 moveto
/space glyphshow

/Cmr10 findfont
28.0 scalefont
setfont
25.552734 0.447312 moveto
/parenleft glyphshow

/Cmsy10 findfont
19.6 scalefont
setfont
39.863359 14.304688 moveto
/openbullet glyphshow

/Cmr10 findfont
28.0 scalefont
setfont
55.646281 0.447312 moveto
/parenright glyphshow


grestore
gsave
/o {
gsave
newpath
translate
0.5 setlinewidth
1 setlinejoin
0 setlinecap
0 0 m
4 0 l
gsave
0.000 setgray
fill
grestore
stroke
grestore
} bind def
99 100.512 o
grestore
gsave
/o {
gsave
newpath
translate
0.5 setlinewidth
1 setlinejoin
0 setlinecap
0 0 m
-4 0 l
gsave
0.000 setgray
fill
grestore
stroke
grestore
} bind def
703.8 100.512 o
grestore
gsave
56.250000 94.988563 translate
0.000000 rotate
0.000000 0.000000 m /minus glyphshow
16.757812 0.000000 m /five glyphshow
29.482422 0.000000 m /zero glyphshow
grestore
gsave
/o {
gsave
newpath
translate
0.5 setlinewidth
1 setlinejoin
0 setlinecap
0 0 m
4 0 l
gsave
0.000 setgray
fill
grestore
stroke
grestore
} bind def
99 158.832 o
grestore
gsave
/o {
gsave
newpath
translate
0.5 setlinewidth
1 setlinejoin
0 setlinecap
0 0 m
-4 0 l
gsave
0.000 setgray
fill
grestore
stroke
grestore
} bind def
703.8 158.832 o
grestore
gsave
56.656250 153.308562 translate
0.000000 rotate
0.000000 0.000000 m /minus glyphshow
16.757812 0.000000 m /four glyphshow
29.482422 0.000000 m /five glyphshow
grestore
gsave
/o {
gsave
newpath
translate
0.5 setlinewidth
1 setlinejoin
0 setlinecap
0 0 m
4 0 l
gsave
0.000 setgray
fill
grestore
stroke
grestore
} bind def
99 217.152 o
grestore
gsave
/o {
gsave
newpath
translate
0.5 setlinewidth
1 setlinejoin
0 setlinecap
0 0 m
-4 0 l
gsave
0.000 setgray
fill
grestore
stroke
grestore
} bind def
703.8 217.152 o
grestore
gsave
56.250000 211.628562 translate
0.000000 rotate
0.000000 0.000000 m /minus glyphshow
16.757812 0.000000 m /four glyphshow
29.482422 0.000000 m /zero glyphshow
grestore
gsave
/o {
gsave
newpath
translate
0.5 setlinewidth
1 setlinejoin
0 setlinecap
0 0 m
4 0 l
gsave
0.000 setgray
fill
grestore
stroke
grestore
} bind def
99 275.472 o
grestore
gsave
/o {
gsave
newpath
translate
0.5 setlinewidth
1 setlinejoin
0 setlinecap
0 0 m
-4 0 l
gsave
0.000 setgray
fill
grestore
stroke
grestore
} bind def
703.8 275.472 o
grestore
gsave
56.656250 269.948562 translate
0.000000 rotate
0.000000 0.000000 m /minus glyphshow
16.757812 0.000000 m /three glyphshow
29.482422 0.000000 m /five glyphshow
grestore
gsave
/o {
gsave
newpath
translate
0.5 setlinewidth
1 setlinejoin
0 setlinecap
0 0 m
4 0 l
gsave
0.000 setgray
fill
grestore
stroke
grestore
} bind def
99 333.792 o
grestore
gsave
/o {
gsave
newpath
translate
0.5 setlinewidth
1 setlinejoin
0 setlinecap
0 0 m
-4 0 l
gsave
0.000 setgray
fill
grestore
stroke
grestore
} bind def
703.8 333.792 o
grestore
gsave
56.250000 328.268562 translate
0.000000 rotate
0.000000 0.000000 m /minus glyphshow
16.757812 0.000000 m /three glyphshow
29.482422 0.000000 m /zero glyphshow
grestore
gsave
/o {
gsave
newpath
translate
0.5 setlinewidth
1 setlinejoin
0 setlinecap
0 0 m
4 0 l
gsave
0.000 setgray
fill
grestore
stroke
grestore
} bind def
99 392.112 o
grestore
gsave
/o {
gsave
newpath
translate
0.5 setlinewidth
1 setlinejoin
0 setlinecap
0 0 m
-4 0 l
gsave
0.000 setgray
fill
grestore
stroke
grestore
} bind def
703.8 392.112 o
grestore
gsave
56.656250 386.588563 translate
0.000000 rotate
0.000000 0.000000 m /minus glyphshow
16.757812 0.000000 m /two glyphshow
29.482422 0.000000 m /five glyphshow
grestore
gsave
/o {
gsave
newpath
translate
0.5 setlinewidth
1 setlinejoin
0 setlinecap
0 0 m
4 0 l
gsave
0.000 setgray
fill
grestore
stroke
grestore
} bind def
99 450.432 o
grestore
gsave
/o {
gsave
newpath
translate
0.5 setlinewidth
1 setlinejoin
0 setlinecap
0 0 m
-4 0 l
gsave
0.000 setgray
fill
grestore
stroke
grestore
} bind def
703.8 450.432 o
grestore
gsave
56.250000 444.908563 translate
0.000000 rotate
0.000000 0.000000 m /minus glyphshow
16.757812 0.000000 m /two glyphshow
29.482422 0.000000 m /zero glyphshow
grestore
gsave
44.250000 232.140000 translate
90.000000 rotate
/Cmr10 findfont
28.0 scalefont
setfont
0.000000 0.447312 moveto
/b glyphshow

/BitstreamVeraSans-Roman findfont
28.0 scalefont
setfont
15.544922 0.447312 moveto
/space glyphshow

24.445312 0.447312 moveto
/space glyphshow

/Cmr10 findfont
28.0 scalefont
setfont
33.345703 0.447312 moveto
/parenleft glyphshow

/Cmsy10 findfont
19.6 scalefont
setfont
47.656328 14.304688 moveto
/openbullet glyphshow

/Cmr10 findfont
28.0 scalefont
setfont
63.439250 0.447312 moveto
/parenright glyphshow


grestore
/BitstreamVeraSans-Roman findfont
28.000 scalefont
setfont
gsave
340.517188 478.760000 translate
0.000000 rotate
0.000000 0.000000 m /R glyphshow
19.455078 0.000000 m /R glyphshow
38.910156 0.000000 m /space glyphshow
47.810547 0.000000 m /L glyphshow
60.785156 0.000000 m /y glyphshow
77.355469 0.000000 m /r glyphshow
88.867188 0.000000 m /a glyphshow
106.025391 0.000000 m /e glyphshow
grestore
0.010 setlinewidth
0 setlinejoin
1.000 setgray
gsave
20.41 408.2 741.6 65.52 clipbox
741.6 65.52 m
741.6 106.344 l
741.6 432.936 l
741.6 473.76 l
762.012 473.76 l
762.012 432.936 l
762.012 106.344 l
762.012 65.52 l
cl
gsave
fill
grestore
stroke
grestore
gsave
20.41 408.2 741.6 65.52 clipbox
741.6 65.52 m
762.012 65.52 l
762.012 106.344 l
741.6 106.344 l
741.6 65.52 l
0.000 0.000 0.500 setrgbcolor
fill
grestore
gsave
20.41 408.2 741.6 65.52 clipbox
741.6 106.344 m
762.012 106.344 l
762.012 147.168 l
741.6 147.168 l
741.6 106.344 l
0.000 0.000 0.999 setrgbcolor
fill
grestore
gsave
20.41 408.2 741.6 65.52 clipbox
741.6 147.168 m
762.012 147.168 l
762.012 187.992 l
741.6 187.992 l
741.6 147.168 l
0.000 0.378 1.000 setrgbcolor
fill
grestore
gsave
20.41 408.2 741.6 65.52 clipbox
741.6 187.992 m
762.012 187.992 l
762.012 228.816 l
741.6 228.816 l
741.6 187.992 l
0.000 0.833 1.000 setrgbcolor
fill
grestore
gsave
20.41 408.2 741.6 65.52 clipbox
741.6 228.816 m
762.012 228.816 l
762.012 269.64 l
741.6 269.64 l
741.6 228.816 l
0.300 1.000 0.667 setrgbcolor
fill
grestore
gsave
20.41 408.2 741.6 65.52 clipbox
741.6 269.64 m
762.012 269.64 l
762.012 310.464 l
741.6 310.464 l
741.6 269.64 l
0.655 1.000 0.313 setrgbcolor
fill
grestore
gsave
20.41 408.2 741.6 65.52 clipbox
741.6 310.464 m
762.012 310.464 l
762.012 351.288 l
741.6 351.288 l
741.6 310.464 l
1.000 0.901 0.000 setrgbcolor
fill
grestore
gsave
20.41 408.2 741.6 65.52 clipbox
741.6 351.288 m
762.012 351.288 l
762.012 392.112 l
741.6 392.112 l
741.6 351.288 l
1.000 0.495 0.000 setrgbcolor
fill
grestore
gsave
20.41 408.2 741.6 65.52 clipbox
741.6 392.112 m
762.012 392.112 l
762.012 432.936 l
741.6 432.936 l
741.6 392.112 l
1.000 0.088 0.000 setrgbcolor
fill
grestore
gsave
20.41 408.2 741.6 65.52 clipbox
741.6 432.936 m
762.012 432.936 l
762.012 473.76 l
741.6 473.76 l
741.6 432.936 l
0.500 0.000 0.000 setrgbcolor
fill
grestore
1.000 setlinewidth
0.000 setgray
gsave
741.6 65.52 m
741.6 106.344 l
741.6 432.936 l
741.6 473.76 l
762.012 473.76 l
762.012 432.936 l
762.012 106.344 l
762.012 65.52 l
741.6 65.52 l
stroke
grestore
0.500 setlinewidth
1 setlinejoin
gsave
/o {
gsave
newpath
translate
0.5 setlinewidth
1 setlinejoin
0 setlinecap
0 0 m
-4 0 l
gsave
0.000 setgray
fill
grestore
stroke
grestore
} bind def
762.012 65.52 o
grestore
/BitstreamVeraSans-Roman findfont
20.000 scalefont
setfont
gsave
766.012000 59.996563 translate
0.000000 rotate
0.000000 0.000000 m /hyphen glyphshow
7.216797 0.000000 m /four glyphshow
19.941406 0.000000 m /zero glyphshow
32.666016 0.000000 m /zero glyphshow
grestore
gsave
/o {
gsave
newpath
translate
0.5 setlinewidth
1 setlinejoin
0 setlinecap
0 0 m
-4 0 l
gsave
0.000 setgray
fill
grestore
stroke
grestore
} bind def
762.012 106.344 o
grestore
gsave
766.012000 100.820563 translate
0.000000 rotate
0.000000 0.000000 m /hyphen glyphshow
7.216797 0.000000 m /three glyphshow
19.941406 0.000000 m /two glyphshow
32.666016 0.000000 m /zero glyphshow
grestore
gsave
/o {
gsave
newpath
translate
0.5 setlinewidth
1 setlinejoin
0 setlinecap
0 0 m
-4 0 l
gsave
0.000 setgray
fill
grestore
stroke
grestore
} bind def
762.012 147.168 o
grestore
gsave
766.012000 141.644563 translate
0.000000 rotate
0.000000 0.000000 m /hyphen glyphshow
7.216797 0.000000 m /two glyphshow
19.941406 0.000000 m /four glyphshow
32.666016 0.000000 m /zero glyphshow
grestore
gsave
/o {
gsave
newpath
translate
0.5 setlinewidth
1 setlinejoin
0 setlinecap
0 0 m
-4 0 l
gsave
0.000 setgray
fill
grestore
stroke
grestore
} bind def
762.012 187.992 o
grestore
gsave
766.012000 182.468563 translate
0.000000 rotate
0.000000 0.000000 m /hyphen glyphshow
7.216797 0.000000 m /one glyphshow
19.941406 0.000000 m /six glyphshow
32.666016 0.000000 m /zero glyphshow
grestore
gsave
/o {
gsave
newpath
translate
0.5 setlinewidth
1 setlinejoin
0 setlinecap
0 0 m
-4 0 l
gsave
0.000 setgray
fill
grestore
stroke
grestore
} bind def
762.012 228.816 o
grestore
gsave
766.012000 223.292563 translate
0.000000 rotate
0.000000 0.000000 m /hyphen glyphshow
7.216797 0.000000 m /eight glyphshow
19.941406 0.000000 m /zero glyphshow
grestore
gsave
/o {
gsave
newpath
translate
0.5 setlinewidth
1 setlinejoin
0 setlinecap
0 0 m
-4 0 l
gsave
0.000 setgray
fill
grestore
stroke
grestore
} bind def
762.012 269.64 o
grestore
gsave
766.012000 264.116563 translate
0.000000 rotate
0.000000 0.000000 m /zero glyphshow
grestore
gsave
/o {
gsave
newpath
translate
0.5 setlinewidth
1 setlinejoin
0 setlinecap
0 0 m
-4 0 l
gsave
0.000 setgray
fill
grestore
stroke
grestore
} bind def
762.012 310.464 o
grestore
gsave
766.012000 304.940562 translate
0.000000 rotate
0.000000 0.000000 m /eight glyphshow
12.724609 0.000000 m /zero glyphshow
grestore
gsave
/o {
gsave
newpath
translate
0.5 setlinewidth
1 setlinejoin
0 setlinecap
0 0 m
-4 0 l
gsave
0.000 setgray
fill
grestore
stroke
grestore
} bind def
762.012 351.288 o
grestore
gsave
766.012000 345.764563 translate
0.000000 rotate
0.000000 0.000000 m /one glyphshow
12.724609 0.000000 m /six glyphshow
25.449219 0.000000 m /zero glyphshow
grestore
gsave
/o {
gsave
newpath
translate
0.5 setlinewidth
1 setlinejoin
0 setlinecap
0 0 m
-4 0 l
gsave
0.000 setgray
fill
grestore
stroke
grestore
} bind def
762.012 392.112 o
grestore
gsave
766.012000 386.588563 translate
0.000000 rotate
0.000000 0.000000 m /two glyphshow
12.724609 0.000000 m /four glyphshow
25.449219 0.000000 m /zero glyphshow
grestore
gsave
/o {
gsave
newpath
translate
0.5 setlinewidth
1 setlinejoin
0 setlinecap
0 0 m
-4 0 l
gsave
0.000 setgray
fill
grestore
stroke
grestore
} bind def
762.012 432.936 o
grestore
gsave
766.012000 427.412562 translate
0.000000 rotate
0.000000 0.000000 m /three glyphshow
12.724609 0.000000 m /two glyphshow
25.449219 0.000000 m /zero glyphshow
grestore
gsave
/o {
gsave
newpath
translate
0.5 setlinewidth
1 setlinejoin
0 setlinecap
0 0 m
-4 0 l
gsave
0.000 setgray
fill
grestore
stroke
grestore
} bind def
762.012 473.76 o
grestore
gsave
766.012000 468.236562 translate
0.000000 rotate
0.000000 0.000000 m /four glyphshow
12.724609 0.000000 m /zero glyphshow
25.449219 0.000000 m /zero glyphshow
grestore
gsave
830.074500 214.640000 translate
90.000000 rotate
/Cmr10 findfont
20.0 scalefont
setfont
0.000000 0.796875 moveto
/v glyphshow

/Cmr10 findfont
14.0 scalefont
setfont
10.537109 -4.423125 moveto
/G glyphshow

21.515625 -4.423125 moveto
/S glyphshow

29.288086 -4.423125 moveto
/R glyphshow

/BitstreamVeraSans-Roman findfont
20.0 scalefont
setfont
39.589844 0.796875 moveto
/space glyphshow

45.947266 0.796875 moveto
/parenleft glyphshow

53.750000 0.796875 moveto
/k glyphshow

65.332031 0.796875 moveto
/m glyphshow

84.814453 0.796875 moveto
/slash glyphshow

91.177734 0.796875 moveto
/s glyphshow

101.597656 0.796875 moveto
/parenright glyphshow


grestore

end
showpage
