%!PS-Adobe-3.0 EPSF-3.0
%%Title: /Users/iuliasimion/Observing2014/hac_spectra/allyson/reduced_plots/vgsr_all.eps
%%Creator: matplotlib version 1.4.3, http://matplotlib.org/
%%CreationDate: Wed Jul 19 19:25:09 2017
%%Orientation: portrait
%%BoundingBox: 46 86 565 705
%%EndComments
%%BeginProlog
/mpldict 11 dict def
mpldict begin
/m { moveto } bind def
/l { lineto } bind def
/r { rlineto } bind def
/c { curveto } bind def
/cl { closepath } bind def
/box {
m
1 index 0 r
0 exch r
neg 0 r
cl
} bind def
/clipbox {
box
clip
newpath
} bind def
%!PS-Adobe-3.0 Resource-Font
%%Title: Bitstream Vera Sans
%%Copyright: Copyright (c) 2003 by Bitstream, Inc. All Rights Reserved.
%%Creator: Converted from TrueType to type 3 by PPR
25 dict begin
/_d{bind def}bind def
/_m{moveto}_d
/_l{lineto}_d
/_cl{closepath eofill}_d
/_c{curveto}_d
/_sc{7 -1 roll{setcachedevice}{pop pop pop pop pop pop}ifelse}_d
/_e{exec}_d
/FontName /BitstreamVeraSans-Roman def
/PaintType 0 def
/FontMatrix[.001 0 0 .001 0 0]def
/FontBBox[-183 -236 1287 928]def
/FontType 3 def
/Encoding [ /space /parenleft /parenright /comma /hyphen /period /slash /zero /one /two /three /four /five /six /seven /equal /N /f /k /m /s /minus ] def
/FontInfo 10 dict dup begin
/FamilyName (Bitstream Vera Sans) def
/FullName (Bitstream Vera Sans) def
/Notice (Copyright (c) 2003 by Bitstream, Inc. All Rights Reserved. Bitstream Vera is a trademark of Bitstream, Inc.) def
/Weight (Roman) def
/Version (Release 1.10) def
/ItalicAngle 0.0 def
/isFixedPitch false def
/UnderlinePosition -213 def
/UnderlineThickness 143 def
end readonly def
/CharStrings 22 dict dup begin
/space{318 0 0 0 0 0 _sc
}_d
/parenleft{390 0 86 -131 310 759 _sc
310 759 _m
266 683 234 609 213 536 _c
191 463 181 389 181 314 _c
181 238 191 164 213 91 _c
234 17 266 -56 310 -131 _c
232 -131 _l
183 -54 146 20 122 94 _c
98 168 86 241 86 314 _c
86 386 98 459 122 533 _c
146 607 182 682 232 759 _c
310 759 _l
_cl}_d
/parenright{390 0 80 -131 304 759 _sc
80 759 _m
158 759 _l
206 682 243 607 267 533 _c
291 459 304 386 304 314 _c
304 241 291 168 267 94 _c
243 20 206 -54 158 -131 _c
80 -131 _l
123 -56 155 17 177 91 _c
198 164 209 238 209 314 _c
209 389 198 463 177 536 _c
155 609 123 683 80 759 _c
_cl}_d
/comma{318 0 77 -115 220 124 _sc
117 124 _m
220 124 _l
220 40 _l
140 -115 _l
77 -115 _l
117 40 _l
117 124 _l
_cl}_d
/hyphen{361 0 49 234 312 314 _sc
49 314 _m
312 314 _l
312 234 _l
49 234 _l
49 314 _l
_cl}_d
/period{318 0 107 0 210 124 _sc
107 124 _m
210 124 _l
210 0 _l
107 0 _l
107 124 _l
_cl}_d
/slash{337 0 0 -92 337 729 _sc
254 729 _m
337 729 _l
83 -92 _l
0 -92 _l
254 729 _l
_cl}_d
/zero{636 0 66 -13 570 742 _sc
318 664 _m
267 664 229 639 203 589 _c
177 539 165 464 165 364 _c
165 264 177 189 203 139 _c
229 89 267 64 318 64 _c
369 64 407 89 433 139 _c
458 189 471 264 471 364 _c
471 464 458 539 433 589 _c
407 639 369 664 318 664 _c
318 742 _m
399 742 461 709 505 645 _c
548 580 570 486 570 364 _c
570 241 548 147 505 83 _c
461 19 399 -13 318 -13 _c
236 -13 173 19 130 83 _c
87 147 66 241 66 364 _c
66 486 87 580 130 645 _c
173 709 236 742 318 742 _c
_cl}_d
/one{636 0 110 0 544 729 _sc
124 83 _m
285 83 _l
285 639 _l
110 604 _l
110 694 _l
284 729 _l
383 729 _l
383 83 _l
544 83 _l
544 0 _l
124 0 _l
124 83 _l
_cl}_d
/two{{636 0 73 0 536 742 _sc
192 83 _m
536 83 _l
536 0 _l
73 0 _l
73 83 _l
110 121 161 173 226 239 _c
290 304 331 346 348 365 _c
380 400 402 430 414 455 _c
426 479 433 504 433 528 _c
433 566 419 598 392 622 _c
365 646 330 659 286 659 _c
255 659 222 653 188 643 _c
154 632 117 616 78 594 _c
78 694 _l
118 710 155 722 189 730 _c
223 738 255 742 284 742 _c
}_e{359 742 419 723 464 685 _c
509 647 532 597 532 534 _c
532 504 526 475 515 449 _c
504 422 484 390 454 354 _c
446 344 420 317 376 272 _c
332 227 271 164 192 83 _c
_cl}_e}_d
/three{{636 0 76 -13 556 742 _sc
406 393 _m
453 383 490 362 516 330 _c
542 298 556 258 556 212 _c
556 140 531 84 482 45 _c
432 6 362 -13 271 -13 _c
240 -13 208 -10 176 -4 _c
144 1 110 10 76 22 _c
76 117 _l
103 101 133 89 166 81 _c
198 73 232 69 268 69 _c
330 69 377 81 409 105 _c
441 129 458 165 458 212 _c
458 254 443 288 413 312 _c
383 336 341 349 287 349 _c
}_e{202 349 _l
202 430 _l
291 430 _l
339 430 376 439 402 459 _c
428 478 441 506 441 543 _c
441 580 427 609 401 629 _c
374 649 336 659 287 659 _c
260 659 231 656 200 650 _c
169 644 135 635 98 623 _c
98 711 _l
135 721 170 729 203 734 _c
235 739 266 742 296 742 _c
370 742 429 725 473 691 _c
517 657 539 611 539 553 _c
539 513 527 479 504 451 _c
481 423 448 403 406 393 _c
_cl}_e}_d
/four{636 0 49 0 580 729 _sc
378 643 _m
129 254 _l
378 254 _l
378 643 _l
352 729 _m
476 729 _l
476 254 _l
580 254 _l
580 172 _l
476 172 _l
476 0 _l
378 0 _l
378 172 _l
49 172 _l
49 267 _l
352 729 _l
_cl}_d
/five{{636 0 77 -13 549 729 _sc
108 729 _m
495 729 _l
495 646 _l
198 646 _l
198 467 _l
212 472 227 476 241 478 _c
255 480 270 482 284 482 _c
365 482 429 459 477 415 _c
525 370 549 310 549 234 _c
549 155 524 94 475 51 _c
426 8 357 -13 269 -13 _c
238 -13 207 -10 175 -6 _c
143 -1 111 6 77 17 _c
77 116 _l
106 100 136 88 168 80 _c
199 72 232 69 267 69 _c
}_e{323 69 368 83 401 113 _c
433 143 450 183 450 234 _c
450 284 433 324 401 354 _c
368 384 323 399 267 399 _c
241 399 214 396 188 390 _c
162 384 135 375 108 363 _c
108 729 _l
_cl}_e}_d
/six{{636 0 70 -13 573 742 _sc
330 404 _m
286 404 251 388 225 358 _c
199 328 186 286 186 234 _c
186 181 199 139 225 109 _c
251 79 286 64 330 64 _c
374 64 409 79 435 109 _c
461 139 474 181 474 234 _c
474 286 461 328 435 358 _c
409 388 374 404 330 404 _c
526 713 _m
526 623 _l
501 635 476 644 451 650 _c
425 656 400 659 376 659 _c
310 659 260 637 226 593 _c
}_e{192 549 172 482 168 394 _c
187 422 211 444 240 459 _c
269 474 301 482 336 482 _c
409 482 467 459 509 415 _c
551 371 573 310 573 234 _c
573 159 550 99 506 54 _c
462 9 403 -13 330 -13 _c
246 -13 181 19 137 83 _c
92 147 70 241 70 364 _c
70 479 97 571 152 639 _c
206 707 280 742 372 742 _c
396 742 421 739 447 735 _c
472 730 498 723 526 713 _c
_cl}_e}_d
/seven{636 0 82 0 551 729 _sc
82 729 _m
551 729 _l
551 687 _l
286 0 _l
183 0 _l
432 646 _l
82 646 _l
82 729 _l
_cl}_d
/equal{838 0 106 172 732 454 _sc
106 454 _m
732 454 _l
732 372 _l
106 372 _l
106 454 _l
106 255 _m
732 255 _l
732 172 _l
106 172 _l
106 255 _l
_cl}_d
/N{748 0 98 0 650 729 _sc
98 729 _m
231 729 _l
554 119 _l
554 729 _l
650 729 _l
650 0 _l
517 0 _l
194 610 _l
194 0 _l
98 0 _l
98 729 _l
_cl}_d
/f{352 0 23 0 371 760 _sc
371 760 _m
371 685 _l
285 685 _l
253 685 230 678 218 665 _c
205 652 199 629 199 595 _c
199 547 _l
347 547 _l
347 477 _l
199 477 _l
199 0 _l
109 0 _l
109 477 _l
23 477 _l
23 547 _l
109 547 _l
109 585 _l
109 645 123 690 151 718 _c
179 746 224 760 286 760 _c
371 760 _l
_cl}_d
/k{579 0 91 0 576 760 _sc
91 760 _m
181 760 _l
181 311 _l
449 547 _l
564 547 _l
274 291 _l
576 0 _l
459 0 _l
181 267 _l
181 0 _l
91 0 _l
91 760 _l
_cl}_d
/m{{974 0 91 0 889 560 _sc
520 442 _m
542 482 569 511 600 531 _c
631 550 668 560 711 560 _c
767 560 811 540 842 500 _c
873 460 889 403 889 330 _c
889 0 _l
799 0 _l
799 327 _l
799 379 789 418 771 444 _c
752 469 724 482 686 482 _c
639 482 602 466 575 435 _c
548 404 535 362 535 309 _c
535 0 _l
445 0 _l
445 327 _l
445 379 435 418 417 444 _c
398 469 369 482 331 482 _c
}_e{285 482 248 466 221 435 _c
194 404 181 362 181 309 _c
181 0 _l
91 0 _l
91 547 _l
181 547 _l
181 462 _l
201 495 226 520 255 536 _c
283 552 317 560 357 560 _c
397 560 430 550 458 530 _c
486 510 506 480 520 442 _c
_cl}_e}_d
/s{{521 0 54 -13 472 560 _sc
443 531 _m
443 446 _l
417 458 391 468 364 475 _c
336 481 308 485 279 485 _c
234 485 200 478 178 464 _c
156 450 145 430 145 403 _c
145 382 153 366 169 354 _c
185 342 217 330 265 320 _c
296 313 _l
360 299 405 279 432 255 _c
458 230 472 195 472 151 _c
472 100 452 60 412 31 _c
372 1 316 -13 246 -13 _c
216 -13 186 -10 154 -5 _c
}_e{122 0 89 8 54 20 _c
54 113 _l
87 95 120 82 152 74 _c
184 65 216 61 248 61 _c
290 61 323 68 346 82 _c
368 96 380 117 380 144 _c
380 168 371 187 355 200 _c
339 213 303 226 247 238 _c
216 245 _l
160 257 119 275 95 299 _c
70 323 58 356 58 399 _c
58 450 76 490 112 518 _c
148 546 200 560 268 560 _c
301 560 332 557 362 552 _c
391 547 418 540 443 531 _c
}_e{_cl}_e}_d
/minus{838 0 106 272 732 355 _sc
106 355 _m
732 355 _l
732 272 _l
106 272 _l
106 355 _l
_cl}_d
end readonly def

/BuildGlyph
 {exch begin
 CharStrings exch
 2 copy known not{pop /.notdef}if
 true 3 1 roll get exec
 end}_d

/BuildChar {
 1 index /Encoding get exch get
 1 index /BuildGlyph get exec
}_d

FontName currentdict end definefont pop
%!PS-Adobe-3.0 Resource-Font
%%Title: cmsy10
%%Copyright: Copyright (C) 1994, Basil K. Malyshev. All Rights Reserved.012BaKoMa Fonts Collection, Level-B.
%%Creator: Converted from TrueType to type 3 by PPR
25 dict begin
/_d{bind def}bind def
/_m{moveto}_d
/_l{lineto}_d
/_cl{closepath eofill}_d
/_c{curveto}_d
/_sc{7 -1 roll{setcachedevice}{pop pop pop pop pop pop}ifelse}_d
/_e{exec}_d
/FontName /Cmsy10 def
/PaintType 0 def
/FontMatrix[.001 0 0 .001 0 0]def
/FontBBox[-29 -960 1123 779]def
/FontType 3 def
/Encoding [ /minus ] def
/FontInfo 10 dict dup begin
/FamilyName (cmsy10) def
/FullName (cmsy10) def
/Notice (Copyright (C) 1994, Basil K. Malyshev. All Rights Reserved.012BaKoMa Fonts Collection, Level-B. ) def
/Weight (Regular) def
/Version (1.1/12-Nov-94) def
/ItalicAngle 0.0 def
/isFixedPitch false def
/UnderlinePosition -133 def
/UnderlineThickness 20 def
end readonly def
/CharStrings 1 dict dup begin
/minus{777 0 83 230 694 270 _sc
102 230 _m
96 230 92 232 88 236 _c
84 240 83 245 83 250 _c
83 254 84 259 88 263 _c
92 267 96 270 102 270 _c
676 270 _l
681 270 685 267 689 263 _c
692 259 694 254 694 250 _c
694 245 692 240 689 236 _c
685 232 681 230 676 230 _c
102 230 _l
_cl}_d
end readonly def

/BuildGlyph
 {exch begin
 CharStrings exch
 2 copy known not{pop /.notdef}if
 true 3 1 roll get exec
 end}_d

/BuildChar {
 1 index /Encoding get exch get
 1 index /BuildGlyph get exec
}_d

FontName currentdict end definefont pop
%!PS-Adobe-3.0 Resource-Font
%%Title: cmr10
%%Copyright: Copyright (C) 1994, Basil K. Malyshev. All Rights Reserved.012BaKoMa Fonts Collection, Level-B.
%%Creator: Converted from TrueType to type 3 by PPR
25 dict begin
/_d{bind def}bind def
/_m{moveto}_d
/_l{lineto}_d
/_cl{closepath eofill}_d
/_c{curveto}_d
/_sc{7 -1 roll{setcachedevice}{pop pop pop pop pop pop}ifelse}_d
/_e{exec}_d
/FontName /Cmr10 def
/PaintType 0 def
/FontMatrix[.001 0 0 .001 0 0]def
/FontBBox[-44 -250 1009 750]def
/FontType 3 def
/Encoding [ /g /t /B /i /zero /two /S /H /L /s /one /R /G /a /n /K ] def
/FontInfo 10 dict dup begin
/FamilyName (cmr10) def
/FullName (cmr10) def
/Notice (Copyright (C) 1994, Basil K. Malyshev. All Rights Reserved.012BaKoMa Fonts Collection, Level-B. ) def
/Weight (Regular) def
/Version (1.1/12-Nov-94) def
/ItalicAngle 0.0 def
/isFixedPitch false def
/UnderlinePosition -133 def
/UnderlineThickness 20 def
end readonly def
/CharStrings 16 dict dup begin
/g{{500 0 28 -205 485 453 _sc
28 -77 _m
28 -53 36 -32 54 -15 _c
71 2 91 14 115 22 _c
101 32 91 44 84 60 _c
77 75 74 91 74 109 _c
74 140 84 168 104 192 _c
73 222 58 256 58 295 _c
58 315 62 335 71 353 _c
80 371 93 387 109 401 _c
125 414 142 424 162 431 _c
181 438 201 442 222 442 _c
262 442 297 430 329 407 _c
343 421 359 433 378 441 _c
}_e{396 449 416 453 436 453 _c
450 453 462 447 471 437 _c
480 427 485 415 485 401 _c
485 393 481 385 475 379 _c
469 373 462 370 454 370 _c
445 370 438 373 432 379 _c
426 385 423 393 423 401 _c
423 413 427 421 435 427 _c
400 427 370 415 346 391 _c
358 379 367 364 375 347 _c
382 329 386 312 386 295 _c
386 266 378 240 362 218 _c
346 196 326 178 301 166 _c
}_e{275 153 249 147 222 147 _c
185 147 152 157 122 177 _c
112 163 108 149 108 133 _c
108 115 113 99 125 86 _c
137 73 151 67 169 67 _c
251 67 _l
291 67 326 63 358 56 _c
390 48 416 34 438 13 _c
460 -7 471 -37 471 -77 _c
471 -106 458 -130 434 -150 _c
409 -169 379 -183 345 -192 _c
311 -200 279 -205 250 -205 _c
220 -205 188 -200 154 -192 _c
119 -183 89 -169 65 -150 _c
}_e{40 -130 28 -106 28 -77 _c
84 -77 _m
84 -99 93 -118 111 -133 _c
129 -148 151 -159 177 -167 _c
203 -174 227 -178 250 -178 _c
272 -178 296 -174 322 -167 _c
348 -159 370 -148 388 -133 _c
406 -118 415 -99 415 -77 _c
415 -42 399 -20 367 -10 _c
335 0 296 5 251 5 _c
169 5 _l
153 5 139 1 126 -5 _c
113 -12 103 -22 95 -36 _c
87 -49 84 -63 84 -77 _c
222 174 _m
}_e{278 174 307 214 307 295 _c
307 329 301 358 289 381 _c
277 403 254 415 222 415 _c
189 415 167 403 155 381 _c
143 358 137 329 137 295 _c
137 273 139 253 144 235 _c
148 217 157 202 169 191 _c
181 179 199 174 222 174 _c
_cl}_e}_d
/t{{388 0 19 -10 332 615 _sc
102 120 _m
102 396 _l
19 396 _l
19 422 _l
62 422 94 442 115 483 _c
135 523 146 567 146 615 _c
175 615 _l
175 431 _l
316 431 _l
316 396 _l
175 396 _l
175 122 _l
175 94 179 70 189 49 _c
198 28 215 18 239 18 _c
261 18 278 29 288 51 _c
298 73 303 96 303 122 _c
303 181 _l
332 181 _l
332 120 _l
332 99 328 78 320 58 _c
}_e{312 38 301 21 286 9 _c
271 -3 253 -10 232 -10 _c
192 -10 160 1 137 25 _c
113 49 102 80 102 120 _c
_cl}_e}_d
/B{{708 0 34 0 651 683 _sc
34 0 _m
34 35 _l
102 35 137 45 137 67 _c
137 616 _l
137 637 102 648 34 648 _c
34 683 _l
402 683 _l
436 683 470 676 504 663 _c
538 650 567 631 590 605 _c
612 579 624 548 624 513 _c
624 472 607 438 574 411 _c
540 383 501 365 457 357 _c
485 357 515 349 546 333 _c
576 317 601 295 621 269 _c
641 242 651 214 651 184 _c
651 147 640 115 618 87 _c
}_e{596 59 568 37 534 22 _c
499 7 464 0 430 0 _c
34 0 _l
224 67 _m
224 52 228 43 236 40 _c
244 36 257 35 275 35 _c
402 35 _l
428 35 452 41 474 55 _c
496 69 514 87 527 110 _c
540 133 547 158 547 184 _c
547 209 541 234 531 258 _c
520 282 505 302 485 318 _c
465 334 442 342 416 342 _c
224 342 _l
224 67 _l
224 368 _m
374 368 _l
}_e{394 368 413 371 431 379 _c
449 386 465 397 479 411 _c
493 425 503 440 511 458 _c
519 475 523 493 523 513 _c
523 530 520 547 514 563 _c
508 579 500 593 489 606 _c
478 619 465 629 450 637 _c
435 644 419 648 402 648 _c
275 648 _l
263 648 253 647 247 646 _c
240 645 234 642 230 638 _c
226 633 224 626 224 616 _c
224 368 _l
_cl}_e}_d
/i{{277 0 31 0 249 669 _sc
31 0 _m
31 35 _l
53 35 72 36 87 40 _c
101 44 109 53 109 67 _c
109 340 _l
109 365 104 381 94 387 _c
84 393 64 396 35 396 _c
35 431 _l
179 442 _l
179 67 _l
179 53 185 44 198 40 _c
210 36 227 35 249 35 _c
249 0 _l
31 0 _l
73 614 _m
73 628 78 641 89 652 _c
100 663 113 669 128 669 _c
137 669 146 666 155 661 _c
}_e{163 656 170 649 175 641 _c
180 632 183 623 183 614 _c
183 599 177 586 166 575 _c
155 564 142 559 128 559 _c
113 559 100 564 89 575 _c
78 586 73 599 73 614 _c
_cl}_e}_d
/zero{{500 0 39 -21 460 666 _sc
250 -21 _m
168 -21 112 12 83 79 _c
53 146 39 226 39 319 _c
39 377 44 431 55 482 _c
65 533 86 576 118 612 _c
149 648 193 666 250 666 _c
294 666 330 655 358 634 _c
386 612 407 585 422 551 _c
436 517 446 480 452 441 _c
457 402 460 361 460 319 _c
460 261 454 208 444 158 _c
433 108 412 65 381 31 _c
350 -3 306 -21 250 -21 _c
250 4 _m
}_e{287 4 315 23 333 61 _c
351 99 362 141 366 187 _c
370 233 373 283 373 335 _c
373 385 370 431 366 473 _c
362 515 351 554 333 588 _c
315 622 287 640 250 640 _c
212 640 184 622 166 588 _c
148 554 136 515 132 473 _c
128 431 126 385 126 335 _c
126 297 126 262 128 230 _c
130 197 135 163 143 128 _c
151 93 163 64 181 40 _c
198 16 221 4 250 4 _c
_cl}_e}_d
/two{{500 0 50 0 449 666 _sc
50 0 _m
50 27 _l
50 28 50 30 52 32 _c
207 204 _l
230 229 249 250 264 268 _c
278 285 293 305 307 327 _c
321 349 333 372 341 396 _c
349 419 354 444 354 470 _c
354 497 349 523 339 548 _c
329 573 314 593 294 608 _c
274 623 249 631 221 631 _c
192 631 166 622 143 605 _c
119 587 103 565 94 537 _c
96 537 100 538 105 538 _c
}_e{119 538 132 533 143 523 _c
153 513 159 500 159 484 _c
159 468 153 455 143 445 _c
132 434 119 429 105 429 _c
89 429 76 434 66 445 _c
55 456 50 469 50 484 _c
50 508 54 532 64 554 _c
73 576 86 595 104 613 _c
122 630 142 643 164 652 _c
186 661 210 666 236 666 _c
274 666 309 658 342 642 _c
375 626 401 603 420 573 _c
439 543 449 509 449 470 _c
}_e{449 441 442 414 430 388 _c
417 362 401 338 381 317 _c
361 295 336 271 305 244 _c
274 217 254 199 244 190 _c
131 81 _l
227 81 _l
274 81 313 81 345 82 _c
377 82 394 84 396 86 _c
404 94 412 125 420 178 _c
449 178 _l
421 0 _l
50 0 _l
_cl}_e}_d
/S{{555 0 56 -21 499 705 _sc
56 -13 _m
56 219 _l
56 224 59 227 65 227 _c
77 227 _l
79 227 80 226 82 224 _c
84 222 85 221 85 219 _c
85 153 105 103 146 67 _c
186 31 239 13 305 13 _c
328 13 349 19 369 33 _c
388 46 403 63 414 85 _c
425 107 431 129 431 153 _c
431 173 427 192 419 211 _c
411 230 399 247 384 261 _c
368 275 351 284 332 289 _c
202 321 _l
}_e{159 332 124 355 97 391 _c
69 426 56 466 56 510 _c
56 544 64 577 82 607 _c
100 637 123 660 153 678 _c
183 696 215 705 250 705 _c
316 705 369 682 409 637 _c
450 702 _l
452 704 454 705 457 705 _c
464 705 _l
466 705 467 704 469 703 _c
471 701 472 699 472 697 _c
472 465 _l
472 459 469 456 464 456 _c
452 456 _l
446 456 443 459 443 465 _c
443 481 440 500 434 520 _c
}_e{428 540 421 560 411 578 _c
401 596 390 612 378 624 _c
346 656 303 673 250 673 _c
227 673 206 667 187 655 _c
167 643 152 628 141 608 _c
129 588 124 568 124 546 _c
124 517 132 491 150 468 _c
168 444 191 429 220 422 _c
350 390 _l
371 384 391 375 410 362 _c
429 348 445 333 458 315 _c
471 297 481 277 488 255 _c
495 233 499 210 499 187 _c
499 151 490 117 474 85 _c
}_e{457 53 434 27 404 8 _c
374 -11 341 -21 305 -21 _c
283 -21 260 -18 237 -13 _c
214 -8 193 -1 173 8 _c
153 18 136 31 120 47 _c
78 -18 _l
76 -20 73 -21 71 -21 _c
65 -21 _l
59 -21 56 -18 56 -13 _c
_cl}_e}_d
/H{{750 0 31 0 718 683 _sc
31 0 _m
31 35 _l
99 35 134 45 134 67 _c
134 616 _l
134 637 99 648 31 648 _c
31 683 _l
330 683 _l
330 648 _l
261 648 227 637 227 616 _c
227 373 _l
522 373 _l
522 616 _l
522 637 487 648 419 648 _c
419 683 _l
718 683 _l
718 648 _l
649 648 615 637 615 616 _c
615 67 _l
615 45 649 35 718 35 _c
718 0 _l
419 0 _l
419 35 _l
}_e{487 35 522 45 522 67 _c
522 338 _l
227 338 _l
227 67 _l
227 45 261 35 330 35 _c
330 0 _l
31 0 _l
_cl}_e}_d
/L{625 0 31 0 582 683 _sc
31 0 _m
31 35 _l
99 35 134 45 134 67 _c
134 616 _l
134 637 99 648 31 648 _c
31 683 _l
355 683 _l
355 648 _l
269 648 227 637 227 616 _c
227 67 _l
227 52 231 43 239 40 _c
247 36 260 35 278 35 _c
355 35 _l
405 35 443 44 470 62 _c
497 80 516 105 527 137 _c
538 168 547 210 553 262 _c
582 262 _l
554 0 _l
31 0 _l
_cl}_d
/s{{394 0 33 -10 360 448 _sc
33 -2 _m
33 160 _l
33 165 36 168 42 168 _c
54 168 _l
58 168 60 165 62 160 _c
80 63 125 15 197 15 _c
228 15 254 22 276 36 _c
297 50 308 73 308 103 _c
308 124 299 142 283 158 _c
266 173 246 183 224 189 _c
157 202 _l
135 206 114 214 96 224 _c
77 234 62 248 50 265 _c
38 281 33 301 33 323 _c
33 352 40 376 56 395 _c
}_e{72 413 92 427 117 435 _c
141 443 168 448 197 448 _c
231 448 260 439 286 421 _c
315 446 _l
315 447 316 448 320 448 _c
327 448 _l
329 448 330 447 332 445 _c
334 443 335 442 335 440 _c
335 309 _l
335 303 332 300 327 300 _c
315 300 _l
309 300 306 303 306 309 _c
306 343 296 371 277 393 _c
257 414 230 425 196 425 _c
166 425 140 419 118 408 _c
96 397 85 378 85 351 _c
}_e{85 332 92 317 108 305 _c
124 293 142 285 164 280 _c
232 267 _l
254 261 275 252 295 240 _c
315 228 330 212 342 194 _c
354 175 360 154 360 130 _c
360 106 355 85 347 67 _c
339 49 327 35 313 23 _c
298 11 280 2 260 -2 _c
240 -7 219 -10 197 -10 _c
155 -10 119 3 90 31 _c
53 -8 _l
53 -9 51 -10 48 -10 _c
42 -10 _l
36 -10 33 -7 33 -2 _c
_cl}_e}_d
/one{500 0 87 0 421 666 _sc
93 0 _m
93 35 _l
176 35 218 45 218 67 _c
218 592 _l
183 575 139 567 87 567 _c
87 602 _l
168 602 230 623 272 666 _c
286 666 _l
288 666 291 665 293 663 _c
295 661 296 659 296 657 _c
296 67 _l
296 45 337 35 421 35 _c
421 0 _l
93 0 _l
_cl}_d
/R{{736 0 33 -21 732 683 _sc
33 0 _m
33 35 _l
101 35 136 45 136 67 _c
136 616 _l
136 637 101 648 33 648 _c
33 683 _l
347 683 _l
384 683 423 676 465 663 _c
506 649 540 629 568 601 _c
596 573 610 540 610 502 _c
610 474 601 449 585 427 _c
568 405 546 386 520 372 _c
494 357 467 346 440 340 _c
470 329 496 312 518 290 _c
540 267 554 241 559 212 _c
573 123 _l
}_e{579 83 586 53 593 33 _c
600 13 616 4 641 4 _c
661 4 677 13 687 33 _c
697 52 703 73 703 96 _c
703 98 704 100 706 102 _c
708 104 710 105 713 105 _c
722 105 _l
728 105 732 100 732 92 _c
732 73 728 55 721 38 _c
713 20 703 6 690 -4 _c
676 -15 660 -21 642 -21 _c
594 -21 552 -9 518 14 _c
483 38 466 73 466 119 _c
466 208 _l
466 241 454 269 431 293 _c
}_e{407 317 379 329 346 329 _c
226 329 _l
226 67 _l
226 45 260 35 329 35 _c
329 0 _l
33 0 _l
226 355 _m
333 355 _l
388 355 430 366 459 388 _c
488 410 503 448 503 502 _c
503 555 488 593 460 615 _c
431 637 389 648 333 648 _c
277 648 _l
265 648 255 647 249 646 _c
242 645 236 642 232 638 _c
228 633 226 626 226 616 _c
226 355 _l
_cl}_e}_d
/G{{784 0 56 -21 735 705 _sc
230 107 _m
254 77 283 54 318 38 _c
352 21 389 13 427 13 _c
463 13 497 22 527 41 _c
557 60 573 87 573 122 _c
573 206 _l
573 227 531 238 448 238 _c
448 273 _l
735 273 _l
735 238 _l
713 238 696 236 684 232 _c
672 228 666 220 666 206 _c
666 9 _l
666 6 665 4 663 2 _c
661 0 659 0 657 0 _c
651 0 640 7 626 22 _c
}_e{611 36 600 49 592 61 _c
575 33 549 12 515 -1 _c
480 -14 444 -21 406 -21 _c
341 -21 282 -4 229 28 _c
175 61 133 106 102 162 _c
71 218 56 278 56 342 _c
56 389 65 435 83 479 _c
101 523 126 563 158 597 _c
190 631 227 657 270 676 _c
312 695 358 705 406 705 _c
440 705 473 697 504 683 _c
534 668 562 647 586 620 _c
644 702 _l
648 704 650 705 651 705 _c
658 705 _l
}_e{660 705 661 704 663 702 _c
665 700 666 699 666 697 _c
666 427 _l
666 421 663 418 658 418 _c
640 418 _l
634 418 631 421 631 427 _c
631 446 627 467 619 491 _c
611 515 602 537 590 559 _c
578 580 564 599 549 615 _c
511 651 468 670 420 670 _c
382 670 347 661 313 645 _c
279 628 251 605 228 576 _c
203 544 186 509 177 469 _c
167 429 163 387 163 342 _c
163 239 185 161 230 107 _c
}_e{_cl}_e}_d
/a{{500 0 40 -10 493 448 _sc
40 98 _m
40 138 55 170 87 195 _c
118 219 155 237 199 247 _c
243 257 284 263 324 263 _c
324 304 _l
324 323 319 342 311 360 _c
303 378 291 392 275 404 _c
259 416 241 422 222 422 _c
178 422 144 412 121 392 _c
133 392 144 387 152 377 _c
160 367 165 356 165 344 _c
165 330 160 319 151 310 _c
141 300 130 296 117 296 _c
103 296 92 300 83 310 _c
}_e{73 319 69 330 69 344 _c
69 379 85 405 117 422 _c
149 439 184 448 222 448 _c
249 448 276 442 304 431 _c
331 419 353 403 371 381 _c
388 359 397 334 397 306 _c
397 81 _l
397 68 399 56 405 45 _c
411 34 419 29 431 29 _c
442 29 450 34 456 45 _c
461 56 464 68 464 81 _c
464 145 _l
493 145 _l
493 81 _l
493 66 489 52 481 38 _c
473 24 463 14 450 6 _c
}_e{436 -1 422 -5 407 -5 _c
387 -5 370 2 356 17 _c
342 32 334 50 333 71 _c
320 45 302 25 278 11 _c
254 -3 228 -10 201 -10 _c
175 -10 150 -6 126 0 _c
101 7 80 19 64 35 _c
48 51 40 72 40 98 _c
121 98 _m
121 74 129 55 147 39 _c
164 23 184 15 208 15 _c
229 15 248 20 266 31 _c
284 41 298 56 308 75 _c
318 93 324 113 324 134 _c
324 238 _l
}_e{294 238 263 233 231 223 _c
199 213 173 197 152 176 _c
131 155 121 129 121 98 _c
_cl}_e}_d
/n{{555 0 30 0 537 442 _sc
30 0 _m
30 35 _l
52 35 71 36 86 40 _c
100 44 108 53 108 67 _c
108 340 _l
108 358 105 371 100 379 _c
94 387 87 391 77 393 _c
67 395 51 396 30 396 _c
30 431 _l
175 442 _l
175 344 _l
188 372 208 396 234 414 _c
260 432 288 442 320 442 _c
366 442 400 430 424 408 _c
447 386 459 352 459 307 _c
459 67 _l
459 53 466 44 481 40 _c
}_e{495 36 514 35 537 35 _c
537 0 _l
308 0 _l
308 35 _l
330 35 349 36 364 40 _c
378 44 386 53 386 67 _c
386 304 _l
386 336 381 363 372 384 _c
362 405 343 416 314 416 _c
275 416 243 400 218 369 _c
193 338 181 303 181 264 _c
181 67 _l
181 53 188 44 203 40 _c
217 36 236 35 259 35 _c
259 0 _l
30 0 _l
_cl}_e}_d
/K{{777 0 31 0 736 683 _sc
31 0 _m
31 35 _l
99 35 134 45 134 67 _c
134 616 _l
134 637 99 648 31 648 _c
31 683 _l
330 683 _l
330 648 _l
261 648 227 637 227 616 _c
227 292 _l
536 589 _l
544 598 549 607 549 616 _c
549 626 544 634 535 640 _c
526 645 516 648 505 648 _c
505 683 _l
722 683 _l
722 648 _l
667 648 619 628 578 589 _c
401 419 _l
620 94 _l
}_e{638 68 653 51 667 45 _c
681 38 704 35 736 35 _c
736 0 _l
474 0 _l
474 35 _l
490 35 503 36 514 40 _c
525 43 531 51 531 63 _c
531 71 526 81 518 94 _c
339 360 _l
227 252 _l
227 67 _l
227 45 261 35 330 35 _c
330 0 _l
31 0 _l
_cl}_e}_d
end readonly def

/BuildGlyph
 {exch begin
 CharStrings exch
 2 copy known not{pop /.notdef}if
 true 3 1 roll get exec
 end}_d

/BuildChar {
 1 index /Encoding get exch get
 1 index /BuildGlyph get exec
}_d

FontName currentdict end definefont pop
%!PS-Adobe-3.0 Resource-Font
%%Title: cmmi10
%%Copyright: Copyright (C) 1994, Basil K. Malyshev. All Rights Reserved.012BaKoMa Fonts Collection, Level-B.
%%Creator: Converted from TrueType to type 3 by PPR
25 dict begin
/_d{bind def}bind def
/_m{moveto}_d
/_l{lineto}_d
/_cl{closepath eofill}_d
/_c{curveto}_d
/_sc{7 -1 roll{setcachedevice}{pop pop pop pop pop pop}ifelse}_d
/_e{exec}_d
/FontName /Cmmi10 def
/PaintType 0 def
/FontMatrix[.001 0 0 .001 0 0]def
/FontBBox[-34 -250 1048 750]def
/FontType 3 def
/Encoding [ /sigma /comma /v /less /greater ] def
/FontInfo 10 dict dup begin
/FamilyName (cmmi10) def
/FullName (cmmi10) def
/Notice (Copyright (C) 1994, Basil K. Malyshev. All Rights Reserved.012BaKoMa Fonts Collection, Level-B. ) def
/Weight (Regular) def
/Version (1.1/12-Nov-94) def
/ItalicAngle 0.0 def
/isFixedPitch false def
/UnderlinePosition -133 def
/UnderlineThickness 20 def
end readonly def
/CharStrings 5 dict dup begin
/sigma{{571 0 36 -10 568 431 _sc
187 -10 _m
157 -10 131 -3 108 10 _c
85 24 67 43 55 67 _c
42 91 36 118 36 147 _c
36 177 43 210 57 244 _c
71 278 90 310 114 338 _c
138 366 166 389 197 406 _c
227 422 259 431 291 431 _c
543 431 _l
549 431 555 428 560 424 _c
565 419 568 413 568 406 _c
568 396 564 387 557 380 _c
550 372 542 369 532 369 _c
410 369 _l
}_e{429 340 439 305 439 265 _c
439 231 432 198 419 166 _c
406 133 388 103 365 77 _c
342 50 315 29 284 13 _c
253 -2 221 -10 187 -10 _c
188 15 _m
224 15 257 29 285 58 _c
313 86 334 121 349 162 _c
364 203 372 241 372 277 _c
372 305 364 328 348 344 _c
332 360 310 369 282 369 _c
243 369 210 356 183 330 _c
156 304 136 271 122 232 _c
108 192 102 154 102 118 _c
}_e{102 89 109 65 124 45 _c
139 25 160 15 188 15 _c
_cl}_e}_d
/comma{277 0 84 -193 205 110 _sc
99 -179 _m
99 -176 100 -173 103 -171 _c
127 -147 145 -120 159 -90 _c
172 -60 179 -28 179 4 _c
179 16 _l
168 5 155 0 139 0 _c
123 0 110 5 100 16 _c
89 26 84 39 84 55 _c
84 71 89 84 100 94 _c
110 104 123 110 139 110 _c
163 110 180 99 190 77 _c
200 55 205 30 205 4 _c
205 -32 197 -67 183 -101 _c
168 -134 147 -164 120 -191 _c
117 -192 115 -193 114 -193 _c
110 -193 107 -191 104 -188 _c
100 -185 99 -182 99 -179 _c
_cl}_d
/v{{484 0 27 -10 467 443 _sc
107 113 _m
107 127 108 144 112 162 _c
116 180 119 194 123 206 _c
126 218 134 240 147 274 _c
160 307 167 324 167 326 _c
175 350 180 370 180 386 _c
180 406 172 416 158 416 _c
132 416 110 402 93 375 _c
75 347 63 317 55 284 _c
53 280 51 278 47 278 _c
35 278 _l
29 278 27 281 27 287 _c
27 290 _l
37 330 54 365 76 396 _c
}_e{98 426 126 442 160 442 _c
184 442 204 434 220 418 _c
236 402 245 383 245 359 _c
245 346 242 333 237 320 _c
223 286 213 258 206 238 _c
198 218 191 195 185 170 _c
179 144 176 121 176 100 _c
176 75 181 55 193 39 _c
204 23 222 15 247 15 _c
293 15 334 50 372 122 _c
384 145 395 172 405 203 _c
415 234 421 260 421 280 _c
421 300 417 315 411 327 _c
}_e{404 338 395 350 385 362 _c
375 374 370 383 370 391 _c
370 404 375 416 386 427 _c
396 437 408 443 422 443 _c
438 443 449 435 456 421 _c
463 406 467 389 467 371 _c
467 349 463 322 457 292 _c
451 261 442 229 431 196 _c
419 163 409 137 400 119 _c
356 33 304 -10 246 -10 _c
204 -10 170 0 145 21 _c
119 41 107 72 107 113 _c
_cl}_e}_d
/less{777 0 83 -39 694 540 _sc
93 233 _m
86 235 83 241 83 250 _c
83 258 87 265 96 269 _c
667 538 _l
669 539 672 540 674 540 _c
680 540 684 538 688 534 _c
692 530 694 525 694 520 _c
694 512 690 505 682 501 _c
150 250 _l
685 -2 _l
691 -4 694 -9 694 -19 _c
694 -24 692 -29 688 -33 _c
684 -37 680 -39 674 -39 _c
672 -39 669 -38 667 -37 _c
93 233 _l
_cl}_d
/greater{777 0 83 -39 694 540 _sc
83 -19 _m
83 -10 87 -4 96 0 _c
627 250 _l
93 503 _l
86 505 83 510 83 520 _c
83 524 84 529 88 533 _c
92 537 97 540 103 540 _c
104 540 107 539 111 538 _c
685 267 _l
691 264 694 258 694 250 _c
694 241 690 235 682 232 _c
111 -37 _l
107 -38 104 -39 103 -39 _c
97 -39 92 -36 88 -32 _c
84 -28 83 -23 83 -19 _c
_cl}_d
end readonly def

/BuildGlyph
 {exch begin
 CharStrings exch
 2 copy known not{pop /.notdef}if
 true 3 1 roll get exec
 end}_d

/BuildChar {
 1 index /Encoding get exch get
 1 index /BuildGlyph get exec
}_d

FontName currentdict end definefont pop
end
%%EndProlog
mpldict begin
46.8 86.4 translate
518.4 619.2 0 0 clipbox
gsave
0 0 m
518.4 0 l
518.4 619.2 l
0 619.2 l
cl
1.000 setgray
fill
grestore
gsave
62.208 61.92 m
502.848 61.92 l
502.848 557.28 l
62.208 557.28 l
cl
1.000 setgray
fill
grestore
1.000 setlinewidth
0 setlinejoin
0 setlinecap
[] 0 setdash
0.000 setgray
gsave
440.6 495.4 62.21 61.92 clipbox
62.208 61.92 m
62.208 61.92 l
82.2371 61.92 l
82.2371 61.92 l
102.266 61.92 l
102.266 92.88 l
122.295 92.88 l
122.295 185.76 l
142.324 185.76 l
142.324 185.76 l
162.353 185.76 l
162.353 216.72 l
182.383 216.72 l
182.383 232.2 l
202.412 232.2 l
202.412 216.72 l
222.441 216.72 l
222.441 185.76 l
242.47 185.76 l
242.47 417.96 l
262.499 417.96 l
262.499 294.12 l
282.528 294.12 l
282.528 232.2 l
302.557 232.2 l
302.557 232.2 l
322.586 232.2 l
322.586 247.68 l
342.615 247.68 l
342.615 263.16 l
362.644 263.16 l
362.644 294.12 l
382.673 294.12 l
382.673 278.64 l
402.703 278.64 l
402.703 108.36 l
422.732 108.36 l
422.732 108.36 l
442.761 108.36 l
442.761 77.4 l
462.79 77.4 l
462.79 61.92 l
482.819 61.92 l
482.819 61.92 l
502.848 61.92 l
502.848 61.92 l
482.819 61.92 l
482.819 61.92 l
462.79 61.92 l
462.79 61.92 l
442.761 61.92 l
442.761 61.92 l
422.732 61.92 l
422.732 61.92 l
402.703 61.92 l
402.703 61.92 l
382.673 61.92 l
382.673 61.92 l
362.644 61.92 l
362.644 61.92 l
342.615 61.92 l
342.615 61.92 l
322.586 61.92 l
322.586 61.92 l
302.557 61.92 l
302.557 61.92 l
282.528 61.92 l
282.528 61.92 l
262.499 61.92 l
262.499 61.92 l
242.47 61.92 l
242.47 61.92 l
222.441 61.92 l
222.441 61.92 l
202.412 61.92 l
202.412 61.92 l
182.383 61.92 l
182.383 61.92 l
162.353 61.92 l
162.353 61.92 l
142.324 61.92 l
142.324 61.92 l
122.295 61.92 l
122.295 61.92 l
102.266 61.92 l
102.266 61.92 l
82.2371 61.92 l
82.2371 61.92 l
cl
gsave
0.000 1.000 0.000 setrgbcolor
fill
grestore
stroke
grestore
gsave
440.6 495.4 62.21 61.92 clipbox
62.208 61.92 m
62.208 61.92 l
82.2371 61.92 l
82.2371 61.92 l
102.266 61.92 l
102.266 92.88 l
122.295 92.88 l
122.295 170.28 l
142.324 170.28 l
142.324 185.76 l
162.353 185.76 l
162.353 185.76 l
182.383 185.76 l
182.383 201.24 l
202.412 201.24 l
202.412 139.32 l
222.441 139.32 l
222.441 185.76 l
242.47 185.76 l
242.47 325.08 l
262.499 325.08 l
262.499 294.12 l
282.528 294.12 l
282.528 216.72 l
302.557 216.72 l
302.557 216.72 l
322.586 216.72 l
322.586 170.28 l
342.615 170.28 l
342.615 232.2 l
362.644 232.2 l
362.644 216.72 l
382.673 216.72 l
382.673 201.24 l
402.703 201.24 l
402.703 92.88 l
422.732 92.88 l
422.732 77.4 l
442.761 77.4 l
442.761 61.92 l
462.79 61.92 l
462.79 61.92 l
482.819 61.92 l
482.819 61.92 l
502.848 61.92 l
502.848 61.92 l
482.819 61.92 l
482.819 61.92 l
462.79 61.92 l
462.79 61.92 l
442.761 61.92 l
442.761 61.92 l
422.732 61.92 l
422.732 61.92 l
402.703 61.92 l
402.703 61.92 l
382.673 61.92 l
382.673 61.92 l
362.644 61.92 l
362.644 61.92 l
342.615 61.92 l
342.615 61.92 l
322.586 61.92 l
322.586 61.92 l
302.557 61.92 l
302.557 61.92 l
282.528 61.92 l
282.528 61.92 l
262.499 61.92 l
262.499 61.92 l
242.47 61.92 l
242.47 61.92 l
222.441 61.92 l
222.441 61.92 l
202.412 61.92 l
202.412 61.92 l
182.383 61.92 l
182.383 61.92 l
162.353 61.92 l
162.353 61.92 l
142.324 61.92 l
142.324 61.92 l
122.295 61.92 l
122.295 61.92 l
102.266 61.92 l
102.266 61.92 l
82.2371 61.92 l
82.2371 61.92 l
cl
gsave
1.000 0.000 1.000 setrgbcolor
fill
grestore
stroke
grestore
gsave
440.6 495.4 62.21 61.92 clipbox
62.208 61.92 m
62.208 61.92 l
82.2371 61.92 l
82.2371 61.92 l
102.266 61.92 l
102.266 77.4 l
122.295 77.4 l
122.295 154.8 l
142.324 154.8 l
142.324 154.8 l
162.353 154.8 l
162.353 170.28 l
182.383 170.28 l
182.383 170.28 l
202.412 170.28 l
202.412 123.84 l
222.441 123.84 l
222.441 185.76 l
242.47 185.76 l
242.47 309.6 l
262.499 309.6 l
262.499 294.12 l
282.528 294.12 l
282.528 201.24 l
302.557 201.24 l
302.557 170.28 l
322.586 170.28 l
322.586 139.32 l
342.615 139.32 l
342.615 201.24 l
362.644 201.24 l
362.644 154.8 l
382.673 154.8 l
382.673 185.76 l
402.703 185.76 l
402.703 77.4 l
422.732 77.4 l
422.732 77.4 l
442.761 77.4 l
442.761 61.92 l
462.79 61.92 l
462.79 61.92 l
482.819 61.92 l
482.819 61.92 l
502.848 61.92 l
502.848 61.92 l
482.819 61.92 l
482.819 61.92 l
462.79 61.92 l
462.79 61.92 l
442.761 61.92 l
442.761 61.92 l
422.732 61.92 l
422.732 61.92 l
402.703 61.92 l
402.703 61.92 l
382.673 61.92 l
382.673 61.92 l
362.644 61.92 l
362.644 61.92 l
342.615 61.92 l
342.615 61.92 l
322.586 61.92 l
322.586 61.92 l
302.557 61.92 l
302.557 61.92 l
282.528 61.92 l
282.528 61.92 l
262.499 61.92 l
262.499 61.92 l
242.47 61.92 l
242.47 61.92 l
222.441 61.92 l
222.441 61.92 l
202.412 61.92 l
202.412 61.92 l
182.383 61.92 l
182.383 61.92 l
162.353 61.92 l
162.353 61.92 l
142.324 61.92 l
142.324 61.92 l
122.295 61.92 l
122.295 61.92 l
102.266 61.92 l
102.266 61.92 l
82.2371 61.92 l
82.2371 61.92 l
cl
gsave
1.000 1.000 0.000 setrgbcolor
fill
grestore
stroke
grestore
gsave
440.6 495.4 62.21 61.92 clipbox
62.208 61.92 m
62.208 61.92 l
82.2371 61.92 l
82.2371 61.92 l
102.266 61.92 l
102.266 77.4 l
122.295 77.4 l
122.295 139.32 l
142.324 139.32 l
142.324 92.88 l
162.353 92.88 l
162.353 108.36 l
182.383 108.36 l
182.383 108.36 l
202.412 108.36 l
202.412 77.4 l
222.441 77.4 l
222.441 92.88 l
242.47 92.88 l
242.47 139.32 l
262.499 139.32 l
262.499 139.32 l
282.528 139.32 l
282.528 123.84 l
302.557 123.84 l
302.557 123.84 l
322.586 123.84 l
322.586 108.36 l
342.615 108.36 l
342.615 108.36 l
362.644 108.36 l
362.644 77.4 l
382.673 77.4 l
382.673 123.84 l
402.703 123.84 l
402.703 61.92 l
422.732 61.92 l
422.732 61.92 l
442.761 61.92 l
442.761 61.92 l
462.79 61.92 l
462.79 61.92 l
482.819 61.92 l
482.819 61.92 l
502.848 61.92 l
502.848 61.92 l
482.819 61.92 l
482.819 61.92 l
462.79 61.92 l
462.79 61.92 l
442.761 61.92 l
442.761 61.92 l
422.732 61.92 l
422.732 61.92 l
402.703 61.92 l
402.703 61.92 l
382.673 61.92 l
382.673 61.92 l
362.644 61.92 l
362.644 61.92 l
342.615 61.92 l
342.615 61.92 l
322.586 61.92 l
322.586 61.92 l
302.557 61.92 l
302.557 61.92 l
282.528 61.92 l
282.528 61.92 l
262.499 61.92 l
262.499 61.92 l
242.47 61.92 l
242.47 61.92 l
222.441 61.92 l
222.441 61.92 l
202.412 61.92 l
202.412 61.92 l
182.383 61.92 l
182.383 61.92 l
162.353 61.92 l
162.353 61.92 l
142.324 61.92 l
142.324 61.92 l
122.295 61.92 l
122.295 61.92 l
102.266 61.92 l
102.266 61.92 l
82.2371 61.92 l
82.2371 61.92 l
cl
gsave
0.000 0.749 1.000 setrgbcolor
fill
grestore
stroke
grestore
2.000 setlinewidth
1 setlinejoin
[6 6] 0 setdash
gsave
440.6 495.4 62.21 61.92 clipbox
62.208 62.2726 m
70.8048 62.6019 l
76.7564 63.0424 l
81.165 63.5766 l
84.9123 64.2487 l
87.9983 65.0141 l
90.8639 65.9517 l
93.5091 67.062 l
95.9338 68.3327 l
98.1381 69.7376 l
100.342 71.4193 l
102.326 73.2027 l
104.31 75.2734 l
106.294 77.6623 l
108.278 80.4003 l
110.262 83.5168 l
112.246 87.0392 l
114.23 90.9911 l
116.434 95.9092 l
118.638 101.399 l
120.842 107.467 l
123.267 114.799 l
125.912 123.55 l
128.778 133.829 l
132.084 146.54 l
136.934 166.202 l
143.106 191.152 l
146.192 202.728 l
148.617 211.061 l
150.821 217.893 l
152.805 223.338 l
154.568 227.559 l
156.111 230.74 l
157.654 233.422 l
158.977 235.313 l
160.299 236.821 l
161.402 237.786 l
162.504 238.485 l
163.606 238.923 l
164.708 239.104 l
165.81 239.035 l
166.912 238.724 l
168.015 238.181 l
169.337 237.239 l
170.66 236.001 l
172.203 234.215 l
173.966 231.778 l
175.95 228.613 l
178.375 224.283 l
181.902 217.459 l
187.192 207.223 l
189.837 202.587 l
192.041 199.15 l
194.025 196.463 l
195.789 194.437 l
197.332 192.966 l
198.875 191.789 l
200.418 190.915 l
201.74 190.409 l
203.063 190.129 l
204.385 190.072 l
205.708 190.236 l
207.031 190.616 l
208.353 191.205 l
209.896 192.148 l
211.439 193.352 l
213.203 195.029 l
214.966 197.003 l
216.95 199.549 l
219.154 202.735 l
221.799 206.984 l
224.885 212.416 l
228.633 219.51 l
234.144 230.498 l
243.402 248.97 l
247.81 257.231 l
251.558 263.785 l
254.864 269.131 l
257.95 273.7 l
260.816 277.542 l
263.461 280.723 l
265.886 283.313 l
268.31 285.577 l
270.515 287.343 l
272.719 288.824 l
274.703 289.909 l
276.687 290.754 l
278.67 291.357 l
280.654 291.717 l
282.638 291.832 l
284.622 291.704 l
286.606 291.334 l
288.59 290.724 l
290.574 289.878 l
292.558 288.801 l
294.762 287.34 l
296.966 285.614 l
299.391 283.423 l
302.036 280.71 l
304.902 277.431 l
308.208 273.28 l
312.176 267.919 l
322.757 253.419 l
325.622 249.999 l
327.826 247.684 l
329.81 245.895 l
331.574 244.578 l
333.337 243.552 l
334.88 242.914 l
336.423 242.539 l
337.746 242.437 l
339.068 242.546 l
340.391 242.871 l
341.714 243.418 l
343.036 244.187 l
344.579 245.364 l
346.122 246.835 l
347.886 248.862 l
349.649 251.232 l
351.633 254.262 l
354.058 258.393 l
357.364 264.515 l
362.654 274.336 l
364.859 277.973 l
366.622 280.511 l
368.165 282.385 l
369.488 283.689 l
370.81 284.676 l
371.912 285.235 l
373.015 285.537 l
374.117 285.566 l
374.998 285.384 l
375.88 285.013 l
376.982 284.277 l
378.084 283.231 l
379.187 281.869 l
380.509 279.813 l
381.832 277.296 l
383.154 274.323 l
384.697 270.288 l
386.461 264.959 l
388.224 258.907 l
390.208 251.308 l
392.412 242 l
395.058 229.848 l
398.585 212.471 l
409.826 156.073 l
412.912 142.174 l
415.558 131.225 l
417.982 122.057 l
420.407 113.759 l
422.611 106.976 l
424.816 100.905 l
427.02 95.5207 l
429.004 91.2299 l
430.988 87.4311 l
432.972 84.0877 l
434.955 81.1608 l
436.939 78.6109 l
438.923 76.3989 l
441.128 74.2913 l
443.332 72.505 l
445.536 70.9949 l
447.961 69.604 l
450.606 68.3552 l
453.472 67.2586 l
456.558 66.3135 l
460.085 65.4634 l
464.273 64.69 l
469.343 63.996 l
475.515 63.3927 l
483.009 62.8919 l
492.488 62.4886 l
502.848 62.2293 l
502.848 62.2293 l
stroke
grestore
3.000 setlinewidth
2 setlinecap
[] 0 setdash
1.000 0.000 0.000 setrgbcolor
gsave
440.6 495.4 62.21 61.92 clipbox
62.208 61.9634 m
72.7887 62.1475 l
78.9607 62.4678 l
83.3693 62.9067 l
86.8962 63.4629 l
89.9822 64.1626 l
92.8478 65.0484 l
95.2725 66.0216 l
97.6973 67.2445 l
99.9016 68.6121 l
102.106 70.2623 l
104.09 72.0216 l
106.074 74.0711 l
108.057 76.4397 l
110.041 79.1552 l
112.025 82.2431 l
114.009 85.7257 l
116.213 90.0794 l
118.418 94.9574 l
120.622 100.364 l
123.047 106.911 l
125.692 114.729 l
128.557 123.909 l
132.084 136.004 l
144.208 178.417 l
146.633 185.717 l
148.617 191.073 l
150.38 195.282 l
152.144 198.909 l
153.687 201.56 l
155.009 203.421 l
156.332 204.883 l
157.434 205.789 l
158.536 206.405 l
159.638 206.726 l
160.52 206.769 l
161.402 206.622 l
162.283 206.287 l
163.385 205.603 l
164.488 204.629 l
165.59 203.372 l
166.912 201.501 l
168.235 199.248 l
169.778 196.164 l
171.541 192.083 l
173.525 186.853 l
175.73 180.363 l
178.375 171.823 l
181.902 159.576 l
192.041 123.783 l
195.127 113.936 l
197.773 106.183 l
200.197 99.7026 l
202.622 93.8524 l
204.826 89.0891 l
207.031 84.8477 l
209.235 81.1105 l
211.219 78.1566 l
213.203 75.5665 l
215.187 73.3136 l
217.17 71.3698 l
219.375 69.5368 l
221.579 68.0092 l
223.783 66.7483 l
226.208 65.6254 l
228.853 64.6648 l
231.719 63.8768 l
234.805 63.2583 l
238.552 62.7457 l
242.961 62.3738 l
248.912 62.1121 l
257.95 61.9664 l
278.67 61.9211 l
502.848 61.92 l
502.848 61.92 l
stroke
grestore
0.000 0.502 0.000 setrgbcolor
gsave
440.6 495.4 62.21 61.92 clipbox
62.208 62.2291 m
75.2134 62.5794 l
85.1327 63.0592 l
93.2887 63.6704 l
100.342 64.421 l
106.514 65.2999 l
112.025 66.3039 l
117.095 67.4485 l
121.724 68.711 l
126.133 70.1359 l
130.321 71.7174 l
134.289 73.4447 l
138.256 75.4184 l
142.004 77.5303 l
145.751 79.9038 l
149.278 82.3946 l
152.805 85.1516 l
156.332 88.1907 l
159.859 91.5268 l
163.385 95.1737 l
166.912 99.1435 l
170.439 103.446 l
173.966 108.09 l
177.713 113.402 l
181.461 119.106 l
185.428 125.571 l
189.396 132.463 l
193.584 140.184 l
197.993 148.776 l
202.842 158.728 l
208.133 170.095 l
214.525 184.374 l
226.208 211.162 l
233.923 228.559 l
239.213 239.97 l
243.622 248.981 l
247.59 256.597 l
251.117 262.902 l
254.423 268.362 l
257.509 273.024 l
260.375 276.946 l
263.02 280.198 l
265.445 282.852 l
267.869 285.18 l
270.074 287.005 l
272.278 288.545 l
274.262 289.681 l
276.246 290.579 l
278.23 291.233 l
280.213 291.643 l
282.197 291.808 l
284.181 291.726 l
286.165 291.397 l
288.149 290.824 l
290.133 290.007 l
292.117 288.95 l
294.101 287.656 l
296.305 285.944 l
298.509 283.951 l
300.934 281.444 l
303.359 278.618 l
306.004 275.186 l
308.869 271.079 l
311.955 266.233 l
315.262 260.593 l
318.789 254.116 l
322.757 246.333 l
327.165 237.171 l
332.455 225.627 l
339.509 209.647 l
355.601 173.008 l
361.552 160.122 l
366.622 149.66 l
371.251 140.602 l
375.66 132.463 l
379.848 125.2 l
383.816 118.76 l
387.563 113.079 l
391.31 107.789 l
395.058 102.89 l
398.585 98.6293 l
402.111 94.7004 l
405.638 91.0931 l
409.165 87.7949 l
412.692 84.7919 l
416.219 82.069 l
419.966 79.465 l
423.714 77.1392 l
427.461 75.0713 l
431.429 73.1403 l
435.396 71.4519 l
439.585 69.9072 l
443.993 68.5167 l
448.622 67.2858 l
453.692 66.171 l
459.203 65.1942 l
465.154 64.3668 l
471.988 63.6506 l
479.703 63.0728 l
488.961 62.613 l
500.423 62.2773 l
502.848 62.2291 l
502.848 62.2291 l
stroke
grestore
0.000 0.000 1.000 setrgbcolor
gsave
440.6 495.4 62.21 61.92 clipbox
62.208 61.92 m
292.117 62.0296 l
299.611 62.2772 l
304.461 62.6458 l
308.208 63.1379 l
311.294 63.7488 l
314.16 64.5455 l
316.584 65.4429 l
318.789 66.4786 l
320.993 67.7655 l
322.977 69.175 l
324.961 70.8585 l
326.945 72.852 l
328.929 75.1922 l
330.912 77.9152 l
332.896 81.0556 l
334.88 84.645 l
336.864 88.7099 l
338.848 93.2705 l
341.052 98.9334 l
343.257 105.224 l
345.681 112.849 l
348.326 121.95 l
351.412 133.45 l
355.38 149.219 l
363.095 180.135 l
365.74 189.769 l
367.945 197.039 l
369.929 202.836 l
371.692 207.297 l
373.235 210.606 l
374.558 212.967 l
375.88 214.865 l
376.982 216.079 l
378.084 216.95 l
378.966 217.397 l
379.848 217.618 l
380.73 217.614 l
381.611 217.383 l
382.493 216.928 l
383.375 216.249 l
384.477 215.092 l
385.579 213.599 l
386.902 211.379 l
388.224 208.71 l
389.767 205.064 l
391.531 200.253 l
393.515 194.112 l
395.719 186.529 l
398.364 176.618 l
402.332 160.758 l
409.386 132.467 l
412.472 121.038 l
415.117 112.012 l
417.542 104.463 l
419.966 97.6574 l
422.171 92.1304 l
424.375 87.2275 l
426.359 83.3322 l
428.343 79.9037 l
430.326 76.9135 l
432.31 74.329 l
434.294 72.1147 l
436.278 70.2342 l
438.262 68.6509 l
440.246 67.3292 l
442.45 66.1262 l
444.875 65.0763 l
447.52 64.1987 l
450.386 63.4976 l
453.692 62.9327 l
457.66 62.4991 l
462.73 62.1916 l
469.783 62.0075 l
483.009 61.9281 l
502.848 61.9201 l
502.848 61.9201 l
stroke
grestore
1.000 setlinewidth
0 setlinejoin
0.000 setgray
gsave
62.208 557.28 m
502.848 557.28 l
stroke
grestore
gsave
502.848 61.92 m
502.848 557.28 l
stroke
grestore
gsave
62.208 61.92 m
502.848 61.92 l
stroke
grestore
gsave
62.208 61.92 m
62.208 557.28 l
stroke
grestore
0.500 setlinewidth
1 setlinejoin
0 setlinecap
gsave
/o {
gsave
newpath
translate
0.5 setlinewidth
1 setlinejoin
0 setlinecap
0 0 m
0 4 l
gsave
0.000 setgray
fill
grestore
stroke
grestore
} bind def
62.208 61.92 o
grestore
gsave
/o {
gsave
newpath
translate
0.5 setlinewidth
1 setlinejoin
0 setlinecap
0 0 m
0 -4 l
gsave
0.000 setgray
fill
grestore
stroke
grestore
} bind def
62.208 557.28 o
grestore
/BitstreamVeraSans-Roman findfont
20.000 scalefont
setfont
gsave
36.473625 42.716875 translate
0.000000 rotate
0.000000 0.000000 m /minus glyphshow
16.757812 0.000000 m /four glyphshow
29.482422 0.000000 m /zero glyphshow
42.207031 0.000000 m /zero glyphshow
grestore
gsave
/o {
gsave
newpath
translate
0.5 setlinewidth
1 setlinejoin
0 setlinecap
0 0 m
0 4 l
gsave
0.000 setgray
fill
grestore
stroke
grestore
} bind def
117.288 61.92 o
grestore
gsave
/o {
gsave
newpath
translate
0.5 setlinewidth
1 setlinejoin
0 setlinecap
0 0 m
0 -4 l
gsave
0.000 setgray
fill
grestore
stroke
grestore
} bind def
117.288 557.28 o
grestore
gsave
91.553625 42.716875 translate
0.000000 rotate
0.000000 0.000000 m /minus glyphshow
16.757812 0.000000 m /three glyphshow
29.482422 0.000000 m /zero glyphshow
42.207031 0.000000 m /zero glyphshow
grestore
gsave
/o {
gsave
newpath
translate
0.5 setlinewidth
1 setlinejoin
0 setlinecap
0 0 m
0 4 l
gsave
0.000 setgray
fill
grestore
stroke
grestore
} bind def
172.368 61.92 o
grestore
gsave
/o {
gsave
newpath
translate
0.5 setlinewidth
1 setlinejoin
0 setlinecap
0 0 m
0 -4 l
gsave
0.000 setgray
fill
grestore
stroke
grestore
} bind def
172.368 557.28 o
grestore
gsave
146.633625 42.716875 translate
0.000000 rotate
0.000000 0.000000 m /minus glyphshow
16.757812 0.000000 m /two glyphshow
29.482422 0.000000 m /zero glyphshow
42.207031 0.000000 m /zero glyphshow
grestore
gsave
/o {
gsave
newpath
translate
0.5 setlinewidth
1 setlinejoin
0 setlinecap
0 0 m
0 4 l
gsave
0.000 setgray
fill
grestore
stroke
grestore
} bind def
227.448 61.92 o
grestore
gsave
/o {
gsave
newpath
translate
0.5 setlinewidth
1 setlinejoin
0 setlinecap
0 0 m
0 -4 l
gsave
0.000 setgray
fill
grestore
stroke
grestore
} bind def
227.448 557.28 o
grestore
gsave
201.713625 42.716875 translate
0.000000 rotate
0.000000 0.000000 m /minus glyphshow
16.757812 0.000000 m /one glyphshow
29.482422 0.000000 m /zero glyphshow
42.207031 0.000000 m /zero glyphshow
grestore
gsave
/o {
gsave
newpath
translate
0.5 setlinewidth
1 setlinejoin
0 setlinecap
0 0 m
0 4 l
gsave
0.000 setgray
fill
grestore
stroke
grestore
} bind def
282.528 61.92 o
grestore
gsave
/o {
gsave
newpath
translate
0.5 setlinewidth
1 setlinejoin
0 setlinecap
0 0 m
0 -4 l
gsave
0.000 setgray
fill
grestore
stroke
grestore
} bind def
282.528 557.28 o
grestore
gsave
277.488938 42.716875 translate
0.000000 rotate
0.000000 0.000000 m /zero glyphshow
grestore
gsave
/o {
gsave
newpath
translate
0.5 setlinewidth
1 setlinejoin
0 setlinecap
0 0 m
0 4 l
gsave
0.000 setgray
fill
grestore
stroke
grestore
} bind def
337.608 61.92 o
grestore
gsave
/o {
gsave
newpath
translate
0.5 setlinewidth
1 setlinejoin
0 setlinecap
0 0 m
0 -4 l
gsave
0.000 setgray
fill
grestore
stroke
grestore
} bind def
337.608 557.28 o
grestore
gsave
320.295500 42.716875 translate
0.000000 rotate
0.000000 0.000000 m /one glyphshow
12.724609 0.000000 m /zero glyphshow
25.449219 0.000000 m /zero glyphshow
grestore
gsave
/o {
gsave
newpath
translate
0.5 setlinewidth
1 setlinejoin
0 setlinecap
0 0 m
0 4 l
gsave
0.000 setgray
fill
grestore
stroke
grestore
} bind def
392.688 61.92 o
grestore
gsave
/o {
gsave
newpath
translate
0.5 setlinewidth
1 setlinejoin
0 setlinecap
0 0 m
0 -4 l
gsave
0.000 setgray
fill
grestore
stroke
grestore
} bind def
392.688 557.28 o
grestore
gsave
375.008312 42.716875 translate
0.000000 rotate
0.000000 0.000000 m /two glyphshow
12.724609 0.000000 m /zero glyphshow
25.449219 0.000000 m /zero glyphshow
grestore
gsave
/o {
gsave
newpath
translate
0.5 setlinewidth
1 setlinejoin
0 setlinecap
0 0 m
0 4 l
gsave
0.000 setgray
fill
grestore
stroke
grestore
} bind def
447.768 61.92 o
grestore
gsave
/o {
gsave
newpath
translate
0.5 setlinewidth
1 setlinejoin
0 setlinecap
0 0 m
0 -4 l
gsave
0.000 setgray
fill
grestore
stroke
grestore
} bind def
447.768 557.28 o
grestore
gsave
430.119563 42.716875 translate
0.000000 rotate
0.000000 0.000000 m /three glyphshow
12.724609 0.000000 m /zero glyphshow
25.449219 0.000000 m /zero glyphshow
grestore
gsave
/o {
gsave
newpath
translate
0.5 setlinewidth
1 setlinejoin
0 setlinecap
0 0 m
0 4 l
gsave
0.000 setgray
fill
grestore
stroke
grestore
} bind def
502.848 61.92 o
grestore
gsave
/o {
gsave
newpath
translate
0.5 setlinewidth
1 setlinejoin
0 setlinecap
0 0 m
0 -4 l
gsave
0.000 setgray
fill
grestore
stroke
grestore
} bind def
502.848 557.28 o
grestore
gsave
484.926125 42.716875 translate
0.000000 rotate
0.000000 0.000000 m /four glyphshow
12.724609 0.000000 m /zero glyphshow
25.449219 0.000000 m /zero glyphshow
grestore
gsave
211.528000 13.560625 translate
0.000000 rotate
/Cmmi10 findfont
26.0 scalefont
setfont
0.000000 0.250000 moveto
/v glyphshow

/Cmr10 findfont
18.2 scalefont
setfont
12.581055 -6.382437 moveto
/G glyphshow

26.853125 -6.382437 moveto
/S glyphshow

36.957324 -6.382437 moveto
/R glyphshow

/BitstreamVeraSans-Roman findfont
26.0 scalefont
setfont
50.349609 0.250000 moveto
/space glyphshow

58.614258 0.250000 moveto
/parenleft glyphshow

68.757812 0.250000 moveto
/k glyphshow

83.814453 0.250000 moveto
/m glyphshow

109.141602 0.250000 moveto
/slash glyphshow

117.401367 0.250000 moveto
/s glyphshow

130.947266 0.250000 moveto
/parenright glyphshow


grestore
gsave
/o {
gsave
newpath
translate
0.5 setlinewidth
1 setlinejoin
0 setlinecap
0 0 m
4 0 l
gsave
0.000 setgray
fill
grestore
stroke
grestore
} bind def
62.208 61.92 o
grestore
gsave
/o {
gsave
newpath
translate
0.5 setlinewidth
1 setlinejoin
0 setlinecap
0 0 m
-4 0 l
gsave
0.000 setgray
fill
grestore
stroke
grestore
} bind def
502.848 61.92 o
grestore
gsave
48.129875 56.396562 translate
0.000000 rotate
0.000000 0.000000 m /zero glyphshow
grestore
gsave
/o {
gsave
newpath
translate
0.5 setlinewidth
1 setlinejoin
0 setlinecap
0 0 m
4 0 l
gsave
0.000 setgray
fill
grestore
stroke
grestore
} bind def
62.208 139.32 o
grestore
gsave
/o {
gsave
newpath
translate
0.5 setlinewidth
1 setlinejoin
0 setlinecap
0 0 m
-4 0 l
gsave
0.000 setgray
fill
grestore
stroke
grestore
} bind def
502.848 139.32 o
grestore
gsave
48.770500 133.796562 translate
0.000000 rotate
0.000000 0.000000 m /five glyphshow
grestore
gsave
/o {
gsave
newpath
translate
0.5 setlinewidth
1 setlinejoin
0 setlinecap
0 0 m
4 0 l
gsave
0.000 setgray
fill
grestore
stroke
grestore
} bind def
62.208 216.72 o
grestore
gsave
/o {
gsave
newpath
translate
0.5 setlinewidth
1 setlinejoin
0 setlinecap
0 0 m
-4 0 l
gsave
0.000 setgray
fill
grestore
stroke
grestore
} bind def
502.848 216.72 o
grestore
gsave
36.301750 211.196562 translate
0.000000 rotate
0.000000 0.000000 m /one glyphshow
12.724609 0.000000 m /zero glyphshow
grestore
gsave
/o {
gsave
newpath
translate
0.5 setlinewidth
1 setlinejoin
0 setlinecap
0 0 m
4 0 l
gsave
0.000 setgray
fill
grestore
stroke
grestore
} bind def
62.208 294.12 o
grestore
gsave
/o {
gsave
newpath
translate
0.5 setlinewidth
1 setlinejoin
0 setlinecap
0 0 m
-4 0 l
gsave
0.000 setgray
fill
grestore
stroke
grestore
} bind def
502.848 294.12 o
grestore
gsave
36.708000 288.596563 translate
0.000000 rotate
0.000000 0.000000 m /one glyphshow
12.724609 0.000000 m /five glyphshow
grestore
gsave
/o {
gsave
newpath
translate
0.5 setlinewidth
1 setlinejoin
0 setlinecap
0 0 m
4 0 l
gsave
0.000 setgray
fill
grestore
stroke
grestore
} bind def
62.208 371.52 o
grestore
gsave
/o {
gsave
newpath
translate
0.5 setlinewidth
1 setlinejoin
0 setlinecap
0 0 m
-4 0 l
gsave
0.000 setgray
fill
grestore
stroke
grestore
} bind def
502.848 371.52 o
grestore
gsave
35.567375 365.996562 translate
0.000000 rotate
0.000000 0.000000 m /two glyphshow
12.724609 0.000000 m /zero glyphshow
grestore
gsave
/o {
gsave
newpath
translate
0.5 setlinewidth
1 setlinejoin
0 setlinecap
0 0 m
4 0 l
gsave
0.000 setgray
fill
grestore
stroke
grestore
} bind def
62.208 448.92 o
grestore
gsave
/o {
gsave
newpath
translate
0.5 setlinewidth
1 setlinejoin
0 setlinecap
0 0 m
-4 0 l
gsave
0.000 setgray
fill
grestore
stroke
grestore
} bind def
502.848 448.92 o
grestore
gsave
35.973625 443.396562 translate
0.000000 rotate
0.000000 0.000000 m /two glyphshow
12.724609 0.000000 m /five glyphshow
grestore
gsave
/o {
gsave
newpath
translate
0.5 setlinewidth
1 setlinejoin
0 setlinecap
0 0 m
4 0 l
gsave
0.000 setgray
fill
grestore
stroke
grestore
} bind def
62.208 526.32 o
grestore
gsave
/o {
gsave
newpath
translate
0.5 setlinewidth
1 setlinejoin
0 setlinecap
0 0 m
-4 0 l
gsave
0.000 setgray
fill
grestore
stroke
grestore
} bind def
502.848 526.32 o
grestore
gsave
35.629875 520.796563 translate
0.000000 rotate
0.000000 0.000000 m /three glyphshow
12.724609 0.000000 m /zero glyphshow
grestore
/BitstreamVeraSans-Roman findfont
26.000 scalefont
setfont
gsave
25.161125 302.420312 translate
90.000000 rotate
0.000000 0.000000 m /N glyphshow
grestore
gsave
147.528000 562.280000 translate
0.000000 rotate
/Cmr10 findfont
22.0 scalefont
setfont
0.000000 0.484375 moveto
/R glyphshow

16.188477 0.484375 moveto
/R glyphshow

32.376953 0.484375 moveto
/L glyphshow

/Cmmi10 findfont
22.0 scalefont
setfont
46.126953 0.484375 moveto
/comma glyphshow

/BitstreamVeraSans-Roman findfont
22.0 scalefont
setfont
52.646094 0.484375 moveto
/space glyphshow

59.639258 0.484375 moveto
/space glyphshow

/Cmr10 findfont
22.0 scalefont
setfont
66.632422 0.484375 moveto
/B glyphshow

82.208594 0.484375 moveto
/H glyphshow

98.708594 0.484375 moveto
/B glyphshow

114.284766 0.484375 moveto
/s glyphshow

/BitstreamVeraSans-Roman findfont
22.0 scalefont
setfont
122.953711 0.484375 moveto
/comma glyphshow

129.946875 0.484375 moveto
/space glyphshow

/Cmr10 findfont
22.0 scalefont
setfont
136.940039 0.484375 moveto
/B glyphshow

152.516211 0.484375 moveto
/S glyphshow

/Cmmi10 findfont
22.0 scalefont
setfont
164.730078 0.484375 moveto
/comma glyphshow

/BitstreamVeraSans-Roman findfont
22.0 scalefont
setfont
171.249219 0.484375 moveto
/space glyphshow

/Cmr10 findfont
22.0 scalefont
setfont
178.242383 0.484375 moveto
/K glyphshow

/Cmsy10 findfont
22.0 scalefont
setfont
195.333203 0.484375 moveto
/minus glyphshow

/Cmr10 findfont
22.0 scalefont
setfont
212.424023 0.484375 moveto
/g glyphshow

223.424023 0.484375 moveto
/i glyphshow

229.514844 0.484375 moveto
/a glyphshow

240.514844 0.484375 moveto
/n glyphshow

252.728711 0.484375 moveto
/t glyphshow

261.268750 0.484375 moveto
/s glyphshow


grestore
3.000 setlinewidth
2 setlinecap
1.000 0.000 0.000 setrgbcolor
gsave
81.108 529.73 m
123.108 529.73 l
stroke
grestore
0.000 setgray
gsave
139.908000 522.380000 translate
0.000000 rotate
/BitstreamVeraSans-Roman findfont
21.0 scalefont
setfont
0.000000 0.046875 moveto
/f glyphshow

/Cmr10 findfont
14.7 scalefont
setfont
7.393066 -5.310094 moveto
/zero glyphshow

/BitstreamVeraSans-Roman findfont
21.0 scalefont
setfont
14.743066 0.046875 moveto
/space glyphshow

21.418359 0.046875 moveto
/equal glyphshow

39.014063 0.046875 moveto
/space glyphshow

45.689355 0.046875 moveto
/zero glyphshow

59.050195 0.046875 moveto
/period glyphshow

65.725488 0.046875 moveto
/one glyphshow

79.086328 0.046875 moveto
/seven glyphshow

92.447168 0.046875 moveto
/comma glyphshow

99.122461 0.046875 moveto
/space glyphshow

/Cmmi10 findfont
21.0 scalefont
setfont
109.485059 0.046875 moveto
/less glyphshow

125.984863 0.046875 moveto
/v glyphshow

/Cmr10 findfont
14.7 scalefont
setfont
136.146484 -5.310094 moveto
/G glyphshow

147.673926 -5.310094 moveto
/S glyphshow

155.835010 -5.310094 moveto
/R glyphshow

/Cmr10 findfont
10.29 scalefont
setfont
166.651855 -9.059972 moveto
/zero glyphshow

/Cmmi10 findfont
21.0 scalefont
setfont
175.484160 0.046875 moveto
/greater glyphshow

/BitstreamVeraSans-Roman findfont
21.0 scalefont
setfont
191.983965 0.046875 moveto
/space glyphshow

198.659258 0.046875 moveto
/equal glyphshow

216.254961 0.046875 moveto
/space glyphshow

222.930254 0.046875 moveto
/hyphen glyphshow

230.507891 0.046875 moveto
/two glyphshow

243.868730 0.046875 moveto
/two glyphshow

257.229570 0.046875 moveto
/two glyphshow

270.590410 0.046875 moveto
/comma glyphshow

277.265703 0.046875 moveto
/space glyphshow

/Cmmi10 findfont
21.0 scalefont
setfont
283.940996 0.046875 moveto
/sigma glyphshow

/Cmr10 findfont
14.7 scalefont
setfont
295.927812 -5.310094 moveto
/zero glyphshow

/BitstreamVeraSans-Roman findfont
21.0 scalefont
setfont
303.277812 0.046875 moveto
/space glyphshow

309.953105 0.046875 moveto
/equal glyphshow

327.548809 0.046875 moveto
/space glyphshow

334.224102 0.046875 moveto
/four glyphshow

347.584941 0.046875 moveto
/four glyphshow


grestore
0.000 0.502 0.000 setrgbcolor
gsave
81.108 493.23 m
123.108 493.23 l
stroke
grestore
0.000 setgray
gsave
139.908000 485.880000 translate
0.000000 rotate
/BitstreamVeraSans-Roman findfont
21.0 scalefont
setfont
0.000000 0.046875 moveto
/f glyphshow

/Cmr10 findfont
14.7 scalefont
setfont
7.393066 -5.310094 moveto
/one glyphshow

/BitstreamVeraSans-Roman findfont
21.0 scalefont
setfont
14.743066 0.046875 moveto
/space glyphshow

21.418359 0.046875 moveto
/equal glyphshow

39.014063 0.046875 moveto
/space glyphshow

45.689355 0.046875 moveto
/zero glyphshow

59.050195 0.046875 moveto
/period glyphshow

65.725488 0.046875 moveto
/six glyphshow

79.086328 0.046875 moveto
/six glyphshow

92.447168 0.046875 moveto
/comma glyphshow

99.122461 0.046875 moveto
/space glyphshow

/Cmmi10 findfont
21.0 scalefont
setfont
109.485059 0.046875 moveto
/less glyphshow

125.984863 0.046875 moveto
/v glyphshow

/Cmr10 findfont
14.7 scalefont
setfont
136.146484 -5.310094 moveto
/G glyphshow

147.673926 -5.310094 moveto
/S glyphshow

155.835010 -5.310094 moveto
/R glyphshow

/Cmr10 findfont
10.29 scalefont
setfont
166.651855 -9.059972 moveto
/one glyphshow

/Cmmi10 findfont
21.0 scalefont
setfont
175.484160 0.046875 moveto
/greater glyphshow

/BitstreamVeraSans-Roman findfont
21.0 scalefont
setfont
191.983965 0.046875 moveto
/space glyphshow

198.659258 0.046875 moveto
/equal glyphshow

216.254961 0.046875 moveto
/space glyphshow

222.930254 0.046875 moveto
/zero glyphshow

236.291094 0.046875 moveto
/comma glyphshow

242.966387 0.046875 moveto
/space glyphshow

/Cmmi10 findfont
21.0 scalefont
setfont
249.641680 0.046875 moveto
/sigma glyphshow

/Cmr10 findfont
14.7 scalefont
setfont
261.628496 -5.310094 moveto
/one glyphshow

/BitstreamVeraSans-Roman findfont
21.0 scalefont
setfont
268.978496 0.046875 moveto
/space glyphshow

275.653789 0.046875 moveto
/equal glyphshow

293.249492 0.046875 moveto
/space glyphshow

299.924785 0.046875 moveto
/one glyphshow

313.285625 0.046875 moveto
/one glyphshow

326.646465 0.046875 moveto
/zero glyphshow


grestore
0.000 0.000 1.000 setrgbcolor
gsave
81.108 456.73 m
123.108 456.73 l
stroke
grestore
0.000 setgray
gsave
139.908000 449.380000 translate
0.000000 rotate
/BitstreamVeraSans-Roman findfont
21.0 scalefont
setfont
0.000000 0.046875 moveto
/f glyphshow

/Cmr10 findfont
14.7 scalefont
setfont
7.393066 -5.310094 moveto
/two glyphshow

/BitstreamVeraSans-Roman findfont
21.0 scalefont
setfont
14.743066 0.046875 moveto
/space glyphshow

21.418359 0.046875 moveto
/equal glyphshow

39.014063 0.046875 moveto
/space glyphshow

45.689355 0.046875 moveto
/zero glyphshow

59.050195 0.046875 moveto
/period glyphshow

65.725488 0.046875 moveto
/one glyphshow

79.086328 0.046875 moveto
/seven glyphshow

92.447168 0.046875 moveto
/comma glyphshow

99.122461 0.046875 moveto
/space glyphshow

/Cmmi10 findfont
21.0 scalefont
setfont
109.485059 0.046875 moveto
/less glyphshow

125.984863 0.046875 moveto
/v glyphshow

/Cmr10 findfont
14.7 scalefont
setfont
136.146484 -5.310094 moveto
/G glyphshow

147.673926 -5.310094 moveto
/S glyphshow

155.835010 -5.310094 moveto
/R glyphshow

/Cmr10 findfont
10.29 scalefont
setfont
166.651855 -9.059972 moveto
/two glyphshow

/Cmmi10 findfont
21.0 scalefont
setfont
175.484160 0.046875 moveto
/greater glyphshow

/BitstreamVeraSans-Roman findfont
21.0 scalefont
setfont
191.983965 0.046875 moveto
/space glyphshow

198.659258 0.046875 moveto
/equal glyphshow

216.254961 0.046875 moveto
/space glyphshow

222.930254 0.046875 moveto
/one glyphshow

236.291094 0.046875 moveto
/seven glyphshow

249.276934 0.046875 moveto
/seven glyphshow

262.637773 0.046875 moveto
/comma glyphshow

269.313066 0.046875 moveto
/space glyphshow

/Cmmi10 findfont
21.0 scalefont
setfont
275.988359 0.046875 moveto
/sigma glyphshow

/Cmr10 findfont
14.7 scalefont
setfont
287.975176 -5.310094 moveto
/two glyphshow

/BitstreamVeraSans-Roman findfont
21.0 scalefont
setfont
295.325176 0.046875 moveto
/space glyphshow

302.000469 0.046875 moveto
/equal glyphshow

319.596172 0.046875 moveto
/space glyphshow

326.271465 0.046875 moveto
/four glyphshow

339.632305 0.046875 moveto
/two glyphshow


grestore

end
showpage
